<?xml version="1.0" encoding="UTF-8"?>
<svg width="16px" height="16px" viewBox="0 0 16 16" version="1.1" xmlns="http://www.w3.org/2000/svg" xmlns:xlink="http://www.w3.org/1999/xlink">
    <!-- Generator: Sketch 51.1 (57501) - http://www.bohemiancoding.com/sketch -->
    <title>ico/circle_Blu</title>
    <desc>Created with Sketch.</desc>
    <defs></defs>
    <g id="Symbols" stroke="none" stroke-width="1" fill="none" fill-rule="evenodd">
        <g id="last/rejected" transform="translate(-234.000000, -38.000000)" fill="#808080">
            <g id="last-Copy">
                <g id="sx" transform="translate(32.000000, 32.000000)">
                    <g id="Stacked-Group-2" transform="translate(78.000000, 0.000000)">
                        <g id="Stacked-Group">
                            <g id="Group-4">
                                <g id="ico/circle_Blu" transform="translate(124.000000, 6.000000)">
                                    <path d="M8,16 C3.581722,16 0,12.418278 0,8 C0,3.581722 3.581722,0 8,0 C12.418278,0 16,3.581722 16,8 C16,12.418278 12.418278,16 8,16 Z M12,7.86903551 C11.9880215,7.72634743 11.9344258,7.55757335 11.8588711,7.46580997 L9.27822756,4.239997 C9.02663633,3.95368105 8.63485809,3.9280015 8.37093137,4.1391433 C8.10700466,4.35028295 8.05900039,4.78254073 8.2701637,5.04644809 L10.010754,7.22386604 L3.97849421,7.22386604 C3.62219336,7.22386604 3.33333333,7.51273467 3.33333333,7.86903551 C3.33333333,8.22535787 3.62219336,8.51419639 3.97849421,8.51419639 L10.010754,8.51419639 L8.2701637,10.6916143 C8.05900039,10.9555066 8.11511864,11.378001 8.37093137,11.5989041 C8.64889248,11.8389254 9.06711372,11.7620007 9.27822756,11.4980654 L11.8588711,8.27226106 C11.9680817,8.13858373 11.9980925,8.04043325 12,7.86903551 Z" id="ico/circle"></path>
                                </g>
                            </g>
                        </g>
                    </g>
                </g>
            </g>
        </g>
    </g>
</svg>