<?xml version="1.0" encoding="UTF-8"?>
<svg width="24px" height="21px" viewBox="0 0 24 21" version="1.1" xmlns="http://www.w3.org/2000/svg" xmlns:xlink="http://www.w3.org/1999/xlink">
    <!-- Generator: Sketch 51.1 (57501) - http://www.bohemiancoding.com/sketch -->
    <title>ico/table</title>
    <desc>Created with Sketch.</desc>
    <defs>
        <path d="M11,14 L11,19 L17,19 L17,14 L11,14 Z M10,14 L4,14 L4,13 L10,13 L10,10 L11,10 L11,13 L17,13 L17,10 L18,10 L18,13 L25,13 L25,14 L18,14 L18,19 L25,19 L25,20 L18,20 L18,24 L17,24 L17,20 L11,20 L11,24 L10,24 L10,20 L4,20 L4,19 L10,19 L10,14 Z M3,25 C2.26640907,25 2,24.7339051 2,24 L2,5 C2,4.26609491 2.26640907,4 3,4 L25,4 C25.7335909,4 26,4.26609491 26,5 L26,24 C26,24.7339051 25.7335909,25 25,25 L3,25 Z M25,8 L25,5 L3,5 L3,24 L25,24 L25,9 L4,9 L4,8 L25,8 Z" id="path-1"></path>
    </defs>
    <g id="Banker" stroke="none" stroke-width="1" fill="none" fill-rule="evenodd">
        <g id="2_Account_Opening_Banker" transform="translate(-1277.000000, -616.000000)">
            <g id="Compare-all-Bar" transform="translate(519.000000, 596.000000)">
                <g id="Group-9" transform="translate(705.000000, 0.000000)">
                    <g id="Group-13">
                        <g id="ico/table" transform="translate(51.000000, 16.000000)">
                            <mask id="mask-2" fill="white">
                                <use xlink:href="#path-1"></use>
                            </mask>
                            <use id="Mask" fill="#505050" fill-rule="nonzero" xlink:href="#path-1"></use>
                            <g id="Color/Gray-20" mask="url(#mask-2)" fill="#F1F2F6" fill-rule="evenodd">
                                <rect id="Swatch" x="0" y="0" width="28" height="29"></rect>
                            </g>
                        </g>
                    </g>
                </g>
            </g>
        </g>
    </g>
</svg>