<?xml version="1.0" encoding="UTF-8"?>
<svg width="16px" height="16px" viewBox="0 0 16 16" version="1.1" xmlns="http://www.w3.org/2000/svg" xmlns:xlink="http://www.w3.org/1999/xlink">
    <!-- Generator: Sketch 49.3 (51167) - http://www.bohemiancoding.com/sketch -->
    <title>ico/ic_info</title>
    <desc>Created with Sketch.</desc>
    <defs></defs>
    <g id="Page-1" stroke="none" stroke-width="1" fill="none" fill-rule="evenodd">
        <g id="06_config" transform="translate(-813.000000, -670.000000)">
            <g id="Stacked-Group" transform="translate(260.000000, 471.000000)">
                <g id="box1">
                    <g id="info" transform="translate(534.000000, 188.000000)">
                        <g id="ico/ic_info" transform="translate(19.000000, 11.000000)">
                            <rect id="Rectangle" fill="#FFFFFF" opacity="0" x="0" y="0" width="16" height="16"></rect>
                            <path d="M8.0003,6.7729 C7.7263,6.7729 7.5483,6.9729 7.5483,7.2819 L7.5483,10.5649 C7.5483,10.8749 7.7263,11.0739 8.0003,11.0739 C8.2743,11.0739 8.4523,10.8749 8.4523,10.5649 L8.4523,7.2819 C8.4523,6.9729 8.2743,6.7729 8.0003,6.7729 M8.0003,11.3349 C7.5803,11.3349 7.2873,11.0189 7.2873,10.5649 L7.2873,7.2819 C7.2873,6.8289 7.5803,6.5119 8.0003,6.5119 C8.4203,6.5119 8.7133,6.8289 8.7133,7.2819 L8.7133,10.5649 C8.7133,11.0189 8.4203,11.3349 8.0003,11.3349" id="Fill-3" fill="#808080"></path>
                            <g id="Group" stroke-width="1" transform="translate(7.000000, 4.000000)" fill="#808080">
                                <path d="M1.0003,2.6426 C0.6513,2.6426 0.4183,2.8996 0.4183,3.2816 L0.4183,6.5656 C0.4183,6.9476 0.6513,7.2046 1.0003,7.2046 C1.3493,7.2046 1.5823,6.9476 1.5823,6.5656 L1.5823,3.2816 C1.5823,2.8996 1.3493,2.6426 1.0003,2.6426" id="Fill-1"></path>
                                <path d="M1.0003,1.7651 C1.3643,1.7651 1.6613,1.4671 1.6613,1.1001 C1.6613,0.7651 1.3523,0.4701 1.0003,0.4701 C0.6543,0.4701 0.3393,0.7701 0.3393,1.1001 C0.3393,1.4541 0.6483,1.7651 1.0003,1.7651" id="Fill-5"></path>
                            </g>
                            <path d="M8.0003,4.6001 C7.7283,4.6001 7.4703,4.8431 7.4703,5.1001 C7.4703,5.3801 7.7233,5.6351 8.0003,5.6351 C8.2923,5.6351 8.5303,5.3951 8.5303,5.1001 C8.5303,4.8391 8.2773,4.6001 8.0003,4.6001 M8.0003,5.8951 C7.5783,5.8951 7.2093,5.5241 7.2093,5.1001 C7.2093,4.7021 7.5863,4.3391 8.0003,4.3391 C8.4223,4.3391 8.7913,4.6951 8.7913,5.1001 C8.7913,5.5381 8.4373,5.8951 8.0003,5.8951" id="Fill-7" fill="#808080"></path>
                            <path d="M8.0003,14.9922 C4.1453,14.9922 1.0083,11.8552 1.0083,8.0002 C1.0083,4.1442 4.1453,1.0082 8.0003,1.0082 C11.8543,1.0082 14.9913,4.1442 14.9913,8.0002 C14.9913,11.8552 11.8543,14.9922 8.0003,14.9922 M15.8703,8.0002 C15.8703,3.6602 12.3393,0.1302 8.0003,0.1302 C3.6603,0.1302 0.1303,3.6602 0.1303,8.0002 C0.1303,12.3392 3.6603,15.8692 8.0003,15.8692 C12.3393,15.8692 15.8703,12.3392 15.8703,8.0002" id="Fill-9" fill="#808080"></path>
                            <path d="M8.0003,1.1382 C4.2163,1.1382 1.1393,4.2162 1.1393,8.0002 C1.1393,11.7842 4.2163,14.8622 8.0003,14.8622 C11.7833,14.8622 14.8613,11.7842 14.8613,8.0002 C14.8613,4.2162 11.7833,1.1382 8.0003,1.1382 M8.0003,15.1222 C4.0723,15.1222 0.8773,11.9272 0.8773,8.0002 C0.8773,4.0732 4.0723,0.8772 8.0003,0.8772 C11.9273,0.8772 15.1223,4.0732 15.1223,8.0002 C15.1223,11.9272 11.9273,15.1222 8.0003,15.1222 M8.0003,0.2612 C3.7323,0.2612 0.2613,3.7322 0.2613,8.0002 C0.2613,12.2672 3.7323,15.7392 8.0003,15.7392 C12.2683,15.7392 15.7393,12.2672 15.7393,8.0002 C15.7393,3.7322 12.2683,0.2612 8.0003,0.2612 M8.0003,16.0002 C3.5893,16.0002 0.0003,12.4112 0.0003,8.0002 C0.0003,3.5892 3.5893,0.0002 8.0003,0.0002 C12.4113,0.0002 16.0003,3.5892 16.0003,8.0002 C16.0003,12.4112 12.4113,16.0002 8.0003,16.0002" id="Fill-11" fill="#808080"></path>
                        </g>
                    </g>
                </g>
            </g>
        </g>
    </g>
</svg>