<?xml version="1.0" encoding="UTF-8"?>
<svg width="24px" height="20px" viewBox="0 0 24 20" version="1.1" xmlns="http://www.w3.org/2000/svg" xmlns:xlink="http://www.w3.org/1999/xlink">
    <!-- Generator: Sketch 50.2 (55047) - http://www.bohemiancoding.com/sketch -->
    <title>ico/help</title>
    <desc>Created with Sketch.</desc>
    <defs></defs>
    <g id="Page-1" stroke="none" stroke-width="1" fill="none" fill-rule="evenodd">
        <g id="9_pal_danube" transform="translate(-205.000000, -727.000000)" fill="#262626">
            <g id="Stacked-Group" transform="translate(205.000000, 725.000000)">
                <g id="ico/help">
                    <g id="Group" transform="translate(0.000000, 2.000000)">
                        <path d="M23,15 L23,1 L1,1 L1,15 L7.5,15 C7.77614237,15 8,15.2238576 8,15.5 L8,18.2928932 L11.1464466,15.1464466 C11.2402148,15.0526784 11.3673918,15 11.5,15 L23,15 Z M7,16 L0.5,16 C0.223857625,16 0,15.7761424 0,15.5 L0,0.5 C0,0.223857625 0.223857625,0 0.5,0 L23.5,0 C23.7761424,0 24,0.223857625 24,0.5 L24,15.5 C24,15.7761424 23.7761424,16 23.5,16 L11.7071068,16 L7.85355339,19.8535534 C7.53857096,20.1685358 7,19.9454524 7,19.5 L7,16 Z" id="Stroke-133" fill-rule="nonzero"></path>
                        <path d="M7,5.5 C7,5.77614237 6.77614237,6 6.5,6 C6.22385763,6 6,5.77614237 6,5.5 C6,4.11985763 7.11985763,3 8.5,3 C9.88014237,3 11,4.11985763 11,5.5 C11,5.77614237 10.7761424,6 10.5,6 C10.2238576,6 10,5.77614237 10,5.5 C10,4.67214237 9.32785763,4 8.5,4 C7.67214237,4 7,4.67214237 7,5.5 Z" id="Stroke-134" fill-rule="nonzero"></path>
                        <path d="M18,5.5 C18,5.77614237 17.7761424,6 17.5,6 C17.2238576,6 17,5.77614237 17,5.5 C17,4.67214237 16.3278576,4 15.5,4 C14.6721424,4 14,4.67214237 14,5.5 C14,5.77614237 13.7761424,6 13.5,6 C13.2238576,6 13,5.77614237 13,5.5 C13,4.11985763 14.1198576,3 15.5,3 C16.8801424,3 18,4.11985763 18,5.5 Z" id="Stroke-135" fill-rule="nonzero"></path>
                        <path d="M5,8 C5,7.72385763 5.22385763,7.5 5.5,7.5 C5.77614237,7.5 6,7.72385763 6,8 C6,10.1994956 7.80078034,12 10,12 L14,12 C16.1992197,12 18,10.1994956 18,8 C18,7.72385763 18.2238576,7.5 18.5,7.5 C18.7761424,7.5 19,7.72385763 19,8 C19,10.7518147 16.7514701,13 14,13 L10,13 C7.2485299,13 5,10.7518147 5,8 Z" id="Stroke-136" fill-rule="nonzero"></path>
                    </g>
                </g>
            </g>
        </g>
    </g>
</svg>