<?xml version="1.0" encoding="UTF-8"?>
<svg width="7px" height="7px" viewBox="0 0 7 7" version="1.1" xmlns="http://www.w3.org/2000/svg" xmlns:xlink="http://www.w3.org/1999/xlink">
    <!-- Generator: Sketch 51.1 (57501) - http://www.bohemiancoding.com/sketch -->
    <title>hover</title>
    <desc>Created with Sketch.</desc>
    <defs></defs>
    <g id="Symbols" stroke="none" stroke-width="1" fill="none" fill-rule="evenodd">
        <g id="notification/start_hover" transform="translate(-271.000000, -16.000000)" fill="#4D4D4D">
            <g id="notifica">
                <g id="hover" transform="translate(270.000000, 15.000000)">
                    <rect id="Rectangle-3" transform="translate(4.500000, 4.500000) rotate(-315.000000) translate(-4.500000, -4.500000) " x="0" y="4" width="9" height="1"></rect>
                    <rect id="Rectangle-3" transform="translate(4.500000, 4.500000) rotate(-225.000000) translate(-4.500000, -4.500000) " x="0" y="4" width="9" height="1"></rect>
                </g>
            </g>
        </g>
    </g>
</svg>