<?xml version="1.0" encoding="UTF-8"?>
<svg width="48px" height="48px" viewBox="0 0 48 48" version="1.1" xmlns="http://www.w3.org/2000/svg" xmlns:xlink="http://www.w3.org/1999/xlink">
    <!-- Generator: Sketch 49.3 (51167) - http://www.bohemiancoding.com/sketch -->
    <title>status/attend</title>
    <desc>Created with Sketch.</desc>
    <defs></defs>
    <g id="Page-1" stroke="none" stroke-width="1" fill="none" fill-rule="evenodd">
        <g id="06_config" transform="translate(-292.000000, -1216.000000)">
            <g id="Stacked-Group" transform="translate(260.000000, 471.000000)">
                <g id="box2" transform="translate(0.000000, 713.000000)">
                    <g id="Stacked-Group" transform="translate(32.000000, 32.000000)">
                        <g id="status/disable">
                            <g id="Group-3">
                                <circle id="Oval-6" fill="#DEDFE3" cx="24" cy="24" r="24"></circle>
                                <g id="ico/attend" transform="translate(12.000000, 12.000000)" fill="#4D4D4D" fill-rule="nonzero">
                                    <path d="M7,13.1472672 L7,4.5 C7,3.39585763 7.89585763,2.5 9,2.5 C10.1048486,2.5 11,3.39556369 11,4.5 L11,10.5 L10,10.5 L10,4.5 C10,3.94774538 9.55246076,3.5 9,3.5 C8.44814237,3.5 8,3.94814237 8,4.5 L8,14.5 C8,14.9643346 7.42219654,15.1779036 7.1201989,14.825194 L4.51945882,11.7783591 C4.24056015,11.5403889 3.82551469,11.5561748 3.56798168,11.8131246 C3.32738508,12.0543052 3.29500192,12.4335517 3.53404149,12.7842187 C3.56789262,12.8549767 3.63243894,12.9886266 3.72398479,13.1761651 C3.87681957,13.4892585 4.04927668,13.8382654 4.23765395,14.2141721 C4.7757204,15.2878833 5.33322579,16.3614451 5.88030616,17.3623797 C6.09636725,17.7576836 6.30691567,18.1343887 6.51082468,18.4897958 C6.81355194,19.0174401 7.0989984,19.4935394 7.36395102,19.9107514 C8.19056255,21.2109987 9.62571597,22 11.165,22 L14.5,22 C16.9862185,22 19,19.9864968 19,17.5 L19,11 L20,11 L20,17.5 C20,20.5388124 17.5384724,23 14.5,23 L11.165,23 C9.2835026,23 7.53009218,22.0360312 6.51991932,20.4470446 C6.24615627,20.0159592 5.95317436,19.5272915 5.6434441,18.9874412 C5.43594831,18.6257825 5.22206159,18.2431046 5.00282221,17.8419857 C4.44940945,16.8294654 3.88663331,15.745754 3.34363041,14.6621921 C3.15363341,14.2830532 2.9796445,13.9309463 2.82533658,13.6148351 C2.73259681,13.4248508 2.66691099,13.2888415 2.67463473,13.2885096 C2.19744212,12.6130768 2.27607061,11.6922405 2.86084633,11.1060473 C3.48848085,10.4798296 4.49343505,10.441607 5.2238011,11.072806 L7,13.1472672 Z" id="Stroke-297"></path>
                                    <path d="M11,8.5 L10,8.5 L10,2.5 C10,1.39585763 10.8958576,0.5 12,0.5 C13.1048486,0.5 14,1.39556369 14,2.5 L14,8.5 L13,8.5 L13,2.5 C13,1.94774538 12.5524608,1.5 12,1.5 C11.4481424,1.5 11,1.94814237 11,2.5 L11,8.5 Z" id="Stroke-298"></path>
                                    <path d="M14,10.5 L13,10.5 L13,4.5 C13,3.39585763 13.8958576,2.5 15,2.5 C16.1048486,2.5 17,3.39556369 17,4.5 L17,10.5 L16,10.5 L16,4.5 C16,3.94774538 15.5524608,3.5 15,3.5 C14.4481424,3.5 14,3.94814237 14,4.5 L14,10.5 Z" id="Stroke-299"></path>
                                    <path d="M17,12 L16,12 L16,7.5 C16,6.39585763 16.8958576,5.5 18,5.5 C19.1048486,5.5 20,6.39556369 20,7.5 L20,13.5 L19,13.5 L19,7.5 C19,6.94774538 18.5524608,6.5 18,6.5 C17.4481424,6.5 17,6.94814237 17,7.5 L17,12 Z" id="Stroke-300"></path>
                                </g>
                            </g>
                        </g>
                    </g>
                </g>
            </g>
        </g>
    </g>
</svg>