<?xml version="1.0" encoding="UTF-8"?>
<svg width="226px" height="20px" viewBox="0 0 226 20" version="1.1" xmlns="http://www.w3.org/2000/svg" xmlns:xlink="http://www.w3.org/1999/xlink">
    <!-- Generator: Sketch 51 (57462) - http://www.bohemiancoding.com/sketch -->
    <title>Group</title>
    <desc>Created with Sketch.</desc>
    <defs>
        <polygon id="path-1" points="0 19.8999355 176.730638 19.8999355 176.730638 -6.4516129e-05 0 -6.4516129e-05"></polygon>
    </defs>
    <g id="Symbols" stroke="none" stroke-width="1" fill="none" fill-rule="evenodd">
        <g id="footer" transform="translate(-608.000000, -15.000000)">
            <g id="Group" transform="translate(607.000000, 15.000000)">
                <g id="logo/intesa" transform="translate(50.000000, 0.000000)">
                    <path d="M148.567299,16.3016774 C145.460145,16.3016774 143.598105,13.2410323 143.598105,9.38232258 C143.598105,4.7636129 145.718243,3.57748387 147.579961,3.57748387 C150.236248,3.57748387 152.323239,6.15490323 152.323239,10.3100645 C152.323239,15.6703871 149.700421,16.3016774 148.567299,16.3016774 M148.068481,2.61619355 C142.955756,2.61619355 141.030639,6.75619355 141.030639,9.95941935 C141.030639,13.2755484 143.008212,17.3032903 147.897917,17.3032903 C152.22605,17.3032903 154.953137,13.9123226 154.953137,9.62264516 C154.953137,5.33232258 152.311654,2.61619355 148.068481,2.61619355" id="Fill-1" fill="#B3B3B3" fill-rule="evenodd"></path>
                    <path d="M94.8057698,17.3377742 C95.9437189,17.3377742 97.1395953,17.1690645 98.1945153,16.5684194 C99.7128535,15.6861613 100.145377,14.3919677 100.11223,13.3039032 C100.059773,11.5203548 99.0775844,10.2642258 96.4512262,8.52003226 L95.8397716,8.12648387 C94.0227862,6.94325806 93.5101298,6.28648387 93.485028,5.4226129 C93.4512371,4.29777419 94.3925553,3.49132258 95.9797625,3.49132258 C97.3735571,3.49132258 98.0120444,4.05358065 98.3448044,4.41067742 C98.809188,4.89777419 98.9343753,5.4793871 98.940168,5.64745161 C98.9469262,5.87293548 99.0141862,5.98616129 99.1647971,5.98616129 C99.3353607,5.98616129 99.3958625,5.83680645 99.3833116,5.4226129 C99.3395444,3.96003226 99.4090571,3.41583871 99.4019771,3.17067742 C99.3974716,3.04067742 99.2886971,2.98358065 99.0949625,2.94616129 C98.5337116,2.81551613 97.6274716,2.62841935 96.232068,2.62841935 C93.251388,2.62841935 91.3227316,4.1093871 91.3835553,6.17422581 C91.4292535,7.69390323 92.2833589,9.00712903 94.6918462,10.6206774 L95.6984935,11.2964839 C97.5148353,12.4961613 97.8630425,13.3793871 97.8897535,14.2984194 C97.9196825,15.2929355 97.0105462,16.4368065 95.0802807,16.4368065 C93.750528,16.4368065 92.4696916,15.9303548 91.9567135,14.5419677 C91.8386062,14.2229355 91.7423825,13.8297097 91.7336935,13.584871 C91.7298316,13.434871 91.7037644,13.2661613 91.5106735,13.2661613 C91.3391444,13.2661613 91.2812171,13.4726129 91.2680225,13.7535806 C91.2554716,14.0542258 91.2030153,15.1806774 91.2339098,16.2122903 C91.2458171,16.6235806 91.3130771,16.7193871 91.6603189,16.8493871 C92.5935916,17.2058387 93.5625862,17.3377742 94.8057698,17.3377742" id="Fill-3" fill="#B3B3B3" fill-rule="evenodd"></path>
                    <path d="M136.940684,11.2950323 L133.936511,11.2785806 C133.903364,11.2785806 133.836426,11.2385806 133.898859,11.1489032 C134.186242,10.7314839 135.97169,8.15470968 136.740835,7.05083871 C136.791682,6.97793548 136.862161,7.00212903 136.864735,7.07470968 C136.888228,7.62664516 137.070377,11.1827742 137.070377,11.1827742 C137.070377,11.2379355 137.03369,11.2950323 136.940684,11.2950323 M106.013635,11.3027742 L102.816371,11.3027742 C102.740744,11.3027742 102.701161,11.2501935 102.692471,11.1756774 L102.82667,7.46696774 C102.829566,7.40116129 102.821199,7.31148387 102.877517,7.3043871 C102.933835,7.29729032 102.943811,7.35729032 103.000451,7.42535484 C103.143661,7.60664516 106.06577,11.1937419 106.06577,11.1937419 C106.105675,11.2501935 106.106962,11.3027742 106.013635,11.3027742 M141.566499,16.5740645 C141.344122,16.5740645 141.073795,16.5569677 140.81795,16.4995484 C140.458479,16.4085806 140.117673,15.9995484 139.961913,14.336 C139.700919,11.5266452 139.209181,3.98245161 139.111991,2.96309677 C139.078522,2.62341935 138.737073,2.54987097 138.526282,2.706 C138.368913,2.82083871 138.152973,3.14922581 137.935102,3.44825806 C134.621019,7.97890323 132.794057,10.4272903 129.424942,14.9930968 C128.837624,15.789871 128.36069,16.6595484 127.239153,16.6053548 C126.760931,16.5818065 126.576851,16.1234194 126.522142,15.6069677 C126.430424,14.8108387 126.430424,13.3518065 126.430424,11.6514839 L126.430424,4.25987097 C126.430424,4.05729032 126.486099,3.94567742 126.576851,3.90793548 C126.743553,3.85212903 127.019351,3.83567742 127.297402,3.83567742 C127.720271,3.83567742 128.799971,3.89051613 129.462595,4.49793548 C130.494988,5.42374194 130.484046,6.67890323 130.484046,7.28793548 C130.484046,9.17503226 128.990488,10.3772903 127.958417,10.3772903 C127.569982,10.3772903 127.240119,10.432129 127.240119,10.5808387 C127.240119,10.7089032 127.370133,10.7292258 127.461851,10.7472903 C127.554857,10.7637419 128.340415,10.7934194 128.432777,10.7934194 C131.050768,10.7934194 132.923428,9.21664516 132.968482,6.32180645 C132.981999,5.34309677 132.447137,4.51535484 132.046151,4.12277419 C131.518048,3.60793548 130.337941,3.04051613 128.032435,3.04051613 C127.184766,3.04051613 126.116973,3.09729032 125.360701,3.09729032 C124.911121,3.09729032 122.352022,2.9876129 122.234559,2.9876129 C121.608622,2.9876129 120.983973,3.04309677 120.61871,3.04309677 C120.272111,3.04309677 119.478508,2.9876129 118.622793,2.9876129 C118.374671,2.9876129 118.192844,3.00696774 118.192844,3.15567742 C118.192844,3.26503226 118.258495,3.31987097 118.457379,3.31987097 C118.687801,3.31987097 119.083959,3.31987097 119.331437,3.42987097 C119.726951,3.61632258 119.875953,3.96470968 119.892044,5.09212903 L119.939995,12.2730968 C119.659691,11.9772903 111.500313,2.92051613 111.25895,2.73632258 C110.948073,2.50245161 110.628508,2.71922581 110.628508,3.01116129 L110.323424,12.299871 C107.429635,8.69696774 102.843726,2.95890323 102.720148,2.77793548 C102.531241,2.50245161 102.070075,2.58664516 102.038859,2.98245161 C101.998953,3.50922581 101.207281,14.976 101.207281,14.976 C101.177995,15.8895484 101.055061,16.512129 100.236677,16.6195484 C100.094433,16.639871 99.8398751,16.6563226 99.6705987,16.6563226 C99.5212751,16.6563226 99.4598078,16.6940645 99.5013224,16.8024516 C99.5569969,16.949871 99.682506,16.9869677 99.9264442,16.9869677 C100.898657,16.9869677 101.904982,16.9311613 102.11159,16.9311613 C102.691828,16.9311613 103.515682,16.9869677 104.113942,16.9869677 C104.318297,16.9869677 104.417739,16.949871 104.363351,16.8024516 C104.322481,16.6940645 104.252646,16.6563226 104.028017,16.6563226 L103.747391,16.6563226 C103.168119,16.6563226 102.911308,16.4192258 102.786442,16.0905161 C102.70277,15.8714839 102.631648,15.4327742 102.647095,14.976 L102.673162,12.3650323 C102.667691,12.2527742 102.691828,12.2172903 102.786442,12.2172903 L106.760253,12.2172903 C106.852615,12.2172903 106.923093,12.2527742 106.994215,12.3469677 L109.942713,15.976 C110.020271,16.0718065 110.056959,16.2418065 109.911497,16.3856774 C109.883177,16.4124516 109.787597,16.4766452 109.717119,16.4995484 C109.486053,16.5740645 109.128191,16.5543871 108.912895,16.5543871 C108.747159,16.5543871 108.741366,16.6601935 108.741366,16.7711613 C108.741366,16.9382581 108.893586,16.9737419 109.107917,16.9737419 C109.967171,16.9737419 110.743075,16.9547097 110.889502,16.9547097 L112.661111,16.9514839 C113.226868,16.9624516 113.767522,16.9863226 114.09803,16.9869677 C114.825339,16.9869677 114.943124,16.949871 114.889381,16.8024516 C114.841108,16.6737419 114.896782,16.6092258 114.746171,16.6092258 C114.522508,16.6092258 114.499659,16.6211613 114.198115,16.5643871 C113.770741,16.4743871 113.263233,15.9476129 111.933481,14.3024516 L111.654786,13.9547097 L111.545046,7.25277419 C111.843371,7.6043871 119.214939,15.6447097 120.254733,16.7508387 C120.435595,16.9547097 120.633835,17.1579355 120.814053,17.1579355 C120.964021,17.1579355 121.02935,16.9914839 121.02935,16.5840645 L121.210855,4.94374194 C121.22759,3.91116129 121.348915,3.48987097 121.820379,3.37632258 C121.997057,3.33341935 122.479462,3.3243871 122.83829,3.40051613 C123.444917,3.52890323 123.594562,3.82470968 123.631571,4.45309677 C123.668581,5.04535484 123.668581,5.56180645 123.668581,8.37051613 L123.669224,11.6234194 C123.669224,13.3218065 123.669224,14.7827742 123.575253,15.5592258 C123.502201,16.0937419 123.409839,16.5018065 123.041357,16.5747097 C122.875942,16.6114839 122.653244,16.6501935 122.377124,16.6501935 C122.157001,16.6501935 122.082661,16.7043871 122.082661,16.7969677 C122.082661,16.9256774 122.212353,16.9808387 122.450821,16.9808387 C123.188428,16.9808387 124.880548,16.8972903 124.967439,16.902129 C126.657628,16.9914839 128.140566,16.9666452 128.957341,16.9392258 C129.631871,16.9153548 130.628864,17.0269677 130.879239,17.0269677 C131.083593,17.0269677 131.251904,16.9963226 131.254479,16.8401935 C131.254479,16.7530968 131.199448,16.6918065 131.025666,16.6918065 L130.748581,16.6918065 C130.177353,16.6918065 130.245579,16.4366452 130.446071,16.1447097 L133.06889,12.3508387 C133.140655,12.2395484 133.190215,12.2018065 133.282577,12.2018065 L136.988957,12.1843871 C137.080997,12.1843871 137.123799,12.2214839 137.130879,12.3140645 L137.278915,16.1730968 C137.298224,16.3950323 137.116075,16.5630968 136.974153,16.5982581 C136.783315,16.6179355 136.660381,16.6353548 136.665851,16.7985806 C136.671966,16.9547097 136.82837,16.9792258 137.166922,16.9705161 C137.835661,16.9553548 138.350248,16.9392258 139.105877,16.949871 C139.775581,16.9595484 140.461375,17.0143871 140.821811,17.0143871 C141.503101,17.0143871 141.740924,16.9224516 141.790162,16.7750323 C141.831999,16.6463226 141.71357,16.5740645 141.566499,16.5740645" id="Fill-5" fill="#B3B3B3" fill-rule="evenodd"></path>
                    <path d="M170.347568,16.3016774 C167.237839,16.3016774 165.377086,13.2410323 165.377086,9.38232258 C165.377086,4.7636129 167.496902,3.57748387 169.359264,3.57748387 C172.013942,3.57748387 174.102542,6.15490323 174.102542,10.3100645 C174.102542,15.6703871 171.480046,16.3016774 170.347568,16.3016774 M169.846175,2.61619355 C164.735059,2.61619355 162.808977,6.75619355 162.808977,9.95941935 C162.808977,11.5116774 163.243109,13.218129 164.203093,14.5965161 C164.123926,14.9210323 163.94242,15.3065161 163.758984,15.5039355 C163.298784,16.0042581 162.141204,16.0207097 161.164808,16.0207097 C159.725959,16.0207097 159.62716,15.8910323 159.31564,15.6155484 C158.928171,15.2842581 158.928171,14.0087742 158.928171,11.642 L158.928171,8.39103226 C158.928171,5.58232258 158.928171,5.06458065 158.964859,4.47296774 C159.002511,3.82683871 159.148939,3.51232258 159.646148,3.41877419 C159.86788,3.38329032 160.163631,3.36393548 160.366377,3.36393548 C160.586822,3.36393548 160.698815,3.32941935 160.698815,3.19780645 C160.698815,3.06877419 160.568479,3.03232258 160.31038,3.03232258 C159.592082,3.03232258 157.834955,3.08748387 157.392455,3.08748387 C156.89428,3.08748387 155.687462,3.03232258 154.821449,3.03232258 C154.544364,3.03232258 154.416602,3.06877419 154.416602,3.19780645 C154.416602,3.32941935 154.526342,3.36393548 154.728122,3.36393548 C154.96852,3.36393548 155.190253,3.38329032 155.337324,3.41877419 C155.945882,3.54812903 156.093919,3.84522581 156.130606,4.47296774 C156.167293,5.06458065 156.167293,5.58232258 156.167293,8.39103226 L156.167293,11.642 C156.167293,13.3445806 156.167293,14.8023226 156.074931,15.5803871 C156.001557,16.1139355 155.91016,16.5213548 155.541035,16.5961935 C155.374333,16.6329677 155.153566,16.668129 154.876159,16.668129 C154.656035,16.668129 154.582017,16.7255484 154.582017,16.8174839 C154.582017,16.9455484 154.711709,17.0016774 154.951464,17.0016774 C155.687462,17.0016774 156.89428,16.9455484 157.318759,16.9455484 C158.811995,16.9455484 160.497679,17.0568387 163.149782,17.0568387 C164.109122,17.0568387 164.203093,16.965871 164.312833,16.5574839 C164.405195,16.2194194 164.490477,15.5426452 164.541324,15.0400645 C165.649344,16.3749032 167.326017,17.3032903 169.67722,17.3032903 C174.005353,17.3032903 176.730509,13.9123226 176.730509,9.62264516 C176.730509,5.33232258 174.089991,2.61619355 169.846175,2.61619355" id="Fill-7" fill="#B3B3B3" fill-rule="evenodd"></path>
                    <path d="M54.3368116,11.5439032 L51.3326389,11.5290645 C51.3017444,11.5290645 51.2331971,11.4897097 51.295308,11.4003548 C51.5833353,10.9803548 53.3674953,8.40616129 54.1385716,7.30132258 C54.1894189,7.22809677 54.2589316,7.25132258 54.2624716,7.32487097 C54.2853207,7.87712903 54.4668262,11.4332581 54.4668262,11.4332581 C54.4668262,11.4884194 54.4291735,11.5439032 54.3368116,11.5439032 M58.9645571,16.8245484 C58.7408935,16.8245484 58.4718535,16.8077742 58.2140771,16.7497097 C57.8568589,16.6593871 57.5147662,16.2497097 57.3590062,14.5858387 C57.0983335,11.777129 56.6075607,4.2326129 56.5084407,3.21325806 C56.4765807,2.8726129 56.1335225,2.80164516 55.9227316,2.95519355 C55.7666498,3.07067742 55.5497444,3.39970968 55.3315516,3.69841935 C52.7792116,7.1893871 51.1054353,9.44680645 48.9331625,12.3861613 C48.6020116,11.0439032 47.5567462,9.93583871 45.3921971,8.49777419 L44.7797771,8.10390323 C42.9640789,6.92164516 42.4514225,6.26487097 42.4253553,5.40196774 C42.3912425,4.27648387 43.3328825,3.46874194 44.9204116,3.46874194 C46.3135625,3.46874194 46.9530153,4.03229032 47.2854535,4.38841935 C47.7501589,4.87680645 47.8743807,5.45809677 47.8801735,5.62712903 C47.8869316,5.85196774 47.9545135,5.96519355 48.1044807,5.96519355 C48.275688,5.96519355 48.3361898,5.81422581 48.3233171,5.40196774 C48.2798716,3.93745161 48.3493844,3.39325806 48.3423044,3.15035484 C48.3381207,3.01906452 48.2299898,2.96325806 48.0346462,2.92551613 C47.4737171,2.79390323 46.5671553,2.60616129 45.1730389,2.60616129 C42.1917153,2.60616129 40.2630589,4.0893871 40.3245262,6.15196774 C40.3702244,7.67164516 41.224008,8.98454839 43.6315298,10.6003548 L44.6388207,11.274871 C46.4554844,12.4758387 46.8033698,13.3564839 46.831368,14.2764839 C46.8609753,15.271 45.9511953,16.4164839 44.0202862,16.4164839 C42.6905335,16.4164839 41.4103407,15.9084194 40.8967189,14.5206774 C40.7795771,14.2019677 40.6827098,13.807129 40.6756298,13.5629355 C40.6704807,13.4135806 40.6440916,13.244871 40.4516444,13.244871 C40.2797935,13.244871 40.2411753,13.4522903 40.208028,13.7316452 C40.1871098,13.9122903 40.1214589,14.3503548 40.0998971,14.4735806 C39.9689171,15.237129 39.7455753,15.6290645 39.2625262,15.8532581 C38.777868,16.0787419 37.995528,16.0787419 37.5124789,16.0787419 C35.6127862,16.0787419 34.2347607,15.7977742 34.1977516,14.511 C34.1790862,13.9687419 34.1977516,12.2526129 34.1977516,11.617129 L34.1977516,10.1432581 C34.1977516,10.0303548 34.2164171,9.95745161 34.3091007,9.95745161 C34.7551407,9.95745161 37.4066007,9.97551613 37.7596353,10.0122903 C38.448648,10.087129 38.7093207,10.367129 38.802648,10.7400323 C38.8580007,10.9826129 38.8580007,11.2261613 38.876988,11.4119677 C38.876988,11.5055161 38.9143189,11.5806774 39.0452989,11.5806774 C39.2113571,11.5806774 39.2113571,11.3745484 39.2113571,11.2261613 C39.2113571,11.0958387 39.248688,10.3490645 39.2863407,9.97551613 C39.3423371,9.02358065 39.4359862,8.72519355 39.4359862,8.61358065 C39.4359862,8.50067742 39.379668,8.46390323 39.3050062,8.46390323 C39.2113571,8.46390323 39.1376607,8.55648387 39.007968,8.70616129 C38.8406225,8.89325806 38.5599971,8.94841935 38.1142789,8.98583871 C37.6849735,9.02358065 34.7374407,9.02358065 34.3277662,9.02358065 C34.2164171,9.02358065 34.1977516,8.94841935 34.1977516,8.81777419 L34.1977516,4.09712903 C34.1977516,3.96616129 34.2347607,3.91035484 34.3274444,3.91035484 C34.6994662,3.91035484 37.4622753,3.94745161 37.7783007,3.98519355 C38.7093207,4.09712903 38.8959753,4.32132258 39.0266335,4.65680645 C39.1189953,4.88067742 39.1376607,5.19809677 39.1376607,5.32906452 C39.1376607,5.49680645 39.1753135,5.5893871 39.3050062,5.5893871 C39.4359862,5.5893871 39.4729953,5.47874194 39.4919825,5.38422581 C39.528348,5.16035484 39.5660007,4.3393871 39.5843444,4.15196774 C39.6403407,3.29358065 39.7327025,3.07003226 39.7327025,2.93970968 C39.7327025,2.84648387 39.7156462,2.771 39.6216753,2.771 C39.528348,2.771 39.4173207,2.82777419 39.3236716,2.84648387 C39.1753135,2.88390323 38.876988,2.92132258 38.5236316,2.95680645 C38.1693098,2.97745161 33.6574189,2.97745161 33.0617335,2.97745161 C32.8010607,2.97745161 32.3736862,2.95680645 31.8887062,2.93970968 C31.5060644,2.93970968 31.0728971,2.92745161 30.6509935,2.92358065 C30.6336153,2.82906452 30.5959625,2.78809677 30.5171171,2.78809677 C30.3726207,2.78809677 29.9275462,2.97229032 28.745508,2.97229032 L22.4780989,2.97229032 C21.8682535,2.97229032 21.1682989,2.93583871 20.6337589,2.87970968 C20.1725935,2.84390323 19.9959153,2.72680645 19.8462698,2.72680645 C19.7445753,2.72680645 19.6818207,2.76454839 19.6303298,2.96712903 L19.4481807,2.96712903 C19.2019898,2.96712903 18.9561207,2.97551613 18.7240898,2.98648387 C18.3227825,3.001 17.9842298,3.01906452 17.767968,3.02229032 C17.3936935,3.01583871 16.6519025,2.96712903 15.852828,2.96712903 C15.6056716,2.96712903 15.4260971,2.98551613 15.4260971,3.13325806 C15.4260971,3.2426129 15.4914262,3.29874194 15.6877353,3.29874194 C15.9181571,3.29874194 16.3127062,3.29874194 16.5585753,3.4093871 C16.9106444,3.57551613 17.0664044,3.87035484 17.105988,4.74132258 L17.1642371,12.2519677 C16.8858644,11.9561613 8.76413891,2.89809677 8.52470618,2.71487097 C8.21511709,2.48003226 7.89619527,2.69680645 7.89619527,2.9893871 L7.73818255,7.84970968 L7.51290982,14.2700323 C7.49520982,15.8739032 7.18079345,16.1900323 6.75341891,16.4477742 C6.55904073,16.5668065 6.21308618,16.6226129 5.97494073,16.6335806 C5.90220982,16.6368065 5.13950073,16.6706774 4.81285527,16.5935806 C4.31982982,16.4742258 4.02472255,16.1400323 3.96808255,15.6416452 C3.89374255,14.8445484 3.89374255,13.3855161 3.89374255,11.5887419 L3.89374255,8.33390323 C3.89374255,5.52229032 3.89374255,5.00454839 3.93236073,4.41164516 C3.96808255,3.76454839 4.11676255,3.44970968 4.61364982,3.35777419 C4.832808,3.32003226 4.97859164,3.30067742 5.162028,3.30067742 C5.34707345,3.30067742 5.45520436,3.26616129 5.45520436,3.11551613 C5.45520436,3.00680645 5.30974255,2.96841935 5.07095345,2.96841935 C4.372608,2.96841935 3.28775891,3.02325806 2.83077709,3.02325806 C2.29752436,3.02325806 1.14090982,2.96841935 0.442242545,2.96841935 C0.148422545,2.96841935 6.43636364e-05,3.00680645 6.43636364e-05,3.11551613 C6.43636364e-05,3.26616129 0.111091636,3.30067742 0.296137091,3.30067742 C0.513686182,3.30067742 0.754728,3.32003226 0.958117091,3.37487097 C1.36038982,3.46745161 1.54607891,3.78196774 1.58051345,4.41164516 C1.61816618,5.00454839 1.61816618,5.52229032 1.61816618,8.33390323 L1.61816618,11.5887419 C1.61816618,13.3855161 1.61816618,14.8445484 1.52773527,15.6219677 C1.47141709,16.1587419 1.36038982,16.4719677 0.992229818,16.5490645 C0.829068,16.5842258 0.607013455,16.621 0.332180727,16.621 C0.111091636,16.621 0.0373952727,16.6768065 0.0373952727,16.7703548 C0.0373952727,16.8997097 0.166444364,16.9555161 0.405555273,16.9555161 C1.14123164,16.9555161 2.29752436,16.8997097 2.72168073,16.8997097 C3.21470618,16.8997097 5.98202073,16.9532581 6.06955527,16.9532581 C7.02149345,16.9532581 7.98501709,16.9242258 8.14882255,16.9242258 C8.49702982,16.9242258 9.22852255,16.9800323 10.4179625,16.9800323 C10.673808,16.9800323 10.8392225,16.9422903 10.8392225,16.7945484 C10.8392225,16.684871 10.7291607,16.6487419 10.5270589,16.6487419 C10.2354916,16.6487419 9.88760618,16.6290645 9.576408,16.5190645 C9.21050073,16.3893871 8.97138982,15.9106774 8.93663345,14.4735806 L8.86808618,10.8429355 L8.80951527,7.231 C9.10590982,7.58196774 16.4433644,15.6226129 17.4780098,16.7293871 C17.6588716,16.9319677 17.8555025,17.1351935 18.0350771,17.1351935 C18.1827916,17.1351935 18.2490862,16.9697097 18.2490862,16.5629355 L18.429948,4.92229032 C18.4318789,4.77680645 18.4360625,4.64358065 18.4434644,4.52132258 C18.4997825,3.81970968 18.656508,3.56003226 18.9776825,3.4093871 C19.1501771,3.33196774 19.3921844,3.311 19.601688,3.30293548 C19.5894589,3.83680645 19.601688,4.91616129 19.601688,5.14809677 C19.601688,5.35358065 19.6393407,5.44422581 19.7683898,5.44422581 C19.8774862,5.44422581 19.9338044,5.37003226 19.9708135,5.22229032 C20.0071789,5.07293548 20.0995407,4.85003226 20.2839425,4.57132258 C20.5594189,4.16358065 21.0048153,4.06970968 22.0755044,4.031 L23.9217753,3.95680645 L23.9217753,11.5777742 C23.9217753,13.2880968 23.9217753,14.7561613 23.8303789,15.5361613 C23.7750262,16.0764839 23.555868,16.4835806 23.1870644,16.5606774 C23.0197189,16.5961613 22.4275735,16.6335806 22.1508098,16.6335806 C21.9297207,16.6335806 21.8560244,16.6887419 21.8560244,16.7829355 C21.8560244,16.9122903 21.9853953,16.9687419 22.2261153,16.9687419 C22.9617916,16.9687419 24.6046735,16.9122903 25.0275425,16.9122903 C25.5447044,16.9122903 26.7087207,16.9687419 27.9255153,16.9687419 C28.1289044,16.9687419 28.2785498,16.9122903 28.2785498,16.7829355 C28.2785498,16.6887419 28.1832916,16.6335806 27.9818335,16.6335806 C27.7053916,16.6335806 27.297648,16.5961613 27.0401935,16.5606774 C26.4885971,16.4835806 26.3769262,16.0764839 26.3212516,15.5558387 C26.2279244,14.7561613 26.2279244,13.2880968 26.2279244,11.5777742 L26.2279244,3.95680645 L28.0436225,4.01390323 C29.6865044,4.05164516 30.2467898,4.57132258 30.2834771,5.05454839 L30.3008553,5.25906452 C30.3217735,5.53874194 30.3578171,5.63003226 30.5055316,5.63003226 C30.6165589,5.63003226 30.6522807,5.51906452 30.6709462,5.33325806 C30.6709462,4.88358065 30.6657971,3.73906452 30.6657971,3.2693871 C30.8061098,3.27841935 30.9348371,3.2926129 31.0136825,3.31293548 C31.6280335,3.44454839 31.7773571,3.74229032 31.8153316,4.37583871 C31.8513753,4.97390323 31.8513753,5.49680645 31.8513753,8.33293548 L31.8513753,11.617129 C31.8513753,13.3351935 31.8513753,14.8093871 31.7586916,15.5935806 C31.6840298,16.1335806 31.5913462,16.5458387 31.2183589,16.6187419 C31.0513353,16.6564839 30.8276716,16.6942258 30.5480116,16.6942258 C30.3249916,16.6942258 30.250008,16.7490645 30.250008,16.8432581 C30.250008,16.9729355 30.380988,17.0293871 30.6229953,17.0293871 C30.9953389,17.0293871 31.4793535,17.0103548 31.9076935,16.9926129 C32.3543771,16.9926129 32.7637298,16.9729355 32.968728,16.9729355 C33.5277262,16.9729355 34.105068,16.9926129 34.905108,17.0293871 C35.705148,17.0487419 37.8101607,17.0858387 39.206208,17.0858387 C39.914208,17.0858387 40.0809098,17.0858387 40.2109244,16.6006774 C40.2154298,16.5835806 40.2205789,16.5616452 40.2244407,16.5403548 C40.2778625,16.6800323 40.3856716,16.7468065 40.6003244,16.8284194 C41.5342407,17.1839032 42.5032353,17.3168065 43.7473844,17.3168065 C44.1577025,17.3168065 44.576388,17.2929355 44.9931425,17.2358387 C45.5440953,17.2413226 46.0104098,17.2358387 46.3550771,17.2239032 C47.029608,17.2013226 48.0253135,17.2239032 48.2769753,17.2239032 C48.4803644,17.2239032 48.6486753,17.2474516 48.6506062,17.0903548 C48.6518935,17.0032581 48.597828,16.9429355 48.4224371,16.9429355 L48.1459953,16.9429355 C47.5744462,16.9429355 47.6429935,16.687129 47.8421989,16.3958387 L50.4650171,12.6003548 C50.5374262,12.4913226 50.5869862,12.4535806 50.679348,12.4535806 L54.3866935,12.434871 C54.4780898,12.434871 54.5205698,12.4726129 54.5292589,12.5651935 L54.676008,16.4239032 C54.6956389,16.6461613 54.5125244,16.8126129 54.3725335,16.8487419 C54.1813735,16.8674516 54.056508,16.884871 54.0623007,17.0487419 C54.0690589,17.2042258 54.2267498,17.2280968 54.5643371,17.221 C55.2324316,17.2058387 55.7470189,17.1887419 56.5023262,17.2003548 C57.1720298,17.2097097 57.8587898,17.2655161 58.2189044,17.2655161 C58.9011589,17.2655161 59.1376953,17.1739032 59.1866116,17.0255161 C59.2281262,16.8968065 59.1119498,16.8245484 58.9645571,16.8245484" id="Fill-9" fill="#B3B3B3" fill-rule="evenodd"></path>
                    <path d="M83.1697255,5.61887097 L83.1632891,5.61370968 C83.0429291,5.54145161 82.8601364,5.49983871 82.7375236,5.55403226 C81.9529309,5.47951613 81.2047036,5.48758065 80.4117436,5.49596774 L80.3885727,5.49596774 L80.3570345,5.49693548 C79.9599109,5.50177419 79.5495927,5.50629032 79.1392745,5.49983871 L75.8165018,5.43080645 C75.0383455,5.41048387 74.18424,5.4166129 73.3475127,5.44822581 C72.7273691,5.45306452 72.1262127,5.46919355 71.5125055,5.48758065 C70.8736964,5.50435484 69.3492436,5.50951613 68.4378545,5.51145161 C67.9528745,5.5133871 67.6979945,5.5133871 67.6658127,5.51532258 C67.5576818,5.52241935 67.4279891,5.67177419 67.4247709,5.79370968 C67.4221964,5.86080645 67.4630673,5.93822581 67.5789218,5.94951613 C67.6648473,5.95983871 68.2154782,5.96177419 69.2163327,5.95887097 L70.2384273,5.95370968 C70.5110073,5.95177419 70.6381255,5.95758065 70.6970182,5.95048387 L70.7034545,5.95048387 C71.4549,5.87532258 72.2102073,5.87951613 72.9400909,5.88467742 L72.9967309,5.88467742 C73.46916,5.8866129 73.9586455,5.88951613 74.4500618,5.87048387 C74.5520782,5.89370968 74.6602091,5.87241935 74.7635127,5.85080645 L74.7796036,5.84790323 C74.8253018,5.83854839 74.8735745,5.82951613 74.9199164,5.8266129 C75.0322309,5.85693548 75.1599927,5.85596774 75.2951564,5.85306452 C75.4248491,5.85080645 75.5580818,5.84790323 75.6787636,5.87758065 L75.6800509,5.88080645 L75.7006473,5.87951613 L75.7006473,5.87629032 C75.8065255,5.83983871 75.9040364,5.85919355 76.0057309,5.87951613 C76.0089491,5.88080645 76.0247182,5.88241935 76.0247182,5.88241935 C76.0733127,5.89274194 76.1190109,5.90080645 76.1634218,5.90177419 C77.1137509,5.87629032 78.1641655,5.91016129 79.4736436,6.01177419 C79.4723564,6.01177419 80.0937873,6.07758065 80.0937873,6.07758065 L80.0937873,6.07693548 L80.0937873,6.07758065 L80.1011891,6.07758065 C80.6521418,6.02370968 81.2214382,6.06532258 81.7720691,6.105 C81.774,6.10629032 81.7855855,6.10629032 81.7855855,6.10629032 C82.1997655,6.13758065 82.5907745,6.16629032 82.9795309,6.15693548 L82.9801745,6.16209677 L83.0039891,6.15435484 L83.0033455,6.14919355 L83.2093091,5.98435484 L83.2102745,5.985 L83.2196073,5.975 L83.21832,5.97274194 C83.2868673,5.86306452 83.2649836,5.70854839 83.1697255,5.61887097" id="Fill-11" fill="#CCCCCC" fill-rule="evenodd"></path>
                    <path d="M77.6727169,12.6946774 L77.6897733,12.6843548 L77.6897733,12.6437097 L77.6746478,11.3469355 L77.6746478,11.3430645 L77.6736824,11.3398387 C77.6508333,11.1443548 77.6469715,10.9285484 77.6408569,10.7001613 C77.6360296,10.4433871 77.6299151,10.1779032 77.5958024,9.94274194 C77.589366,9.60725806 77.5230715,9.24629032 77.4587078,8.89725806 L77.4149405,8.66145161 L77.4110787,8.63887097 L77.3953096,8.62274194 C77.3434969,8.56983871 77.3254751,8.50467742 77.3058442,8.42919355 C77.2891096,8.36532258 77.2714096,8.30016129 77.2311824,8.23822581 C77.1449351,8.07854839 77.0075187,7.92596774 76.8861933,7.78951613 L76.8794351,7.78241935 C76.849506,7.74177419 76.814106,7.71951613 76.7828896,7.70016129 C76.764546,7.68790323 76.7478115,7.6766129 76.7288242,7.66048387 L76.700826,7.63629032 L76.6844133,7.64016129 L76.6625296,7.62274194 C76.5527896,7.53532258 76.4501296,7.50080645 76.3320224,7.46241935 L76.3300915,7.46112903 C76.2956569,7.41241935 76.2303278,7.405 76.1865605,7.40435484 L76.1865605,7.37177419 L76.1241278,7.3633871 L75.8377096,7.31983871 L75.7949078,7.3133871 L75.7678751,7.34822581 C75.7572551,7.36145161 75.7553242,7.36532258 75.6951442,7.34209677 C75.6668242,7.33274194 75.6372169,7.32177419 75.603426,7.31854839 L75.5696351,7.31564516 L75.5529005,7.33177419 C75.5448551,7.32564516 75.5329478,7.31854839 75.5203969,7.31177419 L75.4000369,7.27596774 L75.3919915,7.33177419 C75.3376042,7.33080645 75.2922278,7.34112903 75.2542533,7.36145161 L75.0643805,7.36145161 L74.8889896,7.3633871 L74.9082987,7.43177419 L74.9050805,7.43467742 C74.8272005,7.41306452 74.7695951,7.46112903 74.736126,7.48854839 C74.7296896,7.49370968 74.7235751,7.49887097 74.7197133,7.50177419 C74.6572805,7.51177419 74.6218805,7.53854839 74.5971005,7.55758065 C74.5784351,7.57177419 74.5719987,7.57693548 74.5549424,7.57822581 L74.5250133,7.58016129 L74.5053824,7.60435484 C74.4793151,7.635 74.3966078,7.67274194 74.3512315,7.69306452 L74.2550078,7.73564516 L74.2756042,7.75693548 C74.2601569,7.7633871 74.2447096,7.77370968 74.2302278,7.7866129 L74.1365787,7.7866129 L74.1365787,7.86080645 C74.1323951,7.85983871 74.1291769,7.85983871 74.1259587,7.85854839 L74.0731805,7.83629032 C74.0689969,7.83564516 74.0355278,7.88241935 74.0355278,7.88241935 C73.978566,7.96145161 73.9035824,8.04080645 73.8257024,8.1233871 C73.7346278,8.22177419 73.6390478,8.32274194 73.5669605,8.43241935 L73.5441115,8.46403226 L73.5585933,8.49758065 C73.5408933,8.50790323 73.4974478,8.53596774 73.4894024,8.58919355 C73.4540024,8.62790323 73.4453133,8.67983871 73.4391987,8.71435484 C73.4382333,8.72435484 73.4359805,8.73983871 73.4327624,8.74693548 C73.3941442,8.79241935 73.3864205,8.83951613 73.3799842,8.875 C73.3748351,8.90241935 73.3729042,8.91758065 73.3613187,8.93177419 L73.3146551,8.98983871 L73.3352515,9.00629032 C73.3217351,9.04177419 73.3217351,9.07725806 73.3217351,9.09983871 C73.3217351,9.10983871 73.3210915,9.12080645 73.3198042,9.13048387 L73.2892315,9.14854839 L73.2969551,9.19435484 C73.3091842,9.28596774 73.2979205,9.37145161 73.2853696,9.45983871 C73.274106,9.54629032 73.2625205,9.63403226 73.2718533,9.73241935 C73.2364533,9.78629032 73.2444987,9.84951613 73.2512569,9.89016129 C73.2535096,9.90306452 73.256406,9.92274194 73.2551187,9.93080645 L73.2087769,9.96758065 L73.2412805,10.0224194 C73.2667042,10.0640323 73.2464296,10.131129 73.2284078,10.195 C73.2097424,10.2562903 73.1888242,10.3304839 73.2107078,10.3962903 C73.2055587,10.4008065 73.1994442,10.4066129 73.1949387,10.4137097 C73.1868933,10.4240323 73.1791696,10.4443548 73.1811005,10.4666129 C73.1811005,10.5179032 73.1759515,10.5327419 73.1740205,10.5369355 L73.1402296,10.6075806 L73.1354024,10.635 L73.1968696,10.6782258 C73.1897896,10.7195161 73.1949387,10.7591935 73.2000878,10.7933871 C73.2078115,10.8398387 73.2087769,10.8601613 73.1949387,10.8791935 L73.1566424,10.948871 L73.1949387,10.9943548 L73.1949387,11.0069355 C73.1930078,11.0385484 73.1897896,11.0956452 73.2293733,11.1372581 C73.2303387,11.145 73.231626,11.1520968 73.2335569,11.1591935 L73.1640442,11.1782258 L73.2087769,11.2762903 C73.2087769,11.2827419 73.2065242,11.2920968 73.2045933,11.2998387 C73.1968696,11.3282258 73.1849624,11.3859677 73.213926,11.4362903 C73.1917205,11.4927419 73.2055587,11.5479032 73.2148915,11.5856452 C73.2168224,11.5956452 73.2206842,11.6114516 73.2219715,11.6201613 C73.1553551,11.6908065 73.1878587,11.7833871 73.2065242,11.8327419 C73.1753078,11.8798387 73.1823878,11.9356452 73.1888242,11.9701613 L73.0996805,12.0017742 L73.1910769,12.095 C73.1872151,12.1146774 73.1872151,12.1398387 73.2010533,12.1662903 C73.2119951,12.1820968 73.2251896,12.1924194 73.2396715,12.1979032 L73.2119951,12.2079032 C73.2129605,12.211129 73.213926,12.2143548 73.2148915,12.2175806 L73.2464296,12.3004839 L73.245786,12.3101613 C73.2390278,12.3585484 73.249326,12.4066129 73.2731405,12.4443548 C73.2654169,12.4543548 73.2602678,12.4685484 73.2583369,12.4853226 L73.2232587,12.5204839 L73.2583369,12.5708065 C73.2853696,12.6091935 73.2750715,12.661129 73.2551187,12.741129 C73.2377405,12.8101613 73.2148915,12.901129 73.256406,12.9772581 L73.2055587,13.0259677 L73.2683133,13.0737097 C73.2676696,13.0769355 73.2654169,13.0801613 73.2647733,13.0833871 C73.2480387,13.1124194 73.2187533,13.1695161 73.2551187,13.2291935 L73.2525442,13.2220968 C73.2654169,13.2520968 73.2596242,13.2998387 73.2535096,13.3495161 C73.2444987,13.4224194 73.2335569,13.511129 73.2731405,13.598871 L73.2602678,13.6869355 L73.263486,13.6753226 C73.2535096,13.7095161 73.2602678,13.738871 73.2718533,13.7591935 L73.2438551,13.7724194 L73.263486,13.8343548 C73.2834387,13.8979032 73.2840824,13.975 73.2840824,14.0582258 C73.2853696,14.215 73.2853696,14.3917742 73.4260042,14.5275806 L73.4565769,14.5559677 L73.4961605,14.5433871 C73.6026824,14.5133871 73.6062224,14.4075806 73.6094405,14.3527419 C73.6107278,14.3391935 73.6107278,14.3282258 73.6126587,14.318871 L73.6136242,14.3040323 L73.6094405,14.2898387 C73.5669605,14.1462903 73.585626,13.9579032 73.6013951,13.7920968 C73.6055787,13.7472581 73.6094405,13.7066129 73.6126587,13.6656452 L73.6136242,13.6469355 L73.6055787,13.6272581 C73.5766151,13.5698387 73.5836951,13.5133871 73.5917405,13.4475806 C73.5994642,13.3879032 73.6055787,13.3201613 73.5846605,13.2520968 C73.6084751,12.9475806 73.5956024,12.5885484 73.5817642,12.2714516 C73.5772587,12.1382258 73.5708224,12.0108065 73.5688915,11.8933871 L73.5688915,11.8901613 L73.5688915,11.8862903 C73.5508696,11.7369355 73.5560187,11.5769355 73.560846,11.4198387 C73.5637424,11.2801613 73.567926,11.1372581 73.5560187,11.0046774 C73.5888442,10.8533871 73.5869133,10.715 73.5836951,10.5682258 C73.5824078,10.5014516 73.5817642,10.4343548 73.5836951,10.3620968 L73.5846605,10.3440323 L73.5795115,10.3337097 C73.6126587,10.2959677 73.6200605,10.2553226 73.6030042,10.2156452 C73.6181296,10.1585484 73.6213478,10.1056452 73.6219915,10.0591935 C73.6232787,10.0201613 73.6252096,9.98370968 73.6322896,9.95112903 L73.6364733,9.93370968 L73.6313242,9.9166129 C73.6232787,9.88403226 73.6313242,9.84725806 73.6403351,9.80790323 C73.6509551,9.75983871 73.6641496,9.705 73.6438751,9.64919355 C73.6985842,9.535 73.7124224,9.39564516 73.7227205,9.26048387 L73.727226,9.2133871 C73.7320533,9.18403226 73.7217551,9.15596774 73.6976187,9.13241935 L73.6976187,9.12725806 C73.6976187,9.06725806 73.7294787,9.01919355 73.7687405,8.95822581 C73.8105769,8.89112903 73.858206,8.81467742 73.8714005,8.71241935 L73.8720442,8.695 L73.8714005,8.69177419 C73.8768715,8.68564516 73.882986,8.68048387 73.8878133,8.67564516 C73.9138805,8.655 73.9531424,8.62048387 73.9531424,8.56693548 C73.9524987,8.5566129 73.9515333,8.54758065 73.9483151,8.53822581 C73.9978751,8.49274194 74.0297351,8.44145161 74.0577333,8.39596774 C74.0982824,8.32596774 74.127246,8.2766129 74.2080224,8.2533871 L74.2466405,8.24209677 L74.2569387,8.20241935 C74.2685242,8.15790323 74.307786,8.1333871 74.3689315,8.09370968 C74.4159169,8.065 74.467086,8.03177419 74.5053824,7.98274194 C74.5568733,7.98693548 74.5884115,7.97370968 74.6070769,7.9533871 C74.6695096,7.93790323 74.7181042,7.90048387 74.757366,7.86887097 C74.8230169,7.81532258 74.8461878,7.80370968 74.8905987,7.82532258 L74.9353315,7.84467742 L74.9646169,7.81596774 C74.9668696,7.81596774 74.9688005,7.81532258 74.9707315,7.81532258 C74.9916496,7.80887097 75.0280151,7.79983871 75.0489333,7.76532258 C75.068886,7.76112903 75.0862642,7.75596774 75.1017115,7.75112903 C75.1380769,7.73790323 75.1470878,7.7366129 75.1599605,7.74274194 C75.1721896,7.75112903 75.1979351,7.76016129 75.2265769,7.75306452 L75.2294733,7.75822581 L75.2825733,7.75112903 L75.3524078,7.74274194 C75.5599805,7.71532258 75.7389115,7.69306452 75.900786,7.77951613 L75.9580696,7.80983871 L75.9931478,7.75822581 C75.9995842,7.76596774 76.0079515,7.77435484 76.014066,7.7833871 C76.0559024,7.82919355 76.1289551,7.90983871 76.2341896,7.89112903 C76.2576824,7.91274194 76.2837496,7.92790323 76.3062769,7.94112903 C76.3152878,7.94629032 76.3281605,7.95435484 76.3365278,7.95951613 L76.3365278,7.9633871 L76.3510096,7.98209677 C76.3838351,8.02532258 76.453026,8.04693548 76.5087005,8.04919355 C76.6303478,8.17693548 76.753926,8.3533871 76.753926,8.42919355 L76.753926,8.50080645 L76.8079915,8.50080645 L76.8079915,8.50467742 C76.8289096,8.59951613 76.8559424,8.71725806 76.9299605,8.79564516 C76.9093642,8.8433871 76.9264205,8.90145161 76.9351096,8.92596774 C76.9370405,8.93403226 76.9402587,8.94435484 76.9418678,8.9533871 L76.9232024,9.00693548 L76.9714751,9.055 L76.9817733,9.06112903 C76.9785551,9.10983871 77.0010824,9.15596774 77.0174951,9.18854839 C77.0213569,9.19758065 77.0261842,9.2066129 77.0294024,9.2166129 L77.0181387,9.24209677 C76.9540969,9.36629032 77.040666,9.43532258 77.0815369,9.46790323 C77.0886169,9.47435484 77.0928005,9.47725806 77.0966624,9.48016129 C77.0644805,9.50435484 77.0670551,9.53112903 77.0596533,9.57467742 L77.0644805,9.62951613 L77.0879733,9.66532258 C77.0879733,9.66532258 77.0886169,9.6666129 77.0895824,9.6666129 C77.0895824,9.66854839 77.0908696,9.67145161 77.0915133,9.67370968 C77.0947315,9.68370968 77.0998805,9.69854839 77.1092133,9.71532258 L77.0847551,9.73951613 L77.0670551,9.8033871 L77.1034205,9.85435484 L77.1310969,9.86983871 C77.1304533,9.89822581 77.1413951,9.92467742 77.1500842,9.94209677 C77.1513715,9.94532258 77.1533024,9.95016129 77.153946,9.95306452 L77.1481533,9.98467742 C77.1243387,10.1024194 77.0934442,10.2562903 77.1677842,10.3791935 C77.1652096,10.3824194 77.1619915,10.3843548 77.1613478,10.3862903 C77.1275569,10.4320968 77.1356024,10.4840323 77.1413951,10.5220968 C77.143326,10.5337097 77.146866,10.5540323 77.1459005,10.5604839 L77.1275569,10.635 C77.1262696,10.6382258 77.1513715,10.645 77.1719678,10.6491935 C77.1700369,10.6562903 77.1668187,10.6633871 77.1642442,10.671129 L77.1491187,10.7566129 L77.1777605,10.7566129 C77.1726115,10.7862903 77.1719678,10.8137097 77.1706805,10.8382258 C77.1706805,10.8820968 77.1690715,10.9104839 77.153946,10.9317742 L77.146866,10.9417742 L77.1449351,10.9543548 C77.1227296,11.0314516 77.1520151,11.1043548 77.175186,11.1646774 C77.1790478,11.1759677 77.1832315,11.1859677 77.1874151,11.1962903 C77.175186,11.211129 77.1619915,11.2298387 77.1642442,11.258871 C77.1642442,11.2653226 77.1677842,11.2708065 77.1690715,11.2756452 L77.1533024,11.2920968 L77.1677842,11.3327419 C77.175186,11.3579032 77.1896678,11.3720968 77.2067242,11.3824194 L77.1961042,11.3853226 C77.192886,11.3853226 77.192886,11.441129 77.192886,11.441129 L77.192886,11.4608065 L77.146866,11.475 L77.1700369,11.5220968 C77.1581296,11.5430645 77.146866,11.5746774 77.1581296,11.6098387 L77.1275569,11.665 C77.1294878,11.6640323 77.1330278,11.6979032 77.1600605,11.711129 C77.1323842,11.8091935 77.2028624,11.8814516 77.2456642,11.9246774 C77.2643296,11.9420968 77.2749496,11.9559677 77.2829951,11.9662903 L77.2475951,11.9662903 L77.2749496,12.0595161 L77.2749496,12.0620968 C77.2694787,12.0666129 77.2623987,12.0753226 77.2572496,12.0824194 L77.1967478,12.1104839 L77.2167005,12.1908065 L77.2102642,12.211129 C77.1967478,12.2527419 77.2080115,12.2801613 77.2199187,12.298871 C77.2224933,12.3014516 77.224746,12.3037097 77.2286078,12.3069355 C77.2060805,12.3272581 77.1832315,12.3585484 77.1777605,12.4066129 L77.1706805,12.475 L77.2266769,12.4837097 C77.2218496,12.4985484 77.2173442,12.5127419 77.2144478,12.5259677 C77.2067242,12.5501613 77.2009315,12.5724194 77.1896678,12.5895161 L77.1896678,12.591129 C77.1887024,12.5927419 77.1861278,12.5966129 77.1851624,12.5998387 L77.2820296,12.6540323 C77.2669042,12.6782258 77.260146,12.705 77.2540315,12.7230645 C77.2504915,12.7340323 77.2475951,12.7466129 77.2437333,12.7527419 L77.2363315,12.7527419 L77.1565205,12.7537097 L77.1600605,12.8469355 C77.1642442,12.861129 77.1668187,12.8775806 77.1690715,12.8972581 C77.1706805,12.9146774 77.1726115,12.9333871 77.1777605,12.9546774 L77.1777605,13.048871 C77.1777605,13.0604839 77.1777605,13.0801613 77.182266,13.1004839 L77.1706805,13.1059677 L77.1777605,13.1585484 C77.182266,13.1846774 77.1803351,13.2114516 77.1777605,13.2356452 C77.1771169,13.2504839 77.1758296,13.2685484 77.1758296,13.2843548 L77.1105005,13.3179032 L77.1906333,13.4066129 L77.1896678,13.4104839 C77.1803351,13.4317742 77.1690715,13.4601613 77.1690715,13.4940323 L77.1117878,13.4940323 L77.2089769,13.6130645 C77.2173442,13.6217742 77.224746,13.6491935 77.2298951,13.6682258 C77.2311824,13.6695161 77.2311824,13.6727419 77.2321478,13.6753226 C77.1915987,13.7137097 77.1851624,13.7724194 77.1832315,13.8024194 C77.1809787,13.8166129 77.1790478,13.8359677 77.1758296,13.8414516 C77.1758296,13.8414516 77.1771169,13.8408065 77.1771169,13.8398387 L77.2015751,13.8737097 C77.1832315,13.8879032 77.1706805,13.9037097 77.1642442,13.9169355 C77.1545896,13.9395161 77.1545896,13.9640323 77.1565205,13.985 L77.0625496,13.985 L77.1394642,14.0630645 L77.0676987,14.0872581 L77.1282005,14.1366129 L77.1282005,14.328871 C77.1282005,14.3643548 77.1449351,14.3943548 77.1726115,14.4082258 C77.175186,14.408871 77.1771169,14.408871 77.1771169,14.408871 C77.2167005,14.4356452 77.2582151,14.435 77.292006,14.4262903 L77.292006,14.5072581 L77.3859769,14.478871 C77.4532369,14.4585484 77.5050496,14.4553226 77.5584715,14.4662903 L77.635386,14.4814516 L77.6450405,14.4043548 C77.6817278,14.1162903 77.6746478,13.8369355 77.6675678,13.5669355 C77.6598442,13.3030645 77.6537296,13.0533871 77.6871987,12.8091935 C77.7081169,12.7614516 77.6865551,12.7166129 77.6727169,12.6946774" id="Fill-13" fill="#B3B3B3" fill-rule="evenodd"></path>
                    <path d="M72.1587485,12.6946774 L72.1758049,12.6843548 L72.1758049,12.6437097 L72.1610013,11.3469355 L72.1610013,11.3430645 L72.1610013,11.3398387 C72.1371867,11.1443548 72.1330031,10.9285484 72.127854,10.7001613 C72.1230267,10.4433871 72.1162685,10.1779032 72.0815122,9.94274194 C72.0757195,9.60725806 72.0091031,9.24629032 71.9447395,8.89725806 L71.9009722,8.66145161 L71.8980758,8.63887097 L71.8816631,8.62274194 C71.8298504,8.56983871 71.8118285,8.50467742 71.7921976,8.42919355 C71.7761067,8.36532258 71.7580849,8.30016129 71.7185013,8.23822581 C71.632254,8.07854839 71.4948376,7.92596774 71.3735122,7.78951613 L71.3673976,7.78241935 C71.3358595,7.74177419 71.3011031,7.71951613 71.2692431,7.70016129 C71.2508995,7.68790323 71.2341649,7.6766129 71.2154995,7.66048387 L71.1881449,7.63629032 L71.1723758,7.64016129 L71.1492049,7.62274194 C71.0401085,7.53532258 70.9371267,7.50080645 70.8193413,7.46241935 L70.8164449,7.46112903 C70.7823322,7.41241935 70.7176467,7.405 70.6732358,7.40435484 L70.6732358,7.37177419 L70.6117685,7.3633871 L70.3237413,7.31983871 L70.2812613,7.3133871 L70.2542285,7.34822581 C70.2452176,7.36145161 70.2419995,7.36532258 70.1814976,7.34209677 C70.1538213,7.33274194 70.1232485,7.32177419 70.0901013,7.31854839 L70.0559885,7.31564516 L70.0402195,7.33177419 C70.0312085,7.32564516 70.0202667,7.31854839 70.0067504,7.31177419 L69.8873558,7.27596774 L69.8783449,7.33177419 C69.8249231,7.33080645 69.7792249,7.34112903 69.7409285,7.36145161 L69.550734,7.36145161 L69.3756649,7.3633871 L69.3952958,7.43177419 L69.391434,7.43467742 C69.3148413,7.41306452 69.2556267,7.46112903 69.2237667,7.48854839 C69.2170085,7.49370968 69.2112158,7.49887097 69.2067104,7.50177419 C69.1445995,7.51177419 69.108234,7.53854839 69.0831322,7.55758065 C69.0644667,7.57177419 69.0583522,7.57693548 69.0412958,7.57822581 L69.0116885,7.58016129 L68.9927013,7.60435484 C68.9659904,7.635 68.8826395,7.67274194 68.839194,7.69306452 L68.7413613,7.73564516 L68.7629231,7.75693548 C68.7477976,7.7633871 68.7310631,7.77370968 68.7162595,7.7866129 L68.6229322,7.7866129 L68.6229322,7.86080645 C68.6187485,7.85983871 68.6148867,7.85983871 68.6123122,7.85854839 L68.5601776,7.83629032 C68.5553504,7.83564516 68.5218813,7.88241935 68.5218813,7.88241935 C68.4649195,7.96145161 68.3912231,8.04080645 68.3123776,8.1233871 C68.2206595,8.22177419 68.1263667,8.32274194 68.0536358,8.43241935 L68.0304649,8.46403226 L68.0449467,8.49758065 C68.0272467,8.50790323 67.9834795,8.53596774 67.9763995,8.58919355 C67.940034,8.62790323 67.9316667,8.67983871 67.9268395,8.71435484 C67.925874,8.72435484 67.9229776,8.73983871 67.9200813,8.74693548 C67.8821067,8.79241935 67.8724522,8.83951613 67.8663376,8.875 C67.862154,8.90241935 67.8595795,8.91758065 67.8476722,8.93177419 L67.801974,8.98983871 L67.8225704,9.00629032 C67.809054,9.04177419 67.8077667,9.07725806 67.8077667,9.09983871 C67.8077667,9.10983871 67.8077667,9.12080645 67.8071231,9.13048387 L67.7762285,9.14854839 L67.7829867,9.19435484 C67.7958595,9.28596774 67.784274,9.37145161 67.7720449,9.45983871 C67.7601376,9.54629032 67.7491958,9.63403226 67.7591722,9.73241935 C67.7228067,9.78629032 67.7314958,9.84951613 67.7376104,9.89016129 C67.7395413,9.90306452 67.7424376,9.92274194 67.7414722,9.93080645 L67.6948085,9.96758065 L67.7282776,10.0224194 C67.7533795,10.0640323 67.7334267,10.131129 67.713474,10.195 C67.6970613,10.2562903 67.6751776,10.3304839 67.6980267,10.3962903 C67.6919122,10.4008065 67.6867631,10.4066129 67.6812922,10.4137097 C67.6732467,10.4240323 67.6671322,10.4443548 67.6680976,10.4666129 C67.6680976,10.5179032 67.6629485,10.5327419 67.6613395,10.5369355 L67.6272267,10.6075806 L67.6211122,10.635 L67.6835449,10.6782258 C67.6771085,10.7195161 67.6812922,10.7591935 67.6867631,10.7933871 C67.6948085,10.8398387 67.695774,10.8601613 67.6822576,10.8791935 L67.6433176,10.948871 L67.6812922,10.9943548 L67.6812922,11.0069355 C67.6793613,11.0385484 67.6771085,11.0956452 67.7154049,11.1372581 C67.7166922,11.145 67.7176576,11.1520968 67.7208758,11.1591935 L67.6500758,11.1782258 L67.695774,11.2762903 C67.6948085,11.2827419 67.6928776,11.2920968 67.6919122,11.2998387 C67.6848322,11.3282258 67.670994,11.3859677 67.7002795,11.4362903 C67.678074,11.4927419 67.6919122,11.5479032 67.7009231,11.5856452 C67.7031758,11.5956452 67.7076813,11.6114516 67.7086467,11.6201613 C67.6423522,11.6908065 67.6751776,11.7833871 67.6928776,11.8327419 C67.6613395,11.8798387 67.6690631,11.9356452 67.6751776,11.9701613 L67.5857122,12.0017742 L67.6771085,12.095 C67.6732467,12.1146774 67.6732467,12.1398387 67.6877285,12.1662903 C67.6980267,12.1820968 67.7118649,12.1924194 67.7260249,12.1979032 L67.6980267,12.2079032 C67.699314,12.211129 67.7009231,12.2143548 67.7018885,12.2175806 L67.7009231,12.2175806 L67.7343922,12.3004839 L67.7324613,12.3101613 C67.7250595,12.3585484 67.7366449,12.4066129 67.7601376,12.4443548 C67.752414,12.4543548 67.7469431,12.4685484 67.7446904,12.4853226 L67.7096122,12.5204839 L67.7446904,12.5708065 C67.7720449,12.6091935 67.7614249,12.661129 67.7414722,12.741129 C67.724094,12.8101613 67.7018885,12.901129 67.7424376,12.9772581 L67.6928776,13.0259677 L67.7553104,13.0737097 C67.7540231,13.0769355 67.752414,13.0801613 67.7514485,13.0833871 C67.7343922,13.1124194 67.7057504,13.1695161 67.7424376,13.2291935 L67.7385758,13.2220968 C67.752414,13.2520968 67.7456558,13.2998387 67.7395413,13.3495161 C67.7314958,13.4224194 67.7208758,13.511129 67.7591722,13.598871 L67.7469431,13.6869355 L67.7504831,13.6753226 C67.7395413,13.7095161 67.7479085,13.738871 67.7591722,13.7591935 L67.7305304,13.7724194 L67.7504831,13.8343548 C67.7694704,13.8979032 67.7704358,13.975 67.7720449,14.0582258 C67.7720449,14.215 67.7720449,14.3917742 67.9133231,14.5275806 L67.9429304,14.5559677 L67.9834795,14.5433871 C68.088714,14.5133871 68.0935413,14.4075806 68.0974031,14.3527419 C68.0974031,14.3391935 68.0983685,14.3282258 68.099334,14.318871 L68.1015867,14.3040323 L68.0974031,14.2898387 C68.0546013,14.1462903 68.0719795,13.9579032 68.088714,13.7920968 C68.0916104,13.7472581 68.0961158,13.7066129 68.099334,13.6656452 L68.1006213,13.6469355 L68.0916104,13.6272581 C68.0626467,13.5698387 68.0697267,13.5133871 68.0784158,13.4475806 C68.0858176,13.3879032 68.0925758,13.3201613 68.071014,13.2520968 C68.0961158,12.9475806 68.081634,12.5885484 68.0687613,12.2714516 C68.0636122,12.1382258 68.0587849,12.0108065 68.056854,11.8933871 L68.056854,11.8901613 L68.0558885,11.8862903 C68.0378667,11.7369355 68.0420504,11.5769355 68.0471995,11.4198387 C68.0510613,11.2801613 68.0558885,11.1372581 68.0420504,11.0046774 C68.0755195,10.8533871 68.0729449,10.715 68.071014,10.5682258 C68.0697267,10.5014516 68.0687613,10.4343548 68.071014,10.3620968 L68.071014,10.3440323 L68.0668304,10.3337097 C68.099334,10.2959677 68.106414,10.2553226 68.0893576,10.2156452 C68.1054485,10.1585484 68.1073795,10.1056452 68.1083449,10.0591935 C68.1105976,10.0201613 68.1115631,9.98370968 68.1199304,9.95112903 L68.1231485,9.93370968 L68.1189649,9.9166129 C68.1093104,9.88403226 68.1179995,9.84725806 68.1273322,9.80790323 C68.1373085,9.75983871 68.1501813,9.705 68.1302285,9.64919355 C68.1865467,9.535 68.1987758,9.39564516 68.2103613,9.26048387 L68.2145449,9.2133871 C68.2187285,9.18403226 68.2097176,9.15596774 68.1852595,9.13241935 L68.1852595,9.12725806 C68.1852595,9.06725806 68.2164758,9.01919355 68.255094,8.95822581 C68.297574,8.89112903 68.3455249,8.81467742 68.357754,8.71241935 L68.3600067,8.695 L68.3590413,8.69177419 C68.3641904,8.68564516 68.3693395,8.68048387 68.3751322,8.67564516 C68.4015213,8.655 68.4407831,8.62048387 68.4398176,8.56693548 C68.4398176,8.5566129 68.4375649,8.54758065 68.4359558,8.53822581 C68.4858376,8.49274194 68.5160885,8.44145161 68.5440867,8.39596774 C68.5846358,8.32596774 68.6132776,8.2766129 68.6943758,8.2533871 L68.732994,8.24209677 L68.7432922,8.20241935 C68.7558431,8.15790323 68.7944613,8.1333871 68.8559285,8.09370968 C68.9025922,8.065 68.9531176,8.03177419 68.9917358,7.98274194 C69.0435485,7.98693548 69.0750867,7.97370968 69.0937522,7.9533871 C69.1571504,7.93790323 69.2047795,7.90048387 69.2443631,7.86887097 C69.3106576,7.81532258 69.3328631,7.80370968 69.377274,7.82532258 L69.4220067,7.84467742 L69.4509704,7.81596774 C69.4532231,7.81596774 69.4564413,7.81532258 69.4564413,7.81532258 C69.4780031,7.80887097 69.5134031,7.79983871 69.5352867,7.76532258 C69.5549176,7.76112903 69.5739049,7.75596774 69.5880649,7.75112903 C69.6244304,7.73790323 69.6340849,7.7366129 69.646314,7.74274194 C69.6598304,7.75112903 69.6839667,7.76016129 69.713574,7.75306452 L69.7158267,7.75822581 L69.7692485,7.75112903 L69.8387613,7.74274194 C70.0466558,7.71532258 70.2252649,7.69306452 70.3871395,7.77951613 L70.4453885,7.80983871 L70.4801449,7.75822581 C70.4872249,7.76596774 70.4952704,7.77435484 70.5020285,7.7833871 C70.5432213,7.82919355 70.6159522,7.90983871 70.7208649,7.89112903 C70.7440358,7.91274194 70.7697813,7.92790323 70.7926304,7.94112903 C70.8019631,7.94629032 70.8141922,7.95435484 70.8241685,7.95951613 L70.8241685,7.9633871 L70.8373631,7.98209677 C70.8705104,8.02532258 70.9403449,8.04693548 70.995054,8.04919355 C71.1176667,8.17693548 71.2402795,8.3533871 71.2402795,8.42919355 L71.2402795,8.50080645 L71.2940231,8.50080645 L71.2940231,8.50467742 C71.3149413,8.59951613 71.3426176,8.71725806 71.4159922,8.79564516 C71.3953958,8.8433871 71.4130958,8.90145161 71.4211413,8.92596774 C71.4230722,8.93403226 71.4262904,8.94435484 71.4278995,8.9533871 L71.4111649,9.00693548 L71.4578285,9.055 L71.4687704,9.06112903 C71.465874,9.10983871 71.4877576,9.15596774 71.5044922,9.18854839 C71.508354,9.19758065 71.5125376,9.2066129 71.5170431,9.2166129 L71.5054576,9.24209677 C71.4401285,9.36629032 71.5273413,9.43532258 71.5688558,9.46790323 C71.5749704,9.47435484 71.5788322,9.47725806 71.5846249,9.48016129 C71.5521213,9.50435484 71.5530867,9.53112903 71.5463285,9.57467742 L71.5521213,9.62951613 L71.5740049,9.66532258 C71.5759358,9.6666129 71.5749704,9.6666129 71.5759358,9.6666129 C71.5769013,9.66854839 71.5769013,9.67145161 71.5778667,9.67370968 C71.5823722,9.68370968 71.5865558,9.69854839 71.5958885,9.71532258 L71.5711085,9.73951613 L71.5540522,9.8033871 L71.5894522,9.85435484 L71.6184158,9.86983871 C71.6164849,9.89822581 71.6290358,9.92467742 71.6374031,9.94209677 C71.6383685,9.94532258 71.639334,9.95016129 71.6415867,9.95306452 L71.6341849,9.98467742 C71.6103704,10.1024194 71.5814067,10.2562903 71.6541376,10.3791935 C71.6518849,10.3824194 71.649954,10.3843548 71.6480231,10.3862903 C71.6148758,10.4320968 71.6225995,10.4840323 71.6290358,10.5220968 C71.6300013,10.5337097 71.6341849,10.5540323 71.632254,10.5604839 L71.6135885,10.635 C71.6126231,10.6382258 71.6383685,10.645 71.6579995,10.6491935 C71.6560685,10.6562903 71.6531722,10.6633871 71.6518849,10.671129 L71.6354722,10.7566129 L71.664114,10.7566129 C71.6602522,10.7862903 71.6592867,10.8137097 71.6579995,10.8382258 C71.657034,10.8820968 71.6560685,10.9104839 71.6406213,10.9317742 L71.6341849,10.9417742 L71.6312885,10.9543548 C71.6103704,11.0314516 71.6383685,11.1043548 71.6621831,11.1646774 C71.6663667,11.1759677 71.6705504,11.1859677 71.6737685,11.1962903 C71.6621831,11.211129 71.649954,11.2298387 71.6518849,11.258871 C71.6518849,11.2653226 71.6541376,11.2708065 71.6560685,11.2756452 L71.639334,11.2920968 L71.6541376,11.3327419 C71.6621831,11.3579032 71.6756995,11.3720968 71.6937213,11.3824194 L71.6821358,11.3853226 C71.6789176,11.3853226 71.6789176,11.441129 71.6789176,11.441129 L71.6789176,11.4608065 L71.6341849,11.475 L71.6560685,11.5220968 C71.6457704,11.5430645 71.6332195,11.5746774 71.6457704,11.6098387 L71.6148758,11.665 C71.6158413,11.6640323 71.6206685,11.6979032 71.6480231,11.711129 C71.6184158,11.8091935 71.6895376,11.8814516 71.7333049,11.9246774 C71.7503613,11.9420968 71.7622685,11.9559677 71.770314,11.9662903 L71.7342704,11.9662903 L71.7609813,12.0595161 L71.7622685,12.0620968 C71.756154,12.0666129 71.7497176,12.0753226 71.7432813,12.0824194 L71.6840667,12.1104839 L71.7040195,12.1908065 L71.6975831,12.211129 C71.6827795,12.2527419 71.6946867,12.2801613 71.7069158,12.298871 C71.7091685,12.3014516 71.7123867,12.3037097 71.7152831,12.3069355 C71.6937213,12.3272581 71.6695849,12.3585484 71.6644358,12.4066129 L71.6579995,12.475 L71.7133522,12.4837097 C71.7078813,12.4985484 71.7040195,12.5127419 71.7008013,12.5259677 C71.6937213,12.5501613 71.6879285,12.5724194 71.6756995,12.5895161 L71.6769867,12.591129 C71.674734,12.5927419 71.6728031,12.5966129 71.6715158,12.5998387 L71.7683831,12.6540323 C71.7548667,12.6782258 71.7464995,12.705 71.7413504,12.7230645 C71.7381322,12.7340323 71.7342704,12.7466129 71.7307304,12.7527419 L71.7236504,12.7527419 L71.6425522,12.7537097 L71.6467358,12.8469355 C71.6518849,12.861129 71.6541376,12.8775806 71.6560685,12.8972581 C71.657034,12.9146774 71.6592867,12.9333871 71.6644358,12.9546774 L71.6644358,13.048871 C71.6644358,13.0604839 71.6644358,13.0801613 71.6689413,13.1004839 L71.657034,13.1059677 L71.6654013,13.1585484 C71.6689413,13.1846774 71.6673322,13.2114516 71.6654013,13.2356452 C71.6644358,13.2504839 71.6621831,13.2685484 71.6631485,13.2843548 L71.5978195,13.3179032 L71.6779522,13.4066129 C71.6769867,13.4072581 71.6756995,13.4098387 71.6756995,13.4098387 C71.6663667,13.4317742 71.6560685,13.4601613 71.6560685,13.4940323 L71.5978195,13.4940323 L71.6956522,13.6130645 C71.7040195,13.6217742 71.7114213,13.6491935 71.7162485,13.6682258 C71.7175358,13.6695161 71.7185013,13.6727419 71.7185013,13.6753226 C71.6789176,13.7137097 71.6728031,13.7724194 71.6695849,13.8024194 C71.6673322,13.8166129 71.6663667,13.8359677 71.6621831,13.8414516 C71.6621831,13.8414516 71.6631485,13.8408065 71.6644358,13.8398387 L71.6895376,13.8737097 C71.6695849,13.8879032 71.6579995,13.9037097 71.6518849,13.9169355 C71.6415867,13.9395161 71.6406213,13.9640323 71.6431958,13.985 L71.5489031,13.985 L71.6271049,14.0630645 L71.5540522,14.0872581 L71.6148758,14.1366129 L71.6148758,14.328871 C71.6148758,14.3643548 71.6312885,14.3943548 71.6602522,14.4082258 C71.6621831,14.408871 71.6631485,14.408871 71.6631485,14.408871 C71.7027322,14.4356452 71.745534,14.435 71.7796467,14.4262903 L71.7796467,14.5072581 L71.8720085,14.478871 C71.9395904,14.4585484 71.9920467,14.4553226 72.0454685,14.4662903 L72.1220613,14.4814516 L72.1320376,14.4043548 C72.1684031,14.1162903 72.1610013,13.8369355 72.1535995,13.5669355 C72.1468413,13.3030645 72.1400831,13.0533871 72.1748395,12.8091935 C72.1944704,12.7614516 72.173874,12.7166129 72.1587485,12.6946774" id="Fill-15" fill="#B3B3B3" fill-rule="evenodd"></path>
                    <path d="M83.0908156,12.7920323 L83.1085156,12.7817097 L83.1072284,12.7410645 L83.0927465,11.4442903 L83.0927465,11.4410645 L83.0927465,11.4371935 C83.068932,11.2417097 83.0644265,11.0265484 83.0595993,10.7981613 C83.0531629,10.5407419 83.0480138,10.2755806 83.0139011,10.0417097 C83.0071429,9.70493548 82.9405265,9.34493548 82.8764847,8.99687097 L82.8327175,8.75912903 L82.8288556,8.73751613 L82.8130865,8.72009677 C82.7615956,8.66848387 82.7435738,8.60332258 82.7236211,8.52719355 C82.7072084,8.46332258 82.6898302,8.39783871 82.6502465,8.33590323 C82.5636775,8.17687097 82.4256175,8.02364516 82.304292,7.88719355 L82.2978556,7.88009677 C82.2676047,7.83945161 82.2325265,7.81719355 82.2009884,7.79783871 C82.1836102,7.78558065 82.1655884,7.77429032 82.1482102,7.75848387 L82.1198902,7.7346129 L82.1028338,7.73848387 L82.0809502,7.72041935 C81.9712102,7.633 81.8698375,7.59912903 81.7510865,7.55977419 L81.7478684,7.55880645 C81.7140775,7.50977419 81.649392,7.50267742 81.6046593,7.50074194 L81.6046593,7.46945161 L81.5422265,7.46009677 L81.2554865,7.41719355 L81.2126847,7.41009677 L81.1869393,7.44590323 C81.1769629,7.45912903 81.1737447,7.46235484 81.1122775,7.44074194 C81.0852447,7.43170968 81.0549938,7.41945161 81.0215247,7.41622581 L80.9883775,7.41332258 L80.9716429,7.42977419 C80.962632,7.42235484 80.952012,7.41622581 80.9388175,7.41009677 L80.8187793,7.37364516 L80.8097684,7.42848387 C80.7566684,7.42848387 80.7106484,7.43945161 80.672352,7.45912903 L80.4828011,7.45912903 L80.3074102,7.46009677 L80.3280065,7.52816129 C80.3251102,7.52945161 80.3251102,7.53009677 80.3231793,7.53203226 C80.2462647,7.51106452 80.1864065,7.55880645 80.1545465,7.58622581 C80.148432,7.5913871 80.1416738,7.59654839 80.1384556,7.59912903 C80.0750575,7.61074194 80.0403011,7.63622581 80.0145556,7.65622581 C79.9958902,7.66945161 79.9907411,7.6746129 79.9730411,7.67590323 L79.9434338,7.67783871 L79.9234811,7.70203226 C79.8987011,7.7346129 79.8153502,7.76912903 79.769652,7.79074194 L79.6727847,7.833 L79.6946684,7.85364516 C79.6792211,7.86074194 79.6628084,7.87106452 79.6476829,7.88429032 L79.5546775,7.88429032 L79.5546775,7.95977419 C79.5514593,7.95977419 79.5456665,7.95848387 79.5440575,7.95751613 L79.4909575,7.93525806 C79.4874175,7.933 79.4536265,7.98009677 79.4536265,7.98009677 C79.3966647,8.05945161 79.3226465,8.13848387 79.2438011,8.22170968 C79.1520829,8.31945161 79.0577902,8.42041935 78.9850593,8.53041935 L78.9618884,8.56364516 L78.976692,8.59558065 C78.9596356,8.60622581 78.9149029,8.63396774 78.9068575,8.68687097 C78.8717793,8.72525806 78.863412,8.77848387 78.8585847,8.81203226 C78.8566538,8.823 78.8537575,8.83848387 78.8518265,8.84332258 C78.813852,8.8913871 78.8038756,8.93816129 78.7980829,8.97267742 C78.7938993,9.00009677 78.7910029,9.01525806 78.7794175,9.02945161 L78.7333975,9.08880645 L78.7539938,9.10364516 C78.739512,9.13848387 78.739512,9.17590323 78.739512,9.19751613 C78.739512,9.20654839 78.7388684,9.22074194 78.7379029,9.22816129 L78.707652,9.24622581 L78.7144102,9.293 C78.7276047,9.3846129 78.7156975,9.46783871 78.7037902,9.55848387 C78.6918829,9.64493548 78.6815847,9.73235484 78.689952,9.83009677 C78.654552,9.88396774 78.6642065,9.94783871 78.6693556,9.98783871 C78.6712865,10.0020323 78.6741829,10.0200968 78.6728956,10.0284839 L78.6265538,10.0649355 L78.6597011,10.1197742 C78.6851247,10.1617097 78.6648502,10.229129 78.6458629,10.293 C78.6284847,10.3539677 78.6066011,10.4304194 78.6284847,10.4942903 C78.6233356,10.499129 78.6175429,10.5046129 78.6130375,10.5126774 C78.6046702,10.5236452 78.5988775,10.5423548 78.5995211,10.566871 C78.5995211,10.6152581 78.5940502,10.6300968 78.5921193,10.6349355 L78.5592938,10.7049355 L78.5528575,10.733 L78.6149684,10.7762258 C78.6075665,10.8184839 78.6130375,10.856871 78.6185084,10.8907419 C78.6252665,10.9378387 78.6278411,10.9581613 78.6140029,10.9765484 L78.5750629,11.0478387 L78.6130375,11.0926774 L78.6130375,11.1042903 C78.6107847,11.1359032 78.6075665,11.193 78.6471502,11.2346129 C78.6484375,11.2433226 78.6503684,11.2504194 78.6513338,11.2575161 L78.5818211,11.2762258 L78.6278411,11.3742903 C78.6265538,11.3813871 78.6246229,11.3900968 78.622692,11.3988065 C78.6149684,11.4271935 78.6027393,11.4842903 78.6317029,11.5346129 C78.6098193,11.5910645 78.6233356,11.6475161 78.6336338,11.6842903 C78.6355647,11.6946129 78.6391047,11.7088065 78.640392,11.7181613 C78.5737756,11.7881613 78.6056356,11.8807419 78.6246229,11.9294516 C78.5927629,11.9771935 78.6008084,12.0346129 78.6066011,12.0675161 L78.5174575,12.0981613 L78.6088538,12.1933226 C78.6046702,12.2142903 78.6046702,12.2378387 78.6194738,12.2646129 C78.6307375,12.2804194 78.6442538,12.2897742 78.6577702,12.296871 L78.629772,12.3046129 C78.6307375,12.309129 78.6317029,12.3107419 78.6336338,12.3139677 L78.6326684,12.3139677 L78.6648502,12.3988065 L78.6642065,12.4065484 C78.6564829,12.4559032 78.6680684,12.5055806 78.6918829,12.5417097 C78.6838375,12.5533226 78.6783665,12.5659032 78.6774011,12.5826774 L78.6416793,12.6178387 L78.6761138,12.6681613 C78.7037902,12.7081613 78.6931702,12.7584839 78.6725738,12.839129 C78.6555175,12.909129 78.6336338,12.9984839 78.6741829,13.0762258 L78.6246229,13.1255806 L78.6880211,13.1710645 C78.6860902,13.1742903 78.6838375,13.1775161 78.6831938,13.1807419 C78.6661375,13.2113871 78.636852,13.266871 78.6728956,13.3275161 L78.6703211,13.3204194 C78.6838375,13.3494516 78.6774011,13.3965484 78.6712865,13.4475161 C78.6629193,13.5204194 78.6522993,13.609129 78.6912393,13.6962258 L78.679332,13.7836452 L78.6815847,13.7739677 C78.6712865,13.806871 78.679332,13.8359032 78.689952,13.8581613 L78.6619538,13.8713871 L78.6815847,13.9310645 C78.7021811,13.9952581 78.7021811,14.0746129 78.7021811,14.1562258 C78.7037902,14.3123548 78.7037902,14.4900968 78.8441029,14.6242903 L78.8746756,14.6546129 L78.9149029,14.6423548 C79.0207811,14.6107419 79.0249647,14.5062258 79.0291484,14.449129 C79.0291484,14.4381613 79.029792,14.4262258 79.0310793,14.4162258 L79.0320447,14.4013871 L79.0291484,14.3862258 C78.9863465,14.2426774 79.0037247,14.0552581 79.0194938,13.8894516 C79.0230338,13.8446129 79.0275393,13.8039677 79.0310793,13.7639677 L79.0320447,13.7433226 L79.0230338,13.7262258 C78.994392,13.6681613 79.0017938,13.6107419 79.0101611,13.5446129 C79.0175629,13.4859032 79.0243211,13.4175161 79.0024375,13.3494516 C79.0275393,13.0465484 79.0130575,12.6875161 79.0005065,12.3688065 C78.9953575,12.2346129 78.9905302,12.1075161 78.9882775,11.993 L78.987312,11.9881613 L78.987312,11.9836452 C78.969612,11.8352581 78.9747611,11.6736452 78.9786229,11.5188065 C78.9828065,11.3784839 78.987312,11.2346129 78.9747611,11.103 C79.0072647,10.9520323 79.0059775,10.8123548 79.0024375,10.6662258 C79.0017938,10.6004194 78.9992193,10.5304194 79.0024375,10.4597742 L79.0024375,10.4413871 L78.9985756,10.4323548 C79.0310793,10.3936452 79.0388029,10.353 79.0211029,10.3123548 C79.036872,10.2565484 79.0388029,10.2036452 79.0413775,10.1555806 C79.0420211,10.1178387 79.0433084,10.0833226 79.0503884,10.0500968 L79.0548938,10.0313871 L79.0497447,10.0142903 C79.0413775,9.98170968 79.0497447,9.94525806 79.0590775,9.90751613 C79.0690538,9.85848387 79.0816047,9.80267742 79.0619738,9.74654839 C79.118292,9.633 79.1305211,9.49332258 79.1417847,9.35783871 L79.1462902,9.31235484 C79.150152,9.28203226 79.1411411,9.25429032 79.1170047,9.23009677 L79.1170047,9.22493548 C79.1170047,9.16493548 79.1469338,9.11687097 79.1865175,9.05622581 C79.2293193,8.98912903 79.2769484,8.91429032 79.2898211,8.80880645 L79.291752,8.79235484 L79.2904647,8.78977419 C79.2949702,8.7846129 79.3010847,8.77945161 79.3071993,8.77429032 C79.3319793,8.75203226 79.3725284,8.71848387 79.3712411,8.6646129 C79.3712411,8.65493548 79.369632,8.64429032 79.3664138,8.63590323 C79.4159738,8.59041935 79.4478338,8.53912903 79.4755102,8.49267742 C79.5163811,8.42429032 79.5447011,8.3746129 79.6261211,8.35203226 L79.6657047,8.33977419 L79.6760029,8.3013871 C79.6872665,8.25654839 79.7262065,8.23106452 79.7883175,8.19235484 C79.8343375,8.163 79.8848629,8.13041935 79.9234811,8.08041935 C79.974972,8.08558065 80.0074756,8.07041935 80.0251756,8.05106452 C80.0876084,8.03558065 80.1362029,7.99945161 80.1757865,7.96687097 C80.2424029,7.91364516 80.2646084,7.9013871 80.3090193,7.923 L80.3543956,7.943 L80.3827156,7.91493548 C80.3859338,7.91364516 80.3878647,7.91364516 80.3894738,7.91364516 C80.4094265,7.90848387 80.4461138,7.89654839 80.467032,7.863 C80.4863411,7.85880645 80.5046847,7.85364516 80.5198102,7.84848387 C80.5561756,7.83558065 80.5645429,7.83429032 80.5780593,7.8413871 C80.5915756,7.84848387 80.615712,7.85783871 80.6453193,7.85106452 L80.6472502,7.85558065 L80.700672,7.84848387 L80.7701847,7.84074194 C80.9784011,7.813 81.1566884,7.79074194 81.3188847,7.87719355 L81.3761684,7.90977419 L81.4115684,7.85687097 C81.4189702,7.86493548 81.4257284,7.87396774 81.433452,7.88009677 C81.4740011,7.92687097 81.5476975,8.00751613 81.6522884,7.98912903 C81.6754593,8.00945161 81.7015265,8.02558065 81.7240538,8.04009677 C81.7340302,8.04493548 81.7459375,8.05235484 81.7539829,8.05719355 L81.7539829,8.06009677 L81.7691084,8.07977419 C81.8019338,8.12332258 81.8717684,8.14429032 81.9267993,8.14687097 C82.0484465,8.27493548 82.1723465,8.44977419 82.1723465,8.52719355 L82.1723465,8.59816129 L82.2257684,8.59816129 L82.2267338,8.60332258 C82.2470084,8.69912903 82.2737193,8.81590323 82.3474156,8.89203226 C82.3268193,8.94106452 82.3448411,9.00009677 82.3525647,9.02429032 C82.3557829,9.0313871 82.3577138,9.04267742 82.3599665,9.05106452 L82.3425884,9.10493548 L82.3902175,9.15267742 L82.399872,9.15848387 C82.3972975,9.20783871 82.4204684,9.25558065 82.4359156,9.28687097 C82.4394556,9.29525806 82.4442829,9.30525806 82.4468575,9.3146129 L82.4372029,9.34074194 C82.3728393,9.46396774 82.4587647,9.533 82.5006011,9.56558065 C82.5067156,9.57074194 82.5115429,9.5746129 82.5163702,9.57912903 C82.4838665,9.60429032 82.4845102,9.62880645 82.4787175,9.67364516 L82.4838665,9.72751613 L82.5054284,9.763 L82.5076811,9.76396774 C82.5083247,9.76622581 82.509612,9.76816129 82.509612,9.77106452 C82.5141175,9.78235484 82.5183011,9.79654839 82.527312,9.813 L82.502532,9.83719355 L82.4857975,9.9013871 L82.5221629,9.95429032 L82.5491956,9.96751613 C82.5479084,9.99687097 82.5611029,10.0226774 82.5678611,10.0404194 C82.5701138,10.0436452 82.5710793,10.0475161 82.5720447,10.0507419 L82.5659302,10.0833226 C82.5421156,10.2013871 82.5115429,10.3549355 82.5855611,10.479129 C82.5836302,10.4800968 82.5816993,10.4820323 82.5816993,10.4820323 C82.5462993,10.5297742 82.5543447,10.5813871 82.5611029,10.619129 C82.5614247,10.6317097 82.5659302,10.653 82.5636775,10.6594516 L82.5462993,10.7323548 C82.5453338,10.7362258 82.5688265,10.7423548 82.5907102,10.7465484 C82.5878138,10.7536452 82.5849175,10.7607419 82.5826647,10.769129 L82.5668956,10.8549355 L82.5971465,10.8549355 C82.5907102,10.8836452 82.5907102,10.9110645 82.5897447,10.9355806 C82.5884575,10.9794516 82.5878138,11.0078387 82.5720447,11.0307419 L82.5659302,11.0407419 L82.562712,11.0517097 C82.5421156,11.1304194 82.5701138,11.2023548 82.5926411,11.2620323 C82.5977902,11.2733226 82.6022956,11.2849355 82.6055138,11.2949355 C82.5926411,11.309129 82.5816993,11.3271935 82.5826647,11.3555806 C82.5826647,11.3626774 82.5855611,11.3681613 82.5878138,11.3742903 L82.5720447,11.3894516 L82.5855611,11.4326774 C82.5926411,11.4552581 82.6074447,11.4710645 82.626432,11.4797742 L82.6135593,11.4817097 C82.6106629,11.4826774 82.6106629,11.539129 82.6106629,11.539129 L82.6106629,11.5597742 L82.5659302,11.5713871 L82.5884575,11.6194516 C82.576872,11.6420323 82.5646429,11.6720323 82.576872,11.7081613 L82.5462993,11.763 C82.5462993,11.763 82.5511265,11.7959032 82.5797684,11.8094516 C82.5498393,11.9081613 82.6219265,11.9794516 82.6631193,12.0220323 C82.6814629,12.0417097 82.693692,12.0533226 82.7017375,12.0652581 L82.6660156,12.0652581 L82.6930484,12.156871 L82.693692,12.1594516 C82.6878993,12.1665484 82.6814629,12.1726774 82.6747047,12.1804194 L82.6154902,12.2094516 L82.6344775,12.2888065 L82.6283629,12.309129 C82.6154902,12.3507419 82.626432,12.3800968 82.6373738,12.3962258 C82.640592,12.4004194 82.6438102,12.4010645 82.6457411,12.4042903 C82.6251447,12.4262258 82.6013302,12.4559032 82.5971465,12.5039677 L82.5897447,12.5723548 L82.6450975,12.5817097 C82.640592,12.5959032 82.6354429,12.6100968 82.6322247,12.6226774 C82.6251447,12.6500968 82.6196738,12.6710645 82.6074447,12.6884839 L82.608732,12.6884839 C82.6074447,12.6913871 82.6042265,12.6946129 82.6035829,12.6978387 L82.6998065,12.7513871 C82.686612,12.7771935 82.6782447,12.8013871 82.6727738,12.8220323 C82.668912,12.8304194 82.6644065,12.8439677 82.6611884,12.8500968 L82.6550738,12.8500968 L82.5739756,12.8510645 L82.5781593,12.9459032 C82.5826647,12.9600968 82.5849175,12.9749355 82.5868484,12.9952581 C82.5884575,13.0126774 82.5907102,13.0323548 82.5958593,13.0526774 L82.5958593,13.1462258 C82.5958593,13.1588065 82.5971465,13.1775161 82.6006865,13.1978387 L82.5897447,13.2042903 L82.5971465,13.2565484 C82.6013302,13.2826774 82.5990775,13.3084839 82.5971465,13.3346129 C82.5948938,13.3488065 82.5948938,13.3649355 82.5948938,13.3833226 L82.5285993,13.4152581 L82.6096975,13.5039677 C82.608732,13.5046129 82.6074447,13.5078387 82.6074447,13.5094516 C82.5990775,13.5307419 82.5878138,13.5597742 82.5878138,13.5917097 L82.5292429,13.5917097 L82.6273975,13.7104194 C82.6354429,13.7197742 82.6431665,13.7471935 82.6483156,13.7655806 C82.6489593,13.7694516 82.6502465,13.7717097 82.6502465,13.7739677 C82.6106629,13.8126774 82.6042265,13.869129 82.6013302,13.9010645 C82.5990775,13.9139677 82.5977902,13.9333226 82.5948938,13.9397742 L82.5948938,13.9381613 L82.6196738,13.9710645 C82.6013302,13.9852581 82.5897447,14.0017097 82.5826647,14.0152581 C82.5720447,14.0378387 82.5720447,14.0607419 82.5749411,14.0823548 L82.4806484,14.0823548 L82.559172,14.1610645 L82.4857975,14.1846129 L82.5462993,14.2349355 L82.5462993,14.4288065 C82.5462993,14.4633226 82.5639993,14.4917097 82.5907102,14.5071935 C82.5907102,14.5071935 82.5948938,14.5088065 82.5971465,14.5088065 C82.6344775,14.5346129 82.6769575,14.5323548 82.7117138,14.5252581 L82.7117138,14.6046129 L82.803432,14.5771935 C82.8713356,14.5565484 82.9231484,14.5526774 82.9765702,14.5636452 L83.0531629,14.5794516 L83.0637829,14.5017097 C83.1001484,14.2152581 83.0927465,13.9342903 83.0856665,13.6649355 C83.0782647,13.4010645 83.0718284,13.1523548 83.1052975,12.9081613 C83.1271811,12.8604194 83.1052975,12.8165484 83.0908156,12.7920323" id="Fill-17" fill="#B3B3B3" fill-rule="evenodd"></path>
                    <mask id="mask-2" fill="white">
                        <use xlink:href="#path-1"></use>
                    </mask>
                    <g id="Clip-20"></g>
                    <path d="M66.4625345,18.8505806 L84.2182091,18.8505806 L84.2182091,1.05187097 L66.4625345,1.05187097 L66.4625345,18.8505806 Z M85.2683018,-6.4516129e-05 L65.4163036,-6.4516129e-05 L65.4163036,19.8999355 L85.2689455,19.8999355 L85.2683018,-6.4516129e-05 Z" id="Fill-19" fill="#B3B3B3" fill-rule="evenodd" mask="url(#mask-2)"></path>
                </g>
                <text id="bank-of" font-family="OpenSans, Open Sans" font-size="10" font-weight="normal" line-spacing="10" letter-spacing="0.100000001" fill="#B3B3B3">
                    <tspan x="0" y="16">bank of</tspan>
                </text>
            </g>
        </g>
    </g>
</svg>