<?xml version="1.0" encoding="UTF-8"?>
<svg width="48px" height="48px" viewBox="0 0 48 48" version="1.1" xmlns="http://www.w3.org/2000/svg" xmlns:xlink="http://www.w3.org/1999/xlink">
    <!-- Generator: Sketch 49.3 (51167) - http://www.bohemiancoding.com/sketch -->
    <title>status/done</title>
    <desc>Created with Sketch.</desc>
    <defs>
        <linearGradient x1="128.857224%" y1="27.5527072%" x2="23.9419278%" y2="77.3625891%" id="linearGradient-1">
            <stop stop-color="#656C7E" offset="0%"></stop>
            <stop stop-color="#495061" offset="100%"></stop>
        </linearGradient>
    </defs>
    <g id="Page-1" stroke="none" stroke-width="1" fill="none" fill-rule="evenodd">
        <g id="03_credit_check" transform="translate(-292.000000, -505.000000)">
            <g id="Stacked-Group" transform="translate(260.000000, 471.000000)">
                <g id="box1">
                    <g id="Stacked-Group" transform="translate(32.000000, 34.000000)">
                        <g id="status/done">
                            <g id="Group-3">
                                <circle id="Oval-6" fill="url(#linearGradient-1)" cx="24" cy="24" r="24"></circle>
                                <g id="ico/ic_check" transform="translate(16.000000, 16.000000)" fill="#FFFFFF">
                                    <path d="M13.6008787,2.41032738 L5.6530961,10.3581099 L2.38526364,7.09027748 C1.83816047,6.54317431 0.95096614,6.5505676 0.403862968,7.09767077 C-0.135846917,7.64477394 -0.135846917,8.53196827 0.411256255,9.07907144 L4.60324947,13.2636714 L4.66239576,13.3376042 C5.21689222,13.8773141 6.10408655,13.8773141 6.64379644,13.3376042 L15.5896726,4.39912134 C16.1367758,3.85201817 16.1367758,2.95743055 15.5896726,2.41032738 C15.0351762,1.86322421 14.1479818,1.86322421 13.6008787,2.41032738 Z" id="Page-1"></path>
                                </g>
                            </g>
                        </g>
                    </g>
                </g>
            </g>
        </g>
    </g>
</svg>