<?xml version="1.0" encoding="UTF-8"?>
<svg width="48px" height="48px" viewBox="0 0 48 48" version="1.1" xmlns="http://www.w3.org/2000/svg" xmlns:xlink="http://www.w3.org/1999/xlink">
    <!-- Generator: Sketch 49.3 (51167) - http://www.bohemiancoding.com/sketch -->
    <title>status/occhio</title>
    <desc>Created with Sketch.</desc>
    <defs>
        <polygon id="path-1" points="0.000533333333 0 32 0 32 18.6666667 0.000533333333 18.6666667"></polygon>
    </defs>
    <g id="status/occhio" stroke="none" stroke-width="1" fill="none" fill-rule="evenodd">
        <g id="Page-1" transform="translate(8.000000, 14.000000)">
            <g id="Group-3" transform="translate(0.000000, 0.000667)">
                <mask id="mask-2" fill="white">
                    <use xlink:href="#path-1"></use>
                </mask>
                <g id="Clip-2"></g>
                <path d="M1.5392,9.33333333 C3.0192,11.0266667 9.0032,17.3333333 16.0005333,17.3333333 C23.0072,17.3333333 28.9832,11.028 30.4605333,9.33333333 C28.9805333,7.64 22.9965333,1.33333333 16.0005333,1.33333333 C8.99253333,1.33333333 3.01786667,7.63866667 1.5392,9.33333333 M16.0005333,18.6666667 C7.30853333,18.6666667 0.432533333,10.112 0.144533333,9.748 C-0.0474666667,9.50533333 -0.0474666667,9.16133333 0.144533333,8.91866667 C0.432533333,8.556 7.30853333,0 16.0005333,0 C24.6925333,0 31.5672,8.556 31.8565333,8.91866667 C32.0485333,9.16133333 32.0485333,9.50533333 31.8565333,9.748 C31.5672,10.112 24.6925333,18.6666667 16.0005333,18.6666667" id="Fill-1" fill="#4D4D4D" mask="url(#mask-2)"></path>
            </g>
            <path d="M16.0001333,4.66666667 C13.4268,4.66666667 11.3334667,6.76 11.3334667,9.33333333 C11.3334667,11.9066667 13.4268,14 16.0001333,14 C18.5734667,14 20.6668,11.9066667 20.6668,9.33333333 C20.6668,6.76 18.5734667,4.66666667 16.0001333,4.66666667 M16.0001333,15.3333333 C12.6921333,15.3333333 10.0001333,12.6426667 10.0001333,9.33333333 C10.0001333,6.02533333 12.6921333,3.33333333 16.0001333,3.33333333 C19.3081333,3.33333333 22.0001333,6.02533333 22.0001333,9.33333333 C22.0001333,12.6426667 19.3081333,15.3333333 16.0001333,15.3333333" id="Fill-4" fill="#4D4D4D"></path>
            <path d="M16.0001333,12.6673333 C14.1628,12.6673333 12.6668,11.1726667 12.6668,9.334 C12.6668,8.966 12.9654667,8.66733333 13.3334667,8.66733333 C13.7014667,8.66733333 14.0001333,8.966 14.0001333,9.334 C14.0001333,10.4366667 14.8974667,11.334 16.0001333,11.334 C17.1028,11.334 18.0001333,10.4366667 18.0001333,9.334 C18.0001333,8.23133333 17.1028,7.334 16.0001333,7.334 C15.6321333,7.334 15.3334667,7.03533333 15.3334667,6.66733333 C15.3334667,6.298 15.6321333,6.00066667 16.0001333,6.00066667 C17.8374667,6.00066667 19.3334667,7.49533333 19.3334667,9.334 C19.3334667,11.1726667 17.8374667,12.6673333 16.0001333,12.6673333" id="Fill-6" fill="#4D4D4D"></path>
        </g>
    </g>
</svg>