<?xml version="1.0" encoding="utf-8"?>
<!-- Generator: Adobe Illustrator 22.0.1, SVG Export Plug-In . SVG Version: 6.00 Build 0)  -->
<svg version="1.1" xmlns="http://www.w3.org/2000/svg" xmlns:xlink="http://www.w3.org/1999/xlink" x="0px" y="0px"
	 viewBox="0 0 64 64" style="enable-background:new 0 0 64 64;" xml:space="preserve">
<style type="text/css">
	.st0{opacity:0.16;}
	.st1{fill:none;stroke:#000000;stroke-width:2;stroke-linecap:round;stroke-linejoin:round;}
</style>
<g id="Bottom">
	<title></title>
	<g class="st0">
		<path class="st1" d="M19.8,42.2c-1.2-2-1.8-4.3-1.8-6.7v-11c0-2.9,1-5.8,2.7-8.1"/>
		<path class="st1" d="M44.3,39.9c-2.4,7-10.1,10.8-17.1,8.4c-1.6-0.5-3-1.3-4.2-2.3"/>
		<line class="st1" x1="45" y1="23" x2="45" y2="36"/>
		<path class="st1" d="M23.9,13.4c6.1-4.2,14.5-2.7,18.8,3.5c0,0,0,0.1,0.1,0.1"/>
		<path class="st1" d="M41,29v6.5c0,3.8-2.2,7.2-5.7,8.7"/>
		<path class="st1" d="M35.1,15.7c3.6,1.5,5.9,4.9,5.9,8.8"/>
		<path class="st1" d="M22.8,20.8c1.5-3.5,4.9-5.8,8.8-5.8"/>
		<line class="st1" x1="22" y1="32" x2="22" y2="25"/>
		<path class="st1" d="M31.5,45c-5.2,0-9.5-4.3-9.5-9.5"/>
		<path class="st1" d="M28,39.7c-1.3-1-2-2.6-2-4.2v-11c0-1.5,0.6-2.9,1.6-3.9"/>
		<path class="st1" d="M37,35.5c0,3-2.5,5.5-5.5,5.5"/>
		<line class="st1" x1="37" y1="25" x2="37" y2="32"/>
		<path class="st1" d="M31.5,19c1.5,0,2.9,0.6,3.9,1.6"/>
		<path class="st1" d="M33,35.5c0,0.8-0.7,1.5-1.5,1.5S30,36.3,30,35.5V29"/>
		<path class="st1" d="M30,24.5c0-0.8,0.7-1.5,1.5-1.5s1.5,0.7,1.5,1.5V31"/>
	</g>
</g>
<g id="Top_1_">
	<title></title>
</g>
</svg>
