<?xml version="1.0" encoding="UTF-8"?>
<svg width="63px" height="48px" viewBox="0 0 63 48" version="1.1" xmlns="http://www.w3.org/2000/svg" xmlns:xlink="http://www.w3.org/1999/xlink">
    <!-- Generator: Sketch 48.2 (47327) - http://www.bohemiancoding.com/sketch -->
    <title>ico_wallet copy 5</title>
    <desc>Created with Sketch.</desc>
    <defs>
        <rect id="path-1" x="35" y="10.212766" width="28" height="25.5319149" rx="2"></rect>
    </defs>
    <g id="Card-comparison-Copy-33" stroke="none" stroke-width="1" fill="none" fill-rule="evenodd" transform="translate(-552.000000, -237.000000)">
        <g id="ico_wallet-copy-5" transform="translate(552.000000, 237.000000)">
            <rect id="Rectangle-17" stroke="#171717" x="0.5" y="0.5" width="58" height="47" rx="2"></rect>
            <g id="Rectangle-17">
                <use fill="#FFFFFF" fill-rule="evenodd" xlink:href="#path-1"></use>
                <rect stroke="#171717" stroke-width="1" x="35.5" y="10.712766" width="27" height="24.5319149" rx="2"></rect>
            </g>
            <ellipse id="Oval-6" fill="#181818" cx="44.5" cy="24" rx="3.5" ry="3.57446809"></ellipse>
        </g>
    </g>
</svg>