<?xml version="1.0" encoding="UTF-8"?>
<svg width="132px" height="34px" viewBox="0 0 132 34" version="1.1" xmlns="http://www.w3.org/2000/svg" xmlns:xlink="http://www.w3.org/1999/xlink">
    <!-- Generator: Sketch 49.3 (51167) - http://www.bohemiancoding.com/sketch -->
    <title>logo</title>
    <desc>Created with Sketch.</desc>
    <defs>
        <rect id="path-1" x="0" y="0" width="62.0240964" height="24.5555556"></rect>
    </defs>
    <g id="Symbols" stroke="none" stroke-width="1" fill="none" fill-rule="evenodd">
        <g id="header" transform="translate(-166.000000, -17.000000)">
            <g id="logo" transform="translate(164.000000, 17.000000)">
                <path d="M3.94698795,7.85777778 L3.94698795,24.8011111 L8.03493976,24.8011111 C13.8144578,24.8294444 16.3236145,22.3644444 16.3236145,16.3294444 C16.3236145,10.2944444 13.8144578,7.82944444 8.03493976,7.85777778 L3.94698795,7.85777778 Z M2.02987952,26.4444444 L2.02987952,6.21444444 L8.99349398,6.21444444 C15.0549398,6.35611111 18.2407229,9.69944444 18.2407229,16.3294444 C18.2407229,22.9594444 15.0549398,26.3027778 8.99349398,26.4444444 L2.02987952,26.4444444 Z M21.4077108,26.4444444 L21.4077108,11.8244444 L23.1838554,11.8244444 L23.1838554,26.4444444 L21.4077108,26.4444444 Z M21.4077108,9.07611111 L21.4077108,6.21444444 L23.1838554,6.21444444 L23.1838554,9.07611111 L21.4077108,9.07611111 Z M32.806988,24.7727778 C35.88,24.7727778 37.486988,21.9394444 37.486988,18.9644444 C37.486988,16.1027778 36.1619277,12.9011111 32.806988,12.9011111 C29.4238554,12.9011111 28.0142169,15.9327778 28.0142169,18.9644444 C28.0142169,21.9111111 29.5366265,24.7727778 32.806988,24.7727778 Z M39.2631325,11.8244444 L39.2631325,25.2544444 C39.2349398,29.6177778 37.5715663,32.2811111 32.806988,32.2811111 C29.9031325,32.2811111 27.0274699,30.9777778 26.773735,27.8611111 L28.5498795,27.8611111 C28.9445783,30.0144444 30.833494,30.7794444 32.806988,30.7794444 C36.0773494,30.7794444 37.486988,28.8244444 37.486988,25.2544444 L37.486988,23.2711111 L37.4306024,23.2711111 C36.6130121,25.0561111 34.893253,26.2744444 32.806988,26.2744444 C28.1551807,26.2744444 26.2380723,22.9311111 26.2380723,18.7661111 C26.2380723,14.7427778 28.6062651,11.3994444 32.806988,11.3994444 C34.9214458,11.3994444 36.7257831,12.7311111 37.4306024,14.3461111 L37.486988,14.3461111 L37.486988,11.8244444 L39.2631325,11.8244444 Z M43.0503615,26.4444444 L43.0503615,11.8244444 L44.826506,11.8244444 L44.826506,26.4444444 L43.0503615,26.4444444 Z M43.0503615,9.07611111 L43.0503615,6.21444444 L44.826506,6.21444444 L44.826506,9.07611111 L43.0503615,9.07611111 Z M60.6520482,16.4144444 L58.8759036,16.4144444 C58.3966265,14.2327778 57.0715663,12.9011111 54.7597591,12.9011111 C51.3484338,12.9011111 49.6568675,16.0177778 49.6568675,19.1344444 C49.6568675,22.2511111 51.3484338,25.3677778 54.7597591,25.3677778 C56.9587952,25.3677778 58.7631326,23.6394444 58.9886747,21.2027778 L60.7648193,21.2027778 C60.2855422,24.7161111 58.0019277,26.8694444 54.7597591,26.8694444 C50.3053012,26.8694444 47.8807229,23.3277778 47.8807229,19.1344444 C47.8807229,14.9411111 50.3053012,11.3994444 54.7597591,11.3994444 C57.8609639,11.3994444 60.2573494,13.0711111 60.6520482,16.4144444 Z M72.9253012,20.7777778 L72.9253012,18.4544444 L72.8689157,18.4544444 C72.6433735,18.8794444 71.8539759,19.0211111 71.3746988,19.1061111 C68.3580723,19.6444444 64.6084338,19.6161111 64.6084338,22.4777778 C64.6084338,24.2627778 66.1872289,25.3677778 67.8506024,25.3677778 C70.5571085,25.3677778 72.953494,23.6394444 72.9253012,20.7777778 Z M65.2286747,16.3011111 L63.4525301,16.3011111 C63.6216868,12.8727778 66.0180723,11.3994444 69.3448193,11.3994444 C71.9103615,11.3994444 74.7014458,12.1927778 74.7014458,16.1027778 L74.7014458,23.8661111 C74.7014458,24.5461111 75.0397591,24.9427778 75.7445783,24.9427778 C75.9419277,24.9427778 76.1674699,24.8861111 76.3084338,24.8294444 L76.3084338,26.3311111 C75.913735,26.4161111 75.6318073,26.4444444 75.1525301,26.4444444 C73.3481928,26.4444444 73.0662651,25.4244444 73.0662651,23.8944444 L73.0098795,23.8944444 C71.7693976,25.7927778 70.5007229,26.8694444 67.7096386,26.8694444 C65.0313253,26.8694444 62.8322892,25.5377778 62.8322892,22.5911111 C62.8322892,18.4827778 66.8074699,18.3411111 70.6416868,17.8877778 C72.1077109,17.7177778 72.9253012,17.5194444 72.9253012,15.9044444 C72.9253012,13.4961111 71.2055422,12.9011111 69.1192771,12.9011111 C66.920241,12.9011111 65.2850603,13.9211111 65.2286747,16.3011111 Z M78.6578314,26.4444444 L78.6578314,6.21444444 L80.4339759,6.21444444 L80.4339759,26.4444444 L78.6578314,26.4444444 Z" id="Digical" fill="#FFFFFF"></path>
                <g id="ABC" stroke-width="1" transform="translate(93.975904, 7.555556)">
                    <mask id="mask-2" fill="white">
                        <use xlink:href="#path-1"></use>
                    </mask>
                    <g id="Mask"></g>
                    <path d="M-4.84351807,17.9444444 L0.759325301,3.10911111 L4.08795181,3.10911111 L9.60809639,17.9444444 L6.23812048,17.9444444 L5.12168675,14.6407778 L-0.398457831,14.6407778 L-1.55624096,17.9444444 L-4.84351807,17.9444444 Z M2.37195181,6.766 L0.449204819,12.2097778 L4.2740241,12.2097778 L2.4133012,6.766 L2.37195181,6.766 Z M14.4115181,11.3371111 L14.4115181,15.4095556 L17.8848675,15.4095556 C19.1666988,15.4095556 20.2831326,14.994 20.2831326,13.4564444 C20.2831326,11.9396667 19.3320964,11.3371111 17.9468916,11.3371111 L14.4115181,11.3371111 Z M11.1655904,17.9444444 L11.1655904,3.10911111 L18.1122892,3.10911111 C20.9240482,3.10911111 22.8261205,4.02333333 22.8261205,6.78677778 C22.8261205,8.24122222 22.1025061,9.25933333 20.8206747,9.88266667 C22.6193735,10.4021111 23.5290603,11.7942222 23.5290603,13.6434444 C23.5290603,16.6562222 20.9860723,17.9444444 18.3190362,17.9444444 L11.1655904,17.9444444 Z M14.4115181,5.644 L14.4115181,9.11388889 L17.6987952,9.11388889 C18.8359037,9.11388889 19.6835663,8.59444444 19.6835663,7.34777778 C19.6835663,5.93488889 18.608482,5.644 17.4506988,5.644 L14.4115181,5.644 Z M38.9799519,8.09577778 L35.8373977,8.09577778 C35.6306507,6.62055556 34.2247712,5.49855556 32.6121447,5.49855556 C29.6970121,5.49855556 28.6012531,7.99188889 28.6012531,10.5891111 C28.6012531,13.0616667 29.6970121,15.555 32.6121447,15.555 C34.5969158,15.555 35.7133495,14.1836667 35.9614459,12.2305556 L39.1040001,12.2305556 C38.7732049,15.929 36.230217,18.2976667 32.6121447,18.2976667 C28.0430362,18.2976667 25.3553254,14.8693333 25.3553254,10.5891111 C25.3553254,6.18422222 28.0430362,2.75588889 32.6121447,2.75588889 C35.8580724,2.75588889 38.5871326,4.66744444 38.9799519,8.09577778 Z" fill="#FFFFFF" opacity="0.358482143" mask="url(#mask-2)"></path>
                </g>
                <rect id="BG" fill="#FFFFFF" opacity="0.538058036" x="93.0361446" y="0" width="1" height="34"></rect>
            </g>
        </g>
    </g>
</svg>