<?xml version="1.0" encoding="UTF-8"?>
<svg width="155px" height="32px" viewBox="0 0 155 32" version="1.1" xmlns="http://www.w3.org/2000/svg" xmlns:xlink="http://www.w3.org/1999/xlink">
    <!-- Generator: Sketch 48.2 (47327) - http://www.bohemiancoding.com/sketch -->
    <title>Group 2</title>
    <desc>Created with Sketch.</desc>
    <defs>
        <polygon id="path-1" points="0 31.6744 31.7048 31.6744 31.7048 0 0 0"></polygon>
    </defs>
    <g id="Sales_page" stroke="none" stroke-width="1" fill="none" fill-rule="evenodd" transform="translate(-102.000000, -19.000000)">
        <g id="Group-2" transform="translate(102.000000, 19.000000)">
            <g id="Group-4">
                <g id="Group" transform="translate(103.000000, 7.000000)"></g>
                <g id="marchio">
                    <path d="M59.3261252,24.8786765 C60.8050538,24.8786765 62.5624575,24.7176409 63.4859412,24.3464275 C63.8795695,24.1831239 63.971391,24.0666944 64.0865443,23.6720439 C64.318356,22.8834989 64.5960784,20.8633722 64.5960784,20.5859072 C64.5960784,20.3991664 64.5501677,20.2381309 64.3875984,20.2381309 C64.2032027,20.2381309 64.157292,20.3303672 64.0865443,20.7015806 C63.9947227,21.1196682 63.6936686,21.7932958 63.3007929,22.2348205 C62.3773092,23.3008305 61.1294397,23.5329334 59.0724871,23.5329334 C55.9746397,23.5329334 51.79375,20.7945729 51.79375,15.2694659 C51.79375,13.0172362 52.2317838,10.8118808 53.9176871,9.25671589 C54.9367555,8.32906038 56.2523622,7.81646835 58.263404,7.81646835 C60.3895991,7.81646835 62.1921609,8.44473381 62.9553332,9.25671589 C63.5318519,9.86003218 63.8329061,10.6720143 63.8562378,11.392516 C63.8562378,11.7183673 63.9021486,11.903596 64.0865443,11.903596 C64.2950243,11.903596 64.3416877,11.7183673 64.3642667,11.3683229 C64.4101775,10.9048732 64.3875984,9.62792929 64.4335092,8.86130934 C64.4801726,8.04932727 64.5501677,7.77110622 64.5501677,7.58587753 C64.5501677,7.44676701 64.4568409,7.33033755 64.2032027,7.30690045 C63.5092729,7.23734519 62.7686796,7.02792337 61.892612,6.91224994 C60.8283855,6.77313942 59.9741443,6.68014706 58.5411265,6.68014706 C55.0963142,6.68014706 52.9023819,7.60931463 51.2375524,9.14104246 C49.0187832,11.1838503 48.5333333,13.9229667 48.5333333,15.5015687 C48.5333333,17.7545544 49.1339364,20.3530482 51.4001216,22.3504939 C53.5022324,24.1831239 56.1612933,24.8786765 59.3261252,24.8786765" id="Fill-11" fill="#FFFFFF"></path>
                    <path d="M84.8843901,20.9616316 C84.8843901,23.3173163 83.1537053,23.8608791 82.1277571,23.8608791 C81.6047684,23.8608791 81.080296,23.8380155 80.4660624,23.5887289 C79.7361036,23.2944527 79.6685972,22.9101973 79.6685972,21.4159528 L79.6685972,16.048178 C79.6685972,15.9338601 79.7138488,15.8888705 79.8036099,15.8888705 C80.1478181,15.8888705 80.3740757,15.8888705 80.7828229,15.9132092 C81.6722747,15.9581988 82.1967471,16.1160311 82.6752262,16.4545594 C84.4051692,17.6560028 84.8843901,19.5573663 84.8843901,20.9616316 L84.8843901,20.9616316 Z M79.6685972,9.05045224 C79.6685972,8.8026407 79.7138488,8.71044891 79.8733418,8.66545932 C80.101083,8.61825712 80.3065693,8.61825712 80.6255554,8.61825712 C82.5839814,8.61825712 83.4719495,10.6132875 83.4719495,12.1303956 C83.4719495,13.2396472 83.1299668,14.0538851 82.537988,14.5303323 C82.1507538,14.8703356 81.6507617,14.9603148 80.8985481,14.9603148 C80.3740757,14.9603148 80.0328348,14.9389263 79.8280903,14.8931992 C79.7361036,14.8703356 79.6685972,14.8246085 79.6685972,14.6431751 L79.6685972,9.05045224 Z M76.934961,18.2438176 C76.934961,20.3273521 76.934961,22.1180855 76.8214613,23.0680297 C76.7309583,23.7251728 76.6152331,24.2230085 76.1604925,24.3122501 C75.955748,24.3587148 75.6820135,24.4044419 75.3415144,24.4044419 C75.067038,24.4044419 74.9757932,24.4722951 74.9757932,24.5851378 C74.9757932,24.7429702 75.136028,24.8130359 75.4312756,24.8130359 C75.886758,24.8130359 76.4802204,24.7665713 77.0032092,24.7665713 C77.5491946,24.7429702 78.052154,24.7429702 78.3014082,24.7429702 C78.6433909,24.7429702 79.3251309,24.7665713 80.01058,24.8130359 C80.6715487,24.8336869 81.3317757,24.8786765 81.6047684,24.8786765 C85.7960967,24.8786765 87.6862745,22.365897 87.6862745,19.9423592 C87.6862745,17.2938734 85.4073788,15.6853111 83.5416814,15.0517691 C84.7938871,14.0538851 85.8636031,12.945371 85.8636031,11.0889971 C85.8636031,9.8875537 85.1358698,7.69117647 81.0120478,7.69117647 C80.2375793,7.69117647 79.3488694,7.75902963 78.2339019,7.75902963 C77.7769358,7.75902963 76.3422404,7.69117647 75.136028,7.69117647 C74.7940453,7.69117647 74.6352941,7.7369036 74.6352941,7.89547348 C74.6352941,8.05330583 74.7710486,8.09829542 75.0225283,8.09829542 C75.3415144,8.09829542 75.727265,8.12189652 75.9097547,8.16688611 C76.6612264,8.32471846 76.8437161,8.68758535 76.8897095,9.45757119 C76.934961,10.1825674 76.934961,10.8161094 76.934961,14.2589197 L76.934961,18.2438176 L76.934961,18.2438176 Z" id="Fill-12" fill="#FFFFFF"></path>
                    <path d="M68.5189533,18.2842736 C68.5189533,20.4898115 68.5189533,22.2859293 68.4098468,23.2402557 C68.3446663,23.8999181 68.2143053,24.286387 67.7800047,24.3759708 C67.5830462,24.4233539 67.3209072,24.468516 66.9957131,24.468516 C66.7342826,24.468516 66.6492645,24.5366293 66.6492645,24.6499047 C66.6492645,24.8083421 66.8008801,24.8786765 67.0835651,24.8786765 C67.9528748,24.8786765 69.3244994,24.8083421 69.823272,24.8083421 C70.4098966,24.8083421 71.7815213,24.8786765 73.2183265,24.8786765 C73.4570855,24.8786765 73.6313725,24.8083421 73.6313725,24.6499047 C73.6313725,24.5366293 73.522266,24.468516 73.2827985,24.468516 C72.9561875,24.468516 72.4779609,24.4233539 72.1740213,24.3759708 C71.5207993,24.286387 71.3684752,23.8762265 71.3032947,23.2632069 C71.2161512,22.2859293 71.2161512,20.4898115 71.2161512,18.2842736 L71.2161512,14.284839 C71.2161512,10.8280896 71.2161512,10.1921187 71.2593687,9.46434307 C71.3032947,8.66919445 71.4775817,8.28272558 72.0656233,8.16870985 C72.3263454,8.12354778 72.4999239,8.0998562 72.7174284,8.0998562 C72.9342245,8.0998562 73.065294,8.05469413 73.065294,7.87330548 C73.065294,7.7370789 72.8924239,7.69117647 72.6097389,7.69117647 C71.7815213,7.69117647 70.4984571,7.76003012 69.9543415,7.76003012 C69.3244994,7.76003012 67.9528748,7.69117647 67.1267826,7.69117647 C66.7789171,7.69117647 66.6039216,7.7370789 66.6039216,7.87330548 C66.6039216,8.05469413 66.7342826,8.0998562 66.9524956,8.0998562 C67.2146346,8.0998562 67.4966112,8.12354778 67.7353702,8.19092071 C68.2143053,8.30493643 68.4311013,8.69140531 68.4743188,9.46434307 C68.5189533,10.1921187 68.5189533,10.8280896 68.5189533,14.284839 L68.5189533,18.2842736" id="Fill-13" fill="#FFFFFF"></path>
                    <path d="M97.4413577,8.98247515 C97.4413577,8.73325726 97.484494,8.64408756 97.6400115,8.5972163 C97.8608009,8.55320305 98.061725,8.55320305 98.3687869,8.55320305 C100.270187,8.55320305 101.134615,10.5412302 101.134615,12.0519707 C101.134615,13.1597328 100.800876,13.9736922 100.227618,14.4452627 C99.8484736,14.7836503 99.3631909,14.8773929 98.6344154,14.8773929 C98.1252942,14.8773929 97.7949614,14.8562436 97.5934697,14.8082292 C97.5049269,14.7836503 97.4413577,14.7396371 97.4413577,14.5572965 L97.4413577,8.98247515 Z M94.782803,18.1492351 C94.782803,20.2252887 94.782803,22.0143988 94.6743948,22.9598263 C94.5813113,23.6171671 94.4751734,24.1093153 94.0352973,24.2024862 C93.8349408,24.247071 93.5698799,24.2939423 93.2344389,24.2939423 C92.9699456,24.2939423 92.8848083,24.3608196 92.8848083,24.4734249 C92.8848083,24.6311867 93.0374879,24.6992072 93.325252,24.6992072 C94.2106802,24.6992072 95.6040943,24.6311867 96.1081073,24.6311867 C96.7789894,24.6311867 98.7905005,24.7660844 99.3172167,24.7660844 C103.391889,24.7660844 105.228585,22.2596155 105.228585,19.8451743 C105.228585,17.2026644 103.013879,15.5970381 101.201589,14.963133 C102.417918,13.9736922 103.458864,12.8693597 103.458864,11.0150871 C103.458864,9.82044174 102.752791,7.62778157 98.7416884,7.62778157 C97.99248,7.62778157 97.1280524,7.69351565 96.0445381,7.69351565 C95.6040943,7.69351565 94.2106802,7.62778157 93.0374879,7.62778157 C92.7060199,7.62778157 92.5499348,7.67122322 92.5499348,7.83298621 C92.5499348,7.98960479 92.6804787,8.03533285 92.9273769,8.03533285 C93.2344389,8.03533285 93.6107458,8.05705367 93.791237,8.10392493 C94.5194448,8.26111511 94.6970981,8.62008033 94.7396667,9.38774003 C94.782803,10.1125297 94.782803,10.7424336 94.782803,14.1754672 L94.782803,18.1492351 Z M102.509299,20.8591939 C102.509299,23.2090442 100.823012,23.7526364 99.8286082,23.7526364 C99.3172167,23.7526364 98.8097983,23.727486 98.213837,23.4794113 C97.5049269,23.1844654 97.4413577,22.8026361 97.4413577,21.3101868 L97.4413577,15.9611477 C97.4413577,15.849114 97.484494,15.8028143 97.5696313,15.8028143 C97.9045048,15.8028143 98.1252942,15.8028143 98.5237369,15.8251068 C99.3875969,15.8679768 99.8938802,16.0263102 100.359298,16.3675558 C102.041611,17.5627728 102.509299,19.4593438 102.509299,20.8591939 L102.509299,20.8591939 Z" id="Fill-10" fill="#FFFFFF"></path>
                    <path d="M141.335096,14.2750401 C141.335096,10.8654421 141.335096,10.2361097 141.379935,9.5176077 C141.423639,8.73165678 141.599021,8.35154234 142.192145,8.2395086 C142.457206,8.19492375 142.588317,8.17205973 142.807971,8.17205973 C142.985057,8.17205973 143.116736,8.12747487 143.116736,7.97028469 C143.116736,7.81309451 142.961786,7.76736645 142.655292,7.76736645 C141.906651,7.76736645 140.520048,7.83424373 139.994467,7.83424373 C139.466615,7.83424373 138.082282,7.76736645 136.916469,7.76736645 C136.587271,7.76736645 136.432889,7.81309451 136.432889,7.97028469 C136.432889,8.12747487 136.565135,8.17205973 136.806358,8.17205973 C137.11342,8.17205973 137.488024,8.19492375 137.663974,8.2395086 C138.388777,8.39612719 138.565862,8.75509241 138.608999,9.5176077 C138.65327,10.2361097 138.65327,10.8654421 138.65327,14.2750401 L138.65327,18.2230859 C138.65327,20.2865643 138.65327,22.0602412 138.542024,23.0022391 C138.455752,23.6544354 138.345073,24.1471552 137.905764,24.2374681 C137.707678,24.2803382 137.443753,24.3272094 137.11342,24.3272094 C136.848926,24.3272094 136.762654,24.3940867 136.762654,24.506692 C136.762654,24.6633106 136.916469,24.7307595 137.20253,24.7307595 C138.082282,24.7307595 139.466615,24.6633106 139.972331,24.6633106 C140.520048,24.6633106 141.906651,24.7307595 143.138304,24.7307595 C143.379527,24.7307595 143.556045,24.6633106 143.556045,24.506692 C143.556045,24.3940867 143.446501,24.3272094 143.269983,24.3272094 C142.985057,24.3272094 142.500909,24.2803382 142.192145,24.2374681 C141.642725,24.1471552 141.445774,23.6544354 141.401503,23.0256747 C141.335096,22.0602412 141.335096,20.2865643 141.335096,18.2230859 L141.335096,16.1813283 L141.445774,16.1813283 L141.687564,16.5180011 C142.149009,17.1690543 146.479093,22.3517575 147.447955,23.2274498 C148.392412,24.0797063 148.987806,24.5729977 150.174052,24.6861747 C150.636064,24.7307595 151.030534,24.7307595 151.690632,24.7307595 L153.603384,24.7307595 C154.021692,24.7307595 154.1301,24.6633106 154.1301,24.506692 C154.1301,24.3729375 153.999556,24.3272094 153.844039,24.3272094 C153.581816,24.3272094 153.140804,24.259189 152.482409,23.9905366 C151.29446,23.5183945 150.305732,22.5089477 149.338004,21.5675214 C148.48209,20.7358424 144.172439,16.0029889 143.379527,14.9478141 C144.126465,14.1401423 147.447955,10.7751292 148.127351,10.1006404 C149.072376,9.15921408 149.822719,8.68764353 150.50325,8.41899121 C150.920991,8.26180103 151.470978,8.17205973 151.77804,8.17205973 C151.997126,8.17205973 152.107805,8.12747487 152.107805,7.97028469 C152.107805,7.81309451 151.954558,7.76736645 151.734903,7.76736645 C151.05267,7.76736645 149.842584,7.83424373 149.161486,7.83424373 C148.567795,7.83424373 147.359413,7.76736645 146.897401,7.76736645 C146.655611,7.76736645 146.5455,7.81309451 146.5455,7.97028469 C146.5455,8.10403925 146.634043,8.1503389 146.832696,8.19492375 C147.051783,8.2395086 147.139191,8.39612719 147.139191,8.64305868 C147.139191,9.02431632 146.655611,9.58448498 146.040352,10.3269942 C145.402389,11.0889379 142.192145,14.4322303 141.445774,15.2621944 L141.335096,15.2621944 L141.335096,14.2750401 Z" id="Fill-15" fill="#FFFFFF"></path>
                    <path d="M113.266172,17.7791237 L109.220447,17.7791237 C109.130201,17.7791237 109.109768,17.7088168 109.130201,17.6185039 L111.151929,12.097413 C111.179173,12.0082433 111.214363,11.89278 111.284743,11.89278 C111.349447,11.89278 111.373286,12.0082433 111.395421,12.097413 L113.375148,17.6396531 C113.394446,17.7088168 113.375148,17.7791237 113.266172,17.7791237 M136.334413,7.77153914 C135.253737,7.77153914 134.419959,7.83555841 134.176466,7.83555841 C133.714454,7.83555841 132.658184,7.77153914 131.516776,7.77153914 C131.185308,7.77153914 130.943518,7.79554637 130.943518,7.97388577 C130.943518,8.10992673 131.032061,8.17566081 131.293149,8.17566081 C131.603049,8.17566081 132.129765,8.17566081 132.460665,8.31055857 C132.989652,8.53748403 133.184332,8.95989693 133.208171,10.3288805 L133.42896,20.4062003 L133.318849,20.4062003 C132.94084,20.0489499 129.978628,16.8142617 128.478509,15.2886595 C125.270535,12.0368233 121.929746,8.38143705 121.661847,8.0853479 C121.290081,7.68122623 121.092562,7.39028149 120.850205,7.39028149 C120.627145,7.39028149 120.566414,7.70180386 120.566414,8.15222518 L120.36549,21.4413691 C120.342219,23.3933854 120.128808,24.2216348 119.684959,24.2216348 C118.844937,24.2216348 118.60258,23.6694685 117.842019,21.815196 C116.433281,18.4061696 112.915974,9.24798367 112.383582,8.01218302 C112.165063,7.49774242 112.033384,7.29939698 111.836433,7.29939698 C111.616779,7.29939698 111.482829,7.54289887 111.214363,8.19395203 L105.701437,22.2901961 C105.259291,23.4071038 104.840415,24.1719055 103.831254,24.3079465 C103.652466,24.3302389 103.637709,24.3479585 103.436217,24.3479585 C103.259699,24.3479585 103.174562,24.3971162 103.174562,24.5308708 C103.174562,24.7086386 103.307944,24.7520802 103.59514,24.7520802 C104.73144,24.7520802 105.655463,24.6880609 105.898388,24.6880609 C106.582325,24.6880609 107.523376,24.7520802 108.227746,24.7520802 C108.471806,24.7520802 108.599512,24.7086386 108.599512,24.5308708 C108.599512,24.3971162 108.53651,24.3479585 108.274287,24.3479585 L107.942819,24.3479585 C107.261153,24.3479585 107.060797,24.0593002 107.060797,23.6563217 C107.060797,23.3859546 107.177151,22.84865 107.391129,22.2901961 L108.581917,19.0800868 C108.623918,18.9440458 108.669324,18.8971746 108.778868,18.8971746 L113.681075,18.8971746 C113.78778,18.8971746 113.859296,18.9440458 113.90527,19.0549363 L115.663639,23.8112255 C115.769209,24.0804494 115.619368,24.2856541 115.463283,24.3302389 C115.242493,24.3479585 115.154518,24.3971162 115.154518,24.5308708 C115.154518,24.6880609 115.419579,24.6880609 115.815751,24.7086386 C117.573553,24.7520802 119.180378,24.7520802 119.970452,24.7520802 C120.465384,24.7520802 122.497896,24.7377902 123.925365,24.7377902 C124.234697,24.7377902 124.433918,24.6926337 124.433918,24.5131511 C124.433918,24.3799682 124.301672,24.3330969 124.058747,24.3330969 C123.706278,24.3330969 123.293078,24.3136625 122.919609,24.1787647 C122.47803,24.0221462 122.190834,23.4356839 122.143725,21.6842994 L121.907043,12.2603192 L121.972315,12.2603192 C122.367352,12.6855901 124.80682,15.4921494 127.204287,17.9191658 C129.491075,20.2250029 132.300607,23.163602 133.692886,24.5131511 C133.935811,24.7617974 134.197466,25.0064425 134.438121,25.0064425 C134.63791,25.0064425 134.724183,24.8086687 134.724183,24.3136625 L134.965405,10.1516843 C134.987541,8.89530605 135.162356,8.4225923 135.781588,8.24596769 C136.050055,8.17566081 136.220329,8.17566081 136.438848,8.17566081 C136.700504,8.17566081 136.833886,8.10992673 136.833886,7.97388577 C136.833886,7.79554637 136.615366,7.77153914 136.334413,7.77153914" id="Fill-12" fill="#FFFFFF"></path>
                    <path d="M10.76824,20.20656 L10.79384,20.18896 L10.79384,20.12496 L10.77144,18.06176 L10.77064,18.05536 L10.77064,18.04896 C10.73464,17.73856 10.72584,17.39856 10.71864,17.03216 C10.70824,16.62416 10.69864,16.20176 10.64504,15.82736 C10.63464,15.29296 10.52984,14.71936 10.42584,14.16496 L10.35624,13.78656 L10.35064,13.74896 L10.32584,13.72416 C10.23944,13.64176 10.21304,13.53856 10.18344,13.41696 C10.15544,13.31696 10.12744,13.21216 10.06424,13.11376 C9.92584,12.85936 9.70584,12.61616 9.51304,12.39776 L9.50344,12.38736 C9.45384,12.32176 9.39624,12.28736 9.34744,12.25776 C9.31944,12.23616 9.29224,12.21776 9.26104,12.19376 L9.21624,12.15616 L9.18984,12.16176 L9.15544,12.13376 C8.98104,11.99216 8.81624,11.94016 8.62664,11.87856 L8.62344,11.87776 C8.56904,11.79856 8.46504,11.78656 8.39464,11.78576 L8.39464,11.73296 L8.29624,11.71856 L7.83704,11.65216 L7.76984,11.64016 L7.72664,11.69536 C7.71144,11.71696 7.70744,11.72176 7.60984,11.68896 C7.56664,11.67296 7.51784,11.65616 7.46344,11.64976 L7.40984,11.64336 L7.38344,11.66896 C7.36984,11.66016 7.35304,11.64976 7.33064,11.63856 L7.14104,11.58176 L7.12424,11.66896 C7.04104,11.66896 6.96584,11.68416 6.90664,11.71696 L6.81064,11.71696 L6.60264,11.71696 L6.32264,11.71856 L6.35544,11.82656 L6.34824,11.83456 C6.22504,11.79936 6.13144,11.87776 6.07864,11.92016 C6.06984,11.92816 6.05864,11.93536 6.05304,11.94016 C5.95304,11.95696 5.89624,11.99936 5.85544,12.03216 C5.82664,12.05296 5.81624,12.06016 5.78984,12.06256 L5.74104,12.06576 L5.70984,12.10496 C5.66824,12.15216 5.53544,12.21136 5.46424,12.24256 L5.30984,12.31216 L5.34504,12.34576 C5.31784,12.35856 5.29304,12.37376 5.26984,12.39536 L5.23464,12.39536 L5.12264,12.39536 L5.12264,12.51136 L5.12264,12.51376 C5.11544,12.51216 5.10824,12.51216 5.10344,12.51136 L5.02184,12.47376 C5.01384,12.47136 4.95944,12.54496 4.95944,12.54496 C4.86904,12.67216 4.74984,12.79856 4.62504,12.93216 C4.47784,13.08576 4.32744,13.24736 4.20984,13.42256 L4.17544,13.47376 L4.19784,13.52736 C4.16984,13.54496 4.10104,13.58816 4.08904,13.67216 C4.03224,13.73456 4.01784,13.81696 4.00744,13.87216 C4.00584,13.88816 4.00184,13.91136 3.99944,13.92096 C3.93784,13.99616 3.92264,14.07056 3.91464,14.12496 C3.90744,14.17056 3.90184,14.19456 3.88424,14.21936 L3.81064,14.31136 L3.84344,14.33616 C3.82184,14.39216 3.81944,14.44976 3.81944,14.48576 C3.81944,14.50096 3.81944,14.52016 3.81704,14.53216 L3.76824,14.56096 L3.77944,14.63696 C3.80104,14.78016 3.78184,14.91696 3.76184,15.05776 C3.74184,15.19616 3.72584,15.33536 3.74024,15.49056 C3.68344,15.57776 3.69704,15.67776 3.70744,15.74256 C3.70984,15.76416 3.71544,15.79376 3.71384,15.80656 L3.63864,15.86576 L3.69144,15.95216 C3.73224,16.02256 3.70104,16.12656 3.66984,16.22816 C3.64024,16.32576 3.60744,16.44496 3.64344,16.54816 C3.63464,16.55616 3.62504,16.56576 3.61704,16.57616 C3.60264,16.59376 3.59304,16.62416 3.59544,16.66496 C3.59544,16.74256 3.58744,16.76576 3.58504,16.77216 L3.52904,16.88336 L3.52184,16.92736 L3.62104,17.00016 C3.60984,17.06416 3.61944,17.12576 3.62504,17.18176 C3.63704,17.25536 3.64024,17.28896 3.61944,17.31856 L3.55624,17.42816 L3.61944,17.50096 C3.61944,17.50736 3.61944,17.51456 3.61704,17.51856 C3.61464,17.56976 3.60984,17.66096 3.67144,17.72896 C3.67224,17.74016 3.67624,17.75136 3.67944,17.76336 L3.56584,17.79296 L3.64024,17.94896 C3.63864,17.96016 3.63464,17.97616 3.63304,17.98816 C3.62184,18.03296 3.60024,18.12496 3.64824,18.20496 C3.61224,18.29536 3.63464,18.38416 3.64824,18.44096 C3.65384,18.45936 3.65944,18.47936 3.66024,18.49936 C3.55624,18.60816 3.60664,18.75536 3.63464,18.83536 C3.58664,18.90816 3.59704,18.99936 3.60744,19.05456 L3.46424,19.10256 L3.61144,19.25296 C3.60264,19.28416 3.60264,19.32576 3.62824,19.36576 C3.64344,19.39216 3.66584,19.40736 3.68744,19.41856 L3.64344,19.43056 C3.64504,19.43856 3.64824,19.44256 3.64904,19.44656 L3.64824,19.44656 L3.70104,19.57936 L3.70024,19.59616 C3.68584,19.67296 3.70424,19.74896 3.74184,19.80896 C3.72984,19.82496 3.72184,19.84656 3.71944,19.87216 L3.66264,19.92976 L3.71944,20.01216 C3.76184,20.07216 3.74424,20.15216 3.71384,20.27936 C3.68344,20.38976 3.64904,20.53616 3.71544,20.65696 L3.63464,20.73696 L3.73624,20.80816 C3.73384,20.81456 3.72984,20.82176 3.72824,20.82256 C3.70184,20.87216 3.65464,20.96256 3.71464,21.05776 L3.70744,21.04816 C3.72984,21.09296 3.71944,21.16736 3.70984,21.24816 C3.69624,21.36496 3.67944,21.50576 3.74184,21.64496 L3.72264,21.78576 L3.72584,21.76736 C3.70984,21.82176 3.72264,21.86896 3.74024,21.90496 L3.69624,21.92496 L3.72584,22.02016 C3.75864,22.12256 3.76024,22.24656 3.76024,22.37856 C3.76184,22.62976 3.76184,22.91056 3.98584,23.12256 L4.03544,23.16976 L4.09944,23.15136 C4.26744,23.10096 4.27704,22.93536 4.28024,22.84576 C4.28184,22.82576 4.28184,22.80816 4.28344,22.79296 L4.28664,22.76816 L4.28024,22.74576 C4.21144,22.51696 4.24104,22.21616 4.26744,21.95536 C4.27384,21.88336 4.28024,21.81696 4.28344,21.75456 L4.28664,21.72176 L4.27304,21.69456 C4.22664,21.60016 4.23784,21.50976 4.25064,21.40496 C4.26264,21.31056 4.27464,21.20336 4.23864,21.09296 C4.27944,20.61136 4.25544,20.04016 4.23544,19.53696 C4.22744,19.32096 4.21864,19.11856 4.21544,18.93216 L4.21544,18.92656 L4.21464,18.91936 C4.18504,18.68176 4.19224,18.42656 4.20184,18.17856 C4.20744,17.95536 4.21464,17.72896 4.19224,17.51696 C4.24744,17.27936 4.24344,17.05776 4.23864,16.82176 C4.23784,16.71536 4.23544,16.60816 4.23864,16.49456 L4.23864,16.46336 L4.23384,16.44976 C4.28344,16.38736 4.29704,16.32336 4.26984,16.26016 C4.29544,16.17296 4.29864,16.08736 4.30024,16.00976 C4.30184,15.95216 4.30504,15.89296 4.31784,15.84016 L4.32424,15.81296 L4.31624,15.78256 C4.30104,15.73376 4.31464,15.67216 4.32984,15.61216 C4.34584,15.53776 4.36424,15.44656 4.33384,15.36016 C4.42344,15.17696 4.44344,14.95536 4.46184,14.74176 L4.46904,14.66576 C4.47624,14.61936 4.46024,14.57376 4.42104,14.53536 L4.42104,14.52976 C4.42104,14.43376 4.47064,14.35696 4.53224,14.25856 C4.60184,14.15136 4.67704,14.03296 4.69544,13.86736 L4.69944,13.83936 L4.69704,13.83536 C4.70664,13.82496 4.71624,13.81856 4.72504,13.80976 C4.76504,13.77696 4.82984,13.72096 4.82824,13.63536 C4.82584,13.62096 4.82504,13.60656 4.82104,13.59136 C4.90104,13.51856 4.95064,13.43696 4.99464,13.36416 C5.05944,13.25296 5.10504,13.17456 5.23464,13.13856 L5.29704,13.12016 L5.31304,13.05616 C5.33064,12.98576 5.39304,12.94656 5.49224,12.88336 C5.56904,12.83856 5.64744,12.78576 5.70984,12.70816 C5.79224,12.71376 5.84344,12.69136 5.87304,12.66096 C5.97304,12.63616 6.04984,12.57696 6.11224,12.52576 C6.21864,12.44096 6.25224,12.42176 6.32584,12.45456 L6.39864,12.48816 L6.44264,12.44256 C6.44664,12.44256 6.45224,12.44016 6.45224,12.44016 C6.48664,12.43296 6.54504,12.41696 6.57784,12.36016 C6.60984,12.35376 6.63784,12.34416 6.66184,12.33536 C6.72024,12.31536 6.73544,12.31296 6.75464,12.32336 C6.77624,12.33776 6.81464,12.35296 6.86264,12.34016 L6.86664,12.34736 L6.95064,12.33776 L7.06344,12.32336 C7.39464,12.28096 7.68024,12.24256 7.93784,12.38256 L8.02984,12.43296 L8.08664,12.34976 C8.09544,12.36096 8.10904,12.37616 8.12024,12.38896 C8.18664,12.46096 8.30344,12.58976 8.46984,12.56336 C8.50904,12.59456 8.54984,12.61936 8.58584,12.64096 C8.60264,12.64816 8.62184,12.66096 8.63384,12.66976 L8.63384,12.67456 L8.65784,12.70496 C8.70984,12.77616 8.82024,12.80656 8.90984,12.81136 C9.10424,13.01616 9.30024,13.29456 9.30024,13.41696 L9.30024,13.53136 L9.38744,13.53136 C9.38744,13.53456 9.38904,13.53696 9.38904,13.53856 C9.42104,13.69056 9.46424,13.87616 9.58184,13.99936 C9.54824,14.07616 9.57624,14.16976 9.58984,14.20816 C9.59384,14.22096 9.59784,14.23856 9.60024,14.25056 L9.57384,14.33856 L9.64744,14.41456 L9.66424,14.42336 C9.66024,14.50096 9.69624,14.57376 9.72104,14.62496 C9.72664,14.64016 9.73624,14.65456 9.74024,14.67056 L9.72264,14.71056 C9.61944,14.90976 9.75864,15.01936 9.82504,15.07136 C9.83704,15.07936 9.84264,15.08496 9.85064,15.08976 C9.79784,15.12976 9.80024,15.17216 9.78904,15.24016 L9.80024,15.32976 L9.83384,15.38496 L9.83704,15.38576 C9.84024,15.39136 9.84024,15.39376 9.84104,15.39936 C9.84584,15.41456 9.85384,15.43856 9.86824,15.46416 L9.82824,15.50336 L9.80104,15.60576 L9.85864,15.68496 L9.90184,15.70896 C9.90184,15.75616 9.92024,15.79856 9.93384,15.82416 C9.93544,15.83136 9.93944,15.83696 9.94104,15.84256 L9.92984,15.89296 C9.89224,16.08336 9.84344,16.32736 9.96104,16.52336 C9.95704,16.52656 9.95464,16.52896 9.95144,16.53056 C9.89784,16.60496 9.91144,16.68816 9.92024,16.74816 C9.92424,16.76896 9.92984,16.80096 9.92584,16.81056 L9.89784,16.92736 C9.89464,16.93376 9.93544,16.94096 9.96744,16.95136 C9.96424,16.96016 9.95864,16.97216 9.95624,16.98656 L9.93144,17.12176 L9.97944,17.12176 C9.97144,17.16896 9.96744,17.21456 9.96744,17.25296 C9.96584,17.32096 9.96424,17.36736 9.94104,17.40336 L9.92984,17.41856 L9.92424,17.43536 C9.89224,17.56016 9.93624,17.67696 9.97384,17.76896 C9.98104,17.78976 9.98744,17.80576 9.99384,17.82416 C9.97384,17.84336 9.95464,17.87536 9.95624,17.92016 C9.95624,17.93216 9.96184,17.93936 9.96424,17.94896 L9.94104,17.97376 L9.96104,18.04016 C9.97384,18.07696 9.99624,18.10256 10.02584,18.11456 L10.00584,18.12176 C10.00184,18.12176 10.00184,18.21056 10.00184,18.21056 L10.00184,18.24496 L9.92984,18.26336 L9.96504,18.34016 C9.94664,18.37376 9.92824,18.42416 9.94664,18.47936 L9.89944,18.56896 C9.90024,18.56576 9.90744,18.62336 9.95144,18.64176 C9.90344,18.79776 10.01864,18.91296 10.08744,18.98016 C10.11624,19.00976 10.13384,19.03136 10.14664,19.04816 L10.08984,19.04816 L10.13304,19.19376 L10.13384,19.19696 C10.12424,19.20816 10.11464,19.21856 10.10344,19.23376 L10.01144,19.27936 L10.04024,19.40736 L10.03144,19.43856 C10.00824,19.50336 10.02584,19.54896 10.04584,19.57776 C10.04904,19.58256 10.05384,19.58496 10.06024,19.58896 C10.02344,19.62096 9.98664,19.67296 9.97944,19.74896 L9.96744,19.85856 L10.05544,19.87056 C10.04904,19.89536 10.04104,19.91536 10.03624,19.93616 C10.02584,19.97856 10.01624,20.01216 9.99624,20.04096 L9.99784,20.04176 C9.99624,20.04576 9.99224,20.05136 9.98984,20.05536 L10.14344,20.14096 C10.12264,20.18336 10.10984,20.22096 10.10024,20.25216 C10.09624,20.26896 10.08824,20.28816 10.08344,20.29936 L10.07144,20.29936 L9.94184,20.29936 L9.94984,20.45136 C9.95624,20.47456 9.96104,20.49856 9.96264,20.52976 C9.96584,20.55696 9.97144,20.58656 9.97704,20.61936 L9.97704,20.76896 C9.97704,20.79216 9.97944,20.82176 9.98424,20.85216 L9.96584,20.86336 L9.98104,20.94576 C9.98424,20.98736 9.98264,21.02656 9.97944,21.06976 C9.97704,21.09056 9.97544,21.12096 9.97704,21.14736 L9.87064,21.20096 L10.00184,21.34016 C9.99784,21.34256 9.99624,21.34496 9.99624,21.34496 C9.98104,21.38176 9.96344,21.42736 9.96344,21.47936 L9.87144,21.47936 L10.02744,21.66976 C10.04104,21.68176 10.05384,21.72736 10.06104,21.75856 C10.06264,21.76176 10.06264,21.76576 10.06424,21.76976 C10.00184,21.83136 9.99064,21.92336 9.98664,21.97136 C9.98264,21.99296 9.98104,22.02496 9.97544,22.03456 L9.97704,22.03136 L10.01704,22.08176 C9.98664,22.10576 9.96744,22.13136 9.95624,22.15136 C9.94104,22.18976 9.94104,22.22816 9.94584,22.25936 L9.79384,22.25936 L9.91864,22.38576 L9.80104,22.42256 L9.89944,22.50496 L9.89944,22.80976 C9.89944,22.86656 9.92424,22.91296 9.97144,22.93536 C9.97384,22.93616 9.97704,22.93776 9.97704,22.93776 C10.03944,22.98016 10.10744,22.97696 10.16104,22.96256 L10.16104,23.09136 L10.31064,23.04816 C10.41704,23.01536 10.50104,23.00896 10.58584,23.02736 L10.70824,23.05216 L10.72264,22.92816 C10.78344,22.46816 10.77064,22.02576 10.75864,21.59616 C10.74824,21.17296 10.73784,20.77856 10.79064,20.38976 C10.82344,20.31296 10.79064,20.24336 10.76824,20.20656 L10.76824,20.20656 Z" id="Fill-1" fill="#FFFFFF"></path>
                    <path d="M28.352,8.94248 L28.352,8.94248 L28.344,8.93608 L28.3408,8.93608 C28.1496,8.82008 27.8576,8.75448 27.664,8.83928 C26.4096,8.72008 25.2144,8.73448 23.9488,8.74728 L23.9096,8.74728 L23.8616,8.75128 C23.2256,8.75768 22.5712,8.76568 21.9144,8.75288 L16.6096,8.64568 C15.3648,8.61288 14.0016,8.62248 12.6656,8.67288 C11.6752,8.67928 10.7136,8.70408 9.7352,8.73448 C8.7152,8.76088 6.2792,8.76888 4.8248,8.77288 C4.0504,8.77608 3.6448,8.77608 3.5904,8.78008 C3.4192,8.78968 3.2112,9.02888 3.208,9.22088 C3.2056,9.32808 3.268,9.45208 3.4528,9.47128 C3.5888,9.48408 4.4688,9.48968 6.0704,9.48408 L7.7032,9.47528 C8.1368,9.47368 8.3392,9.48168 8.432,9.47128 L8.444,9.47128 C9.6432,9.35208 10.8504,9.35848 12.0136,9.36408 L12.0312,9.36408 L12.1064,9.36408 C12.86,9.37048 13.6416,9.37368 14.4264,9.34408 C14.5904,9.38168 14.7616,9.34568 14.9272,9.31208 L14.9528,9.30728 C15.0272,9.29288 15.1032,9.27848 15.1768,9.27368 C15.3544,9.32408 15.5592,9.32088 15.7752,9.31768 C15.9856,9.31208 16.1968,9.30968 16.3888,9.35448 L16.3888,9.35848 L16.4232,9.35848 L16.4232,9.35208 C16.5928,9.29448 16.7472,9.32488 16.9096,9.35848 C16.9176,9.35848 16.9416,9.36248 16.9416,9.36248 C17.0192,9.37848 17.092,9.39128 17.164,9.39448 C18.6808,9.35208 20.3568,9.40808 22.4504,9.56808 C22.448,9.56808 23.4408,9.67368 23.4408,9.67368 L23.4496,9.67368 C24.3304,9.58808 25.2392,9.65368 26.1208,9.71848 C26.1224,9.71928 26.1416,9.71928 26.1416,9.71928 C26.8032,9.76888 27.4272,9.81528 28.0472,9.80248 L28.0512,9.80888 L28.0872,9.79608 L28.0872,9.78728 L28.4168,9.52488 L28.4168,9.52648 L28.4304,9.51128 L28.4296,9.50808 C28.54,9.33208 28.5056,9.08728 28.352,8.94248" id="Fill-3" fill="#FFFFFF"></path>
                    <path d="M19.57256,20.20656 L19.59976,20.18896 L19.59816,20.12496 L19.57576,18.06176 L19.57576,18.05536 L19.57576,18.04896 C19.53736,17.73856 19.53016,17.39856 19.52296,17.03216 C19.51336,16.62416 19.50616,16.20176 19.45016,15.82736 C19.43896,15.29296 19.33496,14.71936 19.23016,14.16496 L19.15976,13.78656 L19.15496,13.74896 L19.12696,13.72416 C19.04696,13.64176 19.01816,13.53856 18.98616,13.41696 C18.95976,13.31696 18.93256,13.21216 18.86856,13.11376 C18.73176,12.85936 18.51096,12.61616 18.31736,12.39776 L18.30616,12.38736 C18.25816,12.32176 18.20136,12.28736 18.15416,12.25776 C18.12376,12.23616 18.09576,12.21776 18.06536,12.19376 L18.02216,12.15616 L17.99496,12.16176 L17.95976,12.13376 C17.78456,11.99216 17.62056,11.94016 17.43416,11.87856 L17.42856,11.87776 C17.37416,11.79856 17.27016,11.78656 17.19896,11.78576 L17.19896,11.73296 L17.10056,11.71856 L16.64216,11.65216 L16.57256,11.64016 L16.53176,11.69536 C16.51576,11.71696 16.51016,11.72176 16.41496,11.68896 C16.37096,11.67296 16.31976,11.65616 16.26776,11.64976 L16.21576,11.64336 L16.18776,11.66896 C16.17416,11.66016 16.15656,11.64976 16.13656,11.63856 L15.94536,11.58176 L15.93176,11.66896 C15.84296,11.66896 15.77096,11.68416 15.71096,11.71696 L15.61656,11.71696 L15.40696,11.71696 L15.12696,11.71856 L15.15896,11.82656 L15.15496,11.83456 C15.03176,11.79936 14.93496,11.87776 14.88296,11.92016 C14.87496,11.92816 14.86296,11.93536 14.85736,11.94016 C14.75736,11.95696 14.70056,11.99936 14.65896,12.03216 C14.63096,12.05296 14.62136,12.06016 14.59496,12.06256 L14.54616,12.06576 L14.51416,12.10496 C14.47256,12.15216 14.34136,12.21136 14.27016,12.24256 L14.11576,12.31216 L14.15016,12.34576 C14.12456,12.35856 14.09816,12.37376 14.07496,12.39536 L14.04056,12.39536 L13.92616,12.39536 L13.92616,12.51136 L13.92616,12.51376 C13.92056,12.51216 13.91336,12.51216 13.90936,12.51136 L13.82456,12.47376 C13.81736,12.47136 13.76296,12.54496 13.76296,12.54496 C13.67336,12.67216 13.55416,12.79856 13.42936,12.93216 C13.28296,13.08576 13.13176,13.24736 13.01736,13.42256 L12.98056,13.47376 L13.00216,13.52736 C12.97576,13.54496 12.90376,13.58816 12.89176,13.67216 C12.83576,13.73456 12.82136,13.81696 12.81336,13.87216 C12.81016,13.88816 12.80856,13.91136 12.80216,13.92096 C12.74056,13.99616 12.72696,14.07056 12.71736,14.12496 C12.70856,14.17056 12.70616,14.19456 12.68776,14.21936 L12.61416,14.31136 L12.64776,14.33616 C12.62376,14.39216 12.62376,14.44976 12.62376,14.48576 C12.62376,14.50096 12.62376,14.52016 12.62216,14.53216 L12.57336,14.56096 L12.58456,14.63696 C12.60456,14.78016 12.58616,14.91696 12.56616,15.05776 C12.54616,15.19616 12.53016,15.33536 12.54456,15.49056 C12.48856,15.57776 12.50216,15.67776 12.51096,15.74256 C12.51416,15.76416 12.51976,15.79376 12.51816,15.80656 L12.44536,15.86576 L12.49656,15.95216 C12.53496,16.02256 12.50536,16.12656 12.47496,16.22816 C12.44616,16.32576 12.41176,16.44496 12.44776,16.54816 C12.43896,16.55616 12.43016,16.56576 12.42216,16.57616 C12.41016,16.59376 12.39816,16.62416 12.39976,16.66496 C12.39976,16.74256 12.39336,16.76576 12.38856,16.77216 L12.33416,16.88336 L12.32776,16.92736 L12.42456,17.00016 C12.41496,17.06416 12.42216,17.12576 12.43016,17.18176 C12.44216,17.25536 12.44536,17.28896 12.42216,17.31856 L12.36056,17.42816 L12.42216,17.50096 L12.42216,17.51856 C12.41816,17.56976 12.41256,17.66096 12.47656,17.72896 C12.47816,17.74016 12.48056,17.75136 12.48376,17.76336 L12.37096,17.79296 L12.44536,17.94896 C12.44536,17.96016 12.44056,17.97616 12.43736,17.98816 C12.42456,18.03296 12.40456,18.12496 12.45176,18.20496 C12.41656,18.29536 12.43896,18.38416 12.45416,18.44096 C12.45816,18.45936 12.46376,18.47936 12.46536,18.49936 C12.35976,18.60816 12.41176,18.75536 12.44056,18.83536 C12.39176,18.90816 12.40136,18.99936 12.41256,19.05456 L12.26936,19.10256 L12.41496,19.25296 C12.41016,19.28416 12.40856,19.32576 12.43176,19.36576 C12.44936,19.39216 12.47016,19.40736 12.49336,19.41856 L12.44856,19.43056 C12.44936,19.43856 12.45256,19.44256 12.45416,19.44656 L12.45256,19.44656 L12.50616,19.57936 L12.50296,19.59616 C12.49096,19.67296 12.51016,19.74896 12.54616,19.80896 C12.53496,19.82496 12.52616,19.84656 12.52376,19.87216 L12.46696,19.92976 L12.52376,20.01216 C12.56616,20.07216 12.54856,20.15216 12.51816,20.27936 C12.48936,20.38976 12.45416,20.53616 12.51976,20.65696 L12.44056,20.73696 L12.54056,20.80816 C12.53816,20.81456 12.53496,20.82176 12.53336,20.82256 C12.50616,20.87216 12.45976,20.96256 12.51816,21.05776 L12.51256,21.04816 C12.53496,21.09296 12.52536,21.16736 12.51416,21.24816 C12.50216,21.36496 12.48376,21.50576 12.54616,21.64496 L12.52776,21.78576 L12.53096,21.76736 C12.51416,21.82176 12.52776,21.86896 12.54456,21.90496 L12.50136,21.92496 L12.53096,22.02016 C12.56296,22.12256 12.56376,22.24656 12.56376,22.37856 C12.56616,22.62976 12.56616,22.91056 12.79256,23.12256 L12.84136,23.16976 L12.90376,23.15136 C13.07336,23.10096 13.08056,22.93536 13.08536,22.84576 C13.08616,22.82576 13.08616,22.80816 13.08856,22.79296 L13.09256,22.76816 L13.08536,22.74576 C13.01736,22.51696 13.04456,22.21616 13.07336,21.95536 C13.07816,21.88336 13.08536,21.81696 13.08936,21.75456 L13.09256,21.72176 L13.07736,21.69456 C13.03256,21.60016 13.04216,21.50976 13.05576,21.40496 C13.06856,21.31056 13.07816,21.20336 13.04456,21.09296 C13.08376,20.61136 13.06216,20.04016 13.03976,19.53696 C13.03256,19.32096 13.02296,19.11856 13.02136,18.93216 L13.01976,18.92656 L13.01896,18.91936 C12.98936,18.68176 12.99656,18.42656 13.00696,18.17856 C13.01176,17.95536 13.01896,17.72896 12.99656,17.51696 C13.05176,17.27936 13.04856,17.05776 13.04376,16.82176 C13.04136,16.71536 13.03976,16.60816 13.04376,16.49456 L13.04456,16.46336 L13.03736,16.44976 C13.08936,16.38736 13.10216,16.32336 13.07496,16.26016 C13.09896,16.17296 13.10376,16.08736 13.10376,16.00976 C13.10696,15.95216 13.10856,15.89296 13.12056,15.84016 L13.12936,15.81296 L13.12056,15.78256 C13.10456,15.73376 13.11896,15.67216 13.13336,15.61216 C13.15096,15.53776 13.17256,15.44656 13.13816,15.36016 C13.22776,15.17696 13.24936,14.95536 13.26536,14.74176 L13.27176,14.66576 C13.28136,14.61936 13.26376,14.57376 13.22616,14.53536 L13.22616,14.52976 C13.22616,14.43376 13.27656,14.35696 13.33896,14.25856 C13.40616,14.15136 13.48136,14.03296 13.50376,13.86736 L13.50616,13.83936 L13.50376,13.83536 C13.51176,13.82496 13.52056,13.81856 13.52936,13.80976 C13.57176,13.77696 13.63416,13.72096 13.63256,13.63536 C13.63256,13.62096 13.63016,13.60656 13.62456,13.59136 C13.70536,13.51856 13.75496,13.43696 13.79736,13.36416 C13.86376,13.25296 13.91096,13.17456 14.03896,13.13856 L14.10216,13.12016 L14.11976,13.05616 C14.13656,12.98576 14.19896,12.94656 14.29736,12.88336 C14.37176,12.83856 14.45416,12.78576 14.51336,12.70816 C14.59816,12.71376 14.64776,12.69136 14.67736,12.66096 C14.77816,12.63616 14.85336,12.57696 14.91976,12.52576 C15.02296,12.44096 15.05736,12.42176 15.12936,12.45456 L15.20216,12.48816 L15.24936,12.44256 C15.25096,12.44256 15.25496,12.44016 15.25736,12.44016 C15.29016,12.43296 15.34936,12.41696 15.38296,12.36016 C15.41496,12.35376 15.44216,12.34416 15.46696,12.33536 C15.52456,12.31536 15.53976,12.31296 15.56136,12.32336 C15.58056,12.33776 15.62056,12.35296 15.66776,12.34016 L15.67176,12.34736 L15.75656,12.33776 L15.86776,12.32336 C16.19896,12.28096 16.48456,12.24256 16.74296,12.38256 L16.83416,12.43296 L16.88936,12.34976 C16.90216,12.36096 16.91496,12.37616 16.92616,12.38896 C16.99096,12.46096 17.10776,12.58976 17.27576,12.56336 C17.31336,12.59456 17.35416,12.61936 17.39176,12.64096 C17.40776,12.64816 17.42456,12.66096 17.43976,12.66976 L17.43976,12.67456 L17.46296,12.70496 C17.51496,12.77616 17.62536,12.80656 17.71416,12.81136 C17.91016,13.01616 18.10696,13.29456 18.10696,13.41696 L18.10696,13.53136 L18.19016,13.53136 C18.19176,13.53456 18.19176,13.53696 18.19176,13.53856 C18.22536,13.69056 18.26856,13.87616 18.38616,13.99936 C18.35256,14.07616 18.38216,14.16976 18.39496,14.20816 C18.39736,14.22096 18.40216,14.23856 18.40696,14.25056 L18.37736,14.33856 L18.45496,14.41456 L18.46856,14.42336 C18.46616,14.50096 18.50296,14.57376 18.52696,14.62496 C18.53336,14.64016 18.54136,14.65456 18.54696,14.67056 L18.52696,14.71056 C18.42456,14.90976 18.56376,15.01936 18.63096,15.07136 C18.63896,15.07936 18.64856,15.08496 18.65496,15.08976 C18.60216,15.12976 18.60456,15.17216 18.59416,15.24016 L18.60216,15.32976 L18.63896,15.38496 C18.63896,15.38496 18.63976,15.38576 18.64216,15.38576 C18.64216,15.39136 18.64376,15.39376 18.64696,15.39936 C18.65016,15.41456 18.65736,15.43856 18.67416,15.46416 L18.63416,15.50336 L18.60696,15.60576 L18.66536,15.68496 L18.70856,15.70896 C18.70776,15.75616 18.72776,15.79856 18.73816,15.82416 C18.74136,15.83136 18.74376,15.83696 18.74616,15.84256 L18.73336,15.89296 C18.69736,16.08336 18.64936,16.32736 18.76696,16.52336 C18.76216,16.52656 18.75896,16.52896 18.75736,16.53056 C18.70136,16.60496 18.71656,16.68816 18.72776,16.74816 C18.72856,16.76896 18.73336,16.80096 18.73176,16.81056 L18.70136,16.92736 C18.69896,16.93376 18.74056,16.94096 18.77256,16.95136 C18.77016,16.96016 18.76536,16.97216 18.76216,16.98656 L18.73736,17.12176 L18.78456,17.12176 C18.77576,17.16896 18.77256,17.21456 18.77256,17.25296 C18.77176,17.32096 18.76856,17.36736 18.74456,17.40336 L18.73336,17.41856 L18.73096,17.43536 C18.69496,17.56016 18.74296,17.67696 18.77896,17.76896 C18.78696,17.78976 18.79176,17.80576 18.80056,17.82416 C18.77896,17.84336 18.75896,17.87536 18.76216,17.92016 C18.76216,17.93216 18.76696,17.93936 18.76856,17.94896 L18.74456,17.97376 L18.76696,18.04016 C18.77736,18.07696 18.80136,18.10256 18.83016,18.11456 L18.81016,18.12176 C18.80616,18.12176 18.80616,18.21056 18.80616,18.21056 L18.80616,18.24496 L18.73336,18.26336 L18.77016,18.34016 C18.75256,18.37376 18.73336,18.42416 18.75416,18.47936 L18.70136,18.56896 C18.70696,18.56576 18.71176,18.62336 18.75576,18.64176 C18.71016,18.79776 18.82536,18.91296 18.89176,18.98016 C18.91896,19.00976 18.94056,19.03136 18.95176,19.04816 L18.89416,19.04816 L18.93736,19.19376 L18.94056,19.19696 C18.92856,19.20816 18.91736,19.21856 18.91016,19.23376 L18.81416,19.27936 L18.84616,19.40736 L18.83576,19.43856 C18.81416,19.50336 18.83016,19.54896 18.85016,19.57776 C18.85416,19.58256 18.86056,19.58496 18.86456,19.58896 C18.83016,19.62096 18.79176,19.67296 18.78456,19.74896 L18.77256,19.85856 L18.86136,19.87056 C18.85256,19.89536 18.84696,19.91536 18.84056,19.93616 C18.83016,19.97856 18.81976,20.01216 18.80136,20.04096 L18.80216,20.04176 C18.80056,20.04576 18.79656,20.05136 18.79656,20.05536 L18.94776,20.14096 C18.92696,20.18336 18.91336,20.22096 18.90376,20.25216 C18.90056,20.26896 18.89336,20.28816 18.88776,20.29936 L18.87816,20.29936 L18.74696,20.29936 L18.75576,20.45136 C18.76216,20.47456 18.76616,20.49856 18.76856,20.52976 C18.77176,20.55696 18.77576,20.58656 18.78376,20.61936 L18.78376,20.76896 C18.78376,20.79216 18.78456,20.82176 18.78936,20.85216 L18.77176,20.86336 L18.78456,20.94576 C18.78936,20.98736 18.78776,21.02656 18.78456,21.06976 C18.78376,21.09056 18.77976,21.12096 18.77976,21.14736 L18.67576,21.20096 L18.80376,21.34016 L18.80136,21.34736 C18.78696,21.38176 18.76856,21.42736 18.76856,21.47936 L18.67816,21.47936 L18.83256,21.66976 C18.84696,21.68176 18.85896,21.72736 18.86696,21.75856 C18.86856,21.76176 18.86856,21.76576 18.86856,21.76976 C18.80456,21.83136 18.79656,21.92336 18.79176,21.97136 C18.78936,21.99296 18.78696,22.02496 18.77976,22.03456 C18.77976,22.03456 18.78056,22.03136 18.78376,22.03136 L18.82376,22.08176 C18.79176,22.10576 18.77176,22.13136 18.76216,22.15136 C18.74616,22.18976 18.74456,22.22816 18.74856,22.25936 L18.59816,22.25936 L18.72296,22.38576 L18.60696,22.42256 L18.70456,22.50496 L18.70456,22.80976 C18.70456,22.86656 18.73096,22.91296 18.77576,22.93536 C18.77896,22.93616 18.78376,22.93776 18.78376,22.93776 C18.84616,22.98016 18.91096,22.97696 18.96696,22.96256 L18.96696,23.09136 L19.11336,23.04816 C19.22296,23.01536 19.30616,23.00896 19.39096,23.02736 L19.51336,23.05216 L19.52856,22.92816 C19.58856,22.46816 19.57576,22.02576 19.56296,21.59616 C19.55096,21.17296 19.54376,20.77856 19.59576,20.38976 C19.63176,20.31296 19.59416,20.24336 19.57256,20.20656" id="Fill-5" fill="#FFFFFF"></path>
                    <path d="M28.2252,20.36216 L28.2532,20.34296 L28.2524,20.28056 L28.2284,18.21896 L28.2284,18.21096 L28.2284,18.20696 C28.1916,17.89576 28.1828,17.55256 28.1756,17.18856 C28.1676,16.77896 28.1572,16.35896 28.1036,15.98296 C28.0924,15.44776 27.9876,14.87336 27.882,14.32136 L27.814,13.94056 L27.8084,13.90696 L27.782,13.87816 C27.6996,13.79576 27.6716,13.69416 27.6388,13.57176 C27.6148,13.47256 27.586,13.36936 27.5228,13.27016 C27.3836,13.01576 27.1636,12.77096 26.9692,12.55336 L26.9604,12.54456 C26.9124,12.47736 26.8556,12.44216 26.8052,12.41256 C26.778,12.39256 26.75,12.37576 26.7188,12.35016 L26.6764,12.31176 L26.6484,12.31736 L26.6132,12.29016 C26.4388,12.15016 26.2756,12.09736 26.086,12.03416 L26.0812,12.03256 C26.0252,11.95496 25.9236,11.94296 25.8532,11.93976 L25.8532,11.88856 L25.7556,11.87496 L25.294,11.80616 L25.2268,11.79656 L25.1852,11.85256 C25.1692,11.87496 25.1636,11.87816 25.0668,11.84296 C25.0244,11.82856 24.9748,11.81096 24.9204,11.80536 L24.8692,11.79976 L24.8412,11.82696 C24.8268,11.81576 24.8084,11.80536 24.7884,11.79336 L24.5988,11.73656 L24.5844,11.82536 C24.498,11.82536 24.4244,11.84216 24.3636,11.87496 L24.27,11.87496 L24.0612,11.87496 L23.7812,11.87496 L23.8132,11.98296 C23.8116,11.98456 23.8092,11.98616 23.8076,11.98856 C23.6828,11.95736 23.5868,12.03256 23.5348,12.07576 C23.5284,12.08536 23.5148,12.09256 23.51,12.09736 C23.41,12.11416 23.354,12.15576 23.314,12.18616 C23.286,12.20856 23.2748,12.21416 23.2468,12.21816 L23.2004,12.22296 L23.17,12.25976 C23.1268,12.31176 22.9948,12.36776 22.922,12.40136 L22.7684,12.46936 L22.802,12.50296 C22.7772,12.51256 22.7524,12.52856 22.7276,12.55016 L22.694,12.55016 L22.5796,12.55016 L22.5796,12.66456 L22.5796,12.66856 C22.5732,12.66856 22.5652,12.66776 22.562,12.66456 L22.4788,12.63096 C22.4708,12.62696 22.4172,12.70056 22.4172,12.70056 C22.3268,12.82776 22.2084,12.95416 22.0836,13.08776 C21.9356,13.24296 21.7852,13.40296 21.6684,13.57816 L21.634,13.62856 L21.6564,13.68216 C21.6268,13.69896 21.5588,13.74376 21.5444,13.82776 C21.4884,13.88776 21.474,13.97096 21.4644,14.02616 C21.4636,14.04456 21.4612,14.06856 21.4556,14.07576 C21.3956,14.15176 21.3804,14.22616 21.37,14.28296 C21.3636,14.32616 21.3588,14.35016 21.3396,14.37336 L21.2676,14.46536 L21.3012,14.49096 C21.2772,14.54696 21.2772,14.60616 21.2772,14.64056 C21.2772,14.65736 21.2764,14.67656 21.274,14.68856 L21.226,14.71816 L21.2372,14.79256 C21.2572,14.93816 21.2396,15.07176 21.2212,15.21496 C21.2004,15.35256 21.1836,15.49096 21.1996,15.64696 C21.1428,15.73256 21.1556,15.83336 21.1628,15.89976 C21.1676,15.91896 21.1724,15.95256 21.1708,15.96456 L21.0988,16.02296 L21.1484,16.11096 C21.1884,16.17656 21.1588,16.28136 21.1292,16.38456 C21.0996,16.48136 21.0644,16.60136 21.0996,16.70296 C21.09,16.71176 21.0828,16.72056 21.0748,16.73416 C21.0612,16.75096 21.05,16.78136 21.0532,16.81736 C21.0532,16.89816 21.0452,16.92136 21.0412,16.92536 L20.9876,17.03896 L20.9804,17.08376 L21.078,17.15416 C21.0676,17.22136 21.0764,17.28376 21.0828,17.33656 C21.0972,17.41336 21.0988,17.44376 21.0764,17.47096 L21.014,17.58536 L21.0764,17.65576 C21.0764,17.66216 21.0764,17.66616 21.0748,17.67576 C21.0708,17.72696 21.0676,17.81496 21.1292,17.88296 C21.1316,17.89576 21.1332,17.90696 21.1372,17.91896 L21.0236,17.94856 L21.0988,18.10616 C21.0972,18.11576 21.0916,18.12856 21.09,18.14376 C21.078,18.18856 21.058,18.28056 21.1036,18.35976 C21.0684,18.45096 21.0916,18.54056 21.1068,18.59896 C21.1116,18.61736 21.1172,18.63576 21.1188,18.65336 C21.0124,18.76376 21.0636,18.91336 21.0916,18.98936 C21.042,19.06456 21.0548,19.15496 21.0644,19.21176 L20.922,19.25976 L21.0684,19.40776 C21.0612,19.44216 21.0612,19.48136 21.0844,19.52136 C21.1028,19.54696 21.1252,19.56456 21.146,19.57096 L21.1012,19.58616 C21.1028,19.59176 21.106,19.59816 21.1068,19.60376 L21.1588,19.73576 L21.1564,19.75016 C21.146,19.82856 21.1628,19.90536 21.2004,19.96616 C21.1876,19.97976 21.1796,20.00216 21.1788,20.02856 L21.1196,20.08616 L21.1764,20.16536 C21.2212,20.22776 21.202,20.30856 21.17,20.43736 C21.1428,20.54696 21.1068,20.69016 21.1724,20.81176 L21.0916,20.89256 L21.1972,20.96456 C21.1916,20.97176 21.1884,20.97656 21.1844,20.97976 C21.1612,21.02776 21.1124,21.11896 21.1708,21.21416 L21.1668,21.20376 C21.1876,21.24856 21.1788,21.32216 21.1676,21.40616 C21.1548,21.52376 21.1388,21.66136 21.2004,21.80056 L21.1796,21.94136 L21.1844,21.92456 C21.1668,21.97896 21.182,22.02456 21.1996,22.05656 L21.154,22.07976 L21.1844,22.17816 C21.2172,22.27736 21.2188,22.40216 21.2188,22.53416 C21.2212,22.78296 21.2212,23.06536 21.4444,23.27896 L21.494,23.32376 L21.5588,23.30616 C21.7244,23.25656 21.7324,23.08856 21.7396,23.00136 C21.7396,22.98056 21.7396,22.96296 21.7404,22.94856 L21.7452,22.92296 L21.7396,22.89896 C21.6708,22.67256 21.6988,22.37256 21.7244,22.11016 C21.7316,22.04056 21.738,21.97336 21.7428,21.90856 L21.7452,21.87736 L21.7308,21.84856 C21.6836,21.75576 21.6948,21.66536 21.7092,21.56136 C21.7204,21.46776 21.7316,21.35896 21.6964,21.24856 C21.738,20.76536 21.7132,20.19416 21.694,19.68936 C21.6852,19.47576 21.678,19.27416 21.674,19.08856 L21.674,19.08136 L21.674,19.07496 C21.6436,18.83816 21.6508,18.58376 21.658,18.33416 C21.6652,18.11256 21.6716,17.88456 21.6508,17.67496 C21.7052,17.43496 21.7004,17.21176 21.6964,16.97816 C21.6948,16.87256 21.694,16.76296 21.6964,16.64936 L21.6964,16.62056 L21.6876,16.60456 C21.7428,16.54296 21.754,16.47976 21.7276,16.41496 C21.7508,16.32616 21.7556,16.24376 21.7572,16.16776 C21.7604,16.10536 21.7628,16.04856 21.7732,15.99736 L21.7804,15.96776 L21.7732,15.94056 C21.7572,15.88696 21.7732,15.83096 21.7868,15.76856 C21.8044,15.69176 21.8228,15.60376 21.7916,15.51416 C21.8812,15.33256 21.8996,15.11016 21.9188,14.89496 L21.926,14.82216 C21.9324,14.77496 21.918,14.72936 21.8796,14.69256 L21.8796,14.68536 C21.8796,14.58856 21.93,14.51176 21.9908,14.41496 C22.0588,14.30776 22.1364,14.19016 22.1548,14.02136 L22.1572,13.99496 L22.1564,13.98936 C22.1628,13.98056 22.1732,13.97416 22.1836,13.96696 C22.2244,13.93096 22.2884,13.87656 22.2852,13.79096 C22.2852,13.77496 22.2836,13.76056 22.278,13.74536 C22.3604,13.67416 22.4076,13.59416 22.454,13.51816 C22.5172,13.40856 22.5636,13.33176 22.6932,13.29416 L22.7556,13.27656 L22.7732,13.21336 C22.7908,13.14216 22.8516,13.10136 22.9516,13.04056 C23.026,12.99336 23.106,12.94216 23.1684,12.86376 C23.2492,12.87016 23.3012,12.84616 23.3316,12.81496 C23.4316,12.79016 23.5068,12.73256 23.5708,12.68136 C23.6756,12.59496 23.7116,12.57736 23.7844,12.61176 L23.8564,12.64456 L23.9012,12.59896 C23.906,12.59496 23.9076,12.59496 23.9116,12.59496 C23.9444,12.58776 24.002,12.56936 24.0364,12.51736 C24.0676,12.51096 24.0964,12.50136 24.1204,12.49176 C24.1772,12.47176 24.1932,12.47096 24.2132,12.48216 C24.2348,12.49336 24.2732,12.50856 24.3212,12.49576 L24.326,12.50376 L24.4108,12.49336 L24.5212,12.47896 C24.8524,12.43576 25.138,12.39976 25.3972,12.53896 L25.4884,12.58936 L25.5452,12.50536 C25.5556,12.51816 25.5692,12.53256 25.5772,12.54456 C25.6436,12.61736 25.7604,12.74536 25.93,12.71736 C25.9668,12.74936 26.0068,12.77416 26.0452,12.79656 C26.0588,12.80536 26.0796,12.81736 26.094,12.82616 L26.094,12.83016 L26.1164,12.86216 C26.166,12.93176 26.2788,12.96376 26.3676,12.96776 C26.5628,13.17176 26.7588,13.45096 26.7588,13.57176 L26.7588,13.68696 L26.846,13.68696 L26.846,13.69576 C26.8788,13.84696 26.9212,14.03256 27.038,14.15496 C27.0068,14.23176 27.0348,14.32616 27.0484,14.36536 C27.05,14.37816 27.0556,14.39176 27.0596,14.40616 L27.0308,14.49096 L27.1084,14.56936 L27.1236,14.57896 C27.1172,14.65736 27.154,14.72936 27.1804,14.78296 C27.186,14.79576 27.194,14.81176 27.1988,14.82616 L27.1812,14.86776 C27.078,15.06456 27.2172,15.17416 27.282,15.22616 C27.2932,15.23496 27.3004,15.24056 27.3076,15.24536 C27.2572,15.28616 27.2572,15.32456 27.246,15.39816 L27.2572,15.48376 L27.2916,15.54296 L27.2932,15.54296 C27.2948,15.54536 27.298,15.54936 27.2996,15.55336 C27.3028,15.56936 27.3108,15.59416 27.326,15.61976 L27.2876,15.65816 L27.2596,15.76216 L27.3172,15.84216 L27.3628,15.86536 C27.3596,15.91256 27.378,15.95336 27.3908,15.98296 C27.3916,15.98856 27.3948,15.99336 27.3988,15.99976 L27.3868,16.05016 C27.35,16.23736 27.3004,16.48136 27.4188,16.68056 C27.4172,16.68216 27.4124,16.68616 27.4124,16.68616 C27.3548,16.76056 27.3684,16.84536 27.378,16.90216 C27.3804,16.92376 27.386,16.95416 27.3836,16.96616 L27.3548,17.08376 C27.354,17.09096 27.3916,17.09816 27.4268,17.10536 C27.4212,17.11976 27.4172,17.12856 27.414,17.14296 L27.3892,17.27896 L27.4364,17.27896 C27.4284,17.32536 27.4268,17.36936 27.426,17.40696 C27.4244,17.47656 27.4212,17.52056 27.398,17.55976 L27.386,17.57416 L27.382,17.59176 C27.3484,17.71576 27.394,17.83256 27.4316,17.92696 C27.438,17.94296 27.446,17.96136 27.4508,17.97736 C27.4316,17.99976 27.4124,18.03336 27.414,18.07736 C27.414,18.08696 27.4188,18.09416 27.4212,18.10616 L27.398,18.12856 L27.418,18.19656 C27.4316,18.23576 27.4548,18.26056 27.4828,18.27096 L27.4636,18.27736 C27.458,18.27736 27.458,18.36776 27.458,18.36776 L27.458,18.39976 L27.386,18.41976 L27.4228,18.49576 C27.4052,18.52856 27.3852,18.57976 27.4052,18.63576 L27.3548,18.72456 C27.3548,18.72456 27.3652,18.77576 27.41,18.79816 C27.3628,18.95416 27.4772,19.06776 27.5436,19.13576 C27.5732,19.16616 27.594,19.18536 27.606,19.20216 L27.5476,19.20216 L27.5908,19.35176 L27.594,19.35416 C27.5812,19.36616 27.5708,19.37736 27.562,19.38776 L27.4676,19.43496 L27.4964,19.56216 L27.4868,19.59256 C27.466,19.65736 27.4828,19.70536 27.5028,19.73416 C27.5076,19.73896 27.5116,19.74136 27.5164,19.74616 C27.4804,19.77816 27.4436,19.82856 27.4364,19.90456 L27.426,20.01176 L27.5132,20.02456 C27.506,20.05096 27.4996,20.07176 27.4932,20.09256 C27.4804,20.13416 27.4732,20.16936 27.4548,20.19736 C27.4516,20.19976 27.4484,20.20456 27.4484,20.21096 L27.602,20.29896 C27.5796,20.33816 27.5644,20.37736 27.5564,20.40936 C27.554,20.42536 27.5452,20.44536 27.5412,20.45496 L27.5284,20.45496 L27.4004,20.45496 L27.4068,20.60456 C27.414,20.62936 27.418,20.65256 27.4212,20.68536 C27.4244,20.71176 27.4284,20.74216 27.4332,20.77736 L27.4332,20.92536 C27.4332,20.94536 27.4364,20.97656 27.4412,21.00776 L27.426,21.01736 L27.4364,21.10056 C27.4436,21.14296 27.4388,21.18296 27.4364,21.22456 C27.4332,21.24856 27.4324,21.27256 27.4332,21.30136 L27.3284,21.35576 L27.458,21.49576 C27.4548,21.49816 27.4548,21.49976 27.4548,21.49976 C27.4388,21.53736 27.4212,21.58536 27.4212,21.63576 L27.33,21.63576 L27.4852,21.82216 C27.4988,21.83976 27.5116,21.88136 27.5172,21.91336 C27.522,21.91656 27.522,21.92056 27.5228,21.92456 C27.458,21.98696 27.4484,22.07656 27.4436,22.12536 C27.4412,22.14856 27.438,22.18056 27.4324,22.19096 L27.4332,22.18696 L27.474,22.23736 C27.4436,22.25976 27.426,22.28696 27.414,22.30696 C27.3988,22.34696 27.398,22.38456 27.4012,22.41656 L27.25,22.41656 L27.3764,22.54136 L27.2596,22.57736 L27.3572,22.65896 L27.3572,22.96616 C27.3572,23.02216 27.3836,23.07016 27.4284,23.09096 C27.4284,23.09096 27.4332,23.09176 27.4364,23.09416 C27.4964,23.13416 27.5636,23.13336 27.6188,23.11816 L27.6188,23.24696 L27.7692,23.20376 C27.8756,23.17016 27.9604,23.16376 28.0436,23.18136 L28.1668,23.20776 L28.1812,23.08376 C28.2396,22.62696 28.2284,22.18056 28.2172,21.75256 C28.2068,21.33016 28.1964,20.93496 28.25,20.54296 C28.2836,20.47016 28.2484,20.39896 28.2252,20.36216" id="Fill-7" fill="#FFFFFF"></path>
                    <mask id="mask-2" fill="white">
                        <use xlink:href="#path-1"></use>
                    </mask>
                    <g id="Clip-10"></g>
                    <path d="M1.672,30.0048 L30.0264,30.0048 L30.0264,1.6728 L1.672,1.6728 L1.672,30.0048 Z M0,31.6744 L31.7048,31.6744 L31.7048,0 L0,0 L0,31.6744 Z" id="Fill-9" fill="#FFFFFF" mask="url(#mask-2)"></path>
                </g>
            </g>
        </g>
    </g>
</svg>