<?xml version="1.0" encoding="utf-8"?>
<!-- Generator: Adobe Illustrator 22.0.1, SVG Export Plug-In . SVG Version: 6.00 Build 0)  -->
<svg version="1.1" id="Layer_1" xmlns="http://www.w3.org/2000/svg" xmlns:xlink="http://www.w3.org/1999/xlink" x="0px" y="0px"
	 viewBox="0 0 236 454" style="enable-background:new 0 0 236 454;" xml:space="preserve">
<style type="text/css">
	.st0{fill:#FFFFFF;stroke:#616161;}
	.st1{fill:none;stroke:#616161;}
</style>
<title>phone</title>
<desc>Created with Sketch.</desc>
<g id="Page-1">
	<g id="phone">
		<g id="illu_phone">
			<path class="st0" d="M192.8,0.5H42.3c-22.1,0-40,17.9-40,40v373c0,22.1,17.9,40,40,40h150.6c22.1,0,40-17.9,40-40v-373
				C232.8,18.4,214.9,0.5,192.8,0.5z M219.6,408.4h-205V46.5h204.9v361.9H219.6z"/>
			<path id="Rectangle_1_" class="st1" d="M44.9,3.2h146.2c22.1,0,40,17.9,40,40v367.7c0,22.1-17.9,40-40,40H44.9
				c-22.1,0-40-17.9-40-40V43.2C4.9,21.1,22.8,3.2,44.9,3.2z"/>
			<path id="Rectangle-4" class="st1" d="M100.3,12h35.4c0.9,0,1.7,0.8,1.7,1.7l0,0c0,0.9-0.8,1.7-1.7,1.7h-35.4
				c-0.9,0-1.7-0.8-1.7-1.7l0,0C98.6,12.8,99.4,12,100.3,12z"/>
			<ellipse id="Oval" class="st1" cx="148.5" cy="15.9" rx="2.7" ry="2.7"/>
			<ellipse id="Oval-Copy" class="st1" cx="160.9" cy="15.9" rx="2.7" ry="2.7"/>
			<ellipse id="Oval-Copy-2" class="st1" cx="200.6" cy="20.4" rx="2.7" ry="2.7"/>
			<path id="Rectangle-2" class="st1" d="M0.5,77.4v54.1l1.7,0.6V76.8L0.5,77.4z"/>
			<path id="Rectangle-5" class="st1" d="M233,116.6v33.2l2.5-0.6v-32L233,116.6z"/>
			<rect id="Rectangle-6" x="14.6" y="46.5" class="st1" width="204.9" height="361.8"/>
			<path id="Rectangle-4_1_" class="st1" d="M102.1,422.6h31.8c4.4,0,7.9,3.5,7.9,7.9l0,0c0,4.4-3.5,7.9-7.9,7.9h-31.8
				c-4.4,0-7.9-3.5-7.9-7.9l0,0C94.2,426.2,97.7,422.6,102.1,422.6z"/>
		</g>
	</g>
</g>
</svg>
