<!--?xml version="1.0" encoding="utf-8"?-->
<!-- Generator: Adobe Illustrator 22.0.1, SVG Export Plug-In . SVG Version: 6.00 Build 0)  -->
<svg version="1.1" id="Layer_1" xmlns="http://www.w3.org/2000/svg" xmlns:xlink="http://www.w3.org/1999/xlink" x="0px" y="0px" viewBox="0 0 100 100" style="" xml:space="preserve" class="">
<style type="text/css">
	.st0{fill:none;stroke:#EDE9E7;stroke-width:4;stroke-linecap:round;stroke-linejoin:round;stroke-miterlimit:10;}
	.st1{fill:none;stroke:#F36F23;stroke-width:4;stroke-linecap:round;stroke-linejoin:round;stroke-miterlimit:10;}
	.st2{fill:none;stroke:#4B4B4B;stroke-width:4;stroke-linecap:round;stroke-linejoin:round;stroke-miterlimit:10;}
</style>
<path class="st0 tLZGnHZk_0" d="M18,50A32,32 0,1,1 82,50A32,32 0,1,1 18,50"></path>
<path class="st1 tLZGnHZk_1" d="M10.5,50A39.5,39.5 0,1,1 89.5,50A39.5,39.5 0,1,1 10.5,50"></path>
<path class="st2 tLZGnHZk_2" d="M3.5,50A46.5,46.5 0,1,1 96.5,50A46.5,46.5 0,1,1 3.5,50"></path>
<style>.tLZGnHZk_0{stroke-dasharray:202 204;stroke-dashoffset:203;animation:tLZGnHZk_draw_0 3600ms ease 0ms infinite,tLZGnHZk_fade 3600ms linear 0ms infinite;}.tLZGnHZk_1{stroke-dasharray:249 251;stroke-dashoffset:250;animation:tLZGnHZk_draw_1 3600ms ease 0ms infinite,tLZGnHZk_fade 3600ms linear 0ms infinite;}.tLZGnHZk_2{stroke-dasharray:293 295;stroke-dashoffset:294;animation:tLZGnHZk_draw_2 3600ms ease 0ms infinite,tLZGnHZk_fade 3600ms linear 0ms infinite;}@keyframes tLZGnHZk_draw{100%{stroke-dashoffset:0;}}@keyframes tLZGnHZk_fade{0%{stroke-opacity:1;}83.33333333333334%{stroke-opacity:1;}100%{stroke-opacity:0;}}@keyframes tLZGnHZk_draw_0{0%{stroke-dashoffset: 203}55.55555555555556%{ stroke-dashoffset: 0;}100%{ stroke-dashoffset: 0;}}@keyframes tLZGnHZk_draw_1{13.88888888888889%{stroke-dashoffset: 250}69.44444444444444%{ stroke-dashoffset: 0;}100%{ stroke-dashoffset: 0;}}@keyframes tLZGnHZk_draw_2{27.77777777777778%{stroke-dashoffset: 294}83.33333333333334%{ stroke-dashoffset: 0;}100%{ stroke-dashoffset: 0;}}</style></svg>
