<?xml version="1.0" encoding="UTF-8"?>
<svg width="48px" height="48px" viewBox="0 0 48 48" version="1.1" xmlns="http://www.w3.org/2000/svg" xmlns:xlink="http://www.w3.org/1999/xlink">
    <!-- Generator: Sketch 49.3 (51167) - http://www.bohemiancoding.com/sketch -->
    <title>status/attend</title>
    <desc>Created with Sketch.</desc>
    <defs></defs>
    <g id="Page-1" stroke="none" stroke-width="1" fill="none" fill-rule="evenodd">
        <g id="06_config" transform="translate(-292.000000, -1352.000000)">
            <g id="Stacked-Group" transform="translate(260.000000, 471.000000)">
                <g id="box3" transform="translate(0.000000, 849.000000)">
                    <g id="Stacked-Group" transform="translate(32.000000, 32.000000)">
                        <g id="status/occhio">
                            <g id="Group-3" fill="#DEDFE3">
                                <circle id="Oval-6" cx="24" cy="24" r="24"></circle>
                            </g>
                            <g id="Stroke-235-+-Stroke-236-+-Stroke-237" transform="translate(12.000000, 17.000000)" stroke="#4D4D4D" stroke-linecap="round" stroke-linejoin="round">
                                <path d="M23.5,7 C23.5,7 18.352,13.5 12,13.5 C5.648,13.5 0.5,7 0.5,7 C0.5,7 5.648,0.5 12,0.5 C18.352,0.5 23.5,7 23.5,7 L23.5,7 Z" id="Stroke-235"></path>
                                <path d="M16,7 C16,9.21 14.209,11 12,11 C9.791,11 8,9.21 8,7 C8,4.79 9.791,3 12,3 C14.209,3 16,4.79 16,7 L16,7 Z" id="Stroke-236"></path>
                                <path d="M12,5 C13.105,5 14,5.896 14,7 C14,8.104 13.105,9 12,9 C10.895,9 10,8.104 10,7" id="Stroke-237"></path>
                            </g>
                        </g>
                    </g>
                </g>
            </g>
        </g>
    </g>
</svg>