<?xml version="1.0" encoding="UTF-8"?>
<svg width="28px" height="29px" viewBox="0 0 28 29" version="1.1" xmlns="http://www.w3.org/2000/svg" xmlns:xlink="http://www.w3.org/1999/xlink">
    <!-- Generator: Sketch 51.2 (57519) - http://www.bohemiancoding.com/sketch -->
    <title>ico/mirror</title>
    <desc>Created with Sketch.</desc>
    <defs></defs>
    <g id="ico/mirror" stroke="none" stroke-width="1" fill="none" fill-rule="evenodd">
        <g id="Group" transform="translate(2.000000, 2.000000)"></g>
        <g id="Group" transform="translate(14.000000, 14.000000) scale(-1, 1) translate(-14.000000, -14.000000) translate(2.000000, 2.000000)" fill="#FFFFFF">
            <path d="M16,23 L19.5,23 C19.7761424,23 20,23.2238576 20,23.5 C20,23.7761424 19.7761424,24 19.5,24 L11.5,24 C11.2238576,24 11,23.7761424 11,23.5 C11,23.2238576 11.2238576,23 11.5,23 L15,23 L15,21.5 C15,21.2238576 15.2238576,21 15.5,21 C15.7761424,21 16,21.2238576 16,21.5 L16,23 Z M12.8535534,7.85355339 C12.7630712,7.94403559 12.6380712,8 12.5,8 L1,8 L1,8.5 C1,8.78521953 1.19830457,9 1.423,9 L5.5,9 C5.77614237,9 6,9.22385763 6,9.5 C6,9.77614237 5.77614237,10 5.5,10 L1.423,10 C0.627405867,10 0,9.32046685 0,8.5 L0,1.5 C0,0.680257656 0.627641042,0 1.423,0 L11.577,0 C12.372359,0 13,0.680257656 13,1.5 L13,7.5 C13,7.63807119 12.9440356,7.76307119 12.8535534,7.85355339 Z M12,7 L12,1.5 C12,1.2153651 11.801293,1 11.577,1 L1.423,1 C1.19870702,1 1,1.2153651 1,1.5 L1,7 L12,7 Z" id="Combined-Shape" fill-rule="nonzero"></path>
            <path d="M23,19.7002 L23,11.3002 C23,10.5698918 22.4937044,10.0002 21.9,10.0002 L9.101,10.0002 C8.50699712,10.0002 8,10.570189 8,11.3002 L8,19.7002 C8,20.4308289 8.50664194,21.0002 9.101,21.0002 L21.9,21.0002 C22.4940594,21.0002 23,20.431126 23,19.7002 Z M24,19.7002 C24,20.9589285 23.0742477,22.0002 21.9,22.0002 L9.101,22.0002 C7.926669,22.0002 7,20.9587967 7,19.7002 L7,11.3002 C7,10.0422947 7.92692843,9.0002 9.101,9.0002 L21.9,9.0002 C23.0739886,9.0002 24,10.0421628 24,11.3002 L24,19.7002 Z" id="Stroke-2284" fill-rule="nonzero"></path>
            <path d="M8,19 C7.72385763,19 7.5,18.7761424 7.5,18.5 C7.5,18.2238576 7.72385763,18 8,18 L23.5,18 C23.7761424,18 24,18.2238576 24,18.5 C24,18.7761424 23.7761424,19 23.5,19 L8,19 Z" id="Stroke-2285" fill-rule="nonzero"></path>
            <path d="M15.5,19.5 C15.224,19.5 15,19.724 15,20 C15,20.276 15.224,20.5 15.5,20.5 C15.776,20.5 16,20.276 16,20 C16,19.724 15.776,19.5 15.5,19.5" id="Fill-2286"></path>
        </g>
    </g>
</svg>