<?xml version="1.0" encoding="utf-8"?>
<!-- Generator: Adobe Illustrator 22.1.0, SVG Export Plug-In . SVG Version: 6.00 Build 0)  -->
<svg version="1.1" id="Layer_1" xmlns="http://www.w3.org/2000/svg" xmlns:xlink="http://www.w3.org/1999/xlink" x="0px" y="0px"
	 width="100px" height="100px" viewBox="0 0 100 100" style="enable-background:new 0 0 100 100;" xml:space="preserve">
<style type="text/css">
	.st0{fill:#696D6F;}
	.st1{fill:none;}
	.st2{fill:#D3D800;}
</style>
<g>
	<g>
		<path class="st0" d="M45.2,89.4L45.2,89.4C34.4,88,24.9,82.5,18.4,73.9c-6.4-8.4-9.1-18.8-7.6-29.2c1.3-9,5.6-17.4,12.4-23.6
			c6.6-6.1,15.2-9.9,24.2-10.7c0.3,0,0.5,0.2,0.5,0.5s-0.2,0.5-0.5,0.5c-8.8,0.7-17.1,4.5-23.6,10.4c-6.5,6.1-10.8,14.2-12,23
			C10.3,55,13,65.1,19.2,73.3c6.3,8.3,15.6,13.7,26.1,15.1c0.3,0,0.5,0.3,0.4,0.6C45.7,89.2,45.5,89.4,45.2,89.4z"/>
	</g>
	<g>
		<path class="st0" d="M38.3,95.4c-0.2,0-0.3-0.1-0.4-0.2c-0.2-0.2-0.1-0.5,0.1-0.7l7.5-5.6l-5.6-7.3c-0.2-0.2-0.1-0.5,0.1-0.7
			c0.2-0.2,0.5-0.1,0.7,0.1l5.9,7.7c0.1,0.1,0.1,0.2,0.1,0.4c0,0.1-0.1,0.3-0.2,0.3l-7.9,5.9C38.5,95.3,38.4,95.4,38.3,95.4z"/>
	</g>
	<g>
		<path class="st0" d="M52.7,89.6c-0.3,0-0.5-0.2-0.5-0.5s0.2-0.5,0.5-0.5c8.8-0.7,17.1-4.4,23.6-10.4c6.5-6.1,10.8-14.2,12-23
			C89.7,45,87,34.9,80.8,26.7C74.5,18.4,65.2,13,54.7,11.6c-0.3,0-0.5-0.3-0.4-0.6c0-0.3,0.3-0.5,0.6-0.4
			c10.7,1.4,20.2,6.9,26.7,15.5c6.4,8.4,9.1,18.8,7.6,29.2c-1.3,9-5.6,17.4-12.4,23.6C70.3,85,61.7,88.8,52.7,89.6L52.7,89.6z"/>
	</g>
	<g>
		<path class="st0" d="M59.8,19.2c-0.1,0-0.3-0.1-0.4-0.2l-5.9-7.7c-0.1-0.1-0.1-0.2-0.1-0.4c0-0.1,0.1-0.3,0.2-0.3l7.9-5.9
			c0.2-0.2,0.5-0.1,0.7,0.1c0.1,0.2,0,0.5-0.2,0.7l-7.5,5.6l5.6,7.3c0.2,0.2,0.1,0.5-0.1,0.7C60,19.2,59.9,19.2,59.8,19.2z"/>
	</g>
	<g>
		<rect x="10" y="4.2" class="st1" width="80" height="91.5"/>
	</g>
	<g>
		<path class="st2" d="M71,56.7v13.6c0.8-0.8,1.5-1.7,2.2-2.6v-11c0-0.6,0.5-1.1,1.2-1.1h4.3c0.1-0.8,0.3-1.5,0.3-2.3h-4.6
			C72.5,53.3,71,54.8,71,56.7z"/>
		<path class="st2" d="M56.1,78.7v-13c0-1.9-1.5-3.3-3.4-3.3H45c-0.6,0-1.1-0.6-1.1-1.2V47.3c1.6-0.5,2.8-2,2.8-3.8c0-2.2-1.8-4-4-4
			s-4,1.8-4,4c0,1.8,1.2,3.3,2.8,3.8v13.9c0,1.9,1.5,3.4,3.4,3.4h7.7c0.6,0,1.1,0.5,1.1,1.1v13.4C54.6,79,55.3,78.9,56.1,78.7z
			 M41,43.5c0-0.9,0.8-1.7,1.7-1.7s1.7,0.8,1.7,1.7s-0.8,1.7-1.7,1.7S41,44.5,41,43.5z"/>
		<path class="st2" d="M47.6,79.3v-4c0-1.9-1.6-3.4-3.4-3.4H30.3c0.9,0.8,1.9,1.6,2.9,2.3h10.9c0.6,0,1.1,0.5,1.1,1.1V79
			C46,79.1,46.8,79.2,47.6,79.3z"/>
		<path class="st2" d="M70.7,36.2c-0.6,0-1.1-0.5-1.1-1.2v-6.6c-0.7-0.7-1.5-1.3-2.3-1.9V35c0,1.9,1.5,3.4,3.4,3.4h6.1
			c-0.3-0.7-0.7-1.5-1.1-2.2H70.7z"/>
		<path class="st2" d="M30.8,45.8v14.6c-1.6,0.5-2.8,2-2.8,3.8c0,2.2,1.8,4,4,4s4-1.8,4-4c0-1.8-1.2-3.3-2.8-3.8V45.8
			c0-1.9-1.5-3.3-3.4-3.3h-8.3c-0.2,0.7-0.4,1.5-0.5,2.2h8.8C30.4,44.6,30.8,45.2,30.8,45.8z M33.7,64.1c0,0.9-0.8,1.7-1.7,1.7
			c-0.9,0-1.7-0.8-1.7-1.7c0-0.9,0.8-1.7,1.7-1.7C32.9,62.4,33.7,63.2,33.7,64.1z"/>
		<path class="st2" d="M41.6,32.7c0,0.6-0.5,1.1-1.1,1.1h-4.7c-0.5-1.6-2-2.8-3.8-2.8c-2.2,0-4,1.8-4,4s1.8,4,4,4
			c1.8,0,3.3-1.2,3.8-2.8h4.7c1.9,0,3.4-1.5,3.4-3.4V21.3c-0.8,0.2-1.6,0.4-2.3,0.6C41.6,21.9,41.6,32.7,41.6,32.7z M32,36.6
			c-0.9,0-1.7-0.8-1.7-1.7s0.8-1.7,1.7-1.7s1.7,0.8,1.7,1.7C33.7,35.9,32.9,36.6,32,36.6z"/>
		<path class="st2" d="M64.8,75.3V56.6c0-1.9-1.5-3.4-3.4-3.4h-7.6c-0.6,0-1.2-0.5-1.2-1.1V20.9c-0.7-0.1-1.5-0.1-2.2-0.1v31.3
			c0,1.9,1.5,3.4,3.4,3.4h7.6c0.6,0,1.1,0.5,1.1,1.1v19.9C63.2,76.1,64,75.7,64.8,75.3z"/>
		<path class="st2" d="M78.7,44.8H62.5c-0.6,0-1.1-0.5-1.1-1.1V37c1.6-0.5,2.8-2,2.8-3.8c0-2.2-1.8-4-4-4s-4,1.8-4,4
			c0,1.8,1.2,3.3,2.8,3.8v6.6c0,1.9,1.5,3.4,3.4,3.4H79C78.9,46.3,78.8,45.5,78.7,44.8z M58.5,33.2c0-0.9,0.8-1.7,1.7-1.7
			s1.7,0.8,1.7,1.7s-0.8,1.7-1.7,1.7S58.5,34.1,58.5,33.2z"/>
	</g>
</g>
</svg>
