<?xml version="1.0" encoding="utf-8"?>
<!-- Generator: Adobe Illustrator 22.1.0, SVG Export Plug-In . SVG Version: 6.00 Build 0)  -->
<svg version="1.1" id="Layer_1" xmlns="http://www.w3.org/2000/svg" xmlns:xlink="http://www.w3.org/1999/xlink" x="0px" y="0px"
	 width="100px" height="100px" viewBox="0 0 100 100" style="enable-background:new 0 0 100 100;" xml:space="preserve">
<style type="text/css">
	.st0{fill:#006AB4;stroke:#8DD3F0;stroke-width:4;stroke-miterlimit:10;}
	.st1{fill:#8DD3F0;}
	.st2{fill:#8DD3F0;stroke:#006AB4;stroke-width:0.5;stroke-miterlimit:10;}
	.st3{fill:none;}
</style>
<circle class="st0" cx="50" cy="50" r="39.8"/>
<g>
	<g>
		<path class="st1" d="M61.9,31.1c-2.6,0-4.7-2-4.7-4.6c0-2.5,2.1-4.6,4.7-4.6c2.6,0,4.7,2,4.7,4.6S64.5,31.1,61.9,31.1"/>
		<path class="st1" d="M56.7,32.5c-3.3,0-6.1,2.4-6.1,5.6v14.2c0,1.1,0.8,2,2,2c1.1,0,2-0.9,2-2V39.5H56v35.6c0,1.5,1.2,2.7,2.7,2.7
			s2.7-1.2,2.7-2.7V54.3h1v20.8c0,1.5,1.2,2.7,2.7,2.7c1.5,0,2.7-1.2,2.7-2.7V39.5h1v12.9c0,1.1,1.1,2,2.2,2s2.2-0.9,2.2-2V38.2
			c0-3.2-2.8-5.6-6.2-5.6H56.7V32.5z"/>
		<path class="st2" d="M37.1,53l4.3-12.1h0.8l-4.5,13.5l-1.4,4.3h5.5v16.6c0,1.2,1.1,2.1,2.2,2.1s2.2-0.9,2.2-2.1V58.7h0.5v16.6
			c0,1.2,1.1,2.1,2.2,2.1c1.2,0,2.2-0.9,2.2-2.1V58.7h5.4l-3.3-9.9L50.6,41h0.8l2.7,7.6l1.6,4.5c0.3,0.9,1.3,1.4,2.2,1.1
			c0.9-0.3,1.4-1.3,1.1-2.3L57.6,48l-3.1-8.7l-0.2-0.5c-0.5-1.4-1.5-2.4-2.4-2.9c-1-0.6-1.9-0.8-2.4-0.8H47h-1.3h-2.6
			c-0.5,0-1.4,0.3-2.4,0.8c-0.9,0.5-1.8,1.5-2.4,2.9c0,0.1-0.1,0.2-0.1,0.2c0,0.1-0.1,0.2-0.1,0.3l-4.4,12.6c0,0.1,0,0.2-0.1,0.2
			L37.1,53z M46.3,33.7c2.2,0,3.9-1.8,3.9-3.9c0-2.2-1.8-3.9-3.9-3.9c-2.2,0-3.9,1.8-3.9,3.9C42.3,31.9,44.1,33.7,46.3,33.7"/>
		<g>
			<path class="st2" d="M35,49.3c-1.6,0-3-1.3-3-2.8c0-1.6,1.3-2.8,3-2.8c1.6,0,3,1.3,3,2.8S36.6,49.3,35,49.3"/>
			<path class="st2" d="M32.7,49.8c0,0-2.7-0.1-3.7,3l-2.3,7.8c-0.2,0.7,0.2,1.3,0.9,1.5c0.7,0.2,1.3-0.1,1.5-0.7l2.3-7.6H32
				L28.1,67h3.7l0,0v9.7c0,0.7,0.7,1.4,1.5,1.4c0.7,0,1.5-0.7,1.5-1.4l0,0v-9.5h0.5v9.5l0,0c0,0.7,0.8,1.4,1.5,1.4
				c0.8,0,1.5-0.6,1.5-1.4V67l0,0H42l-4-13.2h0.6l2.3,7.6c0.2,0.6,0.9,0.9,1.5,0.7c0.7-0.2,1.1-0.7,0.9-1.5L41,52.8
				c-0.9-3.1-3.7-3-3.7-3H32.7z"/>
		</g>
		<path class="st2" d="M47.6,56.2c1.7,0,3-1.4,3-3c0-1.7-1.4-3-3-3c-1.7,0-3,1.4-3,3C44.6,54.9,45.9,56.2,47.6,56.2"/>
		<path class="st2" d="M57.5,54.2c-0.3,0-0.6,0-0.8-0.2l0,0c-0.1,0-0.1-0.1-0.2-0.1l-0.1-0.1l0,0c0,0,0-0.1-0.1-0.1
			c-0.1-0.1-0.2-0.2-0.2-0.3C56,53.3,56,53.2,55.9,53l-0.3-0.8l0,0l0,0l0,0c-0.1,0-0.2,0.1-0.3,0.2l-0.5,0.4l-4.6,4h-1.9h-0.5l0,0
			h-0.5h-2c-0.4,0-1.1,0.1-1.8,0.6c-0.6,0.4-1.2,0.9-1.6,1.8c-0.1,0.1-0.1,0.3-0.2,0.4L41.6,60l-0.9,2l-1,3
			c-0.2,0.7,0.1,1.5,0.8,1.7c0.4,0.2,0.9,0.1,1.3-0.2c0.2-0.2,0.4-0.4,0.5-0.6l1.2-3.4l0.5-1.3h0.3v14.7c0,0.6,0.3,1.1,0.7,1.4l0,0
			l0,0c0.2,0.1,0.5,0.2,0.7,0.2c0.6,0,1.1-0.4,1.4-1l0,0l0,0c0.1-0.2,0.1-0.4,0.1-0.6v-6.2h1v6.2c0,0.8,0.5,1.4,1.2,1.6
			c-0.1,0-0.2,0-0.4,0l0,0c0.1,0,0.2,0,0.4,0h0.1c0.1,0,0.2,0,0.2,0c0.9,0,1.6-0.7,1.6-1.6V60l1.3-1.1l3.2-2.7l1.5-1.3
			C57.3,54.5,57.4,54.4,57.5,54.2L57.5,54.2"/>
	</g>
	<g>
		<rect x="10" y="4.2" class="st3" width="80" height="91.5"/>
	</g>
</g>
</svg>
