<?xml version="1.0" encoding="UTF-8"?>
<svg width="17px" height="17px" viewBox="0 0 17 17" version="1.1" xmlns="http://www.w3.org/2000/svg" xmlns:xlink="http://www.w3.org/1999/xlink">
    <!-- Generator: Sketch 52.6 (67491) - http://www.bohemiancoding.com/sketch -->
    <title>bell</title>
    <desc>Created with Sketch.</desc>
    <defs>
        <path d="M8.56289163,0.0606121495 C8.55769951,0.0606121495 8.55284236,0.0596588785 8.54773399,0.0596588785 C7.69363054,0.0596588785 6.94914778,0.63853271 6.783,1.41814953 C4.73914778,2.1205514 3.37177833,3.95265888 3.37177833,6.00068224 C3.37177833,8.13243458 2.86169458,9.80256542 1.897133,10.8305093 C1.2035665,11.5694533 0.499029557,11.7263458 0.496768473,11.7269813 C0.237497537,11.7729766 0.0558571429,11.981028 0.0558571429,12.2325327 L0.0558571429,13.4787757 C0.0558571429,13.7163785 0.226778325,13.9219673 0.471980296,13.9794813 C0.659901478,14.0234112 2.38971429,14.4065467 5.77740394,14.5581168 C5.9479064,15.8706121 7.14661576,16.884257 8.56289163,16.8993505 C9.96585222,16.884257 11.1530049,15.8706121 11.3220837,14.5581168 C14.6782857,14.4065467 16.3918522,14.0234112 16.577931,13.9794813 C16.8209557,13.9219673 16.9902857,13.7163785 16.9902857,13.4787757 L16.9902857,12.2325327 C16.9902857,11.981028 16.8105714,11.7729766 16.5534778,11.7269813 C16.5513005,11.7263458 15.8533793,11.5694533 15.1661773,10.8305093 C14.2104089,9.80256542 13.7055172,8.13243458 13.7055172,6.00068224 C13.7055172,3.95265888 12.3507094,2.1205514 10.3260345,1.41814953 C10.1614778,0.63853271 9.42352709,0.0596588785 8.57763054,0.0596588785 C8.57243842,0.0596588785 8.56774877,0.0606121495 8.56289163,0.0606121495 Z M2.68566502,13.2816075 C1.99100985,13.2005794 1.48209852,13.1195514 1.15373892,13.0606075 L1.15373892,12.6034346 C1.50027094,12.4652103 2.09133498,12.1641355 2.66866502,11.5669907 C3.20010345,11.0171916 3.62183744,10.3250374 3.92138916,9.5088785 C4.28500493,8.51771495 4.46957635,7.33740654 4.46957635,6.00068224 C4.46957635,3.87941589 6.30557635,2.15383645 8.56289163,2.15383645 C10.7986847,2.15383645 12.6177685,3.87941589 12.6177685,6.00068224 C12.6177685,7.33740654 12.8004975,8.51771495 13.1607635,9.5088785 C13.4577192,10.3250374 13.875266,11.0171916 14.4015961,11.5669907 C14.9738177,12.1641355 15.5592709,12.4652103 15.9025369,12.6034346 L15.9025369,13.0606075 C15.5771084,13.1195514 15.0728867,13.2005794 14.384931,13.2816075 C13.2039754,13.4206262 11.2351576,13.5865748 8.56289163,13.5865748 C5.865,13.5865748 3.87775862,13.4206262 2.68566502,13.2816075 Z M10.2124778,14.5969626 C10.0379557,15.3218458 9.35695074,15.8523411 8.56289163,15.8664019 C7.76104433,15.8523411 7.07384236,15.3218458 6.89772906,14.5969626 C7.44290148,14.6111028 8.00365025,14.6176963 8.56289163,14.6176963 C9.11694089,14.6176963 9.67207882,14.6111028 10.2124778,14.5969626 Z" id="path-1"></path>
    </defs>
    <g id="Banker" stroke="none" stroke-width="1" fill="none" fill-rule="evenodd">
        <g id="01_Client_profile" transform="translate(-1184.000000, -163.000000)">
            <g id="tltle" transform="translate(87.000000, 137.000000)">
                <g id="Group-7" transform="translate(1052.000000, 0.000000)">
                    <g id="bell" transform="translate(45.000000, 26.000000)">
                        <g id="Group-7">
                            <path d="M15.9025537,13.1003271 C15.5770414,13.159271 15.0729872,13.2402991 14.3850315,13.3214065 C13.2039921,13.4603458 11.2351744,13.6262944 8.56290837,13.6262944 C5.86510049,13.6262944 3.87777537,13.4603458 2.68568177,13.3214065 C1.9910266,13.2402991 1.48211527,13.159271 1.15367192,13.1003271 L1.15367192,12.6431542 C1.50020394,12.5049299 2.09126798,12.2038551 2.66868177,11.6067103 C3.2001202,11.0569112 3.62177044,10.3646776 3.92140591,9.54859813 C4.28502167,8.55743458 4.46950936,7.37712617 4.46950936,6.04040187 C4.46950936,3.91913551 6.3055931,2.19363551 8.56290837,2.19363551 C10.7987852,2.19363551 12.6177852,3.91913551 12.6177852,6.04040187 C12.6177852,7.37712617 12.8005143,8.55743458 13.1606966,9.54859813 C13.457736,10.3646776 13.8752828,11.0569112 14.4016128,11.6067103 C14.9738345,12.2038551 15.5592877,12.5049299 15.9025537,12.6431542 L15.9025537,13.1003271 Z M8.56290837,15.9061215 C7.76097734,15.8920607 7.07377537,15.3615654 6.89774581,14.6367617 C7.44291823,14.650743 8.003667,14.6574159 8.56290837,14.6574159 C9.11695764,14.6574159 9.67209557,14.650743 10.2124946,14.6367617 C10.0378887,15.3615654 9.35696749,15.8920607 8.56290837,15.9061215 Z M16.5534946,11.7667009 C16.5513172,11.765986 15.8533961,11.6091729 15.1661103,10.8703084 C14.2104256,9.84228505 13.705534,8.17223364 13.705534,6.04040187 C13.705534,3.99245794 12.3507261,2.16027103 10.3260512,1.45786916 C10.1614946,0.678252336 9.42354384,0.0992990654 8.57764729,0.0992990654 C8.57253892,0.0992990654 8.56768177,0.100411215 8.56290837,0.100411215 C8.55771626,0.100411215 8.55285911,0.0992990654 8.54775074,0.0992990654 C7.69373103,0.0992990654 6.94916453,0.678252336 6.78310049,1.45786916 C4.73916453,2.16027103 3.37179507,3.99245794 3.37179507,6.04040187 C3.37179507,8.17223364 2.86171133,9.84228505 1.89714975,10.8703084 C1.20358325,11.6091729 0.499046305,11.765986 0.496785222,11.7667009 C0.237514286,11.8126963 0.0558738916,12.0207477 0.0558738916,12.2723318 L0.0558738916,13.5185748 C0.0558738916,13.7560981 0.226795074,13.9616869 0.471997044,14.0192009 C0.659918227,14.0630514 2.38981478,14.4461869 5.77742069,14.597757 C5.94792315,15.9103318 7.14663251,16.9239766 8.56290837,16.9390701 C9.96578522,16.9239766 11.1531054,15.9103318 11.3221005,14.597757 C14.6783025,14.4461869 16.391869,14.0630514 16.5779478,14.0192009 C16.8209724,13.9616869 16.9903862,13.7560981 16.9903862,13.5185748 L16.9903862,12.2723318 C16.9903862,12.0207477 16.8105882,11.8126963 16.5534946,11.7667009 Z" id="Fill-1" fill="#808080"></path>
                            <g id="Group-6" transform="translate(0.000000, 0.039720)">
                                <mask id="mask-2" fill="white">
                                    <use xlink:href="#path-1"></use>
                                </mask>
                                <g id="Clip-4"></g>
                                <polygon id="Fill-3" fill="#808080" mask="url(#mask-2)" points="-5.86206897 22.1635514 22.9876847 22.1635514 22.9876847 -5.20327103 -5.86206897 -5.20327103"></polygon>
                                <polygon id="Fill-5" fill="#808080" mask="url(#mask-2)" points="-0.314039409 16.9007009 17.4396552 16.9007009 17.4396552 0.0595794393 -0.314039409 0.0595794393"></polygon>
                            </g>
                        </g>
                    </g>
                </g>
            </g>
        </g>
    </g>
</svg>