<?xml version="1.0" encoding="UTF-8"?>
<svg width="56px" height="56px" viewBox="0 0 56 56" version="1.1" xmlns="http://www.w3.org/2000/svg" xmlns:xlink="http://www.w3.org/1999/xlink">
    <!-- Generator: Sketch 52.6 (67491) - http://www.bohemiancoding.com/sketch -->
    <title>ico/ic_insurance</title>
    <desc>Created with Sketch.</desc>
    <g id="Banker" stroke="none" stroke-width="1" fill="none" fill-rule="evenodd">
        <g id="01_Client_profile" transform="translate(-883.000000, -298.000000)">
            <g id="ico/ic_insurance" transform="translate(883.000000, 298.000000)">
                <g id="ic_insurance">
                    <circle id="Oval" fill="#F3F2F3" fill-rule="nonzero" cx="28" cy="28" r="28"></circle>
                    <g id="protection" transform="translate(5.727273, 4.454545)" fill-rule="nonzero">
                        <path d="M22.2727273,2.48181818 C22.0618549,2.48181818 21.8909091,2.31087236 21.8909091,2.1 L21.8909091,0.636363636 C21.8909091,0.425491277 22.0618549,0.254545455 22.2727273,0.254545455 C22.4835996,0.254545455 22.6545455,0.425491277 22.6545455,0.636363636 L22.6545455,2.1 C22.6545455,2.31087236 22.4835996,2.48181818 22.2727273,2.48181818 Z" id="Shape" fill="#4D4C4C"></path>
                        <path d="M43.6036364,21.7381818 C43.6036364,11.0345455 34.0581818,2.36090909 22.2790909,2.36090909 C10.5,2.36090909 0.948181818,11.0345455 0.948181818,21.7381818 C1.13909091,21.6745455 6.73909091,17.4490909 14.8909091,21.7381818 C15.2027273,21.9036364 21.1272727,17.08 29.6609091,21.7381818 C29.9409091,21.8909091 30.4054545,21.1018182 31.57,20.7963636 C34.3,20.0072727 38.4363636,18.69 42.8781818,21.3181818 C43.3554545,21.6363636 43.6036364,21.7381818 43.6036364,21.7381818 Z" id="Shape" fill="#FFFFFF"></path>
                        <path d="M29.6672727,22.2027273 L29.4636364,22.0754545 C22.3554545,17.8372727 15.1581818,22.0372727 15.0818182,22.0754545 L14.8909091,22.1963636 L14.6936364,22.0754545 C10.5245061,19.5885724 5.32731207,19.5885724 1.15818182,22.0754545 C0.980412363,22.1917196 0.742208587,22.1435117 0.623636364,21.9672727 C0.507998297,21.7914799 0.55637955,21.5552656 0.731818182,21.4390909 C5.08335778,18.8366068 10.5019434,18.7903565 14.8972727,21.3181818 C16.17,20.6818182 22.9090909,17.43 29.6545455,21.3181818 C34.0438847,18.7958696 39.4529899,18.8396681 43.8009091,21.4327273 C43.9791844,21.5423834 44.03595,21.7751226 43.9281818,21.9545455 C43.8777513,22.0426021 43.7938249,22.106496 43.6955222,22.1316711 C43.5972195,22.1568461 43.4929124,22.1411584 43.4063636,22.0881818 C39.2368493,19.6026937 34.0404234,19.6026937 29.8709091,22.0881818 L29.6672727,22.2027273 Z" id="Shape" fill="#4D4C4C"></path>
                        <path d="M43.6036364,22.1327273 C43.392764,22.1327273 43.2218182,21.9617814 43.2218182,21.7509091 C43.2218182,11.2763636 33.8227273,2.75545455 22.2727273,2.75545455 C10.7227273,2.75545455 1.32363636,11.2763636 1.32363636,21.7509091 C1.32363636,21.9617814 1.15269054,22.1327273 0.941818182,22.1327273 C0.730945823,22.1327273 0.56,21.9617814 0.56,21.7509091 C0.56,10.8563636 10.3027273,2.02363636 22.2727273,2.02363636 C34.2427273,2.02363636 43.9854545,10.8563636 43.9854545,21.7509091 C43.9854545,21.9617814 43.8145087,22.1327273 43.6036364,22.1327273 Z" id="Shape" fill="#4D4C4C"></path>
                        <path d="M18.1745455,44.8063636 C15.6275469,44.6994796 13.641037,42.5625624 13.72,40.0145455 C13.72,39.8036731 13.8909458,39.6327273 14.1018182,39.6327273 C14.3126905,39.6327273 14.4836364,39.8036731 14.4836364,40.0145455 C14.404651,42.1505168 16.0645926,43.9497344 18.2,44.0427273 C20.3354074,43.9497344 21.995349,42.1505168 21.9163636,40.0145455 L21.9163636,20.3636364 C21.9163636,20.152764 22.0873095,19.9818182 22.2981818,19.9818182 C22.5090542,19.9818182 22.68,20.152764 22.68,20.3636364 L22.68,40.0145455 C22.758531,42.5817096 20.7416764,44.7267541 18.1745455,44.8063636 Z" id="Shape" fill="#4D4C4C"></path>
                        <path d="M14.9736364,21.6809091 C14.784635,21.6826536 14.6238022,21.5436286 14.5981818,21.3563636 C13.9233023,16.7639323 14.9802851,12.0846289 17.5636364,8.22818182 C17.6294528,8.09729053 17.7643608,8.01560164 17.9108492,8.01793907 C18.0573377,8.0202765 18.1895708,8.106228 18.2511776,8.23915251 C18.3127845,8.37207702 18.2928996,8.52853098 18.2,8.64181818 C15.7070125,12.3373257 14.6897943,16.8330666 15.3490909,21.2418182 C15.3654268,21.3425391 15.3400652,21.4455707 15.2788429,21.5272004 C15.2176207,21.60883 15.1258116,21.6620261 15.0245455,21.6745455 L14.9736364,21.6809091 Z" id="Shape" fill="#4D4C4C"></path>
                        <path d="M29.5718182,21.6809091 L29.5209091,21.6809091 C29.419643,21.6683897 29.3278339,21.6151937 29.2666116,21.533564 C29.2053894,21.4519344 29.1800277,21.3489027 29.1963636,21.2481818 C29.8556602,16.8394302 28.8384421,12.3436893 26.3454545,8.64818182 C26.2525549,8.53489462 26.2326701,8.37844066 26.2942769,8.24551615 C26.3558838,8.11259164 26.4881169,8.02664013 26.6346053,8.0243027 C26.7810938,8.02196527 26.9160018,8.10365416 26.9818182,8.23454545 C29.5651695,12.0909926 30.6221522,16.7702959 29.9472727,21.3627273 C29.9187724,21.5474608 29.7587245,21.6830946 29.5718182,21.6809091 Z" id="Shape" fill="#4D4C4C"></path>
                    </g>
                    <rect id="Rectangle-path" x="0" y="0" width="56" height="56"></rect>
                </g>
            </g>
        </g>
    </g>
</svg>