<?xml version="1.0" encoding="UTF-8"?>
<svg width="56px" height="56px" viewBox="0 0 56 56" version="1.1" xmlns="http://www.w3.org/2000/svg" xmlns:xlink="http://www.w3.org/1999/xlink">
    <!-- Generator: Sketch 52.6 (67491) - http://www.bohemiancoding.com/sketch -->
    <title>ico/ic_loans_variant</title>
    <desc>Created with Sketch.</desc>
    <g id="Banker" stroke="none" stroke-width="1" fill="none" fill-rule="evenodd">
        <g id="01_Client_profile" transform="translate(-756.000000, -298.000000)">
            <g id="ico/ic_loans_variant" transform="translate(756.000000, 298.000000)">
                <g id="ic_loans_variant">
                    <ellipse id="Oval" fill="#F3F2F3" fill-rule="nonzero" cx="27.6853933" cy="28" rx="27.6853933" ry="28"></ellipse>
                    <path d="M13.1316854,30.7427273 L14.9249438,29.1009091 L17.4040449,26.6445455 C17.4040449,26.6445455 29.1829213,29.7054545 29.3591011,29.7054545 C29.5352809,29.7054545 33.2413483,31.6909091 33.2413483,31.6909091 L29.6548315,37.0427273 L23.3626966,37.1381818 L21.9847191,37.3481818 L21.1730337,38.4681818 L16.0952809,35.2863636 L13.1316854,30.7427273 Z" id="Shape" fill="#FFFFFF" fill-rule="nonzero"></path>
                    <ellipse id="Oval" fill="#FFFFFF" fill-rule="nonzero" cx="29.3213483" cy="20.5354545" rx="9.07325843" ry="9.17636364"></ellipse>
                    <path d="M29.3213483,30.0936364 C24.1087731,30.0936364 19.8831461,25.8199908 19.8831461,20.5481818 C19.8831461,15.2763728 24.1087731,11.0027273 29.3213483,11.0027273 C34.5339235,11.0027273 38.7595506,15.2763728 38.7595506,20.5481818 C38.7595506,25.8199908 34.5339235,30.0936364 29.3213483,30.0936364 Z M29.3213483,11.7472727 C25.8036813,11.7472737 22.6325051,13.8906851 21.2869408,17.1777628 C19.9413765,20.4648405 20.6865002,24.2480301 23.1747665,26.7627512 C25.6630328,29.2774723 29.404253,30.0283247 32.6534224,28.6650909 C35.9025919,27.301857 38.019624,24.0930941 38.0170787,20.5354545 C38.0101405,15.682301 34.1199758,11.7507768 29.3213483,11.7472727 Z" id="Shape" fill="#4D4C4C" fill-rule="nonzero"></path>
                    <path d="M29.8310112,24.08 L28.8116854,24.08 C28.0416559,24.0765155 27.4182768,23.4460526 27.4148315,22.6672727 L27.4148315,22.1518182 L28.1698876,22.1518182 L28.1698876,22.6672727 C28.1698876,23.0187267 28.4515961,23.3036364 28.7991011,23.3036364 L29.818427,23.3036364 C30.165932,23.3036364 30.4476404,23.0187267 30.4476404,22.6672727 L30.4476404,21.8654545 C30.4615222,21.578543 30.2836287,21.3177966 30.0134831,21.2290909 L28.3523596,20.6690909 C27.780353,20.4810772 27.3938434,19.9410155 27.3959551,19.3327273 L27.3959551,19.0909091 C27.3994004,18.3121293 28.0227795,17.6816663 28.792809,17.6781818 L29.8121348,17.6781818 C30.1847791,17.6747864 30.5433159,17.8221266 30.8080048,18.0874332 C31.0726938,18.3527399 31.2215882,18.7140149 31.221573,19.0909091 L31.221573,19.6063636 L30.4665169,19.6063636 L30.4665169,19.0909091 C30.4665169,18.7394552 30.1848084,18.4545455 29.8373034,18.4545455 L28.8116854,18.4545455 C28.4641804,18.4545455 28.1824719,18.7394552 28.1824719,19.0909091 L28.1824719,19.3772727 C28.1694057,19.6659273 28.3502773,19.9272516 28.6229213,20.0136364 L30.2840449,20.5736364 C30.8523372,20.7655651 31.2351843,21.3040518 31.2341573,21.91 L31.2341573,22.7118182 C31.2102964,23.4770726 30.5880339,24.0838292 29.8310112,24.08 Z" id="Shape" fill="#4D4C4C" fill-rule="nonzero"></path>
                    <polygon id="Rectangle-path" fill="#4D4C4C" fill-rule="nonzero" points="28.9438202 16.9463636 29.6988764 16.9463636 29.6988764 18.0345455 28.9438202 18.0345455"></polygon>
                    <polygon id="Rectangle-path" fill="#4D4C4C" fill-rule="nonzero" points="28.9438202 23.6981818 29.6988764 23.6981818 29.6988764 24.7863636 28.9438202 24.7863636"></polygon>
                    <path d="M21.2485393,38.01 C21.6814971,37.3947109 22.3898148,37.0389154 23.1361798,37.0618182 L36.2364045,37.0618182 C37.2746067,37.0618182 43.0004494,31.2581818 43.7240449,30.4309091 C45.3325967,28.2688869 46.7796001,25.988633 48.0530337,23.6090909 C48.311408,23.0973842 48.1151343,22.4706784 47.6125843,22.2027273 C46.6975873,21.7588376 45.6572032,21.6551941 44.6741573,21.91 C43.0193258,22.2981818 42.0440449,23.5009091 40.8988764,25.7281818 L36.6076404,27.9809091" id="Shape" fill="#FFFFFF" fill-rule="nonzero"></path>
                    <path d="M21.2485393,38.3918182 C21.1488124,38.3910867 21.0535706,38.3498049 20.9842697,38.2772727 C20.8396165,38.1266459 20.8396165,37.8869905 20.9842697,37.7363636 L21.1164045,37.5963636 C21.6041436,36.9865588 22.3487719,36.646606 23.1235955,36.68 L36.2364045,36.68 C37.1047191,36.5909091 42.3838202,31.3790909 43.447191,30.1763636 C45.030706,28.0388528 46.4565773,25.7864092 47.7132584,23.4372727 C47.8002464,23.2833779 47.8198218,23.0997616 47.7672697,22.9306503 C47.7147176,22.761539 47.5948015,22.6222611 47.4364045,22.5463636 C46.5996515,22.1415255 45.6494263,22.0447479 44.7496629,22.2727273 C43.3465169,22.6036364 42.4341573,23.5454545 41.251236,25.8618182 C41.2155226,25.933186 41.1582064,25.9911535 41.0876404,26.0272727 L36.7964045,28.28 C36.6759163,28.3593217 36.5213401,28.3625479 36.3977188,28.2883211 C36.2740974,28.2140942 36.2028904,28.0752995 36.2140604,27.930339 C36.2252303,27.7853785 36.3168382,27.6594161 36.4503371,27.6054545 L40.6346067,25.4036364 C41.7042697,23.3290909 42.7424719,21.9609091 44.5797753,21.5281818 C45.6528453,21.2575859 46.7856725,21.3746319 47.7824719,21.8590909 C48.4707953,22.216379 48.7503799,23.0646643 48.4116854,23.7681818 C47.114263,26.1746008 45.6420555,28.4803263 44.007191,30.6663636 C43.9505618,30.7363636 37.6269663,37.4245455 36.2364045,37.4245455 L23.1235955,37.4245455 C22.5582116,37.3902901 22.0131328,37.6432551 21.6701124,38.0990909 L21.5191011,38.2581818 C21.4511409,38.3387475 21.3531484,38.3871481 21.2485393,38.3918182 Z" id="Shape" fill="#4D4C4C" fill-rule="nonzero"></path>
                    <path d="M26.8674157,31.3790909 L34.3613483,31.3790909 C38.1366292,31.3790909 38.1366292,26.6445455 34.3613483,26.6445455 L29.4157303,26.6445455 C28.6355056,26.6445455 27.1694382,24.7354545 25.9361798,24.7354545 L21.2485393,24.7354545 C19.9901124,24.7354545 18.4170787,25.7727273 17.4732584,26.6445455 L13.7294382,30.4627273" id="Shape" fill="#FFFFFF" fill-rule="nonzero"></path>
                    <path d="M34.3613483,31.7609091 L26.8674157,31.7609091 C26.6589127,31.7609091 26.4898876,31.5899633 26.4898876,31.3790909 C26.4898876,31.1682186 26.6589127,30.9972727 26.8674157,30.9972727 L34.3613483,30.9972727 C35.0353603,31.0293803 35.6963653,30.8019938 36.211236,30.3609091 C36.5849254,30.0142488 36.7972841,29.5246614 36.7964045,29.0118182 C36.7964045,28.0572727 36.0350562,27.0263636 34.3613483,27.0263636 L29.4157303,27.0263636 C28.812819,26.9015564 28.2593397,26.600653 27.8238202,26.1609091 C27.1946067,25.6772727 26.4961798,25.13 25.9361798,25.13 L21.2485393,25.13 C20.16,25.13 18.6813483,26.0590909 17.7626966,26.9245455 L14.0251685,30.6981818 C13.8759033,30.8254081 13.655353,30.8165708 13.5165079,30.6778 C13.3776629,30.5390292 13.3663155,30.3160929 13.4903371,30.1636364 L17.265618,26.3454545 C18.247191,25.4545455 19.8642697,24.3663636 21.2485393,24.3663636 L25.9361798,24.3663636 C26.7478652,24.3663636 27.5658427,25.0027273 28.2831461,25.5563636 C28.6128911,25.8624288 28.9972716,26.102157 29.4157303,26.2627273 L34.3613483,26.2627273 C36.4566292,26.2627273 37.5514607,27.6436364 37.5514607,29.0118182 C37.5530084,29.73681 37.2540321,30.429269 36.727191,30.9209091 C36.0739616,31.4968588 35.2272034,31.797503 34.3613483,31.7609091 Z" id="Shape" fill="#4D4C4C" fill-rule="nonzero"></path>
                    <polygon id="Rectangle-path" fill="#E6E5E5" fill-rule="nonzero" transform="translate(15.163990, 36.589233) rotate(-45.000000) translate(-15.163990, -36.589233) " points="11.8543275 28.5519605 18.4736533 28.5519605 18.4736533 44.6265059 11.8543275 44.6265059"></polygon>
                    <path d="M18.4422472,45.0163636 C18.3434316,45.0173133 18.2483196,44.9783781 18.1779775,44.9081818 L6.92134831,33.5427273 C6.84867289,33.4719521 6.80760986,33.3743098 6.80760986,33.2722727 C6.80760986,33.1702357 6.84867289,33.0725934 6.92134831,33.0018182 L11.6026966,28.2672727 C11.7541202,28.1273183 11.9861045,28.1273183 12.1375281,28.2672727 L23.3941573,39.6327273 C23.5388105,39.7833541 23.5388105,40.0230095 23.3941573,40.1736364 L18.7065169,44.9081818 C18.6361748,44.9783781 18.5410628,45.0173133 18.4422472,45.0163636 Z M7.74561798,33.2754545 L18.4422472,44.0936364 L22.588764,39.8936364 L11.8921348,29.0754545 L7.74561798,33.2754545 Z" id="Shape" fill="#4D4C4C" fill-rule="nonzero"></path>
                    <rect id="Rectangle-path" x="0" y="0" width="55.3707865" height="56"></rect>
                    <rect id="Rectangle-path" x="0.0188764045" y="0" width="55.3707865" height="56"></rect>
                </g>
            </g>
        </g>
    </g>
</svg>