<?xml version="1.0" encoding="UTF-8"?>
<svg width="16px" height="16px" viewBox="0 0 16 16" version="1.1" xmlns="http://www.w3.org/2000/svg" xmlns:xlink="http://www.w3.org/1999/xlink">
    <!-- Generator: Sketch 51.2 (57519) - http://www.bohemiancoding.com/sketch -->
    <title>ico/ic_check_green</title>
    <desc>Created with Sketch.</desc>
    <defs></defs>
    <g id="ico/ic_check_green" stroke="none" stroke-width="1" fill="none" fill-rule="evenodd">
        <rect id="Rectangle-2" fill="#FFFFFF" opacity="0" x="0" y="0" width="16" height="16"></rect>
        <polygon id="Fill-1" fill="#4AAC76" points="6.52331878 12.7089956 2 8.18567686 3.4819214 6.70375546 6.44366812 9.66550218 12.4415721 3 14 4.40227074"></polygon>
    </g>
</svg>