<?xml version="1.0" encoding="UTF-8"?>
<svg width="16px" height="10px" viewBox="0 0 16 10" version="1.1" xmlns="http://www.w3.org/2000/svg" xmlns:xlink="http://www.w3.org/1999/xlink">
    <!-- Generator: Sketch 51.3 (57544) - http://www.bohemiancoding.com/sketch -->
    <title>ico/ic_small_arrow_down</title>
    <desc>Created with Sketch.</desc>
    <defs></defs>
    <g id="Danube" stroke="none" stroke-width="1" fill="none" fill-rule="evenodd">
        <g id="9_Open_Multichannel_01" transform="translate(-515.000000, -360.000000)">
            <g id="ico/ic_small_arrow_down" transform="translate(515.000000, 357.000000)">
                <rect id="Rectangle" fill="#FFFFFF" opacity="0" x="0" y="0" width="16" height="16"></rect>
                <path d="M12.5612809,7.88288188 C12.543456,7.60436785 12.4268515,7.32956733 12.2129527,7.11566856 L5.44766113,0.351119679 C4.98050025,-0.116041196 4.23259723,-0.116041196 3.77137799,0.34592075 C3.30644523,0.810110808 3.31238686,1.55727113 3.77657692,2.02220389 L9.73454915,7.98017612 L3.77954773,13.9351775 C3.30867334,14.4067946 3.30644523,15.174008 3.77880503,15.6463678 C4.25413565,16.1216984 5.01912087,16.1157568 5.49445149,15.6411688 L8.42516184,12.7097158 L10.5047333,10.6301443 L12.2181516,8.91672598 C12.5026073,8.63301302 12.6154983,8.24754959 12.5612809,7.88288188" id="Page-1" fill="#F36F20" transform="translate(8.000000, 8.000000) rotate(90.000000) translate(-8.000000, -8.000000) "></path>
            </g>
        </g>
    </g>
</svg>