<?xml version="1.0" encoding="utf-8"?>
<!-- Generator: Adobe Illustrator 24.2.1, SVG Export Plug-In . SVG Version: 6.00 Build 0)  -->
<svg version="1.1" id="Layer_1" xmlns="http://www.w3.org/2000/svg" xmlns:xlink="http://www.w3.org/1999/xlink" x="0px" y="0px"
	 width="1024.5px" height="772px" viewBox="0 0 1024.5 772" style="enable-background:new 0 0 1024.5 772;" xml:space="preserve">
<style type="text/css">
	.st0{opacity:0.5;fill:#FFFFFF;enable-background:new    ;}
	.st1{fill:#FFFFFF;}
	.st2{fill:#1F4E9B;}
	.st3{font-family:'ArialMT';}
	.st4{font-size:15px;}
</style>
<g id="Layer_3">
</g>
<image style="overflow:visible;" width="2131" height="1605" xlink:href="europa.png"  transform="matrix(0.48 0 0 0.48 0.96 0.64)">
</image>
<g id="europe">
	<g id="Paesi">
		<g id="italia">
			<circle class="st0" cx="381.3" cy="645.2" r="22.5"/>
			<circle class="st1" cx="381.3" cy="645.2" r="14.9"/>
			<text transform="matrix(1 0 0 1 372.6519 651.2229)" class="st2 st3 st4">25</text>
		</g>
		<g id="francia">
			<circle class="st0" cx="224.5" cy="541.6" r="22.5"/>
			<circle class="st1" cx="224.5" cy="541.6" r="14.9"/>
			<text transform="matrix(1 0 0 1 220.0594 546.5879)" class="st2 st3 st4">1</text>
		</g>
		<g id="olanda">
			<circle class="st0" cx="311.9" cy="432.8" r="22.5"/>
			<circle class="st1" cx="311.9" cy="432.8" r="14.9"/>
			<text transform="matrix(1 0 0 1 307.4546 438.8239)" class="st2 st3 st4">1</text>
		</g>
		<g id="germania">
			<circle class="st0" cx="359.4" cy="463.8" r="22.5"/>
			<circle class="st1" cx="359.4" cy="463.8" r="14.9"/>
			<text transform="matrix(1 0 0 1 354.9362 469.7996)" class="st2 st3 st4">3</text>
		</g>
		<g id="belgio">
			
				<ellipse transform="matrix(0.3162 -0.9487 0.9487 0.3162 -263.9443 557.4008)" class="st0" cx="254.7" cy="461.8" rx="22.5" ry="22.5"/>
			
				<ellipse transform="matrix(0.3162 -0.9487 0.9487 0.3162 -263.9443 557.4008)" class="st1" cx="254.7" cy="461.8" rx="14.9" ry="14.9"/>
			<text transform="matrix(1 0 0 1 250.2228 467.8229)" class="st2 st3 st4">1</text>
		</g>
		<g id="lussemburgo">
			<circle class="st0" cx="301.9" cy="481.8" r="22.5"/>
			<circle class="st1" cx="301.9" cy="481.8" r="14.9"/>
			<text transform="matrix(1 0 0 1 297.4228 487.8385)" class="st2 st3 st4">1</text>
		</g>
		<g id="austria">
			<circle class="st0" cx="401.5" cy="524.2" r="22.5"/>
			<circle class="st1" cx="401.5" cy="524.2" r="14.9"/>
			<text transform="matrix(1 0 0 1 397.0228 530.2229)" class="st2 st3 st4">1</text>
		</g>
		<g id="turchia">
			<circle class="st0" cx="401.5" cy="594.2" r="22.5"/>
			<circle class="st1" cx="401.5" cy="594.2" r="14.9"/>
			<text transform="matrix(1 0 0 1 397.0228 598.2229)" class="st2 st3 st4">1</text>
		</g>
		<g id="principatomonaco">
			<circle class="st0" cx="289.3" cy="608.7" r="22.5"/>
			<circle class="st1" cx="289.3" cy="608.7" r="14.9"/>
			<text transform="matrix(1 0 0 1 284.8228 614.723)" class="st2 st3 st4">1</text>
		</g>
		<g id="grecia">
			<circle class="st0" cx="527.5" cy="701" r="22.5"/>
			<circle class="st1" cx="527.5" cy="701" r="14.9"/>
			<text transform="matrix(1 0 0 1 523.0228 707.0229)" class="st2 st3 st4">1</text>
		</g>
		<g id="serbia">
			<circle class="st0" cx="509.7" cy="596" r="22.5"/>
			
				<ellipse transform="matrix(0.7071 -0.7071 0.7071 0.7071 -272.1446 534.9922)" class="st1" cx="509.7" cy="596" rx="14.9" ry="14.9"/>
			<text transform="matrix(1 0 0 1 505.2228 602.0229)" class="st2 st3 st4">1</text>
		</g>
		<g id="polonia">
			<circle class="st0" cx="463.1" cy="460.6" r="22.5"/>
			<circle class="st1" cx="463.1" cy="460.6" r="14.9"/>
			<text transform="matrix(1 0 0 1 458.6234 466.6229)" class="st2 st3 st4">1</text>
		</g>
		<g id="ungheria">
			<circle class="st0" cx="481.2" cy="543.4" r="22.5"/>
			<circle class="st1" cx="481.2" cy="543.4" r="14.9"/>
			<text transform="matrix(1 0 0 1 476.7228 549.4229)" class="st2 st3 st4">1</text>
		</g>
		<g id="svizzera">
			<circle class="st0" cx="308.1" cy="546.4" r="22.5"/>
			<circle class="st1" cx="308.1" cy="546.4" r="14.9"/>
			<text transform="matrix(1 0 0 1 303.6228 552.4457)" class="st2 st3 st4">1</text>
		</g>
		<g id="irlanda">
			<circle class="st0" cx="146.7" cy="361.4" r="22.5"/>
			<circle class="st1" cx="146.7" cy="361.4" r="14.9"/>
			<text transform="matrix(1 0 0 1 141.9071 366.3999)" class="st2 st3 st4">1</text>
		</g>
		<g id="inghilterra">
			<circle class="st0" cx="221.4" cy="406.4" r="22.5"/>
			<circle class="st1" cx="221.4" cy="406.4" r="14.9"/>
			<text transform="matrix(1 0 0 1 216.9138 412.3999)" class="st2 st3 st4">1</text>
		</g>
		<g id="danimarca">
			<circle class="st0" cx="364.2" cy="381.7" r="22.5"/>
			<circle class="st1" cx="364.2" cy="381.7" r="14.9"/>
			<text transform="matrix(1 0 0 1 359.722 387.7287)" class="st2 st3 st4">1</text>
		</g>
		<g id="svezia">
			<circle class="st0" cx="457.3" cy="253.6" r="22.5"/>
			<circle class="st1" cx="457.3" cy="253.6" r="14.9"/>
			<text transform="matrix(1 0 0 1 452.8228 259.6229)" class="st2 st3 st4">1</text>
		</g>
		<g id="russia">
			<circle class="st0" cx="680.1" cy="319.7" r="22.5"/>
			<circle class="st1" cx="680.1" cy="319.7" r="14.9"/>
			<text transform="matrix(1 0 0 1 675.6257 325.723)" class="st2 st3 st4">1</text>
		</g>
		<g id="spagna">
			<circle class="st0" cx="107.1" cy="652.9" r="22.5"/>
			<circle class="st1" cx="107.1" cy="652.9" r="14.9"/>
			<g id="brasile_2_">
				<text transform="matrix(1 0 0 1 102.6228 657.923)" class="st2 st3 st4">2</text>
			</g>
		</g>
		<g id="portogallo">
			<circle class="st0" cx="30.3" cy="627.3" r="22.5"/>
			
				<ellipse transform="matrix(1.817844e-02 -0.9998 0.9998 1.817844e-02 -597.4205 646.2163)" class="st1" cx="30.3" cy="627.3" rx="14.9" ry="14.9"/>
			<g id="brasile_1_">
				<text transform="matrix(1 0 0 1 25.8284 632.2999)" class="st2 st3 st4">1</text>
			</g>
		</g>
	</g>
</g>
</svg>
