<?xml version="1.0" encoding="UTF-8"?>
<svg width="16px" height="16px" viewBox="0 0 16 16" version="1.1" xmlns="http://www.w3.org/2000/svg" xmlns:xlink="http://www.w3.org/1999/xlink">
    <!-- Generator: Sketch 51.1 (57501) - http://www.bohemiancoding.com/sketch -->
    <title>Oval 2</title>
    <desc>Created with Sketch.</desc>
    <defs></defs>
    <g id="Banker" stroke="none" stroke-width="1" fill="none" fill-rule="evenodd">
        <g id="2_Account_Opening_Banker" transform="translate(-1274.000000, -983.000000)" fill="#4AAC76">
            <g id="Group-3" transform="translate(519.000000, 877.000000)">
                <g id="Product-2">
                    <g id="Right" transform="translate(705.000000, 77.000000)">
                        <g id="share">
                            <g id="Group-5">
                                <g id="Group-10">
                                    <g id="Group">
                                        <g id="Group-8" transform="translate(50.000000, 16.000000)">
                                            <g id="Group-11">
                                                <circle id="Oval-2" cx="8" cy="21" r="8"></circle>
                                            </g>
                                        </g>
                                    </g>
                                </g>
                            </g>
                        </g>
                    </g>
                </g>
            </g>
        </g>
    </g>
</svg>