<?xml version="1.0" encoding="UTF-8"?>
<svg width="56px" height="56px" viewBox="0 0 56 56" version="1.1" xmlns="http://www.w3.org/2000/svg" xmlns:xlink="http://www.w3.org/1999/xlink">
    <!-- Generator: Sketch 52.6 (67491) - http://www.bohemiancoding.com/sketch -->
    <title>btn/Secondary/M/Default</title>
    <desc>Created with Sketch.</desc>
    <g id="Banker" stroke="none" stroke-width="1" fill="none" fill-rule="evenodd">
        <g id="01_Client_profile" transform="translate(-87.000000, -138.000000)">
            <g id="tltle" transform="translate(87.000000, 137.000000)">
                <g id="btn/Secondary/M/Default" transform="translate(0.000000, 1.000000)">
                    <g id="Stacked-Group">
                        <g id="btn/next" transform="translate(28.000000, 28.000000) rotate(180.000000) translate(-28.000000, -28.000000) ">
                            <g id="Group-3">
                                <circle id="Oval" stroke="#CCCCCC" stroke-width="2" fill="#FFFFFF" cx="28" cy="28" r="27"></circle>
                                <g id="ico/ic_arrow_right" transform="translate(20.000000, 20.000000)" fill="#808080">
                                    <path d="M6.1831795,15.6220228 L12.8793649,8.91964113 L12.9020848,8.90311754 C13.3833344,8.40121345 13.3833344,7.60808107 12.9020848,7.09791519 L12.8793649,7.07519525 L6.1831795,0.374878978 C5.67920997,-0.124959659 4.86955399,-0.124959659 4.37797715,0.374878978 C3.87400762,0.866455819 3.87400762,1.67611179 4.37797715,2.17388498 L6.51984767,4.31782095 L10.2211321,7.98192732 L6.22242303,11.9765055 L6.22242303,11.9765055 L4.37797715,13.8230168 C3.87400762,14.32079 3.87400762,15.130446 4.37797715,15.6220228 C4.86955399,16.1259924 5.67920997,16.1259924 6.1831795,15.6220228" id="form"></path>
                                </g>
                            </g>
                        </g>
                    </g>
                </g>
            </g>
        </g>
    </g>
</svg>