<?xml version="1.0" encoding="UTF-8"?>
<svg width="56px" height="56px" viewBox="0 0 56 56" version="1.1" xmlns="http://www.w3.org/2000/svg" xmlns:xlink="http://www.w3.org/1999/xlink">
    <!-- Generator: Sketch 52.6 (67491) - http://www.bohemiancoding.com/sketch -->
    <title>ico/ic_investments_variant</title>
    <desc>Created with Sketch.</desc>
    <g id="Banker" stroke="none" stroke-width="1" fill="none" fill-rule="evenodd">
        <g id="01_Client_profile" transform="translate(-1010.000000, -298.000000)">
            <g id="ico/ic_investments_variant" transform="translate(1010.000000, 298.000000)">
                <g id="ic_investments_variant">
                    <circle id="Oval" fill="#F3F2F2" fill-rule="nonzero" cx="28" cy="28" r="28"></circle>
                    <path d="M16.1509091,34.3190909 L22.2727273,34.3190909 C22.5152305,34.3190909 22.7118182,34.5156786 22.7118182,34.7581818 L22.7118182,42.2163636 L15.7118182,42.2163636 L15.7118182,34.7581818 C15.7118182,34.5156786 15.9084059,34.3190909 16.1509091,34.3190909 Z" id="Shape" fill="#FFFFFF" fill-rule="nonzero"></path>
                    <path d="M23.1190909,42.5981818 L15.33,42.5981818 L15.33,34.7581818 C15.33,34.3048062 15.6975335,33.9372727 16.1509091,33.9372727 L22.2727273,33.9372727 C22.7261028,33.9372727 23.0936364,34.3048062 23.0936364,34.7581818 L23.1190909,42.5981818 Z M16.1190909,41.8345455 L22.3809091,41.8345455 L22.3809091,34.7581818 C22.3809091,34.726551 22.3552672,34.7009091 22.3236364,34.7009091 L16.1509091,34.7009091 C16.1357194,34.7009091 16.1211519,34.7069432 16.1104112,34.7176839 C16.0996704,34.7284246 16.0936364,34.7429921 16.0936364,34.7581818 L16.1190909,41.8345455 Z" id="Shape" fill="#4D4C4C" fill-rule="nonzero"></path>
                    <path d="M24.9263636,27.3 L31.0672727,27.3 C31.3097759,27.3 31.5063636,27.4965877 31.5063636,27.7390909 L31.5063636,42.2163636 L24.5063634,42.2163636 L24.5063636,27.7390909 C24.5061412,27.5038517 24.6913467,27.3102277 24.9263636,27.3 Z" id="Shape" fill="#FFFFFF" fill-rule="nonzero"></path>
                    <path d="M31.8945455,42.5981818 L24.1054545,42.5981818 L24.1054545,27.7390909 C24.1054545,27.2857153 24.4729881,26.9181818 24.9263636,26.9181818 L31.0736364,26.9181818 C31.5270119,26.9181818 31.8945455,27.2857153 31.8945455,27.7390909 L31.8945455,42.5981818 Z M24.8945455,41.8345455 L31.1563636,41.8345455 L31.1563636,27.7390909 C31.1563636,27.7074601 31.1307218,27.6818182 31.0990909,27.6818182 L24.9263636,27.6818182 C24.911174,27.6818182 24.8966064,27.6878523 24.8858657,27.698593 C24.875125,27.7093337 24.8690909,27.7239012 24.8690909,27.7390909 L24.8945455,41.8345455 Z" id="Shape" fill="#4D4C4C" fill-rule="nonzero"></path>
                    <path d="M33.7272727,21.1590909 L39.8681818,21.1590909 C40.110685,21.1590909 40.3072727,21.3556786 40.3072727,21.5981818 L40.3072727,42.2163636 L33.3072725,42.2163636 L33.3072727,21.5981818 C33.3070503,21.3629426 33.4922558,21.1693186 33.7272727,21.1590909 Z" id="Shape" fill="#FFFFFF" fill-rule="nonzero"></path>
                    <path d="M40.67,42.5981818 L32.880909,42.5981818 L32.8809091,21.5981818 C32.8808022,21.3759803 32.970776,21.1632266 33.1302765,21.0085232 C33.2897769,20.8538198 33.505178,20.7703827 33.7272727,20.7772727 L39.8745455,20.7772727 C40.327921,20.7772727 40.6954545,21.1448062 40.6954545,21.5981818 L40.67,42.5981818 Z M33.67,41.8345455 L39.9318182,41.8345455 L39.9318182,21.5981818 C39.9318182,21.566551 39.9061763,21.5409091 39.8745455,21.5409091 L33.7272727,21.5409091 C33.6956419,21.5409091 33.67,21.566551 33.67,21.5981818 L33.67,41.8345455 Z" id="Shape" fill="#4D4C4C" fill-rule="nonzero"></path>
                    <path d="M44.0681818,42.5981818 L11.9318182,42.5981818 C11.7209458,42.5981818 11.55,42.427236 11.55,42.2163636 C11.55,42.0054913 11.7209458,41.8345455 11.9318182,41.8345455 L44.0681818,41.8345455 C44.2790542,41.8345455 44.45,42.0054913 44.45,42.2163636 C44.45,42.427236 44.2790542,42.5981818 44.0681818,42.5981818 Z" id="Shape" fill="#4D4C4C" fill-rule="nonzero"></path>
                    <path d="M31.5127273,20.1727273 C31.3018549,20.1727273 31.1309091,20.0017814 31.1309091,19.7909091 L31.1309091,14.1654545 L25.4990909,14.1654545 C25.2882186,14.1654545 25.1172727,13.9945087 25.1172727,13.7836364 C25.1172727,13.572764 25.2882186,13.4018182 25.4990909,13.4018182 L31.8627273,13.4018182 L31.8627273,19.7654545 C31.8773621,19.9741802 31.7212798,20.1558032 31.5127273,20.1727273 Z" id="Shape" fill="#4D4C4C" fill-rule="nonzero"></path>
                    <path d="M18.76,26.9118182 C18.6586114,26.9105155 18.561233,26.8720171 18.4863636,26.8036364 C18.3400667,26.6530095 18.3400667,26.4133541 18.4863636,26.2627273 L31.2136364,13.5354545 C31.3630043,13.3860866 31.6051775,13.3860866 31.7545454,13.5354546 C31.9039134,13.6848225 31.9039134,13.9269957 31.7545455,14.0763636 L19.0272727,26.8036364 C18.9553755,26.8726745 18.859676,26.91141 18.76,26.9118182 Z" id="Shape" fill="#4D4C4C" fill-rule="nonzero"></path>
                    <rect id="Rectangle-path" x="0" y="0" width="56" height="56"></rect>
                </g>
            </g>
        </g>
    </g>
</svg>