<?xml version="1.0" encoding="UTF-8"?>
<svg width="56px" height="56px" viewBox="0 0 56 56" version="1.1" xmlns="http://www.w3.org/2000/svg" xmlns:xlink="http://www.w3.org/1999/xlink">
    <!-- Generator: Sketch 52.6 (67491) - http://www.bohemiancoding.com/sketch -->
    <title>ic_migration</title>
    <desc>Created with Sketch.</desc>
    <g id="Banker" stroke="none" stroke-width="1" fill="none" fill-rule="evenodd">
        <g id="01_Client_profile" transform="translate(-248.000000, -298.000000)">
            <g id="ic_migration" transform="translate(248.000000, 298.000000)">
                <circle id="Oval" fill="#F3F2F3" fill-rule="nonzero" cx="28" cy="28" r="28"></circle>
                <path d="M45.1818182,37.7363636 L15.0245455,37.7363636 C14.6386644,37.7364241 14.2689461,37.5814126 13.9984909,37.3061706 C13.7280357,37.0309285 13.5795339,36.6585479 13.5863636,36.2727273 L13.5863636,15.2218182 C13.5863636,14.4275323 14.2302596,13.7836364 15.0245455,13.7836364 L45.1818182,13.7836364 C45.9736178,13.7871399 46.6136441,14.4300108 46.6136364,15.2218182 L46.6136364,36.2727273 C46.6204501,36.6574469 46.4728157,37.0288533 46.2037414,37.3039071 C45.934667,37.5789608 45.5665946,37.7347214 45.1818182,37.7363636 Z M15.0245455,14.5472727 C14.6520043,14.5472727 14.35,14.849277 14.35,15.2218182 L14.35,36.2727273 C14.3482829,36.4521487 14.4187994,36.6247215 14.5456753,36.7515974 C14.6725513,36.8784733 14.845124,36.9489898 15.0245455,36.9472727 L45.1818182,36.9472727 C45.5408393,36.9301775 45.8220117,36.6321348 45.8181818,36.2727273 L45.8181818,15.2218182 C45.818756,14.8636925 45.5393702,14.5675436 45.1818182,14.5472727 L15.0245455,14.5472727 Z" id="Shape" fill="#4D4C4C" fill-rule="nonzero"></path>
                <rect id="Rectangle-path" fill="#FFFFFF" fill-rule="nonzero" x="13.9681818" y="14.1654545" width="32.2572727" height="23.1890909" rx="1.66"></rect>
                <path d="M45.1818182,37.7363636 L15.0245455,37.7363636 C14.6386644,37.7364241 14.2689461,37.5814126 13.9984909,37.3061706 C13.7280357,37.0309285 13.5795339,36.6585479 13.5863636,36.2727273 L13.5863636,15.2218182 C13.5863636,14.4275323 14.2302596,13.7836364 15.0245455,13.7836364 L45.1818182,13.7836364 C45.9736178,13.7871399 46.6136441,14.4300108 46.6136364,15.2218182 L46.6136364,36.2727273 C46.6204501,36.6574469 46.4728157,37.0288533 46.2037414,37.3039071 C45.934667,37.5789608 45.5665946,37.7347214 45.1818182,37.7363636 Z M15.0245455,14.5472727 C14.6520043,14.5472727 14.35,14.849277 14.35,15.2218182 L14.35,36.2727273 C14.3482829,36.4521487 14.4187994,36.6247215 14.5456753,36.7515974 C14.6725513,36.8784733 14.845124,36.9489898 15.0245455,36.9472727 L45.1818182,36.9472727 C45.5408393,36.9301775 45.8220117,36.6321348 45.8181818,36.2727273 L45.8181818,15.2218182 C45.818756,14.8636925 45.5393702,14.5675436 45.1818182,14.5472727 L15.0245455,14.5472727 Z" id="Shape" fill="#4D4C4C" fill-rule="nonzero"></path>
                <path d="M46.2190909,33.6572727 L14,33.6572727 C13.7891276,33.6572727 13.6181818,33.4863269 13.6181818,33.2754545 C13.6181818,33.0645822 13.7891276,32.8936364 14,32.8936364 L46.2190909,32.8936364 C46.4299633,32.8936364 46.6009091,33.0645822 46.6009091,33.2754545 C46.6009091,33.4863269 46.4299633,33.6572727 46.2190909,33.6572727 Z" id="Shape" fill="#4D4C4C" fill-rule="nonzero"></path>
                <path d="M35.5090909,42.2163636 L24.6909091,42.2163636 C24.4800367,42.2163636 24.3090909,42.0454178 24.3090909,41.8345455 C24.3090909,41.6236731 24.4800367,41.4527273 24.6909091,41.4527273 L35.5090909,41.4527273 C35.7199633,41.4527273 35.8909091,41.6236731 35.8909091,41.8345455 C35.8909091,42.0454178 35.7199633,42.2163636 35.5090909,42.2163636 Z" id="Shape" fill="#4D4C4C" fill-rule="nonzero"></path>
                <path d="M30.0936364,42.2163636 C29.882764,42.2163636 29.7118182,42.0454178 29.7118182,41.8345455 L29.7118182,37.38 C29.7118182,37.1691276 29.882764,36.9981818 30.0936364,36.9981818 C30.3045087,36.9981818 30.4754545,37.1691276 30.4754545,37.38 L30.4754545,41.8345455 C30.4754545,42.0454178 30.3045087,42.2163636 30.0936364,42.2163636 Z" id="Shape" fill="#4D4C4C" fill-rule="nonzero"></path>
                <path d="M13.9678747,33.2754545 L46.2194021,33.2754545 L46.2190909,36.2727273 C46.2259149,36.5539954 46.1202534,36.826365 45.9255334,37.0294472 C45.7308133,37.2325295 45.4631246,37.3495436 45.1818182,37.3545455 L15.0245455,37.3545455 C14.7399138,37.3546281 14.4672928,37.2398456 14.268438,37.0361991 C14.0695831,36.8325525 13.9613232,36.5572763 13.9681818,36.2727273 L13.9678747,33.2754545 Z" id="Shape" fill="#E6E5E5" fill-rule="nonzero"></path>
                <path d="M45.1818182,37.7363636 L15.0245455,37.7363636 C14.6386644,37.7364241 14.2689461,37.5814126 13.9984909,37.3061706 C13.7280357,37.0309285 13.5795339,36.6585479 13.5863636,36.2727273 L13.5861381,32.8936364 L46.6011369,32.8936364 L46.6009091,36.2727273 C46.6077136,36.65526 46.4618161,37.0247378 46.195494,37.2994197 C45.929172,37.5741016 45.5643785,37.7313455 45.1818182,37.7363636 Z M14.3499694,33.6572727 L14.35,36.2727273 C14.3482829,36.4521487 14.4187994,36.6247215 14.5456753,36.7515974 C14.6725513,36.8784733 14.845124,36.9489898 15.0245455,36.9472727 L45.1818182,36.9472727 C45.5408393,36.9301775 45.8220117,36.6321348 45.8181818,36.2727273 L45.8182205,33.6572727 L14.3499694,33.6572727 Z" id="Shape" fill="#4D4C4C" fill-rule="nonzero"></path>
                <rect id="Rectangle-path" fill="#FFFFFF" fill-rule="nonzero" x="9.39909091" y="19.8227273" width="11.3590909" height="22.3936364" rx="3.17"></rect>
                <path d="M18.7345455,20.2045455 C19.6352959,20.2080503 20.3636432,20.9392427 20.3636364,21.84 L20.3636364,40.1990909 C20.3636364,41.1023275 19.6314184,41.8345455 18.7281818,41.8345455 L11.4163636,41.8345455 C10.9826141,41.8345455 10.5666299,41.6622391 10.2599226,41.3555319 C9.95321541,41.0488247 9.78090909,40.6328404 9.78090909,40.1990909 L9.78090909,21.84 C9.78090909,20.9367634 10.513127,20.2045455 11.4163636,20.2045455 L18.7345455,20.2045455 Z M18.7345455,19.4409091 L11.4163636,19.4409091 C10.0913823,19.4409091 9.01727273,20.5150187 9.01727273,21.84 L9.01727273,40.1990909 C9.01727273,41.5240722 10.0913823,42.5981818 11.4163636,42.5981818 L18.7345455,42.5981818 C20.0595268,42.5981818 21.1336364,41.5240722 21.1336364,40.1990909 L21.1336364,21.84 C21.1336364,20.5150187 20.0595268,19.4409091 18.7345455,19.4409091 Z" id="Shape" fill="#4D4C4C" fill-rule="nonzero"></path>
                <g id="Cosini" transform="translate(13.363636, 21.000000)" fill="#B1B1B1" fill-rule="nonzero">
                    <path d="M1.82636364,0.337272727 L0.7,0.337272727 C0.642751474,0.340646043 0.59808252,0.388106807 0.598181818,0.445454545 C0.598181818,0.501687175 0.643767371,0.547272727 0.7,0.547272727 L1.82636364,0.547272727 C1.87504335,0.53798853 1.90996834,0.495003927 1.90909091,0.445454545 C1.9105205,0.394383214 1.87602538,0.349274214 1.82636364,0.337272727 Z" id="Shape"></path>
                    <circle id="Oval" cx="2.81272727" cy="0.598181818" r="1"></circle>
                </g>
                <rect id="Rectangle-path" x="0" y="0" width="56" height="56"></rect>
            </g>
        </g>
    </g>
</svg>