<?xml version="1.0" encoding="UTF-8"?>
<svg width="81px" height="81px" viewBox="0 0 81 81" version="1.1" xmlns="http://www.w3.org/2000/svg" xmlns:xlink="http://www.w3.org/1999/xlink">
    <!-- Generator: Sketch 52.6 (67491) - http://www.bohemiancoding.com/sketch -->
    <title>User</title>
    <desc>Created with Sketch.</desc>
    <g id="Banker" stroke="none" stroke-width="1" fill="none" fill-rule="evenodd">
        <g id="01_Client_profile" transform="translate(-328.000000, -660.000000)">
            <g id="Left" transform="translate(220.000000, 544.000000)">
                <g id="User" transform="translate(108.000000, 116.000000)">
                    <circle id="Oval" fill="#FFFFFF" cx="40.5" cy="40.5" r="40.5"></circle>
                    <g id="icobig/ic_new_client" transform="translate(7.000000, 5.000000)">
                        <rect id="88x88px" fill-rule="nonzero" x="0" y="0" width="68" height="68"></rect>
                        <g id="Group-13" stroke-width="1" fill-rule="evenodd">
                            <polygon id="Fill-1" points="0 68 68 68 68 0 0 0"></polygon>
                            <g id="Group-12" transform="translate(9.272727, 4.636364)">
                                <path d="M47.6388682,52.2158864 L1.81459545,52.2158864 C1.54955,52.2158864 1.29300455,52.1038409 1.11218636,51.9098864 C0.932140909,51.7190227 0.837868182,51.4578409 0.855640909,51.1920227 C1.28141364,44.0056591 7.06527727,41.7199318 11.7132318,39.8823864 C14.5808227,38.7495682 17.0581864,37.7720682 17.8633682,35.9708409 L17.8973682,35.8193864 C18.0070955,34.5127045 17.99705,33.4656591 17.9854591,32.25325 L17.9785045,31.5207045 L17.8533227,31.3908864 C16.8055045,30.3021136 15.7476409,28.0758864 15.3342318,26.0953864 L15.2932773,25.8913864 L15.1093682,25.7909318 C14.3636864,25.3798409 13.4116864,24.3613864 13.1041409,21.8384318 C12.93955,20.3996136 13.4565045,19.4738864 13.7787318,19.0512045 L13.9100955,18.8796591 L13.8598682,18.67025 C12.4310955,12.62675 12.8638227,8.04215909 15.1441409,5.04088636 C17.0651409,2.51638636 20.2387318,1.19502273 24.5783682,1.11311364 C27.4104136,1.11311364 29.4929136,1.83484091 30.60255,3.20025 L30.7037773,3.32388636 L30.8629591,3.35788636 C32.8117773,3.76356818 34.3015955,4.77043182 35.2875955,6.34756818 C37.6799591,10.1818409 36.3245955,16.2593409 35.6306864,18.6949773 L35.5704136,18.9090227 L35.7033227,19.0898409 C36.0139591,19.5102045 36.5123682,20.4227955 36.3531864,21.8214318 C36.04255,24.3559773 35.0835955,25.3790682 34.3325045,25.7901591 L34.1462773,25.8913864 L34.10455,26.0977045 C33.7112318,28.0743409 32.6788682,30.2997955 31.6503682,31.3854773 L31.5275045,31.5152955 L31.5228682,32.2401136 C31.5112773,33.4865227 31.5020045,34.5273864 31.6202318,35.8757955 L31.6642773,36.0249318 C32.4485955,37.76975 34.9645955,38.7673409 37.6289591,39.8236591 L37.7788682,39.8839318 C42.40905,41.7191591 48.1712773,44.0025682 48.5993682,51.1966591 C48.6163682,51.4586136 48.5213227,51.7197955 48.3397318,51.91375 C48.1573682,52.1061591 47.9023682,52.2158864 47.6388682,52.2158864" id="Fill-2" fill="#FFFFFF"></path>
                                <path d="M24.5785227,1.57659545 C20.3965227,1.65618636 17.3434773,2.91495909 15.5136591,5.32200455 C13.3214318,8.20736818 12.9165227,12.6629136 14.3112955,18.5634591 L14.41175,18.9869136 L14.1467045,19.3330955 C13.8669773,19.7001409 13.4187955,20.5076409 13.5640682,21.7857318 C13.8476591,24.1093227 14.6829773,25.02655 15.3336136,25.3850955 L15.7045227,25.58755 L15.78875,26.0032773 C16.1859318,27.9057318 17.1943409,30.0376864 18.1872955,31.0692773 L18.44075,31.3312318 L18.4484773,32.2484591 C18.4608409,33.4886864 18.4708864,34.53805 18.3588409,35.8586409 L18.2862045,36.1600045 C17.4045227,38.1327773 14.8475682,39.1427318 11.8864773,40.3126409 C7.35752273,42.10305 1.72665909,44.3292773 1.31788636,51.2189136 C1.30938636,51.35955 1.35652273,51.4940045 1.44925,51.5921409 C1.54506818,51.6941409 1.67720455,51.7528682 1.81475,51.7528682 L47.6390227,51.7528682 C47.7757955,51.7528682 47.9087045,51.6949136 48.0029773,51.5944591 C48.0964773,51.4963227 48.1451591,51.3610955 48.1366591,51.2258682 C47.7263409,44.3254136 42.1163409,42.1015045 37.6090227,40.3157318 L37.4560227,40.2539136 C34.7043409,39.1628227 32.1025682,38.1312318 31.24175,36.2148682 L31.1582955,35.9158227 C31.03775,34.5411409 31.0477955,33.4732318 31.0593864,32.2360955 L31.0655682,31.3296864 L31.3128409,31.0677318 C32.2887955,30.0376864 33.2709318,27.9095955 33.6495682,26.0071409 L33.7345682,25.5867773 L34.1116591,25.3827773 C34.7653864,25.0250045 35.6061136,24.1054591 35.8927955,21.7648682 C36.0334318,20.5292773 35.6007045,19.73105 35.33025,19.36555 L35.0621136,19.0015955 L35.1849773,18.5688682 C35.8618864,16.1919591 37.1886591,10.2697773 34.8944318,6.59236818 C33.9772045,5.12650455 32.5893864,4.19073182 30.7688409,3.81286818 L30.4481591,3.74255 L30.2441591,3.49450455 C29.2241591,2.23882273 27.2660682,1.57659545 24.5785227,1.57659545 M47.6390227,52.6793682 L1.81475,52.6793682 C1.42143182,52.6793682 1.04202273,52.5147773 0.773113636,52.22655 C0.50575,51.9437318 0.365886364,51.5542773 0.392931818,51.1601864 C0.835704545,43.68405 6.77102273,41.3372773 11.5402955,39.4525955 C14.2950682,38.3638227 16.67275,37.4249591 17.4215227,35.82155 L17.4454773,35.7180045 C17.5428409,34.5032773 17.5335682,33.4732318 17.5219773,32.2809136 L17.5165682,31.7098682 C16.41775,30.5662318 15.3104318,28.24805 14.8815682,26.1941409 C14.0408409,25.7289591 12.9737045,24.6054136 12.64375,21.8946864 C12.4598409,20.2935955 13.0424773,19.2527318 13.4079773,18.7728682 C11.94675,12.59105 12.4072955,7.87586818 14.7749318,4.76023182 C16.7855682,2.11673182 20.08125,0.73355 24.56925,0.650095455 C27.5519773,0.650095455 29.7581136,1.42977727 30.9597045,2.90491364 L30.9620227,2.90568636 C33.03525,3.33609545 34.62475,4.41250455 35.6802955,6.10091364 C38.1707955,10.09205 36.7899318,16.3186864 36.07825,18.8176864 C36.4290682,19.2921409 36.9900682,20.3214136 36.8131136,21.8745955 C36.4792955,24.6054136 35.4036591,25.7312773 34.5582955,26.1949136 C34.14875,28.2457318 33.06925,30.5592773 31.9905227,31.7005955 L31.9858864,32.2438227 C31.9750682,33.4430955 31.9657955,34.4808682 32.0778409,35.7883227 L32.10875,35.8918682 C32.7941591,37.4079591 35.2251591,38.37155 37.7991136,39.3923227 L37.9521136,39.4541409 C42.7028409,41.3365045 48.6165227,43.6809591 49.0623864,51.1694591 C49.0871136,51.5558227 48.94725,51.9437318 48.6783409,52.2304136 C48.4071136,52.5170955 48.02925,52.6793682 47.6390227,52.6793682" id="Fill-4" fill="#4D4C4C"></path>
                                <path d="M52.3257682,47.1252364 C52.3257682,40.3198273 46.8092682,34.8033273 40.0038591,34.8033273 C33.19845,34.8033273 27.68195,40.3198273 27.68195,47.1252364 C27.68195,53.9306455 33.19845,59.4471455 40.0038591,59.4471455 C46.8092682,59.4471455 52.3257682,53.9306455 52.3257682,47.1252364" id="Fill-6" fill="#C4DBBC"></path>
                                <path d="M40.0036273,35.2664227 C33.4648091,35.2664227 28.1453545,40.58665 28.1453545,47.1254682 C28.1453545,53.6642864 33.4648091,58.9837409 40.0036273,58.9837409 C46.5424455,58.9837409 51.8626727,53.6642864 51.8626727,47.1254682 C51.8626727,40.58665 46.5424455,35.2664227 40.0036273,35.2664227 M40.0036273,59.9110136 C32.9540364,59.9110136 27.2188545,54.1758318 27.2188545,47.1254682 C27.2188545,40.0751045 32.9540364,34.3399227 40.0036273,34.3399227 C47.0539909,34.3399227 52.7891727,40.0751045 52.7891727,47.1254682 C52.7891727,54.1758318 47.0539909,59.9110136 40.0036273,59.9110136" id="Fill-8" fill="#4D4C4C"></path>
                                <path d="M37.6114955,51.6129273 C37.3441318,51.6129273 37.0775409,51.5117 36.8735409,51.3084727 L33.8977682,48.3327 C33.71695,48.1518818 33.71695,47.8582455 33.8977682,47.6774273 C34.0793591,47.4966091 34.3722227,47.4966091 34.5530409,47.6774273 L37.5288136,50.6532 C37.5736318,50.6964727 37.6485864,50.6964727 37.6918591,50.6532 L46.1192227,42.2799273 C46.3000409,42.0991091 46.5936773,42.0991091 46.7744955,42.2822455 C46.9553136,42.4638364 46.9545409,42.7574727 46.7721773,42.9375182 L38.3463591,51.3100182 C38.1439045,51.5117 37.8780864,51.6129273 37.6114955,51.6129273" id="Fill-10" fill="#4D4C4C"></path>
                            </g>
                        </g>
                    </g>
                </g>
            </g>
        </g>
    </g>
</svg>