<?xml version="1.0" encoding="UTF-8"?>
<svg width="25px" height="23px" viewBox="0 0 25 23" version="1.1" xmlns="http://www.w3.org/2000/svg" xmlns:xlink="http://www.w3.org/1999/xlink">
    <!-- Generator: Sketch 51.1 (57501) - http://www.bohemiancoding.com/sketch -->
    <title>ico/share</title>
    <desc>Created with Sketch.</desc>
    <defs>
        <path d="M19.6625071,19.4285714 L6,19.4285714 C4.8954305,19.4285714 4,18.5331409 4,17.4285714 L4,2 C4,0.8954305 4.8954305,-2.02906125e-16 6,0 L22.5714286,0 C23.6759981,2.02906125e-16 24.5714286,0.8954305 24.5714286,2 L24.5714286,17.4285714 C24.5714286,18.5331409 23.6759981,19.4285714 22.5714286,19.4285714 L20.3946357,19.4285714 C20.5369148,19.5382839 20.6285714,19.7104382 20.6285714,19.904 C20.6285714,21.2868442 19.5080313,22.4857143 18.1428571,22.4857143 L2.512,22.4857143 C1.14485296,22.4857143 -1.04598481e-15,21.2839713 -8.76987068e-16,19.904 L8.88603717e-16,5.48685714 C1.05651401e-15,4.11576555 1.13677369,3 2.512,3 C2.84337085,3 3.112,3.26862915 3.112,3.6 C3.112,3.93137085 2.84337085,4.2 2.512,4.2 C1.79455685,4.2 1.2,4.78356915 1.2,5.48685714 L1.2,19.904 C1.2,20.6338969 1.82096059,21.2857143 2.512,21.2857143 L18.1428571,21.2857143 C18.8264905,21.2857143 19.4285714,20.6415456 19.4285714,19.904 C19.4285714,19.7104382 19.5202281,19.5382839 19.6625071,19.4285714 Z M19.6625071,19.4285714 L20.3946357,19.4285714 C20.2933382,19.3504601 20.1663805,19.304 20.0285714,19.304 C19.8907624,19.304 19.7638047,19.3504601 19.6625071,19.4285714 Z M22.5714286,1.2 L6,1.2 C5.5581722,1.2 5.2,1.5581722 5.2,2 L5.2,17.4285714 C5.2,17.8703992 5.5581722,18.2285714 6,18.2285714 L22.5714286,18.2285714 C23.0132564,18.2285714 23.3714286,17.8703992 23.3714286,17.4285714 L23.3714286,2 C23.3714286,1.5581722 23.0132564,1.2 22.5714286,1.2 Z M12.1756033,5.02413142 C11.941362,4.78974361 11.9414808,4.40984464 12.1758686,4.17560333 C12.4102564,3.94136201 12.7901554,3.94148077 13.0243967,4.17586858 L17.592968,8.74729715 C17.8271058,8.98158135 17.8271058,9.36127579 17.592968,9.59555999 L13.0243967,14.1669886 C12.7901554,14.4013764 12.4102564,14.4014951 12.1758686,14.1672538 C11.9414808,13.9330125 11.941362,13.5531135 12.1756033,13.3187257 L16.3203084,9.17142857 L12.1756033,5.02413142 Z" id="path-1"></path>
    </defs>
    <g id="Symbols" stroke="none" stroke-width="1" fill="none" fill-rule="evenodd">
        <g id="btn-slott/share" transform="translate(-30.000000, -27.000000)">
            <g id="sharing">
                <g id="Group-2" transform="translate(8.000000, 24.000000)">
                    <g id="ico/share" transform="translate(20.000000, 0.000000)">
                        <g id="Group" transform="translate(2.000000, 3.000000)">
                            <mask id="mask-2" fill="white">
                                <use xlink:href="#path-1"></use>
                            </mask>
                            <use id="Mask" fill="#262626" fill-rule="nonzero" xlink:href="#path-1"></use>
                            <g id="Color/Gray-20" mask="url(#mask-2)" fill="#F1F2F6">
                                <g transform="translate(-2.000000, -3.000000)" id="Swatch">
                                    <rect x="0" y="0" width="28" height="29"></rect>
                                </g>
                            </g>
                        </g>
                    </g>
                </g>
            </g>
        </g>
    </g>
</svg>