<?xml version="1.0" encoding="utf-8"?>
<!-- Generator: Adobe Illustrator 24.2.1, SVG Export Plug-In . SVG Version: 6.00 Build 0)  -->
<svg version="1.1" id="Layer_1" xmlns="http://www.w3.org/2000/svg" xmlns:xlink="http://www.w3.org/1999/xlink" x="0px" y="0px"
	 width="960.1px" height="489.9px" viewBox="0 0 960.1 489.9" style="enable-background:new 0 0 960.1 489.9;" xml:space="preserve"
	>
<style type="text/css">
	.st0{opacity:0.5;fill:#FFFFFF;enable-background:new    ;}
	.st1{fill:#FFFFFF;}
	.st2{fill:#1F4E9B;}
	.st3{font-family:'ArialMT';}
	.st4{font-size:22.3325px;}
</style>
<image style="overflow:visible;" width="1980" height="1001" xlink:href="433AF7F117B22B27.png"  transform="matrix(0.48 0 0 0.48 4.8 4.62)">
</image>
<g id="mondo">
	<g id="nordamerica">
		<circle class="st0" cx="126.2" cy="129.1" r="40"/>
		<circle class="st1" cx="126.2" cy="129.1" r="26.5"/>
		<g id="brasile">
			<text transform="matrix(1 0 0 1 112.854 136.6099)" class="st2 st3 st4">10</text>
		</g>
	</g>
	<g id="sudamerica">
		<circle class="st0" cx="239" cy="323.5" r="40"/>
		<circle class="st1" cx="239" cy="323.5" r="26.5"/>
		<g id="brasile_1_">
			<text transform="matrix(1 0 0 1 231.8787 331.0282)" class="st2 st3 st4">2</text>
		</g>
	</g>
	<g id="europa">
		<circle class="st0" cx="464.5" cy="114.8" r="40"/>
		<circle class="st1" cx="464.5" cy="114.8" r="26.5"/>
		<g id="brasile_2_">
			<text transform="matrix(1 0 0 1 451.1223 122.3282)" class="st2 st3 st4">50</text>
		</g>
	</g>
	<g id="asia-oceania">
		<circle class="st0" cx="759.4" cy="170.8" r="40"/>
		<circle class="st1" cx="759.4" cy="170.8" r="26.5"/>
		<g id="brasile_3_">
			<text transform="matrix(1 0 0 1 752.2827 178.3282)" class="st2 st3 st4">9</text>
		</g>
	</g>
	<g id="australia">
		<circle class="st0" cx="868.5" cy="373.5" r="40"/>
		<circle class="st1" cx="868.5" cy="373.5" r="26.5"/>
		<g id="brasile_4_">
			<text transform="matrix(1 0 0 1 861.3827 381.0282)" class="st2 st3 st4">1</text>
		</g>
	</g>
</g>
</svg>
