<?xml version="1.0" encoding="utf-8"?>
<!-- Generator: Adobe Illustrator 22.1.0, SVG Export Plug-In . SVG Version: 6.00 Build 0)  -->
<svg version="1.1" id="Layer_1" xmlns="http://www.w3.org/2000/svg" xmlns:xlink="http://www.w3.org/1999/xlink" x="0px" y="0px"
	 viewBox="0 0 37.3 37.3" style="enable-background:new 0 0 37.3 37.3;" xml:space="preserve">
<style type="text/css">
	.st0{fill:#FFFFFF;}
</style>
<title>Group 3</title>
<desc>Created with Sketch.</desc>
<g id="Danube">
	<g id="_x32_0_x5F_pal_x5F_danube" transform="translate(-475.000000, -23.000000)">
		<g id="title" transform="translate(335.000000, 23.000000)">
			<g id="Group-3" transform="translate(140.000000, 0.000000)">
				<g id="ico_x2F_attend" transform="translate(24.666667, 27.750000)">
					<path id="Page-1" class="st0" d="M2.6-17.7L-9.6-5.4l-5-5c-0.8-0.8-2.2-0.8-3.1,0c-0.8,0.8-0.8,2.2,0,3.1l6.5,6.5l0.1,0.1
						c0.9,0.8,2.2,0.8,3.1,0L5.7-14.6c0.8-0.8,0.8-2.2,0-3.1C4.8-18.5,3.5-18.5,2.6-17.7z"/>
				</g>
			</g>
		</g>
	</g>
</g>
</svg>
