<?xml version="1.0" encoding="UTF-8"?>
<svg width="40px" height="40px" viewBox="0 0 40 40" version="1.1" xmlns="http://www.w3.org/2000/svg" xmlns:xlink="http://www.w3.org/1999/xlink">
    <!-- Generator: Sketch 51 (57462) - http://www.bohemiancoding.com/sketch -->
    <title>Group 7</title>
    <desc>Created with Sketch.</desc>
    <defs></defs>
    <g id="Dashboard_PBZ" stroke="none" stroke-width="1" fill="none" fill-rule="evenodd">
        <g id="01_dashboard_search" transform="translate(-652.000000, -520.000000)">
            <rect fill="#F1F2F6" x="0" y="0" width="1440" height="1733"></rect>
            <g id="search" transform="translate(518.000000, 264.000000)">
                <g transform="translate(109.000000, 0.000000)" id="list">
                    <g transform="translate(25.000000, 76.000000)">
                        <g id="Stacked-Group-2" transform="translate(0.000000, 180.000000)">
                            <g id="Group-2">
                                <g id="Group">
                                    <g id="Group-7">
                                        <circle id="photo" fill="#F1F2F6" cx="20" cy="20" r="20"></circle>
                                        <g id="ico/ic_avatar" transform="translate(12.000000, 12.000000)">
                                            <rect id="Rectangle" fill="#FFFFFF" opacity="0" x="0" y="0" width="16" height="16"></rect>
                                            <path d="M1.4359349,15.1395122 C1.73089425,13.7453659 2.96113815,13.259187 4.25999994,12.7460163 C5.28861782,12.3395122 6.26032514,11.9557724 6.5962601,11.0445528 L6.61382107,10.9593496 C6.65902433,10.4764228 6.65544709,10.1043902 6.65154465,9.70536585 L6.64926823,9.20617886 C6.64926823,9.13333333 6.60861782,9.06634146 6.54422758,9.03317073 L6.42357717,8.97073171 C6.2960975,8.88 5.86227636,8.15154472 5.78845522,7.47902439 L5.76731701,7.28552846 C5.75723571,7.19252033 5.68211376,7.1196748 5.58878042,7.11186992 L5.39788612,7.09756098 C5.36016254,7.08682927 5.2063414,6.94243902 5.14325197,6.42861789 C5.11333327,6.16585366 5.226504,6.07642276 5.22552839,6.07642276 L5.37479668,5.98569106 C5.44796742,5.94081301 5.48373977,5.85300813 5.46227636,5.7697561 L5.41869912,5.60130081 C4.9663414,3.84552846 5.03723571,2.56097561 5.62845522,1.78308943 C6.07821132,1.19154472 6.86520319,0.881300813 7.96373977,0.860487805 C8.63853652,0.860487805 9.13382107,1.02406504 9.28829262,1.29788618 L9.34520319,1.39902439 C9.37512189,1.45235772 9.42845522,1.48813008 9.48861782,1.49691057 L9.60341457,1.51252033 C10.0860162,1.5804878 10.4134959,1.77658537 10.6346341,2.13073171 C11.1936585,3.02666667 10.8691056,4.71707317 10.5891056,5.57528455 L10.5312194,5.75252033 C10.503252,5.83837398 10.5380487,5.93235772 10.6154471,5.9795122 L10.7669918,6.07121951 C10.7718699,6.07512195 10.8869918,6.16357724 10.8570731,6.42471545 C10.7939837,6.94113821 10.6339837,7.08845528 10.5998373,7.09723577 L10.404065,7.11252033 C10.3100812,7.12 10.2349593,7.19349593 10.2255284,7.28715447 L10.205691,7.48227642 C10.1370731,8.15219512 9.7162601,8.88065041 9.59983734,8.96715447 L9.47268286,9.03284553 C9.40796742,9.06634146 9.36731701,9.13300813 9.36731701,9.20617886 L9.36731701,9.34894309 C9.36731701,9.47252033 9.3663414,9.5899187 9.36504059,9.70504065 C9.36146335,10.100813 9.35756091,10.4741463 9.40699181,10.9847154 L9.42813002,11.0689431 C9.7562601,11.9554472 10.7247154,12.339187 11.7500812,12.7456911 C13.044065,13.2588618 14.269756,13.7447154 14.5643902,15.1395122 L1.4359349,15.1395122 Z M15.4834146,15.5437398 C15.3461788,13.2452033 13.4508942,12.4939837 12.0671544,11.9456911 C11.2144715,11.6078049 10.4759349,11.3147967 10.2541463,10.8178862 C10.2190243,10.404878 10.2222764,10.083252 10.2258536,9.71219512 L10.2271544,9.5499187 C10.5604877,9.20130081 10.8908942,8.49268293 11.0190243,7.84910569 C11.2986991,7.69723577 11.6118699,7.34308943 11.7117073,6.52617886 C11.7523577,6.16943089 11.6704064,5.83349593 11.4853658,5.58569106 C11.7263414,4.74341463 12.1208129,2.88682927 11.3643902,1.67512195 C11.0404877,1.15577236 10.5526829,0.825691057 9.91430888,0.693333333 C9.5468292,0.239674797 8.87333327,0 7.95560969,0 C6.57414628,0.0256910569 5.56048774,0.450731707 4.94357717,1.26211382 C4.21544709,2.2195122 4.07495929,3.66926829 4.52504059,5.57203252 C4.33252026,5.82146341 4.24699181,6.16325203 4.28829262,6.52943089 C4.38878042,7.34406504 4.69999994,7.69756098 4.97739831,7.84910569 C5.11073164,8.49300813 5.44991864,9.20227642 5.78975603,9.55154472 L5.79105685,9.71414634 C5.79463408,10.0852033 5.79788612,10.4068293 5.76276416,10.817561 C5.54065034,11.3147967 4.79951213,11.6074797 3.94260156,11.9460163 C2.55463408,12.4943089 0.653821075,13.2458537 0.516585303,15.544065 L0.501951156,15.7934959 C0.498699124,15.8471545 0.517886116,15.8995122 0.554959286,15.9385366 C0.591707254,15.9778862 0.643089368,16 0.696747904,16 L15.303252,16 C15.3572357,16 15.4082926,15.9778862 15.4453658,15.9385366 C15.4821138,15.8995122 15.5013007,15.8471545 15.4980487,15.7934959 L15.4834146,15.5437398 Z" id="Fill-1" fill="#808080"></path>
                                        </g>
                                    </g>
                                </g>
                            </g>
                        </g>
                    </g>
                </g>
            </g>
        </g>
    </g>
</svg>