<?xml version="1.0" encoding="UTF-8"?>
<svg width="56px" height="56px" viewBox="0 0 56 56" version="1.1" xmlns="http://www.w3.org/2000/svg" xmlns:xlink="http://www.w3.org/1999/xlink">
    <!-- Generator: Sketch 49.3 (51167) - http://www.bohemiancoding.com/sketch -->
    <title>ico/ic_coverage_condition</title>
    <desc>Created with Sketch.</desc>
    <defs></defs>
    <g id="Page-1" stroke="none" stroke-width="1" fill="none" fill-rule="evenodd">
        <g id="08_config" transform="translate(-356.000000, -1422.000000)">
            <g id="Stacked-Group" transform="translate(260.000000, 471.000000)">
                <g id="box2" transform="translate(0.000000, 136.000000)">
                    <g id="benefits" transform="translate(94.000000, 601.000000)">
                        <g id="ico/ic_coverage_condition" transform="translate(2.000000, 214.000000)">
                            <g>
                                <rect id="Rectangle" fill="#FFFFFF" opacity="0" x="0" y="0" width="56" height="56"></rect>
                                <path d="M56,28 C56,43.4637 43.4637,56 28,56 C12.5363,56 0,43.4637 0,28 C0,12.5363 12.5363,0 28,0 C43.4637,0 56,12.5363 56,28" id="Fill-1" fill="#F5F5F5"></path>
                                <path d="M49.0723064,25.0558607 L48.7322859,24.8220966 C47.1676603,23.7469145 45.1428115,23.1784428 42.8755654,23.1784428 C39.7582679,23.1784428 36.9590756,24.3286684 35.5711013,26.1801863 L35.4382808,26.3575017 L35.3054603,26.1801863 C33.9168218,24.3286684 31.1176295,23.1784428 28.0003321,23.1784428 L27.9066936,23.1784428 C24.8006859,23.1784428 22.1044295,24.300112 20.6952038,26.1801863 L20.5617192,26.3575017 L20.4288987,26.1801863 C19.0409244,24.3286684 16.2417321,23.1784428 13.1244346,23.1784428 C10.9222705,23.1784428 8.78718077,23.7774633 7.2677141,24.8220966 L6.92038846,25.0618376 L7.01203462,24.6494299 C8.35020128,18.6286761 12.8435192,8.52767608 27.9066936,8.52767608 C43.3550474,8.52767608 47.7460936,18.6300043 48.9886295,24.6520863 L49.0723064,25.0558607 Z M28.8324526,7.00090429 L28.6704115,6.99691967 L28.6704115,5.90513506 C28.6704115,5.43295814 28.2746064,5.14141711 27.9066936,5.14141711 C27.5361244,5.14141711 27.1429756,5.53390172 27.1429756,5.90513506 L27.1429756,6.99691967 L26.9815987,7.00090429 C16.1673526,7.27717096 10.7741756,12.7208197 8.15429103,17.2380453 C4.95929359,22.7295094 4.92276795,28.4434479 4.92276795,28.683853 L4.92276795,28.8691376 C4.99449103,29.2131428 5.28868846,29.4469069 5.68582179,29.4469069 C6.03713205,29.3738556 6.44953974,29.072353 6.44953974,28.5902145 C6.54649872,26.3568376 9.47851154,24.6129043 13.1244346,24.6129043 C16.8042269,24.6129043 19.7980013,26.4391863 19.7980013,28.683853 C19.7980013,29.1553658 20.1944705,29.4469069 20.5617192,29.4469069 C20.9329526,29.4469069 21.3261013,29.0544222 21.3261013,28.683853 C21.3261013,26.7446735 23.7607013,24.9974197 26.8687013,24.7065428 L27.0500013,24.6892761 L27.0500013,46.813853 C27.0500013,48.2097966 25.9562244,49.3042376 24.5596167,49.3042376 C23.163009,49.3042376 22.0692321,48.2097966 22.0692321,46.813853 C22.0692321,46.3416761 21.6734269,46.049471 21.3055141,46.049471 C20.9349449,46.049471 20.5424603,46.4426197 20.5424603,46.813853 C20.5424603,49.0419171 22.4245269,50.9239838 24.652591,50.9239838 C26.8813192,50.9239838 28.7633859,49.0419171 28.7633859,46.813853 L28.7633859,24.7829145 L28.9440218,24.798853 C32.2107423,25.0870735 34.6738987,26.7971376 34.6738987,28.7768274 C34.6738987,29.2483402 35.0710321,29.5405453 35.4382808,29.5405453 C35.80885,29.5405453 36.2019987,29.1473966 36.2019987,28.7768274 C36.2019987,26.5321607 39.1957731,24.7058786 42.8755654,24.7058786 C46.3959731,24.7058786 49.4521731,26.5241915 49.5497962,28.6758838 C49.5504603,29.0544222 49.9429449,29.4469069 50.3141782,29.4469069 C50.785691,29.4469069 51.0778962,29.0511017 51.0778962,28.683853 C51.0778962,28.4726684 50.8235449,7.56140685 28.8324526,7.00090429 L28.8324526,7.00090429 Z" id="Fill-3" fill="#4C4C4C"></path>
                                <path d="M27.9069592,8.52787531 C12.8437849,8.52787531 8.34980282,18.6288753 7.01163615,24.6489651 L6.91999,25.0613728 L7.26797974,24.8222958 C8.78744641,23.7776625 10.9218721,23.178642 13.1240362,23.178642 C16.2419977,23.178642 19.04119,24.3288676 20.4291644,26.1803856 L20.5619849,26.357701 L20.6948054,26.1803856 C22.104031,24.3003112 24.8002874,23.178642 27.9069592,23.178642 L27.9999336,23.178642 C31.117231,23.178642 33.9170874,24.3288676 35.3050618,26.1803856 L35.4378823,26.357701 L35.5713669,26.1803856 C36.9586772,24.3288676 39.7578695,23.178642 42.875831,23.178642 C45.1430772,23.178642 47.1679259,23.7471138 48.7318874,24.8222958 L49.0725721,25.0560599 L48.9888951,24.6516215 C47.7463592,18.6302035 43.3553131,8.52787531 27.9069592,8.52787531" id="Fill-5" fill="#FFFFFF"></path>
                                <path d="M34.2651436,36.6898086 C34.2392436,40.1404856 31.4207923,42.9170984 27.9701154,42.8911984 C24.5187744,42.8652984 21.7421615,40.0468471 21.7680615,36.5961702 C21.7939615,33.1454933 24.6124128,30.3688804 28.0637538,30.3947804 C31.5144308,30.4206804 34.2910436,33.2391317 34.2651436,36.6898086" id="Fill-7" fill="#FFFFFF"></path>
                                <path d="M33.965899,36.5974984 C33.9413272,39.9014086 31.2503836,42.5697728 27.9677246,42.545201 C24.6857297,42.5206292 22.0352964,39.8124189 22.0598682,36.5085086 C22.08444,33.2039343 24.7753836,30.5355702 28.0580426,30.560142 C31.3400374,30.5847138 33.9904708,33.292924 33.965899,36.5974984 M34.7289528,36.6034753 C34.7568451,32.8752035 31.7663913,29.8196676 28.0633554,29.7917753 C24.3609836,29.763883 21.3260349,32.7742599 21.2974785,36.5025317 C21.2695862,40.2308035 24.2593759,43.2863394 27.9624118,43.3142317 C31.6654477,43.342124 34.7010605,40.331083 34.7289528,36.6034753" id="Fill-9" fill="#4C4C4C"></path>
                                <path d="M28.055519,30.8585897 C24.9375574,30.8353461 22.3820908,33.3708897 22.3581831,36.5107666 C22.3349395,39.6506435 24.8518882,42.224041 27.9705138,42.2472845 C31.0884754,42.2705281 33.6439421,39.7349845 33.6678497,36.5951076 C33.6910933,33.4552307 31.1734805,30.8818333 28.055519,30.8585897 M27.9658651,42.8436486 C24.5185087,42.8177486 21.735919,39.9747256 21.761819,36.5061179 C21.787719,33.0375102 24.6128113,30.2363256 28.0601677,30.2622256 C31.50686,30.2881256 34.2901138,33.1311486 34.2642138,36.5997563 C34.2383138,40.068364 31.4125574,42.8695486 27.9658651,42.8436486 M28.0614959,30.090223 C24.5231574,30.0636589 21.6230215,32.9412153 21.5957933,36.5047897 C21.5692292,40.068364 24.4261985,42.9890871 27.9645369,43.0156512 C31.5028754,43.0422153 34.4036754,40.1646589 34.4302395,36.6010845 C34.4568036,33.0375102 31.5998344,30.1167871 28.0614959,30.090223 M27.9598882,43.6120153 C24.092819,43.5827948 20.9702087,40.3931102 20.9994292,36.500141 C21.0286497,32.6078358 24.1984113,29.4653025 28.0654805,29.4938589 C31.9332138,29.5230794 35.0558241,32.7134281 35.0272677,36.6057333 C34.9980472,40.4980384 31.8276215,43.6412358 27.9598882,43.6120153" id="Fill-11" fill="#4C4C4C"></path>
                                <path d="M28.3062177,36.0841471 C27.6467638,35.8038958 27.4568305,35.6352138 27.4594869,35.3343753 C27.4608151,35.0939702 27.6381305,34.814383 28.1315587,34.8183676 C28.5977587,34.8216881 28.8886356,34.9916984 29.0128228,35.0640856 L29.1423228,35.1404574 L29.4278869,34.399983 L29.3342485,34.3441984 C29.0666151,34.1841497 28.767769,34.0911753 28.4230997,34.0619548 L28.4284126,33.3214804 L27.7065331,33.3155035 L27.7005562,34.1024651 C27.006569,34.2518881 26.5609562,34.7592625 26.5563074,35.4187163 C26.5503305,36.2156394 27.1825562,36.5808958 27.8652536,36.8564984 C28.4098177,37.0836215 28.6309638,37.3114086 28.6283074,37.6427958 C28.625651,38.0093804 28.3161792,38.2531061 27.8579485,38.2497856 C27.5026536,38.2471292 27.1347408,38.1335676 26.8491767,37.9383215 L26.7130356,37.8460112 L26.4394254,38.5984394 L26.5177895,38.6555522 C26.78011,38.8468138 27.1984946,38.9829548 27.6115664,39.0148317 L27.6055895,39.7845266 L28.3347741,39.7898394 L28.340751,38.9809625 C29.0566536,38.8242343 29.5334792,38.2796702 29.5387921,37.5969728 C29.5441049,36.9009933 29.1748638,36.4480753 28.3062177,36.0841471" id="Fill-13" fill="#4C4C4C"></path>
                                <path d="M27.7151,39.6771412 L28.2271231,39.6811258 L28.2331,38.8935002 L28.3181051,38.8749053 C28.9881846,38.7274745 29.4251641,38.2260771 29.4298128,37.5958438 C29.4351256,36.943031 29.0970974,36.5339438 28.2643128,36.1846258 L28.2636487,36.1839617 C27.6427128,35.920313 27.3478513,35.725731 27.3505077,35.3339104 C27.3531641,35.0197899 27.5982179,34.7176233 28.1328205,34.709654 C28.6275769,34.7129745 28.9357205,34.8936104 29.0678769,34.9706463 L29.0871359,34.9819361 L29.2930077,34.4466694 L29.2783974,34.4380361 C29.0247103,34.2852925 28.7418026,34.1982951 28.4137359,34.1704028 L28.3134564,34.1617694 L28.3187692,33.4292643 L27.8147154,33.4252797 L27.8094026,34.1903258 L27.7237333,34.2089207 C27.0749051,34.3490463 26.6698026,34.8125899 26.6644897,35.4195797 C26.6591769,36.1109104 27.1572538,36.4535874 27.9056974,36.755754 C28.4914359,36.9994797 28.7391462,37.2651207 28.7371538,37.6429951 C28.7338333,38.0660284 28.3765462,38.3588976 27.8671795,38.3588976 L27.8565538,38.3588976 C27.4806718,38.3555771 27.0908436,38.2353745 26.7880128,38.0281745 L26.7674256,38.0142284 L26.5695231,38.5587925 L26.582141,38.5680899 C26.8258667,38.7460694 27.2236641,38.8755694 27.6194692,38.9067822 L27.7204128,38.9147515 L27.7151,39.6771412 Z M28.4422923,39.8996156 L27.4966103,39.8929745 L27.5019231,39.1139822 C27.1014692,39.066831 26.7069923,38.9286976 26.4533051,38.7427489 L26.3091949,38.6371566 L26.6591769,37.6768643 L26.9108718,37.8488669 C27.1785051,38.0321592 27.5245026,38.1390797 27.8585462,38.141072 L27.8678436,38.141072 C28.2616564,38.141072 28.5166718,37.9458258 28.5193282,37.6416669 C28.5213205,37.4059104 28.4031103,37.1987104 27.8226846,36.9569771 C27.1393231,36.6813745 26.4406872,36.2822489 26.4473282,35.4182515 C26.452641,34.741531 26.8989179,34.1996233 27.592241,34.016331 L27.5988821,33.2067899 L28.5379231,33.213431 L28.5326103,33.9638669 C28.8527077,34.0030489 29.1342872,34.0973515 29.3899667,34.2514233 L29.5619692,34.3543592 L29.198041,35.2993771 L28.9576359,35.1585874 C28.8407538,35.0901848 28.5678077,34.929472 28.1308282,34.9268156 L28.1221949,34.9268156 C27.7164282,34.9268156 27.5696615,35.1373361 27.5683333,35.3352386 C27.566341,35.5537284 27.6785744,35.6991669 28.3479897,35.9840669 C29.2524974,36.3632694 29.6529513,36.8606822 29.6476385,37.5978361 C29.6416615,38.3057694 29.1747974,38.8742412 28.4495974,39.0661669 L28.4422923,39.8996156 Z" id="Fill-15" fill="#4C4C4C"></path>
                            </g>
                        </g>
                    </g>
                </g>
            </g>
        </g>
    </g>
</svg>