<?xml version="1.0" encoding="UTF-8"?>
<svg width="56px" height="56px" viewBox="0 0 56 56" version="1.1" xmlns="http://www.w3.org/2000/svg" xmlns:xlink="http://www.w3.org/1999/xlink">
    <!-- Generator: Sketch 49.3 (51167) - http://www.bohemiancoding.com/sketch -->
    <title>ico/ill_insurance</title>
    <desc>Created with Sketch.</desc>
    <defs></defs>
    <g id="Page-1" stroke="none" stroke-width="1" fill="none" fill-rule="evenodd">
        <g id="08_config" transform="translate(-354.000000, -763.000000)">
            <g id="Stacked-Group" transform="translate(260.000000, 471.000000)">
                <g id="box2" transform="translate(0.000000, 136.000000)">
                    <g id="insurance" transform="translate(94.000000, 152.000000)">
                        <g id="Group-7">
                            <g id="ico/ill_insurance" transform="translate(0.000000, 4.000000)">
                                <g id="ico/ic_temporary_restrictions">
                                    <rect id="Rectangle" fill="#FFFFFF" opacity="0" x="0" y="0" width="56" height="56"></rect>
                                    <path d="M56,28 C56,43.4637 43.4637,56 28,56 C12.5363,56 0,43.4637 0,28 C0,12.5363 12.5363,0 28,0 C43.4637,0 56,12.5363 56,28" id="Fill-1" fill="#F5F5F5"></path>
                                    <path d="M49.0723064,25.0558607 L48.7322859,24.8220966 C47.1676603,23.7469145 45.1428115,23.1784428 42.8755654,23.1784428 C39.7582679,23.1784428 36.9590756,24.3286684 35.5711013,26.1801863 L35.4382808,26.3575017 L35.3054603,26.1801863 C33.9168218,24.3286684 31.1176295,23.1784428 28.0003321,23.1784428 L27.9066936,23.1784428 C24.8006859,23.1784428 22.1044295,24.300112 20.6952038,26.1801863 L20.5617192,26.3575017 L20.4288987,26.1801863 C19.0409244,24.3286684 16.2417321,23.1784428 13.1244346,23.1784428 C10.9222705,23.1784428 8.78718077,23.7774633 7.2677141,24.8220966 L6.92038846,25.0618376 L7.01203462,24.6494299 C8.35020128,18.6286761 12.8435192,8.52767608 27.9066936,8.52767608 C43.3550474,8.52767608 47.7460936,18.6300043 48.9886295,24.6520863 L49.0723064,25.0558607 Z M28.8324526,7.00090429 L28.6704115,6.99691967 L28.6704115,5.90513506 C28.6704115,5.43295814 28.2746064,5.14141711 27.9066936,5.14141711 C27.5361244,5.14141711 27.1429756,5.53390172 27.1429756,5.90513506 L27.1429756,6.99691967 L26.9815987,7.00090429 C16.1673526,7.27717096 10.7741756,12.7208197 8.15429103,17.2380453 C4.95929359,22.7295094 4.92276795,28.4434479 4.92276795,28.683853 L4.92276795,28.8691376 C4.99449103,29.2131428 5.28868846,29.4469069 5.68582179,29.4469069 C6.03713205,29.3738556 6.44953974,29.072353 6.44953974,28.5902145 C6.54649872,26.3568376 9.47851154,24.6129043 13.1244346,24.6129043 C16.8042269,24.6129043 19.7980013,26.4391863 19.7980013,28.683853 C19.7980013,29.1553658 20.1944705,29.4469069 20.5617192,29.4469069 C20.9329526,29.4469069 21.3261013,29.0544222 21.3261013,28.683853 C21.3261013,26.7446735 23.7607013,24.9974197 26.8687013,24.7065428 L27.0500013,24.6892761 L27.0500013,46.813853 C27.0500013,48.2097966 25.9562244,49.3042376 24.5596167,49.3042376 C23.163009,49.3042376 22.0692321,48.2097966 22.0692321,46.813853 C22.0692321,46.3416761 21.6734269,46.049471 21.3055141,46.049471 C20.9349449,46.049471 20.5424603,46.4426197 20.5424603,46.813853 C20.5424603,49.0419171 22.4245269,50.9239838 24.652591,50.9239838 C26.8813192,50.9239838 28.7633859,49.0419171 28.7633859,46.813853 L28.7633859,24.7829145 L28.9440218,24.798853 C32.2107423,25.0870735 34.6738987,26.7971376 34.6738987,28.7768274 C34.6738987,29.2483402 35.0710321,29.5405453 35.4382808,29.5405453 C35.80885,29.5405453 36.2019987,29.1473966 36.2019987,28.7768274 C36.2019987,26.5321607 39.1957731,24.7058786 42.8755654,24.7058786 C46.3959731,24.7058786 49.4521731,26.5241915 49.5497962,28.6758838 C49.5504603,29.0544222 49.9429449,29.4469069 50.3141782,29.4469069 C50.785691,29.4469069 51.0778962,29.0511017 51.0778962,28.683853 C51.0778962,28.4726684 50.8235449,7.56140685 28.8324526,7.00090429 L28.8324526,7.00090429 Z" id="Fill-3" fill="#4C4C4C"></path>
                                    <path d="M27.9069592,8.52787531 C12.8437849,8.52787531 8.34980282,18.6288753 7.01163615,24.6489651 L6.91999,25.0613728 L7.26797974,24.8222958 C8.78744641,23.7776625 10.9218721,23.178642 13.1240362,23.178642 C16.2419977,23.178642 19.04119,24.3288676 20.4291644,26.1803856 L20.5619849,26.357701 L20.6948054,26.1803856 C22.104031,24.3003112 24.8002874,23.178642 27.9069592,23.178642 L27.9999336,23.178642 C31.117231,23.178642 33.9170874,24.3288676 35.3050618,26.1803856 L35.4378823,26.357701 L35.5713669,26.1803856 C36.9586772,24.3288676 39.7578695,23.178642 42.875831,23.178642 C45.1430772,23.178642 47.1679259,23.7471138 48.7318874,24.8222958 L49.0725721,25.0560599 L48.9888951,24.6516215 C47.7463592,18.6302035 43.3553131,8.52787531 27.9069592,8.52787531" id="Fill-5" fill="#FFFFFF"></path>
                                </g>
                            </g>
                        </g>
                    </g>
                </g>
            </g>
        </g>
    </g>
</svg>