<?xml version="1.0" encoding="utf-8"?>
<!-- Generator: Adobe Illustrator 22.1.0, SVG Export Plug-In . SVG Version: 6.00 Build 0)  -->
<svg version="1.1" id="Layer_1" xmlns="http://www.w3.org/2000/svg" xmlns:xlink="http://www.w3.org/1999/xlink" x="0px" y="0px"
	 viewBox="0 0 28 28" style="enable-background:new 0 0 28 28;" xml:space="preserve">
<title>ico/sharing</title>
<desc>Created with Sketch.</desc>
<path d="M27.1,16.3L7.6,0.1L6.9,1l18.4,15.3H0.5V25h0.6c0.6,0,1.1,0.5,1.1,1.2v1.7h23.6v-1.7c0-0.6,0.5-1.2,1.1-1.2h0.6v-8.7H27.1z
	 M24.7,26.2v0.6H3.3v-0.6c0-0.4-0.1-0.8-0.3-1.2h22C24.8,25.3,24.7,25.7,24.7,26.2z M26.4,23.8H1.6v-6.4h24.8V23.8z"/>
</svg>
