<?xml version="1.0" encoding="UTF-8"?>
<svg width="28px" height="28px" viewBox="0 0 28 28" version="1.1" xmlns="http://www.w3.org/2000/svg" xmlns:xlink="http://www.w3.org/1999/xlink">
    <!-- Generator: Sketch 51.1 (57501) - http://www.bohemiancoding.com/sketch -->
    <title>ico/sharing</title>
    <desc>Created with Sketch.</desc>
    <defs>
        <path d="M1.625,23.7940409 L26.375,23.7940409 L26.375,17.3931789 L1.625,17.3931789 L1.625,23.7940409 Z M24.6875,26.1216272 L24.6875,26.7035237 L3.3125,26.7035237 L3.3125,26.1216272 C3.3125,25.6974246 3.1994375,25.3005711 3.0065,24.9578341 L24.9935,24.9578341 C24.8005625,25.3005711 24.6875,25.6974246 24.6875,26.1216272 Z M27.1349375,16.2293858 L7.6015625,0.0637176724 L6.8984375,0.972640086 L25.3338125,16.2293858 L0.5,16.2293858 L0.5,24.9578341 L1.0625,24.9578341 C1.6829375,24.9578341 2.1875,25.4797953 2.1875,26.1216272 L2.1875,27.8673168 L25.8125,27.8673168 L25.8125,26.1216272 C25.8125,25.4797953 26.3170625,24.9578341 26.9375,24.9578341 L27.5,24.9578341 L27.5,16.2293858 L27.1349375,16.2293858 Z" id="path-1"></path>
    </defs>
    <g id="Banker" stroke="none" stroke-width="1" fill="none" fill-rule="evenodd">
        <g id="1_Account_Opening_Banker" transform="translate(-1207.000000, -920.000000)">
            <g id="sharing" transform="translate(1167.000000, 903.000000)">
                <g id="Group" transform="translate(10.000000, 16.000000)">
                    <g id="ico/waiting" transform="translate(30.000000, 0.000000)">
                        <g id="Color/Gray-80" transform="translate(0.000000, 1.034483)">
                            <mask id="mask-2" fill="white">
                                <use xlink:href="#path-1"></use>
                            </mask>
                            <use id="Mask" fill="#FFFFFF" xlink:href="#path-1"></use>
                            <g id="Color/White" mask="url(#mask-2)" fill="#FFFFFF">
                                <g transform="translate(0.000000, -1.034483)" id="Swatch">
                                    <rect x="0" y="0" width="28" height="30"></rect>
                                </g>
                            </g>
                        </g>
                    </g>
                </g>
            </g>
        </g>
    </g>
</svg>