<?xml version="1.0" encoding="utf-8"?>
<!-- Generator: Adobe Illustrator 24.2.0, SVG Export Plug-In . SVG Version: 6.00 Build 0)  -->
<svg version="1.1" id="digital" xmlns="http://www.w3.org/2000/svg" xmlns:xlink="http://www.w3.org/1999/xlink" x="0px" y="0px"
	 width="70.8px" height="71px" viewBox="0 0 70.8 71" style="enable-background:new 0 0 70.8 71;" xml:space="preserve">
<style type="text/css">
	.st0{fill:#D1D8E9;stroke:#0046AD;stroke-width:4;stroke-miterlimit:10;}
	.st1{fill:#0046AD;stroke:#0046AD;stroke-width:0.7;stroke-miterlimit:10;}
	.st2{fill:none;stroke:#0046AD;stroke-width:4;stroke-miterlimit:10;}
</style>
<g>
	<circle id="cerchioesterno" class="st0" cx="35.6" cy="35.5" r="18.8"/>
	<circle id="cerchio_interno" class="st0" cx="35.6" cy="35.2" r="7.2"/>
	<g id="palline">
		<g>
			<g>
				<path class="st1" d="M33.6,0.4c-2.8,0.2-5.5,0.4-8.2,1.3c-2.4,0.8-4.7,1.7-6.8,2.9c-3.5,2-6.6,4.6-9.2,7.5
					c-6.8,7.7-10.1,17.7-8.8,28c0.8,5.5,2.9,11.2,6.1,15.8c1.4,2.2,5,0.1,3.5-2.1c-5.4-8-7.2-17.9-4.6-27.2
					c2.1-7.3,7.4-14,13.8-17.9c1.8-1.1,3.8-2.1,5.9-2.8c2.8-1,5.5-1.3,8.5-1.5C36.2,4.2,36.2,0.1,33.6,0.4L33.6,0.4z"/>
			</g>
		</g>
		<circle class="st2" cx="13" cy="60.3" r="5.8"/>
		<g>
			<g>
				<path class="st1" d="M37.1,70.7c2.8-0.2,5.5-0.4,8.2-1.3c2.4-0.8,4.7-1.7,6.8-2.9c3.5-2,6.6-4.6,9.2-7.5
					c6.8-7.7,10.1-17.7,8.8-28c-0.8-5.6-2.9-11.2-6.1-16c-1.4-2.2-5-0.1-3.5,2.1c5.4,8,7.2,17.9,4.6,27.2c-2.1,7.3-7.4,14-13.8,17.9
					c-1.8,1.1-3.8,2.1-5.9,2.8c-2.8,1-5.5,1.3-8.5,1.5C34.5,66.9,34.5,71,37.1,70.7L37.1,70.7z"/>
			</g>
		</g>
		<circle class="st2" cx="57.7" cy="10.8" r="5.8"/>
		<circle class="st1" cx="42.6" cy="3" r="2.1"/>
	</g>
</g>
</svg>
