<?xml version="1.0" encoding="utf-8"?>
<!-- Generator: Adobe Illustrator 24.2.0, SVG Export Plug-In . SVG Version: 6.00 Build 0)  -->
<svg version="1.1" id="governance" xmlns="http://www.w3.org/2000/svg" xmlns:xlink="http://www.w3.org/1999/xlink" x="0px" y="0px"
	 width="136px" height="136px" viewBox="0 0 136 136" style="enable-background:new 0 0 136 136;" xml:space="preserve">
<style type="text/css">
	
		.st0{clip-path:url(#SVGID_3_);fill:none;stroke:#0046AD;stroke-width:4;stroke-linecap:round;stroke-linejoin:round;stroke-miterlimit:10;}
	
		.st1{clip-path:url(#SVGID_5_);fill:none;stroke:#0046AD;stroke-width:4;stroke-linecap:round;stroke-linejoin:round;stroke-miterlimit:10;}
	
		.st2{clip-path:url(#SVGID_7_);fill:none;stroke:#0046AD;stroke-width:4;stroke-linecap:round;stroke-linejoin:round;stroke-miterlimit:10;}
	
		.st3{clip-path:url(#SVGID_9_);fill:none;stroke:#0046AD;stroke-width:4;stroke-linecap:round;stroke-linejoin:round;stroke-miterlimit:10;}
	
		.st4{clip-path:url(#SVGID_11_);fill:none;stroke:#0046AD;stroke-width:4;stroke-linecap:round;stroke-linejoin:round;stroke-miterlimit:10;}
	
		.st5{clip-path:url(#SVGID_13_);fill:none;stroke:#0046AD;stroke-width:4;stroke-linecap:round;stroke-linejoin:round;stroke-miterlimit:10;}
	
		.st6{clip-path:url(#SVGID_15_);fill:none;stroke:#0046AD;stroke-width:4;stroke-linecap:round;stroke-linejoin:round;stroke-miterlimit:10;}
	
		.st7{clip-path:url(#SVGID_17_);fill:none;stroke:#0046AD;stroke-width:4;stroke-linecap:round;stroke-linejoin:round;stroke-miterlimit:10;}
	
		.st8{clip-path:url(#SVGID_19_);fill:none;stroke:#0046AD;stroke-width:4;stroke-linecap:round;stroke-linejoin:round;stroke-miterlimit:10;}
	
		.st9{clip-path:url(#SVGID_21_);fill:#D1D8E9;stroke:#0046AD;stroke-width:4;stroke-linecap:round;stroke-linejoin:round;stroke-miterlimit:10;}
	
		.st10{clip-path:url(#SVGID_23_);fill:#D1D8E9;stroke:#0046AD;stroke-width:4;stroke-linecap:round;stroke-linejoin:round;stroke-miterlimit:10;}
	
		.st11{clip-path:url(#SVGID_25_);fill:none;stroke:#0046AD;stroke-width:4;stroke-linecap:round;stroke-linejoin:round;stroke-miterlimit:10;}
	
		.st12{clip-path:url(#SVGID_27_);fill:#D1D8E9;stroke:#0046AD;stroke-width:4;stroke-linecap:round;stroke-linejoin:round;stroke-miterlimit:10;}
	
		.st13{clip-path:url(#SVGID_29_);fill:none;stroke:#0046AD;stroke-width:4;stroke-linecap:round;stroke-linejoin:round;stroke-miterlimit:10;}
	.st14{fill:none;stroke:#0046AD;stroke-width:4;stroke-linecap:round;stroke-linejoin:round;stroke-miterlimit:10;}
</style>
<g id="mask2">
	<g>
		<g>
			<g>
				<defs>
					<path id="SVGID_2_" d="M107.8,79.9c1.2-1.3,2.9-3.7,2.9-6.1c0-5.3-2-9.9-7.8-9.9s-8.1,4.7-8.1,10c0,2.4,2,4.7,3.1,6H80.7h-0.6
						h-14c0.2,0.5,0.2,0.9,0.2,1.3c0,5.3-2.4,10-8.1,10s-7.8-4.6-7.8-9.9c0-0.5,0.1-1,0.2-1.4H35.4v42.8c0,5.6,4.5,10.1,10.1,10.1
						h34.7h0.6h34.7c5.6,0,10.1-4.5,10.1-10.1V79.9H107.8z"/>
				</defs>
				<clipPath id="SVGID_3_">
					<use xlink:href="#SVGID_2_"  style="overflow:visible;"/>
				</clipPath>
				<rect x="68.1" y="58.4" class="st0" width="31.2" height="74.3"/>
			</g>
		</g>
	</g>
	<g>
		<g>
			<g>
				<defs>
					<path id="SVGID_4_" d="M107.8,79.9c1.2-1.3,2.9-3.7,2.9-6.1c0-5.3-2-9.9-7.8-9.9s-8.1,4.7-8.1,10c0,2.4,2,4.7,3.1,6H80.7h-0.6
						h-14c0.2,0.5,0.2,0.9,0.2,1.3c0,5.3-2.4,10-8.1,10s-7.8-4.6-7.8-9.9c0-0.5,0.1-1,0.2-1.4H35.4v42.8c0,5.6,4.5,10.1,10.1,10.1
						h34.7h0.6h34.7c5.6,0,10.1-4.5,10.1-10.1V79.9H107.8z"/>
				</defs>
				<clipPath id="SVGID_5_">
					<use xlink:href="#SVGID_4_"  style="overflow:visible;"/>
				</clipPath>
				<line class="st1" x1="74.4" y1="87.5" x2="83.8" y2="87.5"/>
			</g>
		</g>
	</g>
	<g>
		<g>
			<g>
				<defs>
					<path id="SVGID_6_" d="M107.8,79.9c1.2-1.3,2.9-3.7,2.9-6.1c0-5.3-2-9.9-7.8-9.9s-8.1,4.7-8.1,10c0,2.4,2,4.7,3.1,6H80.7h-0.6
						h-14c0.2,0.5,0.2,0.9,0.2,1.3c0,5.3-2.4,10-8.1,10s-7.8-4.6-7.8-9.9c0-0.5,0.1-1,0.2-1.4H35.4v42.8c0,5.6,4.5,10.1,10.1,10.1
						h34.7h0.6h34.7c5.6,0,10.1-4.5,10.1-10.1V79.9H107.8z"/>
				</defs>
				<clipPath id="SVGID_7_">
					<use xlink:href="#SVGID_6_"  style="overflow:visible;"/>
				</clipPath>
				<line class="st2" x1="89.7" y1="87.4" x2="92" y2="87.4"/>
			</g>
		</g>
	</g>
	<g>
		<g>
			<g>
				<defs>
					<path id="SVGID_8_" d="M107.8,79.9c1.2-1.3,2.9-3.7,2.9-6.1c0-5.3-2-9.9-7.8-9.9s-8.1,4.7-8.1,10c0,2.4,2,4.7,3.1,6H80.7h-0.6
						h-14c0.2,0.5,0.2,0.9,0.2,1.3c0,5.3-2.4,10-8.1,10s-7.8-4.6-7.8-9.9c0-0.5,0.1-1,0.2-1.4H35.4v42.8c0,5.6,4.5,10.1,10.1,10.1
						h34.7h0.6h34.7c5.6,0,10.1-4.5,10.1-10.1V79.9H107.8z"/>
				</defs>
				<clipPath id="SVGID_9_">
					<use xlink:href="#SVGID_8_"  style="overflow:visible;"/>
				</clipPath>
				<line class="st3" x1="74.4" y1="95.2" x2="83.8" y2="95.2"/>
			</g>
		</g>
	</g>
	<g>
		<g>
			<g>
				<defs>
					<path id="SVGID_10_" d="M107.8,79.9c1.2-1.3,2.9-3.7,2.9-6.1c0-5.3-2-9.9-7.8-9.9s-8.1,4.7-8.1,10c0,2.4,2,4.7,3.1,6H80.7h-0.6
						h-14c0.2,0.5,0.2,0.9,0.2,1.3c0,5.3-2.4,10-8.1,10s-7.8-4.6-7.8-9.9c0-0.5,0.1-1,0.2-1.4H35.4v42.8c0,5.6,4.5,10.1,10.1,10.1
						h34.7h0.6h34.7c5.6,0,10.1-4.5,10.1-10.1V79.9H107.8z"/>
				</defs>
				<clipPath id="SVGID_11_">
					<use xlink:href="#SVGID_10_"  style="overflow:visible;"/>
				</clipPath>
				<line class="st4" x1="89.7" y1="95.1" x2="92" y2="95.1"/>
			</g>
		</g>
	</g>
	<g>
		<g>
			<g>
				<defs>
					<path id="SVGID_12_" d="M107.8,79.9c1.2-1.3,2.9-3.7,2.9-6.1c0-5.3-2-9.9-7.8-9.9s-8.1,4.7-8.1,10c0,2.4,2,4.7,3.1,6H80.7h-0.6
						h-14c0.2,0.5,0.2,0.9,0.2,1.3c0,5.3-2.4,10-8.1,10s-7.8-4.6-7.8-9.9c0-0.5,0.1-1,0.2-1.4H35.4v42.8c0,5.6,4.5,10.1,10.1,10.1
						h34.7h0.6h34.7c5.6,0,10.1-4.5,10.1-10.1V79.9H107.8z"/>
				</defs>
				<clipPath id="SVGID_13_">
					<use xlink:href="#SVGID_12_"  style="overflow:visible;"/>
				</clipPath>
				<line class="st5" x1="74.4" y1="102.8" x2="83.8" y2="102.8"/>
			</g>
		</g>
	</g>
	<g>
		<g>
			<g>
				<defs>
					<path id="SVGID_14_" d="M107.8,79.9c1.2-1.3,2.9-3.7,2.9-6.1c0-5.3-2-9.9-7.8-9.9s-8.1,4.7-8.1,10c0,2.4,2,4.7,3.1,6H80.7h-0.6
						h-14c0.2,0.5,0.2,0.9,0.2,1.3c0,5.3-2.4,10-8.1,10s-7.8-4.6-7.8-9.9c0-0.5,0.1-1,0.2-1.4H35.4v42.8c0,5.6,4.5,10.1,10.1,10.1
						h34.7h0.6h34.7c5.6,0,10.1-4.5,10.1-10.1V79.9H107.8z"/>
				</defs>
				<clipPath id="SVGID_15_">
					<use xlink:href="#SVGID_14_"  style="overflow:visible;"/>
				</clipPath>
				<line class="st6" x1="89.7" y1="102.7" x2="92" y2="102.7"/>
			</g>
		</g>
	</g>
	<g>
		<g>
			<g>
				<defs>
					<path id="SVGID_16_" d="M107.8,79.9c1.2-1.3,2.9-3.7,2.9-6.1c0-5.3-2-9.9-7.8-9.9s-8.1,4.7-8.1,10c0,2.4,2,4.7,3.1,6H80.7h-0.6
						h-14c0.2,0.5,0.2,0.9,0.2,1.3c0,5.3-2.4,10-8.1,10s-7.8-4.6-7.8-9.9c0-0.5,0.1-1,0.2-1.4H35.4v42.8c0,5.6,4.5,10.1,10.1,10.1
						h34.7h0.6h34.7c5.6,0,10.1-4.5,10.1-10.1V79.9H107.8z"/>
				</defs>
				<clipPath id="SVGID_17_">
					<use xlink:href="#SVGID_16_"  style="overflow:visible;"/>
				</clipPath>
				<line class="st7" x1="74.4" y1="110.5" x2="83.8" y2="110.5"/>
			</g>
		</g>
	</g>
	<g>
		<g>
			<g>
				<defs>
					<path id="SVGID_18_" d="M107.8,79.9c1.2-1.3,2.9-3.7,2.9-6.1c0-5.3-2-9.9-7.8-9.9s-8.1,4.7-8.1,10c0,2.4,2,4.7,3.1,6H80.7h-0.6
						h-14c0.2,0.5,0.2,0.9,0.2,1.3c0,5.3-2.4,10-8.1,10s-7.8-4.6-7.8-9.9c0-0.5,0.1-1,0.2-1.4H35.4v42.8c0,5.6,4.5,10.1,10.1,10.1
						h34.7h0.6h34.7c5.6,0,10.1-4.5,10.1-10.1V79.9H107.8z"/>
				</defs>
				<clipPath id="SVGID_19_">
					<use xlink:href="#SVGID_18_"  style="overflow:visible;"/>
				</clipPath>
				<line class="st8" x1="89.7" y1="110.4" x2="92" y2="110.4"/>
			</g>
		</g>
	</g>
	<g>
		<g>
			<g>
				<defs>
					<path id="SVGID_20_" d="M107.8,79.9c1.2-1.3,2.9-3.7,2.9-6.1c0-5.3-2-9.9-7.8-9.9s-8.1,4.7-8.1,10c0,2.4,2,4.7,3.1,6H80.7h-0.6
						h-14c0.2,0.5,0.2,0.9,0.2,1.3c0,5.3-2.4,10-8.1,10s-7.8-4.6-7.8-9.9c0-0.5,0.1-1,0.2-1.4H35.4v42.8c0,5.6,4.5,10.1,10.1,10.1
						h34.7h0.6h34.7c5.6,0,10.1-4.5,10.1-10.1V79.9H107.8z"/>
				</defs>
				<clipPath id="SVGID_21_">
					<use xlink:href="#SVGID_20_"  style="overflow:visible;"/>
				</clipPath>
				<rect x="78.7" y="121.2" class="st9" width="9.6" height="11.8"/>
			</g>
		</g>
	</g>
	<g>
		<g>
			<g>
				<defs>
					<path id="SVGID_22_" d="M107.8,79.9c1.2-1.3,2.9-3.7,2.9-6.1c0-5.3-2-9.9-7.8-9.9s-8.1,4.7-8.1,10c0,2.4,2,4.7,3.1,6H80.7h-0.6
						h-14c0.2,0.5,0.2,0.9,0.2,1.3c0,5.3-2.4,10-8.1,10s-7.8-4.6-7.8-9.9c0-0.5,0.1-1,0.2-1.4H35.4v42.8c0,5.6,4.5,10.1,10.1,10.1
						h34.7h0.6h34.7c5.6,0,10.1-4.5,10.1-10.1V79.9H107.8z"/>
				</defs>
				<clipPath id="SVGID_23_">
					<use xlink:href="#SVGID_22_"  style="overflow:visible;"/>
				</clipPath>
				<circle class="st10" cx="63.6" cy="116.3" r="7.5"/>
			</g>
		</g>
	</g>
	<g>
		<g>
			<g>
				<defs>
					<path id="SVGID_24_" d="M107.8,79.9c1.2-1.3,2.9-3.7,2.9-6.1c0-5.3-2-9.9-7.8-9.9s-8.1,4.7-8.1,10c0,2.4,2,4.7,3.1,6H80.7h-0.6
						h-14c0.2,0.5,0.2,0.9,0.2,1.3c0,5.3-2.4,10-8.1,10s-7.8-4.6-7.8-9.9c0-0.5,0.1-1,0.2-1.4H35.4v42.8c0,5.6,4.5,10.1,10.1,10.1
						h34.7h0.6h34.7c5.6,0,10.1-4.5,10.1-10.1V79.9H107.8z"/>
				</defs>
				<clipPath id="SVGID_25_">
					<use xlink:href="#SVGID_24_"  style="overflow:visible;"/>
				</clipPath>
				<path class="st11" d="M64,125.9v7.5c0,0.8,0,1.5,0,1.5l0,0c0,0,0-0.7,0-1.5V125.9c0-0.9,0-1.5,0-1.5l0,0
					C64,124.4,64,125.2,64,125.9L64,125.9z"/>
			</g>
		</g>
	</g>
	<g>
		<g>
			<g>
				<defs>
					<path id="SVGID_26_" d="M107.8,79.9c1.2-1.3,2.9-3.7,2.9-6.1c0-5.3-2-9.9-7.8-9.9s-8.1,4.7-8.1,10c0,2.4,2,4.7,3.1,6H80.7h-0.6
						h-14c0.2,0.5,0.2,0.9,0.2,1.3c0,5.3-2.4,10-8.1,10s-7.8-4.6-7.8-9.9c0-0.5,0.1-1,0.2-1.4H35.4v42.8c0,5.6,4.5,10.1,10.1,10.1
						h34.7h0.6h34.7c5.6,0,10.1-4.5,10.1-10.1V79.9H107.8z"/>
				</defs>
				<clipPath id="SVGID_27_">
					<use xlink:href="#SVGID_26_"  style="overflow:visible;"/>
				</clipPath>
				<circle class="st12" cx="103.6" cy="118" r="7.5"/>
			</g>
		</g>
	</g>
	<g>
		<g>
			<g>
				<defs>
					<path id="SVGID_28_" d="M107.8,79.9c1.2-1.3,2.9-3.7,2.9-6.1c0-5.3-2-9.9-7.8-9.9s-8.1,4.7-8.1,10c0,2.4,2,4.7,3.1,6H80.7h-0.6
						h-14c0.2,0.5,0.2,0.9,0.2,1.3c0,5.3-2.4,10-8.1,10s-7.8-4.6-7.8-9.9c0-0.5,0.1-1,0.2-1.4H35.4v42.8c0,5.6,4.5,10.1,10.1,10.1
						h34.7h0.6h34.7c5.6,0,10.1-4.5,10.1-10.1V79.9H107.8z"/>
				</defs>
				<clipPath id="SVGID_29_">
					<use xlink:href="#SVGID_28_"  style="overflow:visible;"/>
				</clipPath>
				<path class="st13" d="M103.7,127.6v7.5c0,0.8,0,1.5,0,1.5l0,0c0,0,0-0.7,0-1.5V127.6c0-0.9,0-1.5,0-1.5l0,0
					C103.7,126,103.7,126.7,103.7,127.6L103.7,127.6z"/>
			</g>
		</g>
	</g>
	<g>
		<path id="SVGID_1_" class="st14" d="M107.8,79.9c1.2-1.3,2.9-3.7,2.9-6.1c0-5.3-2-9.9-7.8-9.9s-8.1,4.7-8.1,10c0,2.4,2,4.7,3.1,6
			H80.7h-0.6h-14c0.2,0.5,0.2,0.9,0.2,1.3c0,5.3-2.4,10-8.1,10s-7.8-4.6-7.8-9.9c0-0.5,0.1-1,0.2-1.4H35.4v42.8
			c0,5.6,4.5,10.1,10.1,10.1h34.7h0.6h34.7c5.6,0,10.1-4.5,10.1-10.1V79.9H107.8z"/>
	</g>
</g>
</svg>
