<?xml version="1.0" encoding="UTF-8"?>
<svg width="34px" height="22px" viewBox="0 0 34 22" version="1.1" xmlns="http://www.w3.org/2000/svg" xmlns:xlink="http://www.w3.org/1999/xlink">
    <!-- Generator: Sketch 48.2 (47327) - http://www.bohemiancoding.com/sketch -->
    <title>icon/track</title>
    <desc>Created with Sketch.</desc>
    <defs></defs>
    <g id="Danube_intro" stroke="none" stroke-width="1" fill="none" fill-rule="evenodd" transform="translate(-606.000000, -436.000000)">
        <g id="buttons" transform="translate(528.000000, 199.000000)" fill="#FFFFFF">
            <g id="icon/track" transform="translate(78.000000, 237.000000)">
                <path d="M1.17288757,20.7692209 L32.8271124,20.7692209 L32.8271124,1.23077907 L1.17288757,1.23077907 L1.17288757,20.7692209 Z M0,22 L34,22 L34,0 L0,0 L0,22 Z" id="Fill-1"></path>
                <g id="Group-21" transform="translate(3.290323, 4.000000)">
                    <path d="M14.3235165,10.6923687 L11.4421732,6.63030057 C11.2470649,6.35539148 11.2963414,5.96235739 11.5520464,5.75259602 C11.8084174,5.54283466 12.1736628,5.59581193 12.3687711,5.87072102 L14.543263,8.9366017 L24.4914554,0.779891477 C24.7478264,0.570130114 25.1127388,0.623107386 25.3081801,0.898374432 C25.5032884,1.17328352 25.4543448,1.56631761 25.1983068,1.77607898 L14.3235165,10.6923687 Z" id="Fill-13"></path>
                    <path d="M24.5900084,5.23982614 C24.5740268,5.23982614 24.5577123,5.23911023 24.5413978,5.23767841 C24.2211006,5.2094 23.9823759,4.90657045 24.0086789,4.56186023 L24.264051,1.22679773 C24.290687,0.8820875 24.5686997,0.625076136 24.8926593,0.6537125 C25.2132895,0.682348864 25.4520142,0.984820455 25.4257112,1.32953068 L25.1700061,4.66495114 C25.1450349,4.99212159 24.8899957,5.23982614 24.5900084,5.23982614" id="Fill-15"></path>
                    <path d="M1.01060495,13.5002358 C0.835140668,13.5002358 0.661341129,13.4154006 0.546806567,13.2536051 C0.351698272,12.9783381 0.40097477,12.585304 0.656679839,12.3755426 L11.0683377,3.83975852 C11.3243757,3.6296392 11.689954,3.68297443 11.8850623,3.95788352 C12.0801706,4.23315057 12.0308941,4.62618466 11.7748561,4.83594602 L1.36353122,13.3720881 C1.25798629,13.4583551 1.1337962,13.5002358 1.01060495,13.5002358" id="Fill-17"></path>
                    <path d="M24.8455803,1.90465625 C24.8152819,1.90465625 24.7846506,1.90215057 24.7540192,1.89678125 L21.550381,1.35269034 C21.2324144,1.2986392 21.0156644,0.977911932 21.0656068,0.636423295 C21.1158821,0.294576705 21.4138718,0.0622642045 21.7321713,0.115241477 L24.9358096,0.659332386 C25.2537762,0.713383523 25.4705262,1.0341108 25.4205838,1.37559943 C25.3753026,1.6845142 25.1275884,1.90465625 24.8455803,1.90465625" id="Fill-19"></path>
                </g>
            </g>
        </g>
    </g>
</svg>