<?xml version="1.0" encoding="UTF-8"?>
<svg width="8px" height="5px" viewBox="0 0 8 5" version="1.1" xmlns="http://www.w3.org/2000/svg" xmlns:xlink="http://www.w3.org/1999/xlink">
    <!-- Generator: Sketch 51.1 (57501) - http://www.bohemiancoding.com/sketch -->
    <title>ico/ic_arrow_right Copy 1</title>
    <desc>Created with Sketch.</desc>
    <defs></defs>
    <g id="Symbols" stroke="none" stroke-width="1" fill="none" fill-rule="evenodd">
        <g id="UI/header" transform="translate(-1344.000000, -33.000000)" fill="#808080">
            <g id="ico/ic_arrow_right-Copy" transform="translate(1348.000000, 35.000000) rotate(90.000000) translate(-1348.000000, -35.000000) translate(1344.000000, 31.000000)">
                <path d="M3.09158975,7.81101142 L6.43968244,4.45982056 L6.45104241,4.45155877 C6.6916672,4.20060673 6.6916672,3.80404053 6.45104241,3.54895759 L6.43968244,3.53759762 L3.09158975,0.187439489 C2.83960498,-0.0624798296 2.434777,-0.0624798296 2.18898858,0.187439489 C1.93700381,0.433227909 1.93700381,0.838055896 2.18898858,1.08694249 L3.25992384,2.15891048 L5.11056606,3.99096366 L3.11121151,5.98825276 L3.11121151,5.98825276 L2.18898858,6.91150842 C1.93700381,7.16039502 1.93700381,7.565223 2.18898858,7.81101142 C2.434777,8.06299619 2.83960498,8.06299619 3.09158975,7.81101142" id="form"></path>
            </g>
        </g>
    </g>
</svg>