<?xml version="1.0" encoding="UTF-8"?>
<svg width="16px" height="16px" viewBox="0 0 16 16" version="1.1" xmlns="http://www.w3.org/2000/svg" xmlns:xlink="http://www.w3.org/1999/xlink">
    <!-- Generator: Sketch 52.6 (67491) - http://www.bohemiancoding.com/sketch -->
    <title>ico/notification/ic_05</title>
    <desc>Created with Sketch.</desc>
    <g id="Page-1" stroke="none" stroke-width="1" fill="none" fill-rule="evenodd">
        <g id="01_Notifications/Bell_1" transform="translate(-1188.000000, -96.000000)">
            <g id="notification_Tooltip" transform="translate(910.000000, 72.000000)">
                <g id="ico/ic_setting" transform="translate(278.000000, 24.000000)">
                    <rect id="Rectangle" fill="#FFFFFF" opacity="0" x="0" y="0" width="16" height="16"></rect>
                    <path d="M14.439,10.8227333 L12.4916667,10.9257333 L12.2406667,11.2664 C12.1566667,11.3807333 12.0666667,11.4934 11.974,11.6007333 L11.697,11.9207333 L12.0296667,13.8440667 L9.93266667,14.8540667 L8.635,13.3937333 L8.21066667,13.4114 C8.07033333,13.4177333 7.92866667,13.4177333 7.79,13.4114 L7.365,13.3934 L6.068,14.8540667 L3.971,13.8437333 L4.30366667,11.9217333 L4.02533333,11.6014 C3.93166667,11.4930667 3.84266667,11.3814 3.761,11.2697333 L3.51066667,10.9254 L1.56133333,10.8224 L1.04333333,8.55373333 L2.75433333,7.61306667 L2.83133333,7.19606667 C2.85733333,7.0564 2.889,6.91806667 2.92533333,6.78406667 L3.037,6.37473333 L1.903,4.78706667 L2.619,3.8864 L2.53266667,3.81773333 L2.53266667,3.81773333 L2.64433333,3.85673333 L3.355,2.96606667 L5.15266667,3.7184 L5.527,3.51906667 C5.659,3.44906667 5.794,3.38406667 5.92833333,3.3264 L6.32,3.15873333 L6.83633333,1.33773333 L9.16366667,1.33773333 L9.68033333,3.1604 L10.0726667,3.32873333 C10.2066667,3.38606667 10.341,3.45006667 10.4713333,3.51906667 L10.8456667,3.7184 L12.6433333,2.96606667 L14.095,4.78673333 L12.9633333,6.3724 L13.0743333,6.7814 C13.1113333,6.91673333 13.143,7.0564 13.1683333,7.19606667 L13.2446667,7.6154 L14.9566667,8.55206667 L14.439,10.8227333 Z M14.147,6.96373333 C14.1216667,6.8314 14.0916667,6.69873333 14.0576667,6.56873333 L15.0313333,5.2044 C15.2206667,4.9394 15.2113333,4.57606667 15.0083333,4.32106667 L13.301,2.17906667 C13.1,1.9274 12.741,1.83606667 12.444,1.96006667 L10.8966667,2.60773333 C10.7713333,2.5424 10.644,2.4814 10.5163333,2.42573333 L10.0746667,0.8674 C9.98633333,0.552733333 9.696,0.3334 9.36866667,0.3334 L6.63166667,0.3334 C6.305,0.3334 6.01466667,0.552733333 5.92533333,0.866733333 L5.484,2.4244 C5.355,2.48073333 5.22666667,2.5424 5.10133333,2.60773333 L3.55433333,1.9604 C3.25666667,1.83473333 2.898,1.9274 2.697,2.1794 L0.989333333,4.32106667 C0.786666667,4.57606667 0.777333333,4.9394 0.966666667,5.2044 L1.94233333,6.57106667 C1.90866667,6.69873333 1.879,6.83006667 1.85333333,6.96206667 L0.380333333,7.77173333 C0.0946666667,7.92806667 -0.0543333333,8.25973333 0.018,8.57773333 L0.319333333,9.8994 C0.323,9.9174 0.627,11.2457333 0.627,11.2457333 C0.7,11.5640667 0.978,11.7980667 1.304,11.8150667 L2.98033333,11.9034 C3.06033333,12.0114 3.145,12.1177333 3.23233333,12.2204 L2.946,13.8734 C2.89,14.1944 3.05633333,14.5177333 3.35,14.6597333 L4.57166667,15.2494 C4.588,15.2574 5.81466667,15.8474 5.81466667,15.8474 C5.915,15.8964 6.02266667,15.9210667 6.13433333,15.9210667 C6.344,15.9210667 6.544,15.8314 6.683,15.6747333 L7.79933333,14.4174 C7.93133333,14.4217333 8.06666667,14.4217333 8.20066667,14.4174 L9.317,15.6747333 C9.53,15.9147333 9.89666667,15.9880667 10.1853333,15.8480667 L11.3806667,15.2707333 C11.3966667,15.2640667 11.413,15.2574 11.4283333,15.2500667 L12.6503333,14.6600667 C12.944,14.5184 13.11,14.1950667 13.0543333,13.8737333 L12.768,12.2180667 C12.8536667,12.1170667 12.9376667,12.0117333 13.0186667,11.9037333 L14.6963333,11.8154 C15.0223333,11.7984 15.301,11.5640667 15.3733333,11.2457333 L15.9816667,8.5764 C16.0546667,8.25806667 15.9053333,7.92573333 15.6183333,7.76873333 L14.147,6.96373333 Z" id="Fill-1" fill="#808080"></path>
                    <path d="M7.9993,10.5000333 C6.70896667,10.5000333 5.6593,9.45036667 5.6593,8.16003333 C5.6593,6.86936667 6.70896667,5.8197 7.9993,5.8197 C9.29063333,5.8197 10.3413,6.86936667 10.3413,8.16003333 C10.3413,9.45036667 9.29063333,10.5000333 7.9993,10.5000333 M7.9993,4.81536667 C6.15496667,4.81536667 4.65463333,6.3157 4.65463333,8.16003333 C4.65463333,10.0040333 6.15496667,11.5043667 7.9993,11.5043667 C9.84463333,11.5043667 11.3459667,10.0040333 11.3459667,8.16003333 C11.3459667,6.3157 9.84463333,4.81536667 7.9993,4.81536667" id="Fill-4" fill="#808080"></path>
                </g>
            </g>
        </g>
    </g>
</svg>