<?xml version="1.0" encoding="UTF-8"?>
<svg width="30px" height="30px" viewBox="0 0 30 30" version="1.1" xmlns="http://www.w3.org/2000/svg" xmlns:xlink="http://www.w3.org/1999/xlink">
    <!-- Generator: Sketch 48.2 (47327) - http://www.bohemiancoding.com/sketch -->
    <title>Page 1@2x</title>
    <desc>Created with Sketch.</desc>
    <defs></defs>
    <g id="Home" stroke="none" stroke-width="1" fill="none" fill-rule="evenodd" transform="translate(-1508.000000, -18.000000)">
        <g id="Group-7" fill="#FFFFFF">
            <g id="Group-5" transform="translate(1508.000000, 18.000000)">
                <path d="M21.7545831,22.3577982 C21.5004614,22.7431193 21.0557483,23 20.5792701,23 L8.41319212,23 C7.93671387,23 7.49200084,22.7752294 7.23787911,22.3577982 C6.98375738,21.9724771 6.92022694,21.4587156 7.11081824,21.0091743 C8.31789647,17.9587156 11.2402964,16 14.5121137,16 C17.783931,16 20.706331,17.9587156 21.9134092,21.0091743 C22.0722353,21.4587156 22.0087048,21.9724771 21.7545831,22.3577982 M15,6 C17.1904762,6 19,7.80645161 19,10 C19,12.2258065 17.2222222,14 15,14 C12.7777778,14 11,12.1935484 11,10 C11,7.80645161 12.8095238,6 15,6 M15,0 C6.7,0 0,6.7 0,15 C0,23.3 6.7,30 15,30 C23.3,30 30,23.3 30,15 C30,6.7 23.3,0 15,0" id="Page-1"></path>
            </g>
        </g>
    </g>
</svg>