<?xml version="1.0" encoding="utf-8"?>
<!-- Generator: Adobe Illustrator 22.0.1, SVG Export Plug-In . SVG Version: 6.00 Build 0)  -->
<svg version="1.1" id="Layer_1" xmlns="http://www.w3.org/2000/svg" xmlns:xlink="http://www.w3.org/1999/xlink" x="0px" y="0px"
	 viewBox="0 0 20 20" style="enable-background:new 0 0 20 20;" xml:space="preserve">
<style type="text/css">
	.st0{fill:none;stroke:#565656;stroke-linecap:round;stroke-linejoin:round;stroke-miterlimit:10;}
	.st1{fill:none;stroke:#565656;stroke-width:1.1;stroke-linecap:round;stroke-linejoin:round;stroke-miterlimit:10;}
</style>
<path class="st0" d="M17.6,5.7V4.1c0-0.6-0.5-1.1-1.1-1.1H3.7C3.1,3,2.6,3.5,2.6,4.1v8.2c0,0.6,0.5,1.1,1.1,1.1h8"/>
<path class="st0" d="M18.3,17.5h-4.1c-0.7,0-1.2-0.5-1.2-1.2V8.6c0-0.7,0.5-1.2,1.2-1.2h4.1c0.7,0,1.2,0.5,1.2,1.2v7.6
	C19.5,16.9,19,17.5,18.3,17.5z"/>
<path class="st0" d="M11.6,15.5H1.2v1c0,0.6,0.5,1.1,1.1,1.1h9.4"/>
<line class="st1" x1="16.3" y1="15.8" x2="16.2" y2="15.8"/>
</svg>
