<?xml version="1.0" encoding="UTF-8"?>
<svg width="56px" height="56px" viewBox="0 0 56 56" version="1.1" xmlns="http://www.w3.org/2000/svg" xmlns:xlink="http://www.w3.org/1999/xlink">
    <!-- Generator: Sketch 51.1 (57501) - http://www.bohemiancoding.com/sketch -->
    <title>icon/videochat</title>
    <desc>Created with Sketch.</desc>
    <defs></defs>
    <g id="Dashboard_PBZ" stroke="none" stroke-width="1" fill="none" fill-rule="evenodd">
        <g id="06_Resume" transform="translate(-487.000000, -497.000000)">
            <g id="Box-01" transform="translate(195.000000, 244.000000)">
                <g id="icon/videochat" transform="translate(292.000000, 253.000000)">
                    <g id="Group-2">
                        <g id="status/voice">
                            <circle id="Oval-6-Copy-3" fill="#F5F5F5" cx="28" cy="28" r="28"></circle>
                            <g id="ico/ic_photo" transform="translate(18.000000, 18.000000)">
                                <rect id="Rectangle" fill="#FFFFFF" opacity="0" x="0" y="0" width="20" height="20"></rect>
                                <path d="M9.99979167,14.4735417 C7.809375,14.4735417 6.02729167,12.6910417 6.02729167,10.4997917 C6.02729167,8.309375 7.809375,6.52770833 9.99979167,6.52770833 C12.1914583,6.52770833 13.974375,8.309375 13.974375,10.4997917 C13.974375,12.6910417 12.1914583,14.4735417 9.99979167,14.4735417 M9.99979167,5.263125 C7.11145833,5.263125 4.761875,7.61229167 4.761875,10.4997917 C4.761875,13.389375 7.11145833,15.7397917 9.99979167,15.7397917 C12.889375,15.7397917 15.2402083,13.389375 15.2402083,10.4997917 C15.2402083,7.61229167 12.889375,5.263125 9.99979167,5.263125" id="Fill-1" fill="#808080"></path>
                                <path d="M18.7341667,16.9333333 L1.26541667,16.9333333 L1.26541667,6.18625 L5.14375,6.18625 C5.42833333,6.18625 5.67916667,5.99541667 5.75375,5.72291667 L6.61791667,3.34708333 L13.38375,3.34708333 L14.2620833,5.76791667 C14.3520833,6.01666667 14.5908333,6.18416667 14.85625,6.18416667 L18.7341667,6.18625 L18.7341667,16.9333333 Z M2.01833333,4.21916667 L4.95666667,4.21916667 L4.70333333,4.92208333 L2.01833333,4.92208333 L2.01833333,4.21916667 Z M19.36875,4.92208333 L15.29875,4.92208333 L14.4379167,2.55625 C14.3579167,2.27375 14.1066667,2.08333333 13.8241667,2.08333333 L6.1775,2.08333333 C5.91375,2.08333333 5.67541667,2.25083333 5.58375,2.5 L5.19333333,3.57875 L1.69875,3.57875 C1.5225,3.57875 1.37875,3.72166667 1.37875,3.89708333 L1.37875,4.92208333 L0.652916667,4.92208333 C0.28375,4.92208333 0,5.20541667 0,5.55333333 L0,17.5441667 C0,17.9141667 0.28375,18.1975 0.632916667,18.1975 L19.34875,18.1975 C19.7170833,18.1975 20,17.9141667 20,17.56625 L20,5.57291667 C20,5.20541667 19.7170833,4.92208333 19.36875,4.92208333 L19.36875,4.92208333 Z" id="Fill-3" fill="#808080"></path>
                                <path d="M16.6747083,8.97091667 C17.1572083,8.97091667 17.5497083,8.578 17.5497083,8.09466667 C17.5497083,7.61133333 17.1572083,7.218 16.6747083,7.218 C16.191375,7.218 15.7980417,7.61133333 15.7980417,8.09466667 C15.7980417,8.578 16.191375,8.97091667 16.6747083,8.97091667" id="Fill-6" fill="#808080"></path>
                                <path d="M10.001875,8.813375 C9.07020833,8.813375 8.31354167,9.57045833 8.31354167,10.5017083 C8.31354167,11.4329583 9.06854167,12.1879583 10.001875,12.1879583 C10.9252083,12.1879583 11.6885417,11.4250417 11.6885417,10.5017083 C11.6885417,10.0342083 11.4997917,9.612125 11.194375,9.307125 C10.8889583,9.00420833 10.4677083,8.813375 10.001875,8.813375" id="Fill-8" fill="#808080"></path>
                            </g>
                        </g>
                    </g>
                </g>
            </g>
        </g>
    </g>
</svg>