<?xml version="1.0" encoding="UTF-8"?>
<svg width="56px" height="56px" viewBox="0 0 56 56" version="1.1" xmlns="http://www.w3.org/2000/svg" xmlns:xlink="http://www.w3.org/1999/xlink">
    <!-- Generator: Sketch 51.1 (57501) - http://www.bohemiancoding.com/sketch -->
    <title>icobig/diamond_big</title>
    <desc>Created with Sketch.</desc>
    <defs></defs>
    <g id="Banker" stroke="none" stroke-width="1" fill="none" fill-rule="evenodd">
        <g id="18_Account_Opening_Banker" transform="translate(-422.000000, -1212.000000)">
            <g id="Group-8" transform="translate(195.000000, 954.000000)">
                <g id="Left">
                    <g id="User" transform="translate(32.000000, 258.000000)">
                        <g id="icobig/diamond_big" transform="translate(195.000000, 0.000000)">
                            <g>
                                <rect id="Rectangle" fill="#FFFFFF" opacity="0" x="0" y="0" width="56" height="56"></rect>
                                <path d="M56,28 C56,43.4637 43.4637,56 28,56 C12.5363,56 0,43.4637 0,28 C0,12.5363 12.5363,0 28,0 C43.4637,0 56,12.5363 56,28" id="Fill-1" fill="#F5F5F5"></path>
                                <polygon id="Fill-4" fill="#FFFFFF" points="11.0540768 12.1146234 4.77780891 19.6461448 18.5855982 19.6461448"></polygon>
                                <polygon id="Fill-6" fill="#FFFFFF" points="28 49.4385842 3.89850378 19.8949361 10.8959148 11.3428935 45.1040852 11.3428935 52.1014962 19.8949361"></polygon>
                                <polygon id="Fill-8" fill="#FFFFFF" points="19.4478946 19.8949989 10.8958521 11.3429563 27.9999372 11.3429563"></polygon>
                                <polygon id="Fill-10" fill="#E6DFD8" points="36.5521054 19.8949989 28.0000628 11.3429563 45.1041479 11.3429563"></polygon>
                                <polygon id="Fill-12" fill="#E6DFD8" points="28 49.4385842 3.89850378 19.8949361 19.4479574 19.8949361"></polygon>
                                <polygon id="Fill-14" fill="#E6DFD8" points="28 49.4385842 52.1014962 19.8949361 36.5520426 19.8949361"></polygon>
                                <path d="M38.0499994,19.2747153 L45.0580801,12.266007 L50.7920785,19.2747153 L38.0499994,19.2747153 Z M29.4420981,46.6888257 L37.0188086,20.5155335 L50.794589,20.5155335 L29.4420981,46.6888257 Z M20.273726,20.5155335 L35.7265251,20.5155335 L35.6681558,20.7157464 L27.9998117,47.2059902 L20.273726,20.5155335 Z M5.20566209,20.5155335 L18.9808148,20.5155335 L19.014079,20.6285063 L26.5575254,46.6888257 L5.20566209,20.5155335 Z M10.9421709,12.266007 L17.9502516,19.2747153 L5.2081726,19.2747153 L10.9421709,12.266007 Z M26.5022942,11.9634909 L19.4477691,19.0173883 L12.3938717,11.9634909 L26.5022942,11.9634909 Z M35.0543368,19.2747153 L20.9459143,19.2747153 L27.9998117,12.2201902 L35.0543368,19.2747153 Z M43.6063794,11.9634909 L36.5518543,19.0173883 L29.4979569,11.9634909 L43.6063794,11.9634909 Z M10.6019972,10.7220451 L3.09809134,19.8941829 L27.9998117,50.4200669 L52.9021597,19.8941829 L45.3982539,10.7220451 L10.6019972,10.7220451 Z" id="Fill-16" fill="#4C4C4C"></path>
                                <polygon id="Fill-18" fill="#FFFFFF" points="29.4422236 46.6886374 50.7947145 20.5153452 37.0189342 20.5153452"></polygon>
                                <polygon id="Fill-20" fill="#FFFFFF" points="35.7263996 20.5152196 20.2736004 20.5152196 27.9996862 47.2056764 35.6680303 20.7154326"></polygon>
                                <polygon id="Fill-22" fill="#FFFFFF" points="38.0499994 19.2747153 50.7920785 19.2747153 45.0580801 12.266007"></polygon>
                                <polygon id="Fill-24" fill="#FFFFFF" points="18.9809403 20.5152196 5.20578762 20.5152196 26.5576509 46.6885119 19.0142045 20.6288201"></polygon>
                                <polygon id="Fill-26" fill="#FFFFFF" points="43.6060656 11.9632398 29.497643 11.9632398 36.5521681 19.0171373"></polygon>
                                <path d="M34.2964774,18.9609019 L21.7037736,18.9609019 L34.2964774,18.9609019 Z M35.054023,19.2747153 L28.0001255,12.2201902 L20.9462281,19.2747153 L35.054023,19.2747153 Z" id="Fill-28" fill="#FFFFFF"></path>
                            </g>
                        </g>
                    </g>
                </g>
            </g>
        </g>
    </g>
</svg>