<?xml version="1.0" encoding="UTF-8"?>
<svg width="24px" height="24px" viewBox="0 0 24 24" version="1.1" xmlns="http://www.w3.org/2000/svg" xmlns:xlink="http://www.w3.org/1999/xlink">
    <!-- Generator: Sketch 51.1 (57501) - http://www.bohemiancoding.com/sketch -->
    <title>ico/circle</title>
    <desc>Created with Sketch.</desc>
    <defs></defs>
    <g id="Danube" stroke="none" stroke-width="1" fill="none" fill-rule="evenodd">
        <g id="1_Open_Account_Danube" transform="translate(-547.000000, -47.000000)" fill="#FFFFFF">
            <g id="button" transform="translate(24.000000, 16.000000)">
                <g id="Stacked-Group" transform="translate(429.000000, 25.000000)">
                    <g id="ico/circle" transform="translate(94.000000, 6.000000)">
                        <path d="M12,24 C5.372583,24 0,18.627417 0,12 C0,5.372583 5.372583,0 12,0 C18.627417,0 24,5.372583 24,12 C24,18.627417 18.627417,24 12,24 Z M18,11.8035533 C17.9820323,11.5895212 17.9016388,11.33636 17.7883066,11.198715 L13.9173413,6.35999549 C13.5399545,5.93052158 12.9522871,5.89200225 12.5563971,6.20871495 C12.160507,6.52542442 12.0885006,7.1738111 12.4052455,7.56967213 L15.016131,10.8357991 L5.96774131,10.8357991 C5.43329004,10.8357991 5,11.269102 5,11.8035533 C5,12.3380368 5.43329004,12.7712946 5.96774131,12.7712946 L15.016131,12.7712946 L12.4052455,16.0374215 C12.0885006,16.43326 12.172678,17.0670015 12.5563971,17.3983561 C12.9733387,17.7583881 13.6006706,17.6430011 13.9173413,17.2470981 L17.7883066,12.4083916 C17.9521226,12.2078756 17.9971387,12.0606499 18,11.8035533 Z" id="Combined-Shape"></path>
                    </g>
                </g>
            </g>
        </g>
    </g>
</svg>