<?xml version="1.0" encoding="UTF-8"?>
<svg width="16px" height="16px" viewBox="0 0 16 16" version="1.1" xmlns="http://www.w3.org/2000/svg" xmlns:xlink="http://www.w3.org/1999/xlink">
    <!-- Generator: Sketch 51 (57462) - http://www.bohemiancoding.com/sketch -->
    <title>ico/circle_ON</title>
    <desc>Created with Sketch.</desc>
    <defs></defs>
    <g id="Banker" stroke="none" stroke-width="1" fill="none" fill-rule="evenodd">
        <g id="02_-Sales-/-Debit-Cards-Comparison" transform="translate(-980.000000, -37.000000)">
            <rect fill="#F1F2F6" x="0" y="0" width="1440" height="939"></rect>
            <g id="Header" fill="#FFFFFF">
                <g id="Btn" transform="translate(766.000000, 21.000000)">
                    <g id="btn/L_Primary/Default_Active">
                        <g id="Group" transform="translate(16.000000, 16.000000)">
                            <g id="ico/new_window" transform="translate(198.000000, 0.000000)">
                                <g id="ico/circle_ON">
                                    <rect id="Rectangle" opacity="0" x="0" y="0" width="16" height="16"></rect>
                                    <path d="M8,16 C3.581722,16 0,12.418278 0,8 C0,3.581722 3.581722,0 8,0 C12.418278,0 16,3.581722 16,8 C16,12.418278 12.418278,16 8,16 Z M8.8333762,4.83332476 L8.8333762,5.66664952 L12.1666752,5.66664952 L12.1666752,11.49982 L4.6667524,11.49982 L4.6667524,9.00005144 L3.83342764,9.00005144 L3.83342764,12.3332476 L13,12.3332476 L13,4.83332476 L8.8333762,4.83332476 Z M5.50007716,9.83327332 L8.8333762,9.83327332 L9.66670096,9.83327332 L9.66670096,9.00005144 L9.66670096,6.49997428 L8.8333762,6.49997428 L8.8333762,9.00005144 L5.50007716,9.00005144 L5.50007716,9.83327332 Z M7.1666238,8.1666238 L8.00005144,8.1666238 L8.00005144,7.33329904 L8.00005144,4.83332476 L8.00005144,4 L7.1666238,4 L3.83342764,4 L3,4 L3,4.83332476 L3,7.33329904 L3,8.1666238 L3.83342764,8.1666238 L7.1666238,8.1666238 Z M3.83342764,4.83332476 L7.1666238,4.83332476 L7.1666238,7.33329904 L3.83342764,7.33329904 L3.83342764,4.83332476 Z" id="ico/circle"></path>
                                </g>
                            </g>
                        </g>
                    </g>
                </g>
            </g>
        </g>
    </g>
</svg>