<?xml version="1.0" encoding="UTF-8"?>
<svg width="17px" height="14px" viewBox="0 0 17 14" version="1.1" xmlns="http://www.w3.org/2000/svg" xmlns:xlink="http://www.w3.org/1999/xlink">
    <!-- Generator: Sketch 52.6 (67491) - http://www.bohemiancoding.com/sketch -->
    <title>ico/ic_receipts</title>
    <desc>Created with Sketch.</desc>
    <g id="Page-1" stroke="none" stroke-width="1" fill="none" fill-rule="evenodd">
        <g id="01_Notifications/Bell_1" transform="translate(-936.000000, -271.000000)">
            <g id="notification_Tooltip" transform="translate(910.000000, 72.000000)">
                <g id="Group-6" transform="translate(0.000000, 8.000000)">
                    <g transform="translate(0.000000, 43.000000)" id="ELEMENT_2">
                        <g transform="translate(0.000000, 117.000000)">
                            <g id="ico/ic_offers" transform="translate(27.000000, 30.000000)">
                                <g id="Page-1" transform="translate(0.000000, 2.000000)">
                                    <path d="M10.7036708,7.15916994 L10.7036708,4.55026153 C11.1790238,4.80025275 11.4868899,5.30723495 11.4868899,5.87121515 C11.4868899,6.46619427 11.1925777,6.9381777 10.7036708,7.15916994 L10.7036708,7.15916994 Z M10.1905607,10.9980352 L5.74296087,7.60115442 C5.69842678,7.56715562 5.64517951,7.54915625 5.58999597,7.54915625 L4.31302945,7.54915625 C4.29753933,7.54615635 4.28204921,7.54415642 4.2665591,7.54415642 L2.80371117,7.54415642 C2.79112545,7.54415642 2.7775716,7.54715632 2.76498588,7.54915625 L2.07277128,7.54915625 C1.21306979,7.54915625 0.513110125,6.82618163 0.513110125,5.93721284 L0.513110125,5.85121586 C0.513110125,4.96224706 1.21306979,4.23927244 2.07277128,4.23927244 L5.58999597,4.23927244 C5.64517951,4.23927244 5.69842678,4.22127307 5.74296087,4.18727427 L10.1905607,0.790393517 L10.1905607,10.9980352 Z M4.75643405,11.4700186 L3.81831384,11.4700186 L3.1222267,8.07913764 L4.05937878,8.07913764 L4.75643405,11.4700186 Z M10.7036708,3.97528171 L10.7036708,0.264411982 C10.7036708,0.164415492 10.6494554,0.0734186869 10.5623235,0.0284202666 C10.4761597,-0.0165781537 10.3725696,-0.00757846966 10.2941509,0.0514194592 L5.50576846,3.70929105 L2.07277128,3.70929105 C0.929407019,3.70929105 0,4.67025731 0,5.85121586 L0,5.93721284 C0,7.11817138 0.929407019,8.07913764 2.07277128,8.07913764 L2.59749899,8.07913764 L3.35941912,11.7900074 C3.38459056,11.9120031 3.48914885,12 3.61113352,12 L5.07301331,12 C5.1504639,12 5.22404195,11.9640013 5.27244857,11.9020034 C5.32085518,11.8400056 5.34021783,11.7580085 5.32375958,11.6800112 L4.58410649,8.07913764 L5.50576846,8.07913764 L10.2941509,11.7370092 C10.3396531,11.771008 10.3929004,11.7890074 10.4471158,11.7890074 C10.4868092,11.7890074 10.5265026,11.7790078 10.5623235,11.7600084 C10.6494554,11.71501 10.7036708,11.6240132 10.7036708,11.5240167 L10.7036708,7.72515007 C11.4965712,7.47015902 12,6.75918398 12,5.87121515 C12,5.01724513 11.4801129,4.25927174 10.7036708,3.97528171 L10.7036708,3.97528171 Z" id="Fill-1" fill="#808080"></path>
                                    <path d="M10.7036708,7.15916994 L10.7036708,4.55026153 C11.1790238,4.80025275 11.4868899,5.30723495 11.4868899,5.87121515 C11.4868899,6.46619427 11.1925777,6.9381777 10.7036708,7.15916994 L10.7036708,7.15916994 Z M10.1905607,10.9980352 L5.74296087,7.60115442 C5.69842678,7.56715562 5.64517951,7.54915625 5.58999597,7.54915625 L4.31302945,7.54915625 C4.29753933,7.54615635 4.28204921,7.54415642 4.2665591,7.54415642 L2.80371117,7.54415642 C2.79112545,7.54415642 2.7775716,7.54715632 2.76498588,7.54915625 L2.07277128,7.54915625 C1.21306979,7.54915625 0.513110125,6.82618163 0.513110125,5.93721284 L0.513110125,5.85121586 C0.513110125,4.96224706 1.21306979,4.23927244 2.07277128,4.23927244 L5.58999597,4.23927244 C5.64517951,4.23927244 5.69842678,4.22127307 5.74296087,4.18727427 L10.1905607,0.790393517 L10.1905607,10.9980352 L10.1905607,10.9980352 Z M4.75643405,11.4700186 L3.81831384,11.4700186 L3.1222267,8.07913764 L4.05937878,8.07913764 L4.75643405,11.4700186 L4.75643405,11.4700186 Z M10.7036708,3.97528171 L10.7036708,0.264411982 C10.7036708,0.164415492 10.6494554,0.0734186869 10.5623235,0.0284202666 C10.4761597,-0.0165781537 10.3725696,-0.00757846966 10.2941509,0.0514194592 L5.50576846,3.70929105 L2.07277128,3.70929105 C0.929407019,3.70929105 0,4.67025731 0,5.85121586 L0,5.93721284 C0,7.11817138 0.929407019,8.07913764 2.07277128,8.07913764 L2.59749899,8.07913764 L3.35941912,11.7900074 C3.38459056,11.9120031 3.48914885,12 3.61113352,12 L5.07301331,12 C5.1504639,12 5.22404195,11.9640013 5.27244857,11.9020034 C5.32085518,11.8400056 5.34021783,11.7580085 5.32375958,11.6800112 L4.58410649,8.07913764 L5.50576846,8.07913764 L10.2941509,11.7370092 C10.3396531,11.771008 10.3929004,11.7890074 10.4471158,11.7890074 C10.4868092,11.7890074 10.5265026,11.7790078 10.5623235,11.7600084 C10.6494554,11.71501 10.7036708,11.6240132 10.7036708,11.5240167 L10.7036708,7.72515007 C11.4965712,7.47015902 12,6.75918398 12,5.87121515 C12,5.01724513 11.4801129,4.25927174 10.7036708,3.97528171 L10.7036708,3.97528171 Z" id="Stroke-3" stroke="#808080" stroke-width="0.25"></path>
                                    <path d="M15.7392374,5.6 L13.8607626,5.6 C13.7170972,5.6 13.6,5.6952 13.6,5.812 C13.6,5.9296 13.7170972,6.024 13.8607626,6.024 L15.7392374,6.024 C15.8829028,6.024 16,5.9296 16,5.812 C16,5.6952 15.8829028,5.6 15.7392374,5.6" id="Fill-5" fill="#808080"></path>
                                    <path d="M15.7392374,5.6 L13.8607626,5.6 C13.7170972,5.6 13.6,5.6952 13.6,5.812 C13.6,5.9296 13.7170972,6.024 13.8607626,6.024 L15.7392374,6.024 C15.8829028,6.024 16,5.9296 16,5.812 C16,5.6952 15.8829028,5.6 15.7392374,5.6 L15.7392374,5.6 Z" id="Stroke-7" stroke="#808080" stroke-width="0.25"></path>
                                    <path d="M13.0255319,3.2 C13.0834043,3.2 13.1412766,3.17787234 13.1846809,3.13361702 L14.333617,1.98553191 C14.4221277,1.89702128 14.4221277,1.75404255 14.333617,1.66638298 C14.2459574,1.57787234 14.1029787,1.57787234 14.0144681,1.66638298 L12.866383,2.81446809 C12.7778723,2.90297872 12.7778723,3.04595745 12.866383,3.13361702 C12.9097872,3.17787234 12.9676596,3.2 13.0255319,3.2" id="Fill-9" fill="#808080"></path>
                                    <path d="M13.0255319,3.2 C13.0834043,3.2 13.1412766,3.17787234 13.1846809,3.13361702 L14.333617,1.98553191 C14.4221277,1.89702128 14.4221277,1.75404255 14.333617,1.66638298 C14.2459574,1.57787234 14.1029787,1.57787234 14.0144681,1.66638298 L12.866383,2.81446809 C12.7778723,2.90297872 12.7778723,3.04595745 12.866383,3.13361702 C12.9097872,3.17787234 12.9676596,3.2 13.0255319,3.2 L13.0255319,3.2 Z" id="Stroke-11" stroke="#808080" stroke-width="0.25"></path>
                                    <path d="M13.184996,8.06577092 C13.0964618,7.97807636 12.9542964,7.97807636 12.8657622,8.06577092 C12.7780793,8.15431688 12.7780793,8.29650126 12.8657622,8.38504723 L14.015004,9.53444193 C14.0592711,9.57871491 14.1171588,9.6 14.1741953,9.6 C14.232083,9.6 14.2899707,9.57871491 14.3342378,9.53444193 C14.4219207,9.44589597 14.4219207,9.30286018 14.3342378,9.21516562 L13.184996,8.06577092 Z" id="Fill-13" fill="#808080"></path>
                                    <path d="M13.184996,8.06577092 C13.0964618,7.97807636 12.9542964,7.97807636 12.8657622,8.06577092 C12.7780793,8.15431688 12.7780793,8.29650126 12.8657622,8.38504723 L14.015004,9.53444193 C14.0592711,9.57871491 14.1171588,9.6 14.1741953,9.6 C14.232083,9.6 14.2899707,9.57871491 14.3342378,9.53444193 C14.4219207,9.44589597 14.4219207,9.30286018 14.3342378,9.21516562 L13.184996,8.06577092 L13.184996,8.06577092 Z" id="Stroke-15" stroke="#808080" stroke-width="0.25"></path>
                                </g>
                            </g>
                        </g>
                    </g>
                </g>
            </g>
        </g>
    </g>
</svg>