<?xml version="1.0" encoding="UTF-8"?>
<svg width="94px" height="94px" viewBox="0 0 94 94" version="1.1" xmlns="http://www.w3.org/2000/svg" xmlns:xlink="http://www.w3.org/1999/xlink">
    <!-- Generator: Sketch 49.3 (51167) - http://www.bohemiancoding.com/sketch -->
    <title>Group 3</title>
    <desc>Created with Sketch.</desc>
    <defs>
        <circle id="path-1" cx="37" cy="37" r="37"></circle>
        <filter x="-21.6%" y="-18.9%" width="143.2%" height="143.2%" filterUnits="objectBoundingBox" id="filter-2">
            <feOffset dx="0" dy="2" in="SourceAlpha" result="shadowOffsetOuter1"></feOffset>
            <feGaussianBlur stdDeviation="5" in="shadowOffsetOuter1" result="shadowBlurOuter1"></feGaussianBlur>
            <feColorMatrix values="0 0 0 0 0   0 0 0 0 0   0 0 0 0 0  0 0 0 0.0772192029 0" type="matrix" in="shadowBlurOuter1"></feColorMatrix>
        </filter>
    </defs>
    <g id="Page-1" stroke="none" stroke-width="1" fill="none" fill-rule="evenodd">
        <g id="9_pal_danube" transform="translate(-465.000000, -132.000000)">
            <g id="conferma" transform="translate(46.000000, 94.000000)">
                <g id="Stacked-Group" transform="translate(74.000000, 46.000000)">
                    <g id="Group-3" transform="translate(355.000000, 0.000000)">
                        <g id="Oval-6">
                            <use fill="black" fill-opacity="1" filter="url(#filter-2)" xlink:href="#path-1"></use>
                            <use fill="#FFFFFF" fill-rule="evenodd" xlink:href="#path-1"></use>
                        </g>
                        <g id="ico/attend" transform="translate(24.666667, 27.750000)" fill="#F36F20">
                            <path d="M20.9680213,0.632588042 L8.71518982,12.8854195 L3.67728145,7.84751112 C2.83383073,7.00406039 1.4660728,7.01545838 0.622622076,7.8589091 C-0.209430664,8.70235982 -0.209430664,10.0701178 0.634020059,10.9135685 L7.09667627,17.3648267 L7.18786013,17.4788065 C8.04270884,18.3108593 9.41046677,18.3108593 10.2425195,17.4788065 L24.0340786,3.6986454 C24.8775293,2.85519468 24.8775293,1.47603876 24.0340786,0.632588042 C23.1792299,-0.210862681 21.811472,-0.210862681 20.9680213,0.632588042 Z" id="Page-1"></path>
                        </g>
                    </g>
                </g>
            </g>
        </g>
    </g>
</svg>