<?xml version="1.0" encoding="UTF-8"?>
<svg width="80px" height="80px" viewBox="0 0 80 80" version="1.1" xmlns="http://www.w3.org/2000/svg" xmlns:xlink="http://www.w3.org/1999/xlink">
    <!-- Generator: Sketch 51.1 (57501) - http://www.bohemiancoding.com/sketch -->
    <title>icobig/insurance_pack</title>
    <desc>Created with Sketch.</desc>
    <defs></defs>
    <g id="icobig/insurance_pack" stroke="none" stroke-width="1" fill="none" fill-rule="evenodd">
        <rect id="Rectangle-path" fill="#FFFFFF" fill-rule="nonzero" opacity="0" x="0" y="0" width="80" height="80"></rect>
        <path d="M62.2222222,45.9277778 L62.2222222,25.4742222 L61.9922222,25.434 L61.3095333,25.3342222 C57.7440889,24.8351111 55.1736444,22.4977778 54.7384222,19.3793333 L54.6462,18.9214444 L54.6126444,18.8888889 L25.3819778,18.8888889 L25.3428667,18.9214444 L25.2452,19.5063333 C24.8112,22.6247778 22.2265333,24.8991111 18.6598667,25.3982222 L18.0077778,25.4654444 L17.7777778,25.4742222 L17.7777778,45.9277778 C17.7777778,56.8956667 36.7469778,66.4442222 40.0011111,66.4442222 C43.2539778,66.4442222 62.2222222,56.8956667 62.2222222,45.9277778 Z M50.8062,58.6783333 C46.0719778,62.0052222 41.0514222,64.1275556 40,64.1275556 C38.9485778,64.1275556 33.9279778,62.0052222 29.1926444,58.6783333 C24.9934222,55.7281111 20,51.1208889 20,45.9277778 L20,27.4457778 C23.3333333,26.6037778 26.4756444,24.4444444 27.3394222,21.1111111 L52.6595333,21.1111111 C53.5243111,24.4444444 56.6666667,26.6037778 60,27.4457778 L60,45.9277778 C60,51.1208889 55.0054222,55.7281111 50.8062,58.6783333 Z" id="Shape" fill="#F36F20" fill-rule="nonzero"></path>
        <path d="M65.5555556,36.6666667 L65.5555556,45.9298889 C65.5555556,52.0432222 61.7014222,57.9687778 53.8649778,63.5405556 L53.7185333,63.686 L53.4765333,63.878 L53.6837556,64.1504444 L54.6440889,65.497 L54.8415333,65.7704444 L55.1149778,65.5762222 L55.1562,65.4296667 C63.6414222,59.3977778 67.7777778,52.8374444 67.7777778,45.9298889 L67.7777778,36.6666667 L65.5555556,36.6666667 Z" id="Shape" fill="#F36F20" fill-rule="nonzero"></path>
        <path d="M26.1349778,63.5405556 C18.2975333,57.9687778 14.4444444,52.0432222 14.4444444,45.9298889 L14.4444444,36.6666667 L12.2222222,36.6666667 L12.2222222,45.9298889 C12.2222222,52.8374444 16.3563111,59.3977778 24.8415333,65.4296667 L24.9663111,65.5772222 L25.1964222,65.7693333 L25.3678667,65.497 L26.3095333,64.1504444 L26.4963111,63.8791111 L26.2825333,63.6871111 L26.1349778,63.5405556 Z" id="Shape" fill="#F36F20" fill-rule="nonzero"></path>
        <polygon id="Shape" fill="#F36F20" fill-rule="nonzero" points="66.1311111 21.1111111 65.5555556 21.1111111 65.5555556 21.7411111 65.5555556 24.1788889 65.5555556 24.4444444 66.1311111 24.4444444 67.7777778 24.4444444 67.7777778 24.1788889 67.7777778 21.7411111 67.7777778 21.1111111"></polygon>
        <polygon id="Shape" fill="#F36F20" fill-rule="nonzero" points="65.5555556 26.6666667 65.5555556 26.7122222 65.5555556 29.1488889 65.5555556 30 66.1311111 30 67.7777778 30 67.7777778 29.1488889 67.7777778 26.7122222 67.7777778 26.6666667 66.1311111 26.6666667"></polygon>
        <polygon id="Shape" fill="#F36F20" fill-rule="nonzero" points="65.5555556 31.1111111 65.5555556 31.6833333 65.5555556 34.12 65.5555556 34.4444444 66.1311111 34.4444444 67.7777778 34.4444444 67.7777778 34.12 67.7777778 31.6833333 67.7777778 31.1111111 66.1311111 31.1111111"></polygon>
        <polygon id="Shape" fill="#F36F20" fill-rule="nonzero" points="14.4444444 24.4444444 14.4444444 24.1788889 14.4444444 21.7411111 14.4444444 21.1111111 13.8677778 21.1111111 12.2222222 21.1111111 12.2222222 21.7411111 12.2222222 24.1788889 12.2222222 24.4444444 13.8677778 24.4444444"></polygon>
        <polygon id="Shape" fill="#F36F20" fill-rule="nonzero" points="14.4444444 30 14.4444444 29.1488889 14.4444444 26.7122222 14.4444444 26.6666667 13.8677778 26.6666667 12.2222222 26.6666667 12.2222222 26.7122222 12.2222222 29.1488889 12.2222222 30 13.8677778 30"></polygon>
        <polygon id="Shape" fill="#F36F20" fill-rule="nonzero" points="14.4444444 34.4444444 14.4444444 34.12 14.4444444 31.6833333 14.4444444 31.1111111 13.8677778 31.1111111 12.2222222 31.1111111 12.2222222 31.6833333 12.2222222 34.12 12.2222222 34.4444444 13.8677778 34.4444444"></polygon>
        <polygon id="Shape" fill="#F36F20" fill-rule="nonzero" points="57.7777778 15.5555556 57.7777778 15.5388889 57.7777778 13.8888889 57.7777778 13.3333333 49.7144444 13.3333333 48.8888889 13.3333333 48.8888889 13.8888889 48.8888889 15.5388889 48.8888889 15.5555556 49.7144444 15.5555556"></polygon>
        <polygon id="Shape" fill="#F36F20" fill-rule="nonzero" points="32.2222222 15.5555556 32.2222222 15.5388889 32.2222222 13.8888889 32.2222222 13.3333333 24.09 13.3333333 23.3333333 13.3333333 23.3333333 13.8888889 23.3333333 15.5388889 23.3333333 15.5555556 24.09 15.5555556"></polygon>
        <polygon id="Shape" fill="#F36F20" fill-rule="nonzero" points="42.2222222 15.5555556 42.2222222 15.5388889 42.2222222 13.8888889 42.2222222 13.3333333 42.2211111 13.3333333 40 13.3333333 40 13.8888889 40 15.5388889 40 15.5555556 42.2211111 15.5555556"></polygon>
        <polygon id="Shape" fill="#F36F20" fill-rule="nonzero" points="37.26 15.5555556 37.7777778 15.5555556 37.7777778 15.5388889 37.7777778 13.8888889 37.7777778 13.3333333 37.26 13.3333333 34.8277778 13.3333333 34.4444444 13.3333333 34.4444444 13.8888889 34.4444444 15.5388889 34.4444444 15.5555556 34.8277778 15.5555556"></polygon>
        <polygon id="Shape" fill="#F36F20" fill-rule="nonzero" points="47.1833333 15.5555556 47.7777778 15.5555556 47.7777778 15.5388889 47.7777778 13.8888889 47.7777778 13.3333333 47.1833333 13.3333333 44.7511111 13.3333333 44.4444444 13.3333333 44.4444444 13.8888889 44.4444444 15.5388889 44.4444444 15.5555556 44.7511111 15.5555556"></polygon>
        <path d="M49.7873111,36.6416667 L43.4342,36.3128889 L41.0209778,30.0141111 C40.8380692,29.6148125 40.4391758,29.3587831 39.9999778,29.3587831 C39.5607797,29.3587831 39.1618864,29.6148125 38.9789778,30.0141111 L36.5657556,36.3128889 L30.2115333,36.6416667 C29.7698261,36.6655419 29.3858028,36.9526805 29.2379812,37.3696026 C29.0901596,37.7865248 29.2075395,38.2514382 29.5355556,38.5482222 L34.4660889,43.0045556 L32.9232,49.3337778 C32.8177811,49.7646045 32.982901,50.2164492 33.3412636,50.4777938 C33.6996263,50.7391385 34.1803157,50.7582659 34.5583111,50.5262222 L40,47.1668889 L45.4405333,50.5252222 C45.8181578,50.7580107 46.299055,50.739351 46.6575059,50.4780014 C47.0159569,50.2166517 47.1807927,49.7645019 47.0746444,49.3337778 L45.5338667,43.0045556 L50.4644444,38.5482222 C50.7925948,38.2512983 50.9099013,37.786118 50.7617906,37.3690933 C50.6136799,36.9520686 50.2292362,36.6650901 49.7873111,36.6416667 Z M43.5850889,41.8174444 C43.2873429,42.0871429 43.1603955,42.4977626 43.2539778,42.8884444 L44.3207556,47.2613333 L40.5739778,44.949 C40.2224851,44.7323631 39.7790006,44.7319334 39.4270889,44.9478889 L35.6792,47.2613333 L36.7447556,42.8906667 C36.8397528,42.4995038 36.7131755,42.0877122 36.4148667,41.8174444 L32.9589778,38.6924444 L37.3893111,38.4635556 C37.8206923,38.4405211 38.198168,38.1659023 38.3528667,37.7625556 L40,33.4624444 L41.6470889,37.7625556 C41.8017454,38.1658868 42.1791824,38.4405092 42.6105333,38.4635556 L47.0409778,38.6924444 L43.5850889,41.8174444 Z" id="Shape" fill="#F36F20" fill-rule="nonzero"></path>
    </g>
</svg>