<?xml version="1.0" encoding="UTF-8"?>
<svg width="66px" height="70px" viewBox="0 0 66 70" version="1.1" xmlns="http://www.w3.org/2000/svg" xmlns:xlink="http://www.w3.org/1999/xlink">
    <!-- Generator: Sketch 49.3 (51167) - http://www.bohemiancoding.com/sketch -->
    <title>icobig/insurance_pack_A</title>
    <desc>Created with Sketch.</desc>
    <defs></defs>
    <g id="Danube" stroke="none" stroke-width="1" fill="none" fill-rule="evenodd">
        <g id="19_pal_danube" transform="translate(-114.000000, -302.000000)">
            <g id="Group-3" transform="translate(47.000000, 245.000000)">
                <g id="text" transform="translate(56.000000, 48.000000)">
                    <g id="01">
                        <g id="icobig/loans-copy">
                            <g id="svg_icobig-loans">
                                <rect id="Rectangle-path" fill="#FFFFFF" fill-rule="nonzero" opacity="0" x="0" y="0" width="88" height="88"></rect>
                                <g id="Group" transform="translate(11.000000, 9.777778)" fill="#F36F20" fill-rule="nonzero">
                                    <path d="M65.3888889,33.3666667 C64.2888889,31.9 61.6,30.8 58.5444444,31.5333333 C58.5444444,31.5333333 58.5444444,31.5333333 58.5444444,31.5333333 C58.5444444,31.4111111 58.5444444,31.2888889 58.5444444,31.1666667 C58.5444444,23.8333333 54.1444444,16.8666667 45.9555556,10.8777778 C47.3,7.57777778 48.7666667,3.66666667 48.7666667,2.68888889 L48.6444444,1.58888889 L47.3,1.58888889 C46.4444444,1.58888889 44.8555556,1.71111111 41.1888889,0.733333333 C38.8666667,0.122222222 34.4666667,-0.977777778 32.3888889,2.68888889 C32.0222222,3.3 31.9,3.54444444 35.9333333,10.8777778 C27.7444444,16.8666667 23.4666667,23.8333333 23.4666667,31.1666667 C23.4666667,32.7555556 23.8333333,34.3444444 24.4444444,35.8111111 L23.2222222,35.8111111 C20.9,35.8111111 18.3333333,37.5222222 16.7444444,38.9888889 L11.8555556,43.8777778 L9.04444444,41.0666667 L0.244444444,49.8666667 L18.8222222,68.4444444 L27.6222222,59.6444444 L24.8111111,56.8333333 C25.0555556,56.7111111 25.4222222,56.5888889 26.0333333,56.5888889 L45.9555556,56.5888889 C48.4,56.5888889 58.1777778,46.3222222 58.1777778,46.2 C59.2777778,44.9777778 64.1666667,37.7666667 65.5111111,34.4666667 L65.7555556,33.8555556 L65.3888889,33.3666667 Z M43.5111111,10.5111111 C43.1444444,10.6333333 41.8,10.8777778 40.9444444,10.8777778 C40.0888889,10.8777778 38.7444444,10.6333333 38.2555556,10.5111111 C36.5444444,7.45555556 35.0777778,4.52222222 34.5888889,3.42222222 C35.5666667,2.2 37.1555556,2.07777778 40.5777778,2.93333333 C42.7777778,3.42222222 44.4888889,3.78888889 46.0777778,3.78888889 C45.5888889,5.37777778 44.6111111,7.94444444 43.5111111,10.5111111 Z M37.4,12.5888889 C38.7444444,13.2 40.8222222,13.2 40.9444444,13.2 C41.0666667,13.2 43.1444444,13.2 44.4888889,12.5888889 C52.1888889,18.2111111 56.2222222,24.4444444 56.2222222,31.1666667 C56.2222222,31.6555556 56.2222222,32.1444444 56.1,32.6333333 C54.3888889,33.8555556 53.1666667,35.8111111 52.1888889,37.5222222 L47.0555556,40.2111111 C46.3222222,39.4777778 45.1,38.7444444 43.0222222,38.7444444 L35.5666667,38.7444444 C35.3222222,38.7444444 34.4666667,38.0111111 34.1,37.7666667 C32.8777778,36.9111111 31.6555556,35.8111111 30.1888889,35.8111111 L26.8888889,35.8111111 C26.0333333,34.4666667 25.6666667,32.8777778 25.6666667,31.1666667 C25.6666667,24.4444444 29.5777778,18.2111111 37.4,12.5888889 Z M35.5666667,40.9444444 L43.1444444,40.9444444 C45.3444444,40.9444444 46.3222222,42.1666667 46.3222222,43.3888889 C46.3222222,44.6111111 45.3444444,45.8333333 43.1444444,45.8333333 L31.2888889,45.8333333 L31.2888889,48.1555556 L43.1444444,48.1555556 C46.6888889,48.1555556 48.5222222,45.8333333 48.5222222,43.5111111 C48.5222222,43.1444444 48.4,42.6555556 48.2777778,42.2888889 L53.9,39.3555556 L54.0222222,38.9888889 C55.7333333,35.6888889 57.0777778,34.3444444 58.9111111,33.8555556 C60.7444444,33.4888889 62.2111111,33.8555556 62.9444444,34.4666667 C61.3555556,37.7666667 57.2,43.8777778 56.3444444,44.8555556 C54.3888889,47.0555556 46.8111111,54.2666667 45.8333333,54.5111111 L25.9111111,54.5111111 C24.4444444,54.5111111 23.5888889,55 23.1,55.4888889 L13.3222222,45.7111111 L18.2111111,40.8222222 C19.5555556,39.6 21.7555556,38.2555556 23.1,38.2555556 L30.1888889,38.2555556 C30.8,38.2555556 31.9,39.1111111 32.7555556,39.7222222 C33.7333333,40.2111111 34.5888889,40.9444444 35.5666667,40.9444444 Z M24.3222222,59.7666667 L18.8222222,65.2666667 L3.3,49.7444444 L8.8,44.2444444 L24.3222222,59.7666667 Z" id="Shape"></path>
                                    <polygon id="Shape" points="11.2444444 53.7777778 12.8333333 52.0666667 9.41111111 48.6444444 7.7 50.2333333"></polygon>
                                    <path d="M38.7444444,35.2 L39.1111111,35.2 L39.1111111,37.4 L41.4333333,37.4 L41.4333333,35.2 L41.6777778,35.2 C43.8777778,35.2 45.7111111,33.3666667 45.7111111,31.1666667 L45.7111111,30.3111111 C45.7111111,28.6 44.6111111,27.0111111 43.0222222,26.5222222 L38.3777778,24.9333333 C37.6444444,24.6888889 37.1555556,24.0777778 37.1555556,23.3444444 L37.1555556,22.4888889 C37.1555556,21.5111111 37.8888889,20.7777778 38.8666667,20.7777778 L41.6777778,20.7777778 C42.6555556,20.7777778 43.3888889,21.5111111 43.3888889,22.4888889 L43.3888889,24.3222222 L45.7111111,24.3222222 L45.7111111,22.4888889 C45.7111111,20.2888889 43.8777778,18.4555556 41.6777778,18.4555556 L41.4333333,18.4555556 L41.4333333,16.2555556 L39.1111111,16.2555556 L39.1111111,18.4555556 L38.8666667,18.4555556 C36.6666667,18.4555556 34.8333333,20.2888889 34.8333333,22.4888889 L34.8333333,23.3444444 C34.8333333,25.0555556 35.9333333,26.6444444 37.5222222,27.1333333 L42.1666667,28.7222222 C42.9,28.9666667 43.3888889,29.5777778 43.3888889,30.3111111 L43.3888889,31.1666667 C43.3888889,32.1444444 42.6555556,32.8777778 41.6777778,32.8777778 L38.8666667,32.8777778 C37.8888889,32.8777778 37.1555556,32.1444444 37.1555556,31.1666667 L37.1555556,29.3333333 L34.8333333,29.3333333 L34.8333333,31.1666667 C34.8333333,33.3666667 36.5444444,35.2 38.7444444,35.2 Z" id="Shape"></path>
                                </g>
                            </g>
                        </g>
                    </g>
                </g>
            </g>
        </g>
    </g>
</svg>