<?xml version="1.0" encoding="UTF-8"?>
<svg width="38px" height="38px" viewBox="0 0 38 38" version="1.1" xmlns="http://www.w3.org/2000/svg" xmlns:xlink="http://www.w3.org/1999/xlink">
    <!-- Generator: Sketch 51.1 (57501) - http://www.bohemiancoding.com/sketch -->
    <title>Oval 3</title>
    <desc>Created with Sketch.</desc>
    <defs></defs>
    <g id="Dashboard_PBZ" stroke="none" stroke-width="1" fill="none" fill-rule="evenodd">
        <g id="06_Resume" transform="translate(-1315.000000, -26.000000)" fill="#FEFEFE" stroke="#FEFEFE">
            <g id="Header">
                <g id="Btn/Close" transform="translate(1315.000000, 26.000000)">
                    <circle id="Oval-3" cx="19" cy="19" r="18.5"></circle>
                </g>
            </g>
        </g>
    </g>
</svg>