<?xml version="1.0" encoding="UTF-8"?>
<svg width="32px" height="32px" viewBox="0 0 32 32" version="1.1" xmlns="http://www.w3.org/2000/svg" xmlns:xlink="http://www.w3.org/1999/xlink">
    <!-- Generator: Sketch 48.2 (47327) - http://www.bohemiancoding.com/sketch -->
    <title>icon/spendinglimits</title>
    <desc>Created with Sketch.</desc>
    <defs></defs>
    <g id="Danube_intro" stroke="none" stroke-width="1" fill="none" fill-rule="evenodd" transform="translate(-605.000000, -497.000000)">
        <g id="buttons" transform="translate(528.000000, 199.000000)" fill="#FFFFFF">
            <g id="icon/spendinglimits" transform="translate(77.000000, 298.000000)">
                <path d="M22.0004948,30.544128 C17.3084954,30.544128 13.4902776,26.8025369 13.484835,22.201496 L13.484835,16.6657853 C13.484835,16.0664514 13.9825837,15.5787342 14.5941319,15.5787342 C15.2061749,15.5787342 15.7034288,16.0664514 15.7034288,16.6657853 L15.7034288,20.0725259 C15.7034288,20.4748318 16.035921,20.8004619 16.4455989,20.8004619 C16.8557716,20.8004619 17.187769,20.4748318 17.187769,20.0725259 L17.187769,5.5438937 C17.187769,4.94407443 17.6855178,4.45587202 18.2975607,4.45587202 C18.9091089,4.45587202 19.4068577,4.94407443 19.4068577,5.5438937 L19.4068577,9.264132 L19.4068577,15.9058201 L19.4068577,16.4211988 C19.4068577,16.8239901 19.7393499,17.1491348 20.1490278,17.1491348 C20.5587057,17.1491348 20.8911979,16.8239901 20.8911979,16.4211988 L20.8911979,15.9058201 L20.8911979,9.264132 C20.8911979,8.66431273 21.3889466,8.17611031 22.0004948,8.17611031 C22.6120429,8.17611031 23.1097917,8.66431273 23.1097917,9.264132 L23.1097917,11.6672914 L23.1097917,15.4593527 L23.1097917,17.8620268 C23.1097917,18.2643328 23.4422839,18.5899629 23.8519618,18.5899629 C24.2616397,18.5899629 24.5941319,18.2643328 24.5941319,17.8620268 L24.5941319,15.4593527 L24.5941319,11.6672914 C24.5941319,11.0669868 25.0918807,10.5787844 25.7034288,10.5787844 C26.314977,10.5787844 26.8127257,11.0669868 26.8127257,11.6672914 L26.8127257,14.1087888 L26.8127257,17.2214432 L26.8127257,19.6629405 C26.8127257,20.0652465 27.1447232,20.3908765 27.5548958,20.3908765 C27.9645737,20.3908765 28.297066,20.0652465 28.297066,19.6629405 L28.297066,17.2214432 L28.297066,14.1087888 C28.297066,13.5084842 28.7943199,13.0207671 29.4068577,13.0207671 C30.017911,13.0207671 30.5156598,13.5084842 30.5156598,14.1087888 L30.5156598,22.1917902 C30.5156598,26.7971987 26.6954629,30.544128 22.0004948,30.544128 M29.4068577,11.5648951 C29.0080649,11.5648951 28.634506,11.6609826 28.297066,11.8187021 L28.297066,11.6672914 C28.297066,10.2643161 27.1333432,9.12291241 25.7034288,9.12291241 C25.3051309,9.12291241 24.9320667,9.21899997 24.5941319,9.37720473 L24.5941319,9.264132 C24.5941319,7.86164196 23.430904,6.72023829 22.0004948,6.72023829 C21.601702,6.72023829 21.2286379,6.81584056 20.8911979,6.97453061 L20.8911979,5.5438937 C20.8911979,4.14140366 19.7274751,3 18.2975607,3 C16.8671516,3 15.7034288,4.14140366 15.7034288,5.5438937 L15.7034288,14.3771545 C15.3659888,14.2184645 14.9929246,14.1228622 14.5941319,14.1228622 C13.1642175,14.1228622 12.0004948,15.2637806 12.0004948,16.6657853 L12.0004948,22.1869373 C12.0004948,22.1888785 12,22.1903343 12,22.1917902 C12,22.1951873 12.0004948,22.198099 12.0004948,22.201496 L12.0004948,22.5945815 C12.0004948,22.6630075 12.0128643,22.7275511 12.0311711,22.7896683 C12.3488199,27.919676 16.6919994,32 22.0004948,32 C27.5143239,32 32,27.6003548 32,22.1917902 L32,14.1087888 C32,12.7058134 30.8362773,11.5648951 29.4068577,11.5648951" id="Fill-1"></path>
                <path d="M8.98241229,0.214964571 C8.71609707,-0.0718995694 8.28481185,-0.0714100402 8.01849664,0.214964571 L6.19973641,2.17308157 C5.9334212,2.45994571 5.9334212,2.92450897 6.19973641,3.21137311 C6.46605163,3.49823725 6.89733685,3.49823725 7.16365206,3.21186264 L7.81762407,2.50791958 L7.81762407,12.2657061 C7.81762407,12.6715259 8.12302309,13 8.49931831,13 C8.87606799,13 9.18146701,12.6715259 9.18146701,12.2657061 L9.18146701,2.50596146 L9.83634794,3.21137311 C9.96950554,3.35480518 10.1440193,3.42676598 10.3180785,3.42676598 C10.4925923,3.42676598 10.667106,3.35480518 10.8002636,3.21137311 C11.0665788,2.9249985 11.0665788,2.45994571 10.8002636,2.17308157 L8.98241229,0.214964571 Z" id="Fill-3"></path>
                <path d="M3.83592471,9.78818346 L3.18216949,10.4926194 L3.18216949,0.734297334 C3.18216949,0.328965206 2.87665939,0 2.50022731,0 C2.12334061,0 1.81828514,0.328965206 1.81828514,0.734297334 L1.81828514,10.4926194 L1.16407529,9.78818346 C0.897663211,9.50131797 0.466221131,9.50131797 0.199809056,9.78818346 C-0.0666030187,10.075049 -0.0666030187,10.5396144 0.199809056,10.8264799 L2.01786688,12.7846061 C2.14561738,12.9221645 2.31928532,13 2.50022731,13 C2.68071468,13 2.85438262,12.9221645 2.98213312,12.7846061 L4.80019094,10.8264799 C5.06660302,10.5396144 5.06660302,10.075049 4.80019094,9.78818346 C4.53377887,9.50131797 4.10233679,9.50131797 3.83592471,9.78818346" id="Fill-5"></path>
            </g>
        </g>
    </g>
</svg>