<?xml version="1.0" encoding="UTF-8"?>
<svg width="20px" height="19px" viewBox="0 0 20 19" version="1.1" xmlns="http://www.w3.org/2000/svg" xmlns:xlink="http://www.w3.org/1999/xlink">
    <!-- Generator: Sketch 51.1 (57501) - http://www.bohemiancoding.com/sketch -->
    <title>ico/share</title>
    <desc>Created with Sketch.</desc>
    <defs>
        <path d="M3.95833333,13.8716667 L1.97916667,13.8716667 C0.889833333,13.8716667 0,12.935 0,11.7883333 L0,6.78833333 C0,5.64166667 0.889833333,4.705 1.97916667,4.705 L17.0208333,4.705 C18.1109583,4.705 19,5.64166667 19,6.78833333 L19,11.7883333 C19,12.935 18.1109583,13.8716667 17.0208333,13.8716667 L15.0416667,13.8716667 L15.0416667,17.6216667 C15.0416667,17.8516667 14.8643333,18.0383333 14.6458333,18.0383333 L4.35416667,18.0383333 C4.13566667,18.0383333 3.95833333,17.8516667 3.95833333,17.6216667 L3.95833333,13.8716667 Z M15.0416667,13.0383333 L17.0208333,13.0383333 C17.6739583,13.0383333 18.2083333,12.475 18.2083333,11.7883333 L18.2083333,6.78833333 C18.2083333,6.10166667 17.6739583,5.53833333 17.0208333,5.53833333 L1.97916667,5.53833333 C1.32683333,5.53833333 0.791666667,6.10166667 0.791666667,6.78833333 L0.791666667,11.7883333 C0.791666667,12.475 1.32683333,13.0383333 1.97916667,13.0383333 L3.95833333,13.0383333 L3.95833333,10.955 C3.95833333,10.725 4.13566667,10.5383333 4.35416667,10.5383333 L14.6458333,10.5383333 C14.8643333,10.5383333 15.0416667,10.725 15.0416667,10.955 L15.0416667,13.0383333 Z M15.0107917,2.75666667 C15.0305833,2.8075 15.0416667,2.86166667 15.0416667,2.91666667 L15.0416667,3.75 C15.0416667,3.98 14.8643333,4.16666667 14.6458333,4.16666667 C14.4273333,4.16666667 14.25,3.98 14.25,3.75 L14.25,3.33333333 L12.2708333,3.33333333 C12.0523333,3.33333333 11.875,3.14666667 11.875,2.91666667 L11.875,0.833333333 L4.75,0.833333333 L4.75,3.75 C4.75,3.98 4.57266667,4.16666667 4.35416667,4.16666667 C4.13566667,4.16666667 3.95833333,3.98 3.95833333,3.75 L3.95833333,0.416666667 C3.95833333,0.1875 4.13566667,0 4.35416667,0 L12.2708333,0 C12.323875,0 12.3753333,0.0125 12.423625,0.0333333333 C12.471125,0.0533333333 12.5146667,0.085 12.5510833,0.121666667 L14.9260833,2.62166667 C14.9617083,2.66 14.991,2.70666667 15.0107917,2.75666667 Z M12.6666667,2.5 L13.6902917,2.5 L12.6666667,1.42333333 L12.6666667,2.5 Z M15.0416667,13.8716667 L15.0416667,13.0383333 L15.0416667,13.8716667 Z M4.75,17.205 L14.25,17.205 L14.25,11.3716667 L4.75,11.3716667 L4.75,17.205 Z M5.9375,13.0383333 C5.719,13.0383333 5.54166667,12.8516667 5.54166667,12.6216667 C5.54166667,12.3916667 5.719,12.205 5.9375,12.205 L13.0625,12.205 C13.281,12.205 13.4583333,12.3916667 13.4583333,12.6216667 C13.4583333,12.8516667 13.281,13.0383333 13.0625,13.0383333 L5.9375,13.0383333 Z M5.9375,14.705 C5.719,14.705 5.54166667,14.5183333 5.54166667,14.2883333 C5.54166667,14.0583333 5.719,13.8716667 5.9375,13.8716667 L13.0625,13.8716667 C13.281,13.8716667 13.4583333,14.0583333 13.4583333,14.2883333 C13.4583333,14.5183333 13.281,14.705 13.0625,14.705 L5.9375,14.705 Z M5.9375,16.3716667 C5.719,16.3716667 5.54166667,16.185 5.54166667,15.955 C5.54166667,15.725 5.719,15.5383333 5.9375,15.5383333 L13.0625,15.5383333 C13.281,15.5383333 13.4583333,15.725 13.4583333,15.955 C13.4583333,16.185 13.281,16.3716667 13.0625,16.3716667 L5.9375,16.3716667 Z M3.16666667,7.62166667 C3.16666667,7.39083333 2.990125,7.205 2.77083333,7.205 C2.55233333,7.205 2.375,7.39166667 2.375,7.62166667 C2.375,7.85166667 2.55233333,8.03833333 2.77083333,8.03833333 C2.990125,8.03833333 3.16666667,7.85166667 3.16666667,7.62166667 Z M3.95833333,7.62166667 C3.95833333,8.3125 3.427125,8.87166667 2.77083333,8.87166667 C2.11533333,8.87166667 1.58333333,8.31166667 1.58333333,7.62166667 C1.58333333,6.93083333 2.11533333,6.37166667 2.77083333,6.37166667 C3.42791667,6.37166667 3.95833333,6.93083333 3.95833333,7.62166667 Z" id="path-1"></path>
    </defs>
    <g id="Banker" stroke="none" stroke-width="1" fill="none" fill-rule="evenodd">
        <g id="8_Account_Opening_Banker" transform="translate(-930.000000, -845.000000)">
            <g id="Group-12" transform="translate(581.000000, 678.000000)">
                <g id="Group-14" transform="translate(0.500000, 0.000000)">
                    <g id="Group-13" transform="translate(24.000000, 149.000000)">
                        <g id="Print" transform="translate(325.000000, 18.000000)">
                            <g id="ico/print">
                                <g id="Color/White" transform="translate(0.000000, 0.833333)">
                                    <mask id="mask-2" fill="white">
                                        <use xlink:href="#path-1"></use>
                                    </mask>
                                    <use id="Mask" fill="#4D4D4D" xlink:href="#path-1"></use>
                                    <g mask="url(#mask-2)" fill="#FFFFFF" id="Swatch">
                                        <g transform="translate(0.000000, -0.833333)">
                                            <rect x="0" y="0" width="19" height="20"></rect>
                                        </g>
                                    </g>
                                </g>
                            </g>
                        </g>
                    </g>
                </g>
            </g>
        </g>
    </g>
</svg>