<?xml version="1.0" encoding="UTF-8"?>
<svg width="42px" height="36px" viewBox="0 0 42 36" version="1.1" xmlns="http://www.w3.org/2000/svg" xmlns:xlink="http://www.w3.org/1999/xlink">
    <!-- Generator: Sketch 51.1 (57501) - http://www.bohemiancoding.com/sketch -->
    <title>icobig/insurance_pack_A</title>
    <desc>Created with Sketch.</desc>
    <defs></defs>
    <g id="Danube" stroke="none" stroke-width="1" fill="none" fill-rule="evenodd">
        <g id="4_Open_Account_Danube" transform="translate(-847.000000, -216.000000)" fill="#FFFFFF" fill-rule="nonzero">
            <g id="02" transform="translate(760.000000, 158.000000)">
                <g id="icobig/card" transform="translate(80.000000, 48.000000)">
                    <rect id="Rectangle-path" opacity="0" x="0" y="0" width="56" height="56"></rect>
                    <path d="M9.56122222,29.2532333 L9.56122222,20.8435111 L38.9176667,20.8435111 L38.9176667,23.4031778 L40.48394,23.4031778 L40.48394,12.5386333 C40.4823328,11.1834958 39.3841776,10.0853405 38.02904,10.0837333 L10.4498178,10.0837333 C9.09440279,10.0852489 7.99577124,11.1832195 7.99344,12.5386333 L7.99344,29.2532333 C7.99574561,30.6086578 9.09439216,31.7066434 10.4498178,31.7081333 L14.6288956,31.7081333 L14.6288956,30.1419222 L10.4498178,30.1419222 C9.95918358,30.1415361 9.56155678,29.7438676 9.56122222,29.2532333 Z M9.56122222,12.5386333 C9.56155678,12.0479991 9.95918358,11.6503305 10.4498178,11.6499444 L38.02904,11.6499444 C38.5196917,11.6503005 38.9173449,12.0479816 38.9176667,12.5386333 L38.9176667,14.2620333 L9.56122222,14.2620333 L9.56122222,12.5386333 Z M9.56122222,15.8290222 L38.9176667,15.8290222 L38.9176667,19.2773778 L9.56122222,19.2773778 L9.56122222,15.8290222 Z" id="Shape"></path>
                    <path d="M45.5516289,24.2918667 L17.9709289,24.2918667 C16.6157825,24.2934525 15.5176147,25.3916202 15.5160289,26.7467667 L15.5160289,43.4613667 C15.5176361,44.8165042 16.6157913,45.9146595 17.9709289,45.9162667 L45.5516289,45.9162667 C46.906754,45.9146296 48.0048918,44.8164918 48.0065289,43.4613667 L48.0065289,26.7467667 C48.0049217,25.3916291 46.9067664,24.2934738 45.5516289,24.2918667 Z M46.4387778,43.4613667 C46.4383253,43.9513876 46.0416483,44.3487532 45.5516289,44.3500556 L17.9709289,44.3500556 C17.4808976,44.3487576 17.0842002,43.9513994 17.0837178,43.4613667 L17.0837178,26.7467667 C17.0836485,26.2565055 17.4806683,25.8588245 17.9709289,25.8580778 L45.5516289,25.8580778 C46.0418776,25.8588288 46.4388771,26.2565174 46.4387778,26.7467667 L46.4387778,43.4613667 Z" id="Shape"></path>
                    <rect id="Rectangle-path" x="19.6419067" y="38.5" width="4.17909333" height="1.56621111"></rect>
                    <rect id="Rectangle-path" x="26.3290067" y="38.5" width="4.17892222" height="1.56621111"></rect>
                    <rect id="Rectangle-path" x="33.0145511" y="38.5" width="4.179" height="1.56621111"></rect>
                    <rect id="Rectangle-path" x="39.7015733" y="38.5" width="4.17909333" height="1.56621111"></rect>
                    <path d="M43.8273733,32.179 C43.8251751,30.1318888 42.166444,28.4728028 40.1193333,28.4701667 L39.2838289,28.4701667 C37.9589154,28.4701666 36.7346448,29.1769995 36.072188,30.3244083 C35.4097313,31.4718171 35.4097313,32.8854829 36.072188,34.0328917 C36.7346448,35.1803005 37.9589154,35.8871334 39.2838289,35.8871333 L40.1193333,35.8871333 C42.1663184,35.8848529 43.8251444,34.2259851 43.8273733,32.179 Z M37.1419067,32.179 C37.1429701,30.9964898 38.1013187,30.0381412 39.2838289,30.0370778 L40.1193333,30.0370778 C41.2972684,30.0441759 42.248426,31.0010825 42.248426,32.1790389 C42.248426,33.3569953 41.2972684,34.3139018 40.1193333,34.321 L39.2838289,34.321 C38.1013984,34.3196712 37.1431926,33.3614305 37.1419067,32.179 Z" id="Shape"></path>
                </g>
            </g>
        </g>
    </g>
</svg>