<?xml version="1.0" standalone="no"?>
<!DOCTYPE svg PUBLIC "-//W3C//DTD SVG 1.1//EN" "http://www.w3.org/Graphics/SVG/1.1/DTD/svg11.dtd" >
<svg xmlns="http://www.w3.org/2000/svg">
<metadata>Generated by IcoMoon</metadata>
<defs>
<font id="icomoon" horiz-adv-x="1024">
<font-face units-per-em="1024" ascent="960" descent="-64" />
<missing-glyph horiz-adv-x="1024" />
<glyph unicode="&#x20;" horiz-adv-x="512" d="" />
<glyph unicode="&#xe900;" glyph-name="addio-auto-as-we-know" d="M624.109 632.289l-178.146-370.114 24.572-12.286 176.61 371.65zM347.676 331.623v0c-4.607-21.5-24.572-35.322-46.072-30.715s-35.322 24.572-30.715 46.072c3.071 18.429 19.965 30.715 38.394 30.715 3.071 0 4.607 0 7.679-1.536 18.429-3.071 30.715-19.965 30.715-38.394 0-1.536 0-4.607 0-6.143zM464.392 342.374h-86.002c-1.536 35.322-32.251 64.501-69.108 64.501s-66.037-29.179-69.108-64.501h-13.822v49.144c0 7.679 4.607 16.893 12.286 19.965 33.786 19.965 73.716 30.715 113.645 30.715h159.717l13.822 29.179h-115.181c41.465 19.965 86.002 32.251 130.538 33.786v-1.536l15.357 32.251c-59.894 0-119.788-15.357-173.539-44.537l-35.322-19.965c-43.001 0-86.002-12.286-124.395-33.786-16.893-9.214-26.108-27.643-26.108-46.072v-64.501c0-7.679 6.143-15.357 15.357-15.357h33.786c6.143-15.357 18.429-29.179 33.786-36.858 16.893-7.679 35.322-9.214 52.215-3.071 18.429 6.143 33.786 21.5 41.465 39.929h76.787l13.822 30.715zM756.183 331.623v0c-1.536-10.75-7.679-18.429-16.893-24.572s-18.429-7.679-29.179-6.143c-21.5 4.607-35.322 24.572-30.715 46.072 1.536 10.75 7.679 18.429 16.893 24.572 6.143 4.607 13.822 6.143 21.5 6.143 3.071 0 4.607 0 7.679-1.536 18.429-3.071 30.715-19.965 30.715-38.394 0-1.536 0-4.607 0-6.143zM837.578 472.912l-72.18 10.75c-13.822 7.679-27.643 15.357-41.465 21.5-32.251 13.822-64.501 24.572-98.288 29.179l-13.822-27.643c27.643-3.071 53.751-9.214 79.859-19.965l-13.822-13.822h-81.394l-13.822-29.179h102.895c4.607 0 7.679 1.536 10.75 4.607l26.108 26.108c10.75-4.607 21.5-10.75 30.715-16.893 1.536-1.536 3.071-1.536 6.143-1.536l62.965-9.214v-4.607h-33.786v-29.179h32.251v-39.929c0-6.143-3.071-12.286-9.214-13.822l-26.108-10.75c0 0 0 0 0 0 0 1.536 0 1.536 0 3.071v1.536c0 1.536 0 1.536 0 1.536v3.071c0 1.536 0 1.536 0 1.536 0 1.536 0 1.536-1.536 3.071l-1.536 3.071c0 1.536 0 1.536-1.536 3.071l-1.536 3.071c0 0 0 1.536-1.536 1.536v1.536c0 1.536-1.536 1.536-1.536 3.071l-1.536 3.071c0 0-1.536 1.536-1.536 1.536 0 1.536-1.536 1.536-1.536 3.071l-1.536 1.536c0 0-1.536 1.536-1.536 1.536s-1.536 1.536-3.071 1.536l-1.536 1.536c0 0-1.536 1.536-1.536 1.536s-1.536 1.536-1.536 1.536h-3.071c0 0-1.536 1.536-1.536 1.536l-3.071 1.536c-1.536 0-1.536 1.536-3.071 1.536 0 0-1.536 1.536-3.071 1.536l-3.071-3.071 1.536 4.607c0 0-1.536 0-1.536 1.536 0 0-1.536 0-1.536 1.536h-1.536c0 0-1.536 0-1.536 0-1.536 0-3.071 0-3.071 1.536l-1.536-4.607v4.607c0 0-1.536 0-1.536 0-1.536 0-1.536 0-3.071 0h-1.536c0 0-1.536 0-1.536 0-3.071 0-4.607 0-7.679 0-36.858 0-66.037-29.179-69.108-64.501h-78.323v75.251l-29.179-61.43v-13.822h-6.143l-13.822-29.179h133.61c6.143-15.357 18.429-29.179 33.786-36.858 9.214-4.607 19.965-6.143 29.179-6.143 7.679 0 15.357 1.536 23.036 4.607 18.429 6.143 33.786 21.5 41.465 39.929h1.536c1.536 0 3.071 0 6.143 1.536l35.322 13.822c16.893 6.143 27.643 23.036 27.643 41.465v87.537c-3.071 6.143-9.214 12.286-16.893 13.822zM510.464 440.661h-44.537v-30.715h30.715z" />
<glyph unicode="&#xe901;" glyph-name="ageing-population" d="M593.6 604.8c6.4 3.2 11.2 6.4 17.6 11.2h59.2c1.6 0 1.6 0 1.6-1.6v-177.6c0 0 0-1.6 0-1.6s0 0-1.6 0h-19.2c-9.6 0-17.6-8-17.6-17.6v-241.6c0-8-6.4-14.4-14.4-14.4h-11.2c-9.6 0-12.8 9.6-14.4 16-4.8 35.2-19.2 145.6-20.8 145.6-1.6 8-8 14.4-17.6 14.4-8 0-16-6.4-17.6-14.4 0-1.6-16-108.8-20.8-145.6 0-6.4-4.8-16-14.4-16h-11.2c-8 0-14.4 6.4-14.4 14.4v241.6c0 9.6-8 17.6-17.6 17.6h-20.8c-1.6 0-1.6 0-1.6 1.6v177.6c0 1.6 0 1.6 1.6 1.6h59.2c4.8-4.8 11.2-8 17.6-11.2l17.6-22.4-17.6-94.4c-1.6-4.8 0-11.2 3.2-14.4l19.2-22.4c3.2-3.2 8-6.4 12.8-6.4s9.6 1.6 12.8 6.4l19.2 22.4c3.2 3.2 4.8 9.6 3.2 14.4l-17.6 94.4 25.6 22.4zM556.8 732.8c28.8 0 51.2-22.4 51.2-51.2s-22.4-51.2-51.2-51.2c-28.8 0-51.2 22.4-51.2 51.2s22.4 51.2 51.2 51.2zM668.8 649.6h-33.6c4.8 9.6 6.4 20.8 6.4 32 0 46.4-38.4 84.8-84.8 84.8s-84.8-38.4-84.8-84.8c0-11.2 1.6-22.4 6.4-32h-33.6c-19.2 0-35.2-16-35.2-35.2v-174.4c-9.6 4.8-19.2 8-30.4 8-32 0-59.2-27.2-59.2-59.2v-228.8c0-9.6 8-17.6 17.6-17.6s17.6 8 17.6 17.6v230.4c0 14.4 11.2 24 24 24s24-11.2 24-24c0-9.6 8-17.6 17.6-17.6s17.6 8 17.6 17.6c0 3.2 0 8-1.6 11.2 3.2 0 4.8-1.6 8-1.6h3.2v-224c0-27.2 20.8-48 48-48h11.2c25.6 0 44.8 19.2 48 46.4 0 6.4 1.6 14.4 3.2 24 1.6-9.6 1.6-17.6 3.2-24 3.2-27.2 24-46.4 48-46.4h11.2c27.2 0 48 20.8 48 48v224h3.2c9.6 0 19.2 3.2 25.6 11.2 6.4 6.4 11.2 16 11.2 25.6v177.6c-3.2 19.2-19.2 35.2-40 35.2z" />
<glyph unicode="&#xe902;" glyph-name="crescita-robot-ai" d="M324.8 246.707c0 3.2-1.6 8-1.6 11.2 0 16 4.8 30.4 16 41.6 3.2 3.2 4.8 9.6 1.6 14.4-1.6 4.8-6.4 8-11.2 8h-4.8c-36.8 0-67.2 25.6-73.6 60.8 0 3.2-3.2 8-6.4 9.6-22.4 11.2-36.8 35.2-36.8 60.8s14.4 49.6 38.4 60.8c3.2 1.6 6.4 4.8 6.4 8 9.6 32 38.4 54.4 72 54.4h4.8c4.8 0 9.6 3.2 11.2 8s1.6 9.6-1.6 14.4c-9.6 11.2-16 25.6-16 41.6 0 35.2 28.8 62.4 64 62.4 1.6 0 3.2 0 4.8 0 6.4 0 12.8 4.8 14.4 11.2 3.2 32 30.4 56 62.4 56 28.8 0 52.8-19.2 60.8-46.4 1.6-6.4 9.6-11.2 16-9.6s11.2 9.6 9.6 16c-11.2 38.4-46.4 64-86.4 64-41.6 0-76.8-28.8-86.4-67.2-46.4-3.2-84.8-41.6-84.8-88 0-12.8 3.2-27.2 9.6-38.4-35.2-6.4-65.6-32-76.8-65.6-28.8-17.6-46.4-48-46.4-81.6 0-32 17.6-62.4 44.8-80 9.6-38.4 40-67.2 78.4-75.2-6.4-12.8-9.6-25.6-9.6-38.4 0-4.8 0-9.6 1.6-16s6.4-11.2 12.8-11.2c0 0 1.6 0 1.6 0 8 1.6 12.8 8 11.2 14.4zM808 260.8c-12.8 0-24-8-28.8-19.2h-64l-72 41.6c-1.6 1.6-4.8 1.6-6.4 1.6h-78.4v44.8h75.2l70.4-41.6c1.6-1.6 4.8-1.6 6.4-1.6h41.6c4.8-11.2 16-19.2 28.8-19.2 17.6 0 32 14.4 32 32s-14.4 32-32 32c-12.8 0-24-8-28.8-19.2h-36.8l-72 41.6c-1.6 1.6-4.8 1.6-6.4 1.6h-78.4v44.8h108.8c4.8-11.2 16-17.6 28.8-17.6 17.6 0 32 14.4 32 32s-14.4 32-32 32c-12.8 0-25.6-8-30.4-19.2h-108.8v48h108.8c4.8-11.2 16-19.2 30.4-19.2 17.6 0 32 14.4 32 32s-14.4 32-32 32c-12.8 0-24-8-28.8-17.6h-108.8v41.6h78.4c1.6 0 4.8 0 6.4 1.6l72 41.6h36.8c4.8-11.2 16-19.2 28.8-19.2 17.6 0 32 14.4 32 32s-14.4 32-32 32c-12.8 0-24-8-28.8-19.2h-40c-1.6 0-4.8 0-6.4-1.6l-72-41.6h-75.2v44.8h78.4c1.6 0 4.8 0 6.4 1.6l72 41.6h64c4.8-11.2 16-19.2 28.8-19.2 17.6 0 32 14.4 32 32s-14.4 32-32 32c-12.8 0-24-8-28.8-19.2h-68.8c-1.6 0-4.8 0-6.4-1.6l-70.4-41.6h-75.2v33.6c0 6.4-6.4 12.8-12.8 12.8s-12.8-6.4-12.8-12.8v-102.4h-20.8v11.2c0 6.4-6.4 12.8-12.8 12.8s-12.8-6.4-12.8-12.8v-11.2h-4.8c-22.4 0-40-17.6-40-40v-9.6h-11.2c-8 0-12.8-6.4-12.8-12.8s6.4-12.8 12.8-12.8h11.2v-35.2h-11.2c-8 0-12.8-6.4-12.8-12.8s6.4-12.8 12.8-12.8h11.2v-35.2h-11.2c-8 0-12.8-6.4-12.8-12.8s6.4-12.8 12.8-12.8h11.2v-6.4c0-22.4 17.6-40 40-40h4.8v-11.2c0-6.4 6.4-12.8 12.8-12.8 8 0 12.8 6.4 12.8 12.8v11.2h19.2v-137.6c0-35.2-28.8-62.4-64-62.4-32 0-59.2 24-62.4 56 0 6.4-6.4 12.8-14.4 11.2-1.6 0-3.2 0-4.8 0-14.4 0-28.8 4.8-41.6 14.4-4.8 4.8-14.4 3.2-17.6-1.6-4.8-4.8-3.2-14.4 1.6-17.6 14.4-12.8 33.6-19.2 52.8-20.8 9.6-38.4 44.8-67.2 86.4-67.2 48 0 88 38.4 89.6 86.4 0 0 0 0 0 1.6v70.4h75.2l72-41.6c1.6-1.6 4.8-1.6 6.4-1.6h68.8c4.8-11.2 16-19.2 28.8-19.2 17.6 0 32 14.4 32 32 1.6 16-12.8 30.4-32 30.4zM780.8 305.6c3.2 0 6.4-3.2 6.4-6.4s-3.2-6.4-6.4-6.4c-3.2 0-6.4 3.2-6.4 6.4s3.2 6.4 6.4 6.4zM696 420.8c3.2 0 6.4-3.2 6.4-6.4s-3.2-6.4-6.4-6.4-6.4 3.2-6.4 6.4c0 4.8 3.2 6.4 6.4 6.4zM696 494.4c3.2 0 6.4-3.2 6.4-6.4s-3.2-6.4-6.4-6.4-6.4 3.2-6.4 6.4c0 3.2 3.2 6.4 6.4 6.4zM780.8 606.4c3.2 0 6.4-3.2 6.4-6.4s-3.2-6.4-6.4-6.4c-3.2 0-6.4 3.2-6.4 6.4s3.2 6.4 6.4 6.4zM808 676.8c3.2 0 6.4-3.2 6.4-6.4s-3.2-6.4-6.4-6.4c-3.2 0-6.4 3.2-6.4 6.4 1.6 3.2 3.2 6.4 6.4 6.4zM531.2 395.2h-22.4v108.8h22.4v-108.8zM531.2 529.6h-30.4c-9.6 0-17.6-8-17.6-17.6v-126.4c0-9.6 8-17.6 17.6-17.6h30.4v-16h-51.2c-8 0-12.8 6.4-12.8 12.8v166.4c0 8 6.4 12.8 12.8 12.8h51.2v-14.4zM808 222.4c-3.2 0-6.4 3.2-6.4 6.4s3.2 6.4 6.4 6.4c3.2 0 6.4-3.2 6.4-6.4s-1.6-6.4-6.4-6.4z" />
<glyph unicode="&#xe903;" glyph-name="crescita-servizi-health-care" d="M560 275.2c-8 0-14.4-6.4-14.4-14.4v-100.8c0-8 6.4-14.4 14.4-14.4s14.4 6.4 14.4 14.4v100.8c0 8-6.4 14.4-14.4 14.4zM516.8 441.6c-8 0-14.4-6.4-14.4-14.4v-244.8c0-8 6.4-14.4 14.4-14.4s14.4 6.4 14.4 14.4v244.8c0 8-6.4 14.4-14.4 14.4zM745.6 707.2c-54.4 54.4-128 84.8-206.4 84.8s-152-30.4-206.4-84.8c-54.4-54.4-84.8-126.4-84.8-203.2l-51.2-104c-3.2-6.4-1.6-14.4 4.8-19.2l46.4-27.2v-152c0-8 6.4-14.4 14.4-14.4h92.8v-70.4c0-8 6.4-14.4 14.4-14.4s14.4 6.4 14.4 14.4v84.8c0 8-6.4 14.4-14.4 14.4h-92.8v145.6c0 4.8-3.2 9.6-6.4 12.8l-43.2 25.6 48 94.4c1.6 1.6 1.6 4.8 1.6 6.4 0 145.6 118.4 264 264 264s264-118.4 264-264c0-81.6-36.8-156.8-100.8-208-3.2-3.2-4.8-6.4-4.8-11.2v-164.8c0-8 6.4-14.4 14.4-14.4s14.4 6.4 14.4 14.4v158.4c67.2 56 107.2 137.6 107.2 225.6-4.8 78.4-35.2 152-89.6 206.4zM659.2 660.8c0 3.2 3.2 6.4 6.4 6.4s6.4-3.2 6.4-6.4-3.2-6.4-6.4-6.4c-3.2 0-6.4 3.2-6.4 6.4zM545.6 555.2v-244.8c0-8 6.4-14.4 14.4-14.4s14.4 6.4 14.4 14.4v240l80 80c4.8-1.6 8-3.2 12.8-3.2 19.2 0 35.2 16 35.2 35.2s-16 35.2-35.2 35.2-35.2-16-35.2-35.2c0-4.8 1.6-9.6 3.2-12.8l-83.2-83.2c-4.8-4.8-6.4-8-6.4-11.2zM702.4 576c0 3.2 3.2 6.4 6.4 6.4s6.4-3.2 6.4-6.4-3.2-6.4-6.4-6.4c-3.2 0-6.4 3.2-6.4 6.4zM734.4 436.8c0 3.2 3.2 6.4 6.4 6.4s6.4-3.2 6.4-6.4c0-3.2-3.2-6.4-6.4-6.4s-6.4 3.2-6.4 6.4zM740.8 401.6c19.2 0 35.2 16 35.2 35.2s-16 35.2-35.2 35.2c-14.4 0-27.2-8-32-20.8h-49.6v54.4l36.8 36.8c4.8-1.6 8-3.2 12.8-3.2 19.2 0 35.2 16 35.2 35.2s-16 35.2-35.2 35.2c-19.2 0-35.2-16-35.2-35.2 0-4.8 1.6-9.6 3.2-12.8l-41.6-41.6c-3.2-3.2-4.8-6.4-4.8-9.6v-244.8c0-8 6.4-14.4 14.4-14.4s14.4 6.4 14.4 14.4v156.8h49.6c6.4-12.8 19.2-20.8 32-20.8zM534.4 715.2c0-3.2-3.2-6.4-6.4-6.4s-6.4 3.2-6.4 6.4 3.2 6.4 6.4 6.4c3.2 0 6.4-3.2 6.4-6.4zM595.2 660.8c0 3.2-1.6 8-4.8 9.6l-30.4 30.4c1.6 4.8 3.2 8 3.2 12.8 0 19.2-16 35.2-35.2 35.2s-35.2-16-35.2-35.2 16-35.2 35.2-35.2c4.8 0 9.6 1.6 12.8 3.2l20.8-20.8-96-96c-3.2-3.2-4.8-6.4-4.8-9.6v-374.4c0-8 6.4-14.4 14.4-14.4s14.4 6.4 14.4 14.4v368l102.4 102.4c1.6 3.2 3.2 6.4 3.2 9.6zM356.8 494.4c-3.2 0-6.4 3.2-6.4 6.4s3.2 6.4 6.4 6.4 6.4-3.2 6.4-6.4-1.6-6.4-6.4-6.4zM392 491.2c1.6 3.2 1.6 6.4 1.6 9.6 0 19.2-16 35.2-35.2 35.2s-35.2-16-35.2-35.2c0-19.2 16-35.2 35.2-35.2 4.8 0 11.2 1.6 16 3.2l33.6-28.8v-206.4c0-8 6.4-14.4 14.4-14.4s14.4 6.4 14.4 14.4v214.4c0 4.8-1.6 8-4.8 11.2l-40 32zM516.8 537.6c-8 0-14.4-6.4-14.4-14.4v-32c0-8 6.4-14.4 14.4-14.4s14.4 6.4 14.4 14.4v32c0 8-6.4 14.4-14.4 14.4zM603.2 462.4c-8 0-14.4-6.4-14.4-14.4v-256c0-8 6.4-14.4 14.4-14.4s14.4 6.4 14.4 14.4v256c0 8-6.4 14.4-14.4 14.4zM603.2 558.4c-8 0-14.4-6.4-14.4-14.4v-43.2c0-8 6.4-14.4 14.4-14.4s14.4 6.4 14.4 14.4v43.2c0 8-6.4 14.4-14.4 14.4zM420.8 555.2l64 64c3.2 3.2 4.8 6.4 4.8 9.6s-1.6 8-4.8 9.6c-6.4 6.4-14.4 6.4-20.8 0l-75.2-75.2c-4.8-3.2-4.8-12.8 1.6-19.2l43.2-43.2c3.2-3.2 6.4-4.8 9.6-4.8v0c4.8 0 8 1.6 9.6 4.8 4.8 6.4 4.8 14.4 0 19.2l-32 35.2z" />
<glyph unicode="&#xe904;" glyph-name="data-security" d="M531.2 376c0 8-6.4 12.8-12.8 12.8s-12.8-6.4-12.8-12.8c0-54.4 44.8-99.2 99.2-99.2 6.4 0 12.8 6.4 12.8 12.8s-6.4 12.8-12.8 12.8c-40 0-73.6 32-73.6 73.6zM454.4 376c0 35.2 28.8 64 64 64s64-28.8 64-64c0-8 6.4-12.8 12.8-12.8 8 0 12.8 6.4 12.8 12.8 0 49.6-40 89.6-89.6 89.6s-89.6-40-89.6-89.6c0-52.8 22.4-100.8 62.4-136 1.6-1.6 4.8-3.2 8-3.2s8 1.6 9.6 4.8c4.8 4.8 3.2 14.4-1.6 19.2-33.6 28.8-52.8 70.4-52.8 115.2zM646.4 376c0 70.4-57.6 128-128 128s-128-57.6-128-128c0-28.8 4.8-56 16-81.6 3.2-6.4 9.6-9.6 17.6-6.4 6.4 3.2 9.6 9.6 6.4 17.6-9.6 22.4-14.4 48-14.4 72 0 56 46.4 102.4 102.4 102.4s102.4-46.4 102.4-102.4c0-14.4-11.2-25.6-25.6-25.6s-25.6 11.2-25.6 25.6c0 28.8-22.4 51.2-51.2 51.2s-51.2-22.4-51.2-51.2c0-76.8 62.4-139.2 137.6-139.2 8 0 12.8 6.4 12.8 12.8 0 8-6.4 12.8-12.8 12.8-62.4 0-112 51.2-112 112 0 14.4 11.2 25.6 25.6 25.6s25.6-11.2 25.6-25.6c0-28.8 22.4-51.2 51.2-51.2s51.2 22.4 51.2 51.2zM672 363.2c6.4 0 12.8 6.4 12.8 12.8 0 92.8-75.2 168-168 168s-168-75.2-168-168c0-6.4 6.4-12.8 12.8-12.8s12.8 6.4 12.8 12.8c0 78.4 64 140.8 140.8 140.8 78.4 0 140.8-64 140.8-140.8 3.2-8 9.6-12.8 16-12.8zM363.2 512c-1.6-3.2-3.2-6.4-3.2-9.6s1.6-6.4 4.8-9.6c3.2-1.6 4.8-3.2 8-3.2s8 1.6 9.6 4.8c33.6 38.4 83.2 60.8 134.4 60.8 48 0 92.8-17.6 126.4-51.2 3.2-1.6 6.4-3.2 9.6-3.2v0c3.2 0 6.4 1.6 9.6 3.2 3.2 3.2 3.2 6.4 3.2 9.6s-1.6 6.4-3.2 9.6c-38.4 38.4-89.6 59.2-144 59.2-59.2 0-115.2-25.6-155.2-70.4zM432 576c27.2 12.8 57.6 17.6 86.4 17.6 38.4 0 76.8-9.6 108.8-28.8 1.6-1.6 4.8-1.6 6.4-1.6 4.8 0 9.6 3.2 11.2 6.4s1.6 6.4 1.6 9.6-3.2 6.4-6.4 8c-36.8 20.8-80 32-121.6 32-33.6 0-67.2-6.4-97.6-20.8-6.4-3.2-9.6-11.2-6.4-17.6 1.6-3.2 3.2-6.4 6.4-6.4s8 0 11.2 1.6zM228.8 643.2c6.4 0 12.8 6.4 12.8 12.8v54.4h54.4c6.4 0 12.8 6.4 12.8 12.8s-6.4 12.8-12.8 12.8h-67.2c-6.4 0-12.8-6.4-12.8-12.8v-67.2c0-8 6.4-12.8 12.8-12.8zM827.2 736h-67.2c-8 0-12.8-6.4-12.8-12.8s6.4-12.8 12.8-12.8h54.4v-54.4c0-6.4 6.4-12.8 12.8-12.8s12.8 6.4 12.8 12.8v67.2c0 6.4-6.4 12.8-12.8 12.8zM827.2 204.8c-8 0-12.8-6.4-12.8-12.8v-54.4h-54.4c-6.4 0-12.8-6.4-12.8-12.8s6.4-12.8 12.8-12.8h67.2c8 0 12.8 6.4 12.8 12.8v67.2c0 8-6.4 12.8-12.8 12.8zM296 137.6h-54.4v54.4c0 6.4-6.4 12.8-12.8 12.8s-12.8-6.4-12.8-12.8v-67.2c0-8 6.4-12.8 12.8-12.8h67.2c8 0 12.8 6.4 12.8 12.8 0 8-4.8 12.8-12.8 12.8zM281.6 432c1.6 62.4 27.2 121.6 72 166.4s104 70.4 166.4 72c62.4 1.6 123.2-19.2 169.6-59.2 4.8-4.8 14.4-4.8 17.6 1.6 4.8 4.8 4.8 14.4-1.6 17.6v0c-52.8 44.8-118.4 68.8-187.2 65.6-68.8-1.6-134.4-30.4-184-80s-76.8-115.2-80-184c-1.6-68.8 20.8-136 65.6-187.2 3.2-3.2 6.4-4.8 9.6-4.8s6.4 1.6 8 3.2c4.8 4.8 6.4 12.8 1.6 19.2-40 48-60.8 107.2-57.6 169.6zM734.4 603.2c-1.6 3.2-4.8 4.8-9.6 4.8-3.2 0-6.4-1.6-9.6-3.2-4.8-4.8-6.4-12.8-1.6-17.6 40-46.4 62.4-107.2 59.2-169.6-1.6-62.4-27.2-121.6-72-166.4s-104-70.4-166.4-72c-62.4-1.6-123.2 19.2-169.6 59.2-4.8 4.8-14.4 4.8-17.6-1.6-1.6-3.2-3.2-6.4-3.2-9.6s1.6-6.4 4.8-9.6c49.6-43.2 113.6-65.6 179.2-65.6 3.2 0 6.4 0 9.6 0 68.8 1.6 134.4 30.4 184 80s76.8 113.6 80 184c1.6 67.2-20.8 134.4-67.2 187.2z" />
<glyph unicode="&#xe905;" glyph-name="digital-security" d="M700.8 542.4h-19.2v56c0 92.8-76.8 169.6-169.6 169.6s-169.6-76.8-169.6-169.6v-56h-19.2c-30.4 0-56-25.6-56-56v-300.8c0-30.4 25.6-56 56-56h376c30.4 0 56 25.6 56 56v300.8c1.6 30.4-24 56-54.4 56zM380.8 598.4c0 72 59.2 131.2 131.2 131.2s131.2-59.2 131.2-131.2v-56h-262.4v56zM718.4 184c0-9.6-8-19.2-19.2-19.2h-376c-9.6 0-19.2 8-19.2 19.2v302.4c0 9.6 8 19.2 19.2 19.2h376c9.6 0 19.2-8 19.2-19.2v-302.4z" />
<glyph unicode="&#xe906;" glyph-name="digitalization" d="M760 630.4h-38.4v123.2c0 8-6.4 14.4-14.4 14.4h-211.2c-8 0-14.4-6.4-14.4-14.4v-27.2h-112c-8 0-14.4-6.4-14.4-14.4v-80h-144c-8 0-14.4-6.4-14.4-14.4v-420.8c0-8 6.4-14.4 14.4-14.4h80v-38.4c0-8 6.4-14.4 14.4-14.4h452.8c36.8 0 67.2 30.4 67.2 67.2v368c1.6 36.8-28.8 65.6-65.6 65.6zM721.6 603.2h38.4c20.8 0 38.4-17.6 38.4-38.4 0-22.4-17.6-38.4-38.4-38.4h-38.4v76.8zM510.4 739.2h182.4v-212.8h-97.6v185.6c0 8-6.4 14.4-14.4 14.4h-70.4v12.8zM576 384c0-3.2-3.2-6.4-6.4-6.4s-6.4 3.2-6.4 6.4 3.2 6.4 6.4 6.4c3.2 0 6.4-3.2 6.4-6.4zM384 697.6h182.4v-171.2h-182.4v171.2zM292.8 510.4v-300.8h-65.6v392h128v-76.8h-48c-8 0-14.4-6.4-14.4-14.4zM800 193.6c0-20.8-17.6-38.4-38.4-38.4h-6.4v59.2c-1.6 9.6-8 16-16 16h-41.6c-3.2 8-9.6 14.4-17.6 17.6-8 4.8-17.6 4.8-27.2 1.6s-16-9.6-20.8-17.6-4.8-17.6-1.6-27.2c6.4-19.2 27.2-28.8 44.8-22.4 9.6 3.2 16 9.6 20.8 19.2h27.2v-44.8h-129.6v73.6l25.6 25.6c4.8-1.6 8-1.6 12.8-3.2 19.2 0 35.2 16 35.2 35.2s-16 35.2-35.2 35.2-35.2-16-35.2-35.2c0-4.8 1.6-8 3.2-12.8l-30.4-30.4c-3.2-3.2-4.8-6.4-4.8-9.6v-80h-160v56h36.8c3.2-8 9.6-14.4 17.6-17.6 8-4.8 17.6-4.8 27.2-1.6s16 9.6 20.8 17.6 4.8 17.6 1.6 27.2c-6.4 19.2-27.2 28.8-44.8 22.4-9.6-3.2-16-9.6-20.8-19.2h-51.2c-8 0-14.4-6.4-14.4-14.4v-70.4h-56v139.2h59.2c8-16 27.2-25.6 44.8-19.2 19.2 6.4 28.8 27.2 22.4 44.8-3.2 9.6-9.6 16-17.6 20.8s-17.6 4.8-27.2 1.6c-9.6-3.2-16-9.6-20.8-19.2h-59.2v172.8h56v-48c0-3.2 1.6-8 4.8-9.6l40-40c-1.6-4.8-3.2-8-3.2-12.8 0-19.2 16-35.2 35.2-35.2s35.2 16 35.2 35.2c0 19.2-16 35.2-35.2 35.2-4.8 0-8-1.6-12.8-3.2l-36.8 36.8v41.6h150.4v-80c-8-3.2-14.4-9.6-17.6-17.6-4.8-8-4.8-17.6-1.6-27.2 6.4-19.2 27.2-28.8 44.8-22.4 19.2 6.4 28.8 27.2 22.4 44.8-3.2 9.6-9.6 16-19.2 20.8v80h129.6v-84.8l-14.4-14.4c-4.8 1.6-8 3.2-12.8 3.2-19.2 0-35.2-16-35.2-35.2s16-35.2 35.2-35.2 35.2 16 35.2 35.2c0 4.8-1.6 8-3.2 12.8l19.2 19.2c3.2 3.2 4.8 6.4 4.8 9.6v91.2h17.6c14.4 0 27.2 4.8 38.4 11.2v-313.6zM670.4 216c0-3.2-3.2-6.4-6.4-6.4s-6.4 3.2-6.4 6.4 3.2 6.4 6.4 6.4 6.4-3.2 6.4-6.4zM627.2 289.6c0 3.2 3.2 6.4 6.4 6.4s6.4-3.2 6.4-6.4c0-3.2-3.2-6.4-6.4-6.4s-6.4 3.2-6.4 6.4zM468.8 227.2c0 3.2 3.2 6.4 6.4 6.4s6.4-3.2 6.4-6.4-3.2-6.4-6.4-6.4-6.4 1.6-6.4 6.4zM404.8 310.4c0 3.2 3.2 6.4 6.4 6.4s6.4-3.2 6.4-6.4-3.2-6.4-6.4-6.4-6.4 3.2-6.4 6.4zM448 384c0 3.2 3.2 6.4 6.4 6.4s6.4-3.2 6.4-6.4-3.2-6.4-6.4-6.4-6.4 3.2-6.4 6.4zM692.8 363.2c0-3.2-3.2-6.4-6.4-6.4-4.8 0-6.4 3.2-6.4 6.4s3.2 6.4 6.4 6.4c3.2 0 6.4-3.2 6.4-6.4z" />
<glyph unicode="&#xe907;" glyph-name="dispositivi-piu-conessi" d="M425.6 459.2c88 0 160-72 160-160 0-8 6.4-14.4 14.4-14.4s14.4 6.4 14.4 14.4c0 104-84.8 188.8-188.8 188.8-8 0-14.4-6.4-14.4-14.4s6.4-14.4 14.4-14.4zM524.8 377.6c-3.2 1.6-8 0-11.2-1.6s-4.8-4.8-6.4-9.6c0-3.2 0-8 1.6-11.2 11.2-17.6 17.6-36.8 17.6-57.6 0-8 6.4-14.4 14.4-14.4s14.4 6.4 14.4 14.4c0 25.6-8 51.2-22.4 73.6-1.6 3.2-4.8 6.4-8 6.4zM425.6 400c22.4 0 44.8-8 62.4-20.8 3.2-1.6 4.8-3.2 8-3.2 4.8 0 8 1.6 11.2 4.8 4.8 6.4 3.2 16-3.2 20.8-22.4 17.6-51.2 27.2-80 27.2-8 0-14.4-6.4-14.4-14.4 1.6-8 8-14.4 16-14.4zM425.6 342.4c24 0 44.8-19.2 44.8-44.8 0-8 6.4-14.4 14.4-14.4s14.4 6.4 14.4 14.4c0 40-32 73.6-73.6 73.6-8 0-14.4-6.4-14.4-14.4s6.4-14.4 14.4-14.4zM435.2 308.8c-4.8 4.8-11.2 6.4-17.6 3.2s-9.6-9.6-8-16c1.6-6.4 6.4-11.2 12.8-11.2 0 0 1.6 0 1.6 0 4.8 0 11.2 3.2 12.8 8 3.2 4.8 3.2 11.2-1.6 16v0zM307.2 174.437h-9.6v326.4l214.4 214.4 214.4-214.4v-326.4h-412.8c-1.6 0-1.6 0-3.2 0s-1.6 0-3.2 0zM824 443.237l-302.4 302.4c-4.8 4.8-14.4 4.8-20.8 0l-300.8-302.4c-4.8-4.8-4.8-14.4 0-20.8 4.8-4.8 14.4-4.8 20.8 0l49.6 49.6v-310.4c0-8 6.4-14.4 14.4-14.4h24c1.6 0 1.6 0 3.2 0s1.6 0 3.2 0h427.2c8 0 14.4 6.4 14.4 14.4v310.4l49.6-49.6c4.8-4.8 14.4-4.8 20.8 0 3.2 6.4 3.2 14.4-3.2 20.8z" />
<glyph unicode="&#xe908;" glyph-name="energia-pulita" d="M340.8 496h43.2c-11.2-11.2-22.4-16-36.8-16-27.2 0-52.8 20.8-62.4 30.4 12.8 12.8 36.8 30.4 62.4 30.4 12.8 0 25.6-4.8 36.8-16h-41.6c-8 0-14.4-6.4-14.4-14.4s4.8-14.4 12.8-14.4zM526.4 584v68.8c0 8-6.4 14.4-14.4 14.4s-14.4-6.4-14.4-14.4v-67.2l-4.8 4.8c-17.6 16-25.6 35.2-25.6 54.4 0 40 33.6 76.8 44.8 89.6 12.8-14.4 44.8-51.2 44.8-89.6 0-20.8-8-38.4-25.6-54.4l-4.8-6.4zM328 331.2h371.2c-6.4-97.6-88-172.8-185.6-172.8-99.2 0-179.2 75.2-185.6 172.8zM699.2 510.4c0 8-6.4 14.4-14.4 14.4h-43.2c12.8 11.2 24 16 36.8 16 27.2 0 52.8-20.8 62.4-30.4-9.6-9.6-35.2-30.4-62.4-30.4-12.8 0-25.6 4.8-36.8 16h41.6c9.6 0 16 6.4 16 14.4zM768 521.6c-9.6 11.2-46.4 44.8-89.6 44.8-22.4 0-41.6-8-59.2-27.2l-16-17.6c-17.6-1.6-32-8-43.2-19.2-24-25.6-25.6-68.8-25.6-81.6v-64h-12.8v192l24 20.8c24 22.4 35.2 48 33.6 75.2 0 62.4-59.2 115.2-59.2 115.2-1.6 1.6-4.8 3.2-9.6 3.2h-4.8c-4.8 0-8-1.6-9.6-4.8-14.4-12.8-59.2-60.8-59.2-115.2 0-28.8 11.2-54.4 35.2-75.2l24-20.8v-188.8h-12.8v64c0 12.8 0 56-25.6 81.6-11.2 11.2-25.6 19.2-43.2 19.2l-16 17.6c-16 17.6-36.8 27.2-57.6 27.2-43.2 0-78.4-35.2-89.6-46.4-1.6-1.6-3.2-4.8-3.2-9.6v-3.2c0-3.2 1.6-6.4 3.2-9.6 6.4-8 44.8-48 89.6-48 22.4 0 41.6 9.6 59.2 27.2l14.4 16c9.6-1.6 17.6-4.8 24-11.2 17.6-19.2 17.6-56 17.6-64v-64h-147.2c-8 0-14.4-6.4-14.4-14.4 0-116.8 96-212.8 212.8-212.8s212.8 96 212.8 212.8c0 8-6.4 14.4-14.4 14.4h-147.2v65.6c0 4.8-1.6 43.2 17.6 62.4 6.4 6.4 12.8 9.6 24 11.2l14.4-16c16-17.6 36.8-27.2 57.6-27.2 43.2 0 80 35.2 89.6 46.4 3.2 3.2 3.2 8 3.2 9.6v4.8c8 4.8 6.4 8 3.2 9.6z" />
<glyph unicode="&#xe909;" glyph-name="fintech" d="M806.4 262.4h-571.2c-9.6 0-17.6 8-17.6 17.6v84.8h606.4v-84.8c0-9.6-8-17.6-17.6-17.6zM625.6 168c1.6-1.6 1.6-3.2 3.2-6.4h-216c1.6 1.6 1.6 3.2 3.2 6.4l30.4 62.4h147.2l32-62.4zM235.2 734.4h572.8c9.6 0 17.6-8 17.6-17.6v-320h-608v320c0 9.6 8 17.6 17.6 17.6zM806.4 768h-571.2c-27.2 0-51.2-22.4-51.2-51.2v-438.4c0-27.2 22.4-51.2 51.2-51.2h174.4l-24-46.4c-4.8-11.2-11.2-17.6-14.4-20.8-8-1.6-12.8-8-12.8-16 0-9.6 8-17.6 17.6-17.6h288c9.6 0 17.6 8 17.6 17.6 0 8-4.8 14.4-12.8 16-3.2 3.2-8 11.2-14.4 20.8l-24 46.4h174.4c27.2 0 51.2 22.4 51.2 51.2v438.4c1.6 28.8-20.8 51.2-49.6 51.2v0zM537.6 296h-33.6c-9.6 0-17.6 8-17.6 17.6s8 17.6 17.6 17.6h33.6c9.6 0 17.6-8 17.6-17.6s-8-17.6-17.6-17.6zM622.4 596.8h-185.6v33.6h185.6c9.6 0 17.6 8 17.6 17.6s-8 17.6-17.6 17.6h-84.8v17.6c0 9.6-8 17.6-17.6 17.6s-17.6-8-17.6-17.6v-17.6h-84.8c-9.6 0-17.6-8-17.6-17.6v-67.2c0-9.6 8-17.6 17.6-17.6h185.6v-33.6h-184c-9.6 0-17.6-8-17.6-17.6s8-17.6 17.6-17.6h84.8v-17.6c0-9.6 8-17.6 17.6-17.6s17.6 8 17.6 17.6v19.2h84.8c9.6 0 17.6 8 17.6 17.6v67.2c-3.2 8-11.2 16-19.2 16z" />
<glyph unicode="&#xe90a;" glyph-name="future-of-transportation" d="M140.8 284.8c-8 0-14.4-6.4-14.4-14.4v-30.4c0-8 6.4-14.4 14.4-14.4s14.4 6.4 14.4 14.4v30.4c0 6.4-6.4 14.4-14.4 14.4zM216 284.8c-8 0-14.4-6.4-14.4-14.4v-30.4c0-8 6.4-14.4 14.4-14.4s14.4 6.4 14.4 14.4v30.4c0 6.4-6.4 14.4-14.4 14.4zM289.6 284.8c-8 0-14.4-6.4-14.4-14.4v-30.4c0-8 6.4-14.4 14.4-14.4s14.4 6.4 14.4 14.4v30.4c0 6.4-6.4 14.4-14.4 14.4zM721.6 284.8c-8 0-14.4-6.4-14.4-14.4v-30.4c0-8 6.4-14.4 14.4-14.4s14.4 6.4 14.4 14.4v30.4c0 6.4-6.4 14.4-14.4 14.4zM796.8 284.8c-8 0-14.4-6.4-14.4-14.4v-30.4c0-8 6.4-14.4 14.4-14.4s14.4 6.4 14.4 14.4v30.4c0 6.4-6.4 14.4-14.4 14.4zM870.4 284.8c-8 0-14.4-6.4-14.4-14.4v-30.4c0-8 6.4-14.4 14.4-14.4s14.4 6.4 14.4 14.4v30.4c0 6.4-6.4 14.4-14.4 14.4zM955.2 428.8c-3.2 11.2-6.4 22.4-11.2 33.6-33.6 72-110.4 113.6-188.8 102.4l-38.4 30.4c-129.6 104-315.2 100.8-440-9.6l-22.4-20.8c-12.8 0-25.6 0-38.4-1.6l-8 24 6.4-1.6c0 0 1.6 0 1.6 0 8 0 14.4 6.4 14.4 14.4s-4.8 14.4-12.8 14.4l-72 9.6c-8 1.6-16-4.8-16-12.8-1.6-8 4.8-16 12.8-16l32-4.8 11.2-35.2c-14.4-4.8-27.2-11.2-40-20.8-43.2-30.4-72-76.8-78.4-129.6-1.6-16 9.6-30.4 27.2-32 1.6 0 1.6 0 3.2 0h28.8v-59.2h177.6v59.2h401.6v-59.2h179.2v59.2h27.2c14.4 0 27.2 6.4 35.2 16 8 12.8 11.2 27.2 8 40zM275.2 344h-120v30.4h118.4v-30.4zM158.4 403.2c8 32 40 51.2 72 43.2 19.2-4.8 35.2-20.8 41.6-40 0-1.6 0-1.6 0-3.2h-113.6zM304 403.2c0 4.8-1.6 8-3.2 11.2-14.4 46.4-65.6 73.6-112 57.6-32-9.6-56-36.8-60.8-70.4h-30.4c4.8 44.8 28.8 83.2 65.6 108.8 24 16 52.8 25.6 83.2 25.6 36.8 0 70.4-12.8 99.2-36.8 28.8-25.6 46.4-59.2 49.6-97.6h-91.2zM497.6 403.2h-75.2c-3.2 46.4-25.6 89.6-60.8 120-20.8 17.6-44.8 30.4-70.4 36.8l4.8 3.2c40 35.2 89.6 59.2 142.4 70.4v-73.6l59.2-44.8v-112zM468.8 574.4v65.6c11.2 1.6 22.4 1.6 33.6 1.6 72 0 140.8-24 195.2-68.8l20.8-16c-12.8-4.8-24-11.2-35.2-19.2h-164.8l-49.6 36.8zM528 403.2v104h120c-25.6-28.8-41.6-65.6-44.8-104h-75.2zM856 344h-120v30.4h118.4v-30.4zM739.2 403.2c8 32 40 51.2 72 43.2 19.2-4.8 35.2-20.8 41.6-40 0-1.6 0-1.6 0-3.2h-113.6zM923.2 409.6c-3.2-3.2-6.4-6.4-11.2-4.8h-27.2c0 4.8-1.6 8-3.2 11.2-14.4 46.4-65.6 73.6-112 59.2-32-9.6-56-36.8-60.8-70.4h-75.2c8 81.6 81.6 140.8 163.2 132.8 52.8-4.8 99.2-38.4 120-86.4 4.8-9.6 8-19.2 9.6-28.8 1.6-4.8 0-9.6-3.2-12.8z" />
<glyph unicode="&#xe90b;" glyph-name="global-brands" d="M742.4 550.4c-33.6 0-60.8 27.2-60.8 60.8s27.2 60.8 60.8 60.8 60.8-27.2 60.8-60.8-28.8-60.8-60.8-60.8zM742.4 630.4c-11.2 0-19.2-9.6-19.2-19.2s9.6-19.2 19.2-19.2 19.2 9.6 19.2 19.2-9.6 19.2-19.2 19.2zM822.4 750.4h-140.8c-27.2 0-62.4-14.4-83.2-33.6l-304-304c-11.2-11.2-17.6-25.6-17.6-43.2s6.4-30.4 17.6-43.2l104-104-43.2-25.6c-4.8-3.2-9.6-3.2-14.4-1.6s-9.6 4.8-12.8 9.6l-144 249.6c-4.8 9.6-1.6 22.4 8 27.2l320 184c9.6 4.8 12.8 17.6 8 27.2s-17.6 12.8-27.2 8l-320-184c-14.4-8-24-20.8-28.8-36.8s-1.6-32 6.4-44.8l144-249.6c8-14.4 20.8-24 36.8-27.2 4.8-1.6 11.2-1.6 16-1.6 9.6 0 20.8 3.2 30.4 8l52.8 30.4 30.4-30.4c11.2-11.2 25.6-17.6 43.2-17.6 16 0 30.4 6.4 43.2 17.6l304 304c19.2 19.2 33.6 54.4 33.6 83.2v140.8c-3.2 30.4-30.4 57.6-62.4 57.6v0zM841.6 550.4c0-16-11.2-41.6-22.4-54.4l-304-304c-3.2-3.2-8-6.4-14.4-6.4s-9.6 1.6-14.4 6.4l-161.6 163.2c-3.2 3.2-6.4 8-6.4 14.4 0 4.8 1.6 9.6 6.4 14.4l304 304c11.2 11.2 36.8 22.4 54.4 22.4h140.8c11.2 0 19.2-9.6 19.2-19.2l-1.6-140.8z" />
<glyph unicode="&#xe90c;" glyph-name="healthcare-innovation" d="M512 128c-3.2 0-6.4 0-9.6 1.6-4.8 3.2-108.8 60.8-201.6 153.6-8 8-8 19.2 0 27.2s19.2 8 27.2 0c75.2-73.6 156.8-126.4 184-142.4 27.2 16 110.4 68.8 184 142.4 8 8 19.2 8 27.2 0s8-19.2 0-27.2c-94.4-92.8-198.4-152-201.6-153.6s-6.4-1.6-9.6-1.6zM203.2 428.8c-6.4 0-14.4 3.2-17.6 11.2-20.8 43.2-30.4 88-30.4 129.6-1.6 110.4 88 198.4 196.8 198.4 36.8 0 76.8-14.4 110.4-38.4 20.8-14.4 36.8-32 49.6-51.2 12.8 19.2 30.4 36.8 49.6 51.2 33.6 25.6 73.6 38.4 110.4 38.4 108.8 0 198.4-88 198.4-198.4 0-43.2-11.2-86.4-30.4-129.6-4.8-9.6-16-12.8-25.6-9.6-9.6 4.8-12.8 16-9.6 25.6 17.6 38.4 27.2 76.8 27.2 113.6 0 88-72 160-160 160-64 0-126.4-52.8-142.4-100.8-3.2-8-9.6-12.8-17.6-12.8s-16 4.8-17.6 12.8c-16 48-78.4 100.8-142.4 100.8-88 0-160-72-160-160 0-36.8 9.6-75.2 27.2-113.6 4.8-9.6 0-20.8-9.6-25.6-1.6 0-4.8-1.6-6.4-1.6v0zM550.4 278.4c0 0 0 0 0 0-8 0-22.4 4.8-28.8 28.8l-46.4 163.2-30.4-123.2c-6.4-24-19.2-28.8-27.2-30.4s-22.4 1.6-33.6 24l-22.4 44.8c-1.6 1.6-1.6 3.2-3.2 4.8 0 0 0 0 0 0-14.4-20.8-44.8-35.2-72-35.2h-38.4c-9.6 0-19.2 8-19.2 19.2s8 19.2 19.2 19.2h38.4c16 0 35.2 9.6 41.6 19.2 8 12.8 20.8 19.2 33.6 17.6 14.4-1.6 27.2-11.2 35.2-25.6l16-33.6 35.2 142.4c6.4 24 17.6 28.8 27.2 28.8s20.8-4.8 28.8-28.8l48-172.8 44.8 136c8 24 22.4 27.2 30.4 28.8 8 0 22.4-3.2 32-25.6l27.2-64c4.8-12.8 22.4-22.4 35.2-22.4h56c9.6 0 19.2-8 19.2-19.2s-8-19.2-19.2-19.2h-56c-28.8 0-59.2 20.8-70.4 46.4l-22.4 52.8-48-147.2c-9.6-25.6-22.4-28.8-30.4-28.8v0z" />
<glyph unicode="&#xe90d;" glyph-name="new-generation-technology" d="M840 563.2c-6.4 0-11.2 4.8-11.2 11.2s4.8 11.2 11.2 11.2c6.4 0 11.2-4.8 11.2-11.2s-4.8-11.2-11.2-11.2zM840 398.4c-6.4 0-11.2 4.8-11.2 11.2s4.8 11.2 11.2 11.2c6.4 0 11.2-4.8 11.2-11.2s-4.8-11.2-11.2-11.2zM740.8 507.2l75.2 41.6c3.2-3.2 8-4.8 11.2-6.4v-97.6c-1.6 0-4.8-1.6-6.4-3.2l-80 65.6zM716.8 323.2c-4.8 3.2-11.2 4.8-17.6 4.8-11.2 0-20.8-4.8-27.2-14.4l-105.6 35.2 16 49.6c14.4 0 25.6 8 30.4 20.8l192-17.6c0-1.6 0-1.6 1.6-3.2l-89.6-75.2zM699.2 281.6c-6.4 0-11.2 4.8-11.2 11.2s4.8 11.2 11.2 11.2c6.4 0 11.2-4.8 11.2-11.2 0-4.8-4.8-11.2-11.2-11.2zM699.2 121.6c-6.4 0-11.2 4.8-11.2 11.2s4.8 11.2 11.2 11.2c6.4 0 11.2-4.8 11.2-11.2 0-4.8-4.8-11.2-11.2-11.2zM544 358.4l-43.2 14.4-36.8 115.2 30.4 16 54.4-54.4c-1.6-4.8-3.2-9.6-3.2-14.4 0-11.2 4.8-20.8 14.4-27.2l-16-49.6zM524.8 297.6l-14.4 48 27.2-9.6-12.8-38.4zM523.2 246.4c-6.4 0-11.2 4.8-11.2 11.2s4.8 11.2 11.2 11.2c6.4 0 11.2-4.8 11.2-11.2 1.6-4.8-4.8-11.2-11.2-11.2zM523.2 121.6c-6.4 0-11.2 4.8-11.2 11.2s4.8 11.2 11.2 11.2c6.4 0 11.2-4.8 11.2-11.2 1.6-4.8-4.8-11.2-11.2-11.2zM494.4 278.4l-100.8 28.8c-1.6 17.6-16 33.6-35.2 33.6 0 0-1.6 0-1.6 0l-20.8 56c1.6 1.6 3.2 3.2 4.8 4.8l140.8-46.4 20.8-67.2c-3.2-3.2-4.8-6.4-8-9.6zM360 294.4c-6.4 0-11.2 4.8-11.2 11.2s4.8 11.2 11.2 11.2c6.4 0 11.2-4.8 11.2-11.2s-4.8-11.2-11.2-11.2zM313.6 411.2c-6.4 0-11.2 4.8-11.2 11.2s4.8 11.2 11.2 11.2c6.4 0 11.2-4.8 11.2-11.2s-4.8-11.2-11.2-11.2zM283.2 440l-64 11.2c-1.6 12.8-11.2 22.4-22.4 27.2v75.2c11.2 3.2 19.2 12.8 22.4 22.4l64 3.2 16-124.8c-8-3.2-12.8-8-16-14.4zM184 433.6c-6.4 0-11.2 4.8-11.2 11.2s4.8 11.2 11.2 11.2c6.4 0 11.2-4.8 11.2-11.2 1.6-4.8-4.8-11.2-11.2-11.2zM184 598.4c6.4 0 11.2-4.8 11.2-11.2s-4.8-11.2-11.2-11.2c-6.4 0-11.2 4.8-11.2 11.2s4.8 11.2 11.2 11.2zM267.2 670.4c1.6 0 3.2-1.6 4.8-1.6l8-65.6-62.4-3.2c0 1.6-1.6 3.2-3.2 4.8l52.8 65.6zM278.4 715.2c6.4 0 11.2-4.8 11.2-11.2s-4.8-11.2-11.2-11.2c-6.4 0-11.2 4.8-11.2 11.2-1.6 6.4 4.8 11.2 11.2 11.2zM313.6 704c0 1.6 0 3.2 0 4.8l57.6 28.8c6.4-6.4 14.4-9.6 24-9.6 6.4 0 14.4 1.6 19.2 6.4l72-54.4-52.8-49.6c-4.8 3.2-9.6 4.8-16 4.8-16 0-28.8-11.2-33.6-25.6l-81.6-4.8-8 67.2c11.2 6.4 19.2 17.6 19.2 32zM395.2 774.4c6.4 0 11.2-4.8 11.2-11.2s-4.8-11.2-11.2-11.2c-6.4 0-11.2 4.8-11.2 11.2 0 4.8 4.8 11.2 11.2 11.2zM561.6 750.4c0 0 0-1.6 1.6-1.6l-57.6-52.8-73.6 56h129.6zM577.6 731.2c4.8-3.2 9.6-4.8 16-4.8 9.6 0 19.2 4.8 25.6 11.2l92.8-43.2c0-1.6 0-1.6 0-3.2 0-4.8 1.6-9.6 3.2-12.8l-67.2-60.8c-4.8 3.2-11.2 4.8-16 4.8-6.4 0-14.4-1.6-19.2-6.4l-86.4 64 51.2 51.2zM593.6 774.4c6.4 0 11.2-4.8 11.2-11.2s-4.8-11.2-11.2-11.2c-6.4 0-11.2 4.8-11.2 11.2 0 4.8 4.8 11.2 11.2 11.2zM720 496l83.2-70.4-182.4 16 99.2 54.4zM617.6 587.2c0 6.4 4.8 11.2 11.2 11.2s11.2-4.8 11.2-11.2c0-6.4-4.8-11.2-11.2-11.2s-11.2 3.2-11.2 11.2zM449.6 582.4c1.6 4.8 3.2 9.6 3.2 14.4s-1.6 9.6-3.2 14.4l56 51.2 89.6-67.2c-1.6-3.2-1.6-6.4-1.6-11.2 0-1.6 0-3.2 0-4.8l-94.4-49.6-49.6 52.8zM443.2 556.8l35.2-35.2-20.8-11.2-14.4 46.4zM443.2 476.8l30.4-96-124.8 41.6c0 1.6 0 3.2 0 4.8l94.4 49.6zM406.4 598.4c0 6.4 4.8 11.2 11.2 11.2s11.2-4.8 11.2-11.2c0-6.4-4.8-11.2-11.2-11.2s-11.2 4.8-11.2 11.2zM417.6 563.2l19.2-64-99.2-51.2c-4.8 3.2-9.6 6.4-14.4 8l-16 124.8 80 3.2c3.2-11.2 16-20.8 30.4-20.8zM593.6 433.6c0-6.4-4.8-11.2-11.2-11.2s-11.2 4.8-11.2 11.2c0 6.4 4.8 11.2 11.2 11.2 6.4 1.6 11.2-4.8 11.2-11.2zM582.4 468.8c-4.8 0-11.2-1.6-14.4-3.2l-49.6 49.6 88 44.8c6.4-6.4 14.4-9.6 24-9.6 6.4 0 12.8 1.6 17.6 4.8l52.8-44.8-94.4-51.2c-6.4 6.4-16 9.6-24 9.6zM729.6 660.8c4.8-3.2 11.2-4.8 16-4.8s8 1.6 11.2 1.6l52.8-65.6c-3.2-4.8-4.8-11.2-4.8-19.2 0-1.6 0-3.2 0-4.8l-83.2-44.8-60.8 49.6c1.6 3.2 1.6 8 1.6 12.8s-1.6 9.6-3.2 12.8l70.4 62.4zM745.6 704c6.4 0 11.2-4.8 11.2-11.2s-4.8-11.2-11.2-11.2c-6.4 0-11.2 4.8-11.2 11.2s4.8 11.2 11.2 11.2zM875.2 574.4c0 19.2-16 35.2-35.2 35.2-4.8 0-8-1.6-11.2-1.6l-52.8 65.6c3.2 4.8 4.8 11.2 4.8 19.2 0 19.2-16 35.2-35.2 35.2-9.6 0-19.2-4.8-25.6-11.2l-92.8 43.2c0 1.6 0 1.6 0 3.2 0 19.2-16 35.2-35.2 35.2-16 0-28.8-9.6-33.6-24h-132.8c-4.8 12.8-17.6 24-33.6 24-19.2 0-35.2-16-35.2-35.2 0-1.6 0-3.2 0-4.8l-57.6-28.8c-6.4 6.4-14.4 9.6-24 9.6-19.2 0-35.2-16-35.2-35.2 0-6.4 1.6-12.8 4.8-19.2l-52.8-65.6c-3.2 1.6-8 1.6-11.2 1.6-19.2 0-35.2-16-35.2-35.2 0-14.4 9.6-28.8 24-33.6v-75.2c-12.8-4.8-24-17.6-24-33.6 0-19.2 16-35.2 35.2-35.2 12.8 0 24 6.4 30.4 17.6l64-11.2c3.2-16 17.6-28.8 35.2-28.8 0 0 1.6 0 1.6 0l22.4-56c-8-6.4-11.2-16-11.2-25.6 0-19.2 16-35.2 35.2-35.2 11.2 0 22.4 6.4 28.8 14.4l100.8-28.8c1.6-14.4 9.6-25.6 24-30.4v-59.2c-12.8-4.8-24-17.6-24-33.6 0-19.2 16-35.2 35.2-35.2s35.2 16 35.2 35.2c0 14.4-9.6 28.8-24 33.6v59.2c12.8 4.8 24 17.6 24 33.6 0 11.2-4.8 20.8-14.4 27.2l14.4 41.6 105.6-35.2c0-14.4 9.6-27.2 24-32v-94.4c-14.4-4.8-24-17.6-24-33.6 0-19.2 16-35.2 35.2-35.2s35.2 16 35.2 35.2c0 14.4-9.6 28.8-24 33.6v94.4c12.8 4.8 24 17.6 24 33.6 0 4.8-1.6 8-1.6 12.8l89.6 75.2c4.8-3.2 11.2-4.8 17.6-4.8 19.2 0 35.2 16 35.2 35.2 0 16-9.6 28.8-24 33.6v97.6c14.4 4.8 24 17.6 24 32z" />
<glyph unicode="&#xe90e;" glyph-name="nutrition" d="M726.4 598.4c-32 27.2-78.4 41.6-134.4 41.6-19.2 0-38.4-6.4-56-9.6-3.2-1.6-6.4-1.6-8-1.6 1.6 60.8 51.2 108.8 112 108.8 9.6 0 16 6.4 16 16s-6.4 16-16 16c-78.4 0-142.4-62.4-144-140.8-3.2 0-6.4 1.6-8 3.2-16 4.8-36.8 9.6-56 9.6-57.6 0-102.4-14.4-134.4-41.6-38.4-32-57.6-83.2-57.6-150.4 0-68.8 19.2-147.2 52.8-209.6 38.4-72 88-110.4 139.2-110.4 16 0 30.4 4.8 43.2 8s24 8 36.8 8 25.6-3.2 36.8-8c12.8-4.8 27.2-9.6 43.2-9.6 51.2 0 100.8 40 139.2 110.4 33.6 62.4 52.8 140.8 52.8 209.6 0 67.2-19.2 116.8-57.6 150.4zM702.4 254.4c-32-59.2-72-94.4-110.4-94.4-11.2 0-20.8 3.2-33.6 6.4-12.8 4.8-27.2 9.6-46.4 9.6s-33.6-4.8-46.4-9.6c-12.8-3.2-22.4-6.4-33.6-6.4-38.4 0-78.4 33.6-110.4 94.4-30.4 57.6-49.6 129.6-49.6 193.6 0 57.6 16 99.2 46.4 124.8 27.2 22.4 65.6 35.2 113.6 35.2 14.4 0 32-4.8 46.4-9.6 12.8-3.2 24-6.4 33.6-6.4s20.8 3.2 33.6 6.4c14.4 4.8 32 9.6 46.4 9.6 49.6 0 88-11.2 113.6-35.2 30.4-25.6 46.4-67.2 46.4-124.8 0-64-19.2-136-49.6-193.6z" />
<glyph unicode="&#xe90f;" glyph-name="oves-est" d="M281.6 544c8 12.8 19.2 20.8 33.6 24 3.2 0 4.8 0 8 0 20.8 0 40-14.4 44.8-36.8 0-3.2 1.6-4.8 1.6-8v-99.2c-1.6 1.6-3.2 3.2-4.8 3.2l-8 6.4c-9.6 8-17.6 16-27.2 24-14.4 14.4-25.6 28.8-33.6 43.2-3.2 4.8-4.8 11.2-8 16-1.6 4.8-4.8 9.6-6.4 12.8-3.2 6.4-1.6 9.6 0 14.4zM212.8 692.8v-25.6h-33.6v20.8c0 8 0 16 0 25.6 78.4 0 158.4 0 236.8 0h51.2v-44.8h-35.2v25.6h-28.8v-25.6h-67.2v25.6h-28.8v-25.6h-67.2v25.6h-27.2zM467.2 393.6c-4.8 0-8 0-12.8 0h-8c-11.2 0-22.4 0-33.6 0-1.6 0-3.2 1.6-4.8 1.6s-3.2 1.6-3.2 1.6l-3.2 1.6c-4.8 1.6-6.4 3.2-6.4 12.8 0 35.2 0 72 0 107.2v3.2c0 22.4-8 40-22.4 54.4-12.8 12.8-28.8 19.2-46.4 20.8s-33.6-3.2-48-12.8c-17.6-12.8-28.8-28.8-30.4-48-1.6-12.8-1.6-25.6-1.6-38.4v-11.2c0-19.2 0-40 0-59.2v-32h-19.2c-17.6 0-33.6 0-51.2 0 0 70.4 0 142.4 0 212.8v32h288v-235.2c1.6-4.8 1.6-8 3.2-11.2zM723.2 705.6c0 8 3.2 14.4 9.6 20.8 4.8 4.8 11.2 6.4 17.6 6.4 1.6 0 1.6 0 3.2 0 11.2-1.6 19.2-6.4 22.4-17.6-4.8-11.2-11.2-20.8-19.2-32-9.6-12.8-20.8-25.6-33.6-35.2v12.8c0 14.4 0 30.4 0 44.8zM804.8 720c-3.2 8-8 16-11.2 20.8-8 9.6-17.6 16-30.4 19.2-27.2 6.4-54.4-9.6-64-35.2-1.6-6.4-3.2-12.8-3.2-20.8 0-24 0-46.4 0-70.4v-9.6h-3.2c-3.2-3.2-4.8-3.2-11.2-3.2-4.8 0-9.6 0-14.4 0-3.2 0-6.4 0-9.6 0h-3.2v161.6h190.4v-160h-38.4v86.4c0 3.2 0 6.4-1.6 11.2zM801.6 825.6v-14.4h-36.8v14.4h-28.8v-14.4h-38.4v14.4h-27.2v-14.4h-14.4v20.8h188.8v-20.8h-14.4v14.4h-28.8zM939.2 576c0 1.6 0 1.6 0 3.2s-1.6 4.8-1.6 6.4c-8 19.2-22.4 30.4-44.8 35.2-4.8 1.6-9.6 1.6-16 1.6h-1.6v160h35.2v28.8h-36.8v49.6h-248v-51.2h-36.8v-28.8h36.8v-188.8h14.4c-12.8-6.4-25.6-12.8-38.4-19.2v12.8h-28.8v-12.8c0-4.8 0-8 0-12.8-4.8-1.6-9.6-3.2-16-6.4-4.8-1.6-9.6-3.2-14.4-4.8s-9.6-3.2-12.8-4.8v24h-28.8v-12.8c0-6.4 0-12.8 0-20.8-1.6 0-4.8-1.6-6.4-1.6v105.6h56v28.8h-56v72h-344v-73.6h-56v-28.8h56v-249.6c-8-4.8-14.4-8-20.8-12.8-19.2-14.4-32-32-40-51.2-4.8-14.4-6.4-27.2-3.2-38.4l1.6-4.8 27.2 3.2v8c0 1.6 0 3.2 0 6.4 0 9.6 1.6 19.2 8 28.8 8 16 22.4 27.2 43.2 38.4 3.2 1.6 3.2 1.6 4.8 1.6 14.4 0 28.8 0 44.8 0h36.8c4.8-17.6 11.2-36.8 22.4-57.6 14.4-28.8 33.6-56 60.8-81.6 9.6-9.6 19.2-19.2 27.2-25.6 14.4-11.2 27.2-22.4 40-32 22.4-16 43.2-28.8 64-40h1.6c22.4-11.2 46.4-24 70.4-33.6 28.8-12.8 57.6-22.4 80-30.4 16-4.8 32-9.6 46.4-14.4l17.6-4.8c6.4-1.6 12.8-3.2 19.2-4.8l6.4-1.6c0 0 1.6 0 3.2 0s3.2 0 4.8 1.6c1.6 1.6 3.2 3.2 3.2 6.4s1.6 4.8 1.6 8l3.2 9.6-4.8-4.8c-8 1.6-14.4 4.8-22.4 6.4-16 4.8-33.6 9.6-49.6 14.4-24 8-49.6 16-72 25.6-27.2 9.6-56 22.4-86.4 38.4-25.6 14.4-46.4 25.6-64 38.4s-32 24-43.2 33.6c-9.6 8-20.8 17.6-30.4 28.8-12.8 14.4-24 27.2-32 38.4-16 20.8-27.2 43.2-35.2 65.6-4.8 12.8-8 24-8 36.8 0 24 0 49.6 0 73.6v16c4.8-8 11.2-16 19.2-25.6 16-19.2 35.2-36.8 52.8-49.6 16-11.2 33.6-25.6 54.4-36.8 27.2-16 57.6-32 94.4-46.4 38.4-16 73.6-27.2 108.8-36.8 22.4-6.4 44.8-11.2 67.2-17.6l22.4-4.8c4.8-1.6 8-1.6 12.8-3.2l11.2-1.6 3.2 17.6c0 1.6 1.6 4.8-1.6 8-1.6 3.2-6.4 4.8-6.4 4.8-19.2 4.8-40 9.6-59.2 12.8 0 0 0 0 0 0s0 1.6 0 1.6c0 11.2 0 22.4 0 33.6 0 4.8-3.2 8-8 8-3.2 0-8 0-11.2 0h-9.6v-36.8l-52.8 16v25.6h-28.8v-16c-30.4 11.2-57.6 22.4-83.2 35.2h32v137.6l9.6 3.2c12.8 3.2 24 8 36.8 11.2 22.4 8 44.8 17.6 70.4 28.8 20.8 9.6 43.2 20.8 65.6 35.2 22.4 12.8 40 27.2 56 40 17.6 14.4 30.4 28.8 41.6 43.2v-4.8c0-14.4 0-28.8 0-43.2 0-9.6-1.6-17.6-4.8-27.2-8-24-22.4-46.4-43.2-68.8-16-17.6-36.8-35.2-60.8-51.2s-48-28.8-73.6-38.4c-11.2-4.8-22.4-9.6-33.6-12.8-6.4-3.2-12.8-4.8-19.2-8-3.2-1.6-6.4-4.8-6.4-9.6 1.6-3.2 1.6-6.4 3.2-11.2l3.2-9.6 22.4 8c12.8 4.8 25.6 9.6 36.8 14.4 22.4 9.6 46.4 20.8 68.8 35.2 17.6 11.2 35.2 22.4 49.6 35.2 19.2 16 35.2 33.6 49.6 51.2 16 22.4 27.2 43.2 32 65.6 14.4 0 28.8 0 43.2 0h16c1.6 0 3.2 0 4.8 0 6.4 1.6 12.8 1.6 20.8-1.6 9.6-3.2 16-6.4 19.2-12.8 1.6-1.6 1.6-4.8 3.2-6.4l3.2-8 20.8 3.2 4.8 1.6 4.8 11.2z" />
<glyph unicode="&#xe910;" glyph-name="soluzione-pensionistiche" d="M678.4 248c-60.8 0-112 49.6-112 112 0 60.8 49.6 112 112 112s112-49.6 112-112c-1.6-62.4-51.2-112-112-112zM345.6 248c-60.8 0-112 49.6-112 112 0 60.8 49.6 112 112 112s112-49.6 112-112c0-62.4-49.6-112-112-112zM782.4 668.8c-16 1.6-30.4-3.2-41.6-14.4-11.2-9.6-17.6-25.6-17.6-40 0-6.4 4.8-9.6 9.6-9.6 6.4 0 9.6 4.8 9.6 9.6 0 9.6 4.8 19.2 11.2 25.6s16 9.6 25.6 8c17.6-1.6 30.4-17.6 30.4-35.2v-230.4c0-3.2-1.6-4.8-1.6-6.4-8 65.6-64 116.8-131.2 116.8-59.2 0-110.4-40-126.4-94.4-9.6 9.6-24 17.6-40 17.6s-28.8-6.4-40-17.6c-16 54.4-67.2 94.4-126.4 94.4-67.2 0-123.2-51.2-131.2-116.8-1.6 1.6-1.6 4.8-1.6 6.4v230.4c0 17.6 12.8 33.6 30.4 35.2 9.6 1.6 19.2-1.6 25.6-8s11.2-16 11.2-25.6c0-6.4 4.8-9.6 9.6-9.6 6.4 0 9.6 4.8 9.6 9.6 0 16-6.4 30.4-17.6 40s-27.2 16-41.6 14.4c-27.2-3.2-49.6-27.2-49.6-56v-230.4c0-14.4 9.6-27.2 22.4-30.4 4.8-68.8 62.4-123.2 131.2-123.2 72 0 132.8 59.2 132.8 132.8 0 19.2 16 33.6 33.6 33.6 19.2 0 33.6-14.4 33.6-33.6 0-72 59.2-132.8 132.8-132.8 70.4 0 126.4 54.4 131.2 123.2 12.8 4.8 22.4 16 22.4 30.4v230.4c3.2 28.8-19.2 52.8-46.4 56z" />
<glyph unicode="&#xe911;" glyph-name="spesa-sanitaria" d="M801.6 238.4c0-28.8-24-52.8-54.4-52.8h-470.4c-28.8 0-52.8 24-52.8 52.8v320c0 28.8 24 52.8 52.8 52.8h472c30.4 0 52.8-24 54.4-52.8v-320zM427.2 681.6c0 14.4 8 30.4 27.2 30.4h113.6c17.6 0 32-14.4 32-30.4v-41.6h-172.8v41.6zM625.6 640v41.6c0 32-27.2 59.2-60.8 59.2h-113.6c-32 0-54.4-25.6-54.4-59.2v-41.6h-121.6c-44.8 0-81.6-36.8-81.6-81.6v-320c0-44.8 36.8-81.6 81.6-81.6h472c44.8 0 81.6 36.8 81.6 81.6v320c0 44.8-36.8 81.6-81.6 81.6h-121.6zM604.8 422.4h-185.6v33.6h185.6c9.6 0 17.6 8 17.6 17.6s-8 17.6-17.6 17.6h-84.8v17.6c0 9.6-8 17.6-17.6 17.6s-17.6-8-17.6-17.6v-17.6h-84.8c-9.6 0-17.6-8-17.6-17.6v-67.2c0-9.6 8-17.6 17.6-17.6h185.6v-33.6h-182.4c-9.6 0-17.6-8-17.6-17.6s8-17.6 17.6-17.6h84.8v-17.6c0-9.6 8-17.6 17.6-17.6s17.6 8 17.6 17.6v17.6h84.8c9.6 0 17.6 8 17.6 17.6v67.2c-3.2 11.2-11.2 17.6-20.8 17.6z" />
<glyph unicode="&#xe912;" glyph-name="superamento-proprieta-auto" d="M438.4 318.4h52.8v27.2h-52.8zM872 345.4h-40v-27.2h40v-54.4c0-9.6-6.4-17.6-14.4-22.4l-38.4-14.4c0 1.6 0 3.2 0 3.2 0 1.6 0 3.2 0 3.2 0 1.6 0 3.2 0 3.2 0 1.6 0 3.2 0 3.2 0 1.6 0 3.2-1.6 3.2 0 1.6 0 3.2-1.6 3.2 0 1.6-1.6 1.6-1.6 3.2s-1.6 3.2-1.6 3.2c0 1.6-1.6 1.6-1.6 3.2s-1.6 1.6-1.6 3.2c0 1.6-1.6 1.6-1.6 3.2s-1.6 1.6-1.6 3.2c0 1.6-1.6 1.6-1.6 3.2s-1.6 1.6-1.6 3.2-1.6 1.6-3.2 3.2-1.6 1.6-3.2 3.2-1.6 1.6-3.2 3.2-1.6 1.6-3.2 3.2-1.6 1.6-3.2 1.6-1.6 1.6-3.2 1.6c-1.6 0-1.6 1.6-3.2 1.6s-1.6 1.6-3.2 1.6c-1.6 0-1.6 1.6-3.2 1.6s-1.6 1.6-3.2 1.6c-1.6 0-3.2 1.6-3.2 1.6-1.6 0-1.6 1.6-3.2 1.6s-3.2 0-4.8 1.6c-1.6 0-1.6 0-3.2 0s-3.2 0-4.8 0c-1.6 0-1.6 0-3.2 0-3.2 0-4.8 0-8 0-43.2 0-78.4-35.2-78.4-78.4h-105.6v131.2h144c3.2 0 6.4 1.6 9.6 3.2l33.6 33.6c14.4-6.4 28.8-14.4 41.6-22.4 1.6-1.6 3.2-1.6 4.8-1.6l80-11.2v-8zM792 215.8c-6.4-28.8-33.6-46.4-62.4-41.6-28.8 6.4-46.4 33.6-41.6 62.4 6.4 28.8 33.6 46.4 62.4 41.6 24-4.8 41.6-27.2 41.6-51.2 1.6-3.2 0-8 0-11.2zM556.8 436.6h8c52.8 0 105.6-9.6 155.2-28.8l-22.4-22.4h-139.2v51.2zM529.6 383.8h-184l3.2 1.6c56 30.4 118.4 48 182.4 51.2v-52.8zM529.6 227h-209.6c0 43.2-35.2 78.4-78.4 78.4s-78.4-35.2-78.4-78.4h-27.2v65.6c0 12.8 6.4 22.4 17.6 28.8 43.2 24 91.2 36.8 140.8 36.8h236.8v-131.2zM292.8 215.8c-6.4-28.8-33.6-46.4-62.4-41.6-28.8 6.4-46.4 33.6-41.6 62.4 6.4 28.8 33.6 46.4 62.4 41.6 24-4.8 41.6-27.2 41.6-51.2 1.6-3.2 0-8 0-11.2zM886.4 383.8l-89.6 12.8c-16 9.6-33.6 19.2-51.2 27.2-57.6 25.6-120 40-182.4 40h-16c-75.2 0-147.2-19.2-212.8-54.4l-44.8-24c-52.8 0-104-14.4-150.4-40-19.2-11.2-30.4-30.4-30.4-51.2v-78.4c0-8 6.4-12.8 12.8-12.8h44.8c14.4-41.6 59.2-62.4 100.8-48 22.4 8 40 25.6 48 48h350.4c14.4-41.6 59.2-62.4 100.8-48 22.4 8 40 25.6 48 48h4.8c1.6 0 3.2 0 4.8 1.6l43.2 17.6c19.2 8 32 25.6 32 46.4v105.6c-1.6 3.2-6.4 9.6-12.8 9.6zM880 615.8v76.8c-3.2 6.4-32 20.8-88 20.8s-84.8-14.4-86.4-20.8v-76.8c0-52.8 36.8-96 88-107.2 49.6 9.6 86.4 54.4 86.4 107.2zM795.2 483c0 0-1.6 0-1.6 0s-1.6 0-1.6 0c-30.4 4.8-59.2 22.4-78.4 44.8-20.8 24-32 54.4-32 86.4v76.8c0 9.6 6.4 25.6 38.4 35.2 20.8 6.4 46.4 9.6 75.2 9.6s54.4-3.2 75.2-9.6c32-9.6 38.4-25.6 38.4-35.2v0-76.8c0-32-11.2-62.4-32-86.4-22.4-22.4-51.2-38.4-81.6-44.8z" />
<glyph unicode="&#xe913;" glyph-name="sustainable-energy" d="M452.8 118.105l25.6 246.4c4.8-1.6 11.2-3.2 16-4.8 0 0 0 0 0 0 1.6 0 1.6 0 3.2 0 0 0 1.6 0 1.6 0 1.6 0 1.6 0 3.2 0s1.6 0 1.6 0 1.6 0 1.6 0 3.2 0 4.8 0c1.6 0 3.2 0 4.8 0 0 0 1.6 0 1.6 0 1.6 0 1.6 0 1.6 0 1.6 0 1.6 0 3.2 0 0 0 1.6 0 1.6 0 1.6 0 1.6 0 3.2 0 0 0 0 0 0 0 4.8 1.6 11.2 3.2 16 4.8l14.4-137.6h-59.2c-6.4 0-12.8-4.8-12.8-11.2s4.8-12.8 12.8-12.8h62.4l3.2-24h-40c-6.4 0-12.8-4.8-12.8-12.8 0-6.4 4.8-12.8 12.8-12.8h43.2l3.2-36.8h-116.8zM230.4 298.905c-6.4-3.2-14.4 0-17.6 6.4s-1.6 14.4 4.8 17.6l200 115.2c0-1.6 0-3.2 1.6-4.8 0 0 0 0 0-1.6s1.6-3.2 1.6-4.8c0 0 0 0 0 0 3.2-11.2 8-20.8 14.4-28.8l-204.8-99.2zM480 518.105l3.2 1.6c8 3.2 17.6 6.4 25.6 6.4v0c1.6 0 3.2 0 3.2 0 1.6 0 3.2 0 3.2 0v0c9.6 0 17.6-3.2 25.6-6.4l3.2-1.6c22.4-11.2 36.8-32 40-57.6v-3.2c0 0 0 0 0-1.6 0 0 0-1.6 0-1.6v0c0-19.2-8-38.4-22.4-51.2l-1.6-3.2c-1.6-1.6-4.8-4.8-8-6.4l-3.2-1.6c-8-4.8-16-8-25.6-9.6 0 0 0 0 0 0s-1.6 0-1.6 0c0 0-1.6 0-1.6 0s-1.6 0-1.6 0-1.6 0-1.6 0 0 0-1.6 0-1.6 0-3.2 0-1.6 0-3.2 0c0 0 0 0-1.6 0 0 0-1.6 0-1.6 0s-1.6 0-1.6 0c0 0-1.6 0-1.6 0s-1.6 0-1.6 0c0 0 0 0 0 0-9.6 1.6-17.6 4.8-25.6 9.6l-3.2 1.6c-3.2 1.6-4.8 3.2-8 6.4l-1.6 3.2c-14.4 12.8-22.4 32-22.4 51.2v0c0 0 0 0 0 0 0 1.6 0 1.6 0 1.6v3.2c1.6 27.2 17.6 48 40 59.2zM499.2 766.105c0 6.4 6.4 12.8 12.8 12.8s12.8-4.8 12.8-12.8l9.6-219.2c-3.2 0-6.4 1.6-9.6 1.6 0 0-1.6 0-1.6 0s-1.6 0-1.6 0-3.2 0-3.2 0c0 0 0 0-1.6 0s-3.2 0-4.8 0c-1.6 0-3.2 0-4.8 0 0 0 0 0-1.6 0s-3.2 0-3.2 0c0 0-1.6 0-1.6 0s-1.6 0-1.6 0c-3.2 0-6.4-1.6-9.6-1.6l9.6 219.2zM811.2 305.305c-3.2-6.4-11.2-8-17.6-6.4l-204.8 97.6c8 9.6 12.8 20.8 16 33.6 0 0 0 0 0 1.6s0 3.2 1.6 4.8c0 0 0 0 0 0l200-113.6c6.4-3.2 8-11.2 4.8-17.6zM860.8 118.105h-265.6l-27.2 259.2c1.6 1.6 3.2 1.6 4.8 3.2l211.2-102.4c17.6-8 40-1.6 48 16 9.6 17.6 3.2 40-14.4 49.6l-209.6 120c-3.2 32-22.4 59.2-49.6 73.6l-9.6 228.8c0 20.8-17.6 36.8-36.8 36.8s-36.8-16-36.8-35.2l-9.6-228.8c-27.2-14.4-46.4-41.6-49.6-73.6l-211.2-120c-17.6-9.6-24-32-14.4-49.6s30.4-24 48-16l211.2 100.8c1.6-1.6 3.2-1.6 4.8-3.2l-27.2-259.2h-264c-6.4 0-12.8-4.8-12.8-12.8 0-6.4 4.8-12.8 12.8-12.8h699.2c6.4 0 12.8 4.8 12.8 12.8-3.2 6.4-8 12.8-14.4 12.8zM512 478.4c12.8 0 24-11.2 24-24s-11.2-24-24-24c-12.8 0-24 11.2-24 24s11.2 24 24 24zM512 406.4c27.2 0 48 20.8 48 48s-20.8 48-48 48-48-20.8-48-48c0-27.2 20.8-48 48-48z" />
<glyph unicode="&#xe914;" glyph-name="sviluppo-citta-inteligenti" d="M563.2 384h27.2v25.6h-27.2zM563.2 329.6h27.2v27.2h-27.2zM563.2 276.8h27.2v27.2h-27.2zM563.2 224h27.2v25.6h-27.2zM563.2 116.8h27.2v27.2h-27.2zM563.2 169.6h27.2v27.2h-27.2zM350.4 384h25.6v25.6h-25.6zM350.4 329.6h25.6v27.2h-25.6zM350.4 276.8h25.6v27.2h-25.6zM350.4 224h25.6v25.6h-25.6zM350.4 116.8h25.6v27.2h-25.6zM350.4 169.6h25.6v27.2h-25.6zM296 384h27.2v25.6h-27.2zM296 329.6h27.2v27.2h-27.2zM296 276.8h27.2v27.2h-27.2zM296 224h27.2v25.6h-27.2zM296 116.8h27.2v27.2h-27.2zM296 169.6h27.2v27.2h-27.2zM403.2 384h27.2v25.6h-27.2zM403.2 329.6h27.2v27.2h-27.2zM403.2 276.8h27.2v27.2h-27.2zM403.2 224h27.2v25.6h-27.2zM403.2 116.8h27.2v27.2h-27.2zM403.2 169.6h27.2v27.2h-27.2zM243.2 449.6c0 8 8 19.2 16 20.8l224 67.2v-473.6h-240v385.6zM627.2 446.4c8-3.2 16-12.8 16-22.4v-360h-132.8v420.8l116.8-38.4zM683.2 64h-12.8v360c0 20.8-14.4 41.6-35.2 48l-124.8 41.6v43.2c0 4.8-1.6 8-4.8 11.2s-8 3.2-11.2 1.6l-241.6-72c-19.2-6.4-35.2-27.2-35.2-46.4v-387.2h-12.8c-8 0-12.8-6.4-12.8-12.8 0-8 6.4-12.8 12.8-12.8h480c8 0 12.8 6.4 12.8 12.8-1.6 6.4-6.4 12.8-14.4 12.8v0zM651.2 534.4c-8 0-12.8 6.4-12.8 12.8 0 65.6-54.4 120-120 120-8 0-12.8 6.4-12.8 12.8 0 8 6.4 12.8 12.8 12.8 81.6 0 147.2-65.6 147.2-147.2-1.6-4.8-6.4-11.2-14.4-11.2zM731.2 534.4c-8 0-12.8 6.4-12.8 12.8 0 110.4-89.6 200-200 200-8 0-12.8 6.4-12.8 12.8 0 8 6.4 12.8 12.8 12.8 60.8 0 116.8-24 160-65.6 43.2-43.2 67.2-99.2 67.2-160-1.6-6.4-6.4-12.8-14.4-12.8zM811.2 534.4c-8 0-12.8 6.4-12.8 12.8 0 155.2-126.4 280-280 280-8 0-12.8 6.4-12.8 12.8s6.4 12.8 12.8 12.8c41.6 0 81.6-8 120-24 36.8-16 68.8-36.8 97.6-65.6s49.6-60.8 65.6-97.6c16-38.4 24-78.4 24-120-1.6-4.8-6.4-11.2-14.4-11.2v0z" />
<glyph unicode="&#xe915;" glyph-name="timber-forestry" d="M736 563.2c-4.8 54.4-28.8 104-67.2 142.4-43.2 40-97.6 62.4-156.8 62.4s-116.8-24-158.4-65.6c-38.4-38.4-60.8-86.4-64-139.2-59.2-25.6-97.6-83.2-97.6-147.2 0-88 72-160 160-160 27.2 0 54.4 6.4 78.4 20.8 3.2 1.6 6.4 3.2 9.6 6.4 20.8-49.6 4.8-76.8-9.6-99.2-8-14.4-14.4-25.6-14.4-40 0-9.6 6.4-16 16-16h160c9.6 0 16 6.4 16 16 0 14.4-6.4 25.6-14.4 38.4-14.4 24-30.4 49.6-9.6 99.2 25.6-16 56-25.6 88-25.6 88 0 160 72 160 160 0 65.6-40 123.2-96 147.2v0zM454.4 160c1.6 1.6 1.6 4.8 3.2 6.4 16 27.2 40 67.2 8 137.6 6.4 6.4 11.2 11.2 16 17.6 9.6-1.6 20.8-1.6 30.4-1.6s20.8 0 30.4 1.6c4.8-6.4 9.6-12.8 16-19.2-32-70.4-8-110.4 8-137.6 1.6-1.6 3.2-4.8 3.2-6.4h-115.2zM672 288c-44.8 0-84.8 22.4-108.8 59.2 0 0 0 0 0 0s0 0 0 1.6c0 0 0 0 0 0s0 0 0 0 0 0 0 0 0 0 0 0c-1.6 1.6-4.8 3.2-8 4.8 0 0 0 0 0 0s-1.6 0-1.6 0c0 0 0 0 0 0s-1.6 0-1.6 0c0 0 0 0 0 0s-1.6 0-1.6 0c0 0 0 0 0 0s-1.6 0-1.6 0c0 0 0 0 0 0-22.4-3.2-44.8-4.8-65.6 0-6.4 3.2-16 0-20.8-6.4 0 0 0 0 0 0s0 0 0 0c-24-38.4-64-60.8-108.8-60.8-70.4 0-128 57.6-128 128 0 46.4 25.6 88 64 112 1.6-11.2 3.2-24 4.8-35.2 1.6-8 8-12.8 16-12.8 1.6 0 3.2 0 3.2 0 8 1.6 14.4 11.2 11.2 19.2-3.2 16-4.8 32-4.8 46.4 0 105.6 86.4 192 192 192 96 0 176-70.4 190.4-163.2-9.6 1.6-20.8 3.2-30.4 3.2-6.4 0-11.2 0-17.6-1.6-8-1.6-14.4-9.6-14.4-17.6 1.6-9.6 9.6-14.4 17.6-14.4 4.8 0 9.6 0 14.4 0 70.4 0 128-57.6 128-128s-57.6-126.4-128-126.4v0z" />
<glyph unicode="&#xe916;" glyph-name="home" d="M283.2 411.2c-3.2 0-6.4 1.6-8 3.2-4.8 4.8-4.8 12.8-1.6 17.6l211.2 233.6c6.4 8 16 11.2 25.6 11.2v0c9.6 0 19.2-4.8 25.6-11.2l212.8-233.6c4.8-4.8 4.8-12.8-1.6-17.6-4.8-4.8-12.8-4.8-17.6 1.6l-209.6 233.6c-1.6 1.6-4.8 3.2-8 3.2s-4.8-1.6-6.4-3.2l-212.8-235.2c-1.6-1.6-4.8-3.2-9.6-3.2v0zM643.2 219.2h-96c-6.4 0-12.8 4.8-12.8 12.8v83.2h-48v-83.2c0-6.4-4.8-12.8-12.8-12.8h-96c-19.2 0-35.2 16-35.2 35.2v193.6c0 6.4 4.8 11.2 12.8 11.2s12.8-4.8 12.8-11.2v-192c0-6.4 4.8-12.8 12.8-12.8h83.2v83.2c0 6.4 4.8 12.8 12.8 12.8h72c6.4 0 12.8-4.8 12.8-12.8v-83.2h83.2c6.4 0 12.8 4.8 12.8 12.8v192c0 6.4 4.8 11.2 12.8 11.2 6.4 0 12.8-4.8 12.8-11.2v-192c-3.2-20.8-19.2-36.8-40-36.8z" />
<glyph unicode="&#xe917;" glyph-name="chevron-bottom" d="M366.4 515.2c0 3.2 1.6 6.4 3.2 8 4.8 4.8 12.8 4.8 17.6 0l124.8-124.8 124.8 124.8c4.8 4.8 12.8 4.8 17.6 0s4.8-12.8 0-17.6l-134.4-134.4c-4.8-4.8-12.8-4.8-17.6 0l-134.4 134.4c0 3.2-1.6 6.4-1.6 9.6z" />
<glyph unicode="&#xe918;" glyph-name="chevron-left" d="M561.6 593.6c3.2 0 6.4-1.6 8-3.2 4.8-4.8 4.8-12.8 0-17.6l-124.8-124.8 124.8-124.8c4.8-4.8 4.8-12.8 0-17.6s-12.8-4.8-17.6 0l-134.4 134.4c-4.8 4.8-4.8 12.8 0 17.6l134.4 134.4c3.2 0 6.4 1.6 9.6 1.6z" />
<glyph unicode="&#xe919;" glyph-name="chevron-right" d="M492.8 302.4c-3.2 0-6.4 1.6-8 3.2-4.8 4.8-4.8 12.8 0 17.6l124.8 124.8-124.8 124.8c-4.8 4.8-4.8 12.8 0 17.6s12.8 4.8 17.6 0l134.4-134.4c4.8-4.8 4.8-12.8 0-17.6l-134.4-134.4c-3.2 0-6.4-1.6-9.6-1.6z" />
<glyph unicode="&#xe91a;" glyph-name="chevron-top" d="M657.6 380.8c0-3.2-1.6-6.4-3.2-8-4.8-4.8-12.8-4.8-17.6 0l-124.8 124.8-124.8-124.8c-4.8-4.8-12.8-4.8-17.6 0s-4.8 12.8 0 17.6l134.4 134.4c4.8 4.8 12.8 4.8 17.6 0l134.4-134.4c0-3.2 1.6-6.4 1.6-9.6z" />
<glyph unicode="&#xe91b;" glyph-name="close" d="M512 430.4l188.8-188.8c4.8-4.8 12.8-4.8 17.6 0s4.8 12.8 0 17.6l-188.8 188.8 188.8 188.8c4.8 4.8 4.8 12.8 0 17.6s-12.8 4.8-17.6 0l-188.8-188.8-188.8 188.8c-4.8 4.8-12.8 4.8-17.6 0s-4.8-12.8 0-17.6l188.8-188.8-180.8-180.8c-4.8-4.8-4.8-12.8 0-17.6s12.8-4.8 17.6 0l180.8 180.8z" />
<glyph unicode="&#xe91c;" glyph-name="bgf" d="M700.8 179.2h-168v83.2c20.8-11.2 43.2-16 67.2-16 12.8 0 25.6 1.6 36.8 8 57.6 24 80 110.4 80 113.6 1.6 6.4-1.6 14.4-6.4 17.6-3.2 1.6-72 49.6-131.2 25.6-19.2-8-35.2-22.4-46.4-40v78.4c80 9.6 139.2 78.4 134.4 158.4s-70.4 142.4-150.4 142.4c-80 0-145.6-62.4-150.4-142.4s54.4-150.4 134.4-158.4v-78.4c-11.2 17.6-27.2 30.4-46.4 40-59.2 25.6-128-22.4-131.2-25.6-6.4-3.2-8-11.2-6.4-17.6 0-3.2 22.4-88 80-113.6 11.2-4.8 24-8 36.8-8 22.4 0 46.4 6.4 67.2 16v-83.2h-176c-9.6 0-16-8-16-16v0c0-9.6 8-16 16-16h377.6c8 0 14.4 4.8 16 12.8 1.6 9.6-6.4 19.2-17.6 19.2zM592 379.2c32 12.8 70.4-4.8 88-16-8-24-27.2-65.6-57.6-78.4-32-12.8-70.4 4.8-88 16 9.6 24 28.8 65.6 57.6 78.4zM408 284.8c-30.4 12.8-49.6 54.4-57.6 78.4 17.6 9.6 57.6 28.8 88 16s49.6-54.4 57.6-78.4c-17.6-11.2-56-28.8-88-16zM398.4 598.4c0 48 28.8 89.6 72 108.8 43.2 17.6 94.4 8 128-25.6s43.2-84.8 25.6-128c-17.6-43.2-60.8-72-108.8-72-64 0-116.8 52.8-116.8 116.8zM569.6 612.8h-96v22.4h97.6c9.6 0 17.6 8 17.6 17.6s-8 17.6-17.6 17.6h-36.8v6.4c0 9.6-8 17.6-17.6 17.6s-17.6-8-17.6-17.6v-6.4h-36.8c-9.6 0-17.6-8-17.6-17.6v-56c0-9.6 8-17.6 17.6-17.6h102.4v-20.8h-100.8c-9.6 0-17.6-8-17.6-17.6s8-17.6 17.6-17.6h36.8v-4.8c0-9.6 8-17.6 17.6-17.6s17.6 8 17.6 17.6v4.8h36.8c9.6 0 17.6 8 17.6 17.6v56c-3.2 9.6-11.2 16-20.8 16z" />
<glyph unicode="&#xe91d;" glyph-name="bgf-world-financials" d="M723.336 275.009c42.703 47.932 68.848 111.551 68.848 180.398 0 72.334-27.888 137.695-74.077 186.499v0c0 0 0 0 0 0-47.932 50.546-114.165 82.791-189.113 85.406v0h-5.229c-1.743 0-2.614 0-4.357 0s-2.614 0-4.357 0h-5.229c-74.077-2.614-141.181-34.86-189.113-85.406 0 0 0 0 0 0s0 0 0 0c-46.189-48.803-74.077-114.165-74.077-186.499 0-68.848 26.145-132.466 68.848-180.398 0 0 0 0 0 0s0 0 0.871-0.871c47.932-54.032 116.78-88.020 193.471-90.635v0h5.229c1.743 0 2.614 0 4.357 0s2.614 0 4.357 0h5.229c76.691 2.614 145.539 37.474 194.342 91.506 0 0 0 0 0 0s0 0 0 0zM266.676 445.821h112.422c0.871-40.089 8.715-78.434 22.659-115.037-27.016-9.586-52.289-22.659-75.82-39.217-35.731 42.703-57.518 96.735-59.261 154.254zM331.166 624.477c23.53-14.815 47.932-27.016 74.077-36.603-15.687-38.346-24.402-80.177-26.145-122.88h-112.422c1.743 61.004 26.145 116.78 64.49 159.483zM773.011 464.994h-112.422c-0.871 42.703-9.586 84.534-26.145 122.88 26.145 8.715 50.546 20.916 74.077 36.603 38.346-42.703 62.747-98.478 64.49-159.483zM510.693 587.874c-27.016 0.871-54.032 5.229-79.306 12.201 19.173 39.217 46.189 74.077 79.306 103.707v-115.908zM510.693 568.701v-103.707h-112.422c0.871 40.96 9.586 80.177 25.273 116.78 27.888-7.843 56.647-12.201 87.149-13.072zM528.994 568.701c29.631 0.871 59.261 5.229 87.149 13.072 15.687-36.603 23.53-76.691 25.273-116.78h-112.422v103.707zM528.994 587.874v115.037c33.988-29.631 60.133-64.49 79.306-103.707-25.273-6.972-52.289-11.329-79.306-11.329zM626.601 605.304c-18.301 37.474-42.703 72.334-74.077 101.964 54.904-6.972 104.579-32.245 142.924-68.848-21.787-13.944-44.446-25.273-68.848-33.117zM412.214 605.304c-23.53 7.843-47.060 19.173-68.848 33.117 38.346 36.603 88.020 61.876 142.924 68.848-30.502-29.631-55.775-64.49-74.077-101.964zM398.271 445.821h112.422v-94.121c-31.374-0.871-61.876-6.1-90.635-14.815-13.944 34.86-20.916 71.462-21.787 108.936zM510.693 333.399v-125.494c-35.731 31.374-64.49 69.719-83.663 111.551 27.016 8.715 54.904 13.072 83.663 13.944zM528.994 207.905v125.494c28.759-0.871 56.647-5.229 83.663-13.072-19.173-42.703-47.060-81.049-83.663-112.422zM528.994 351.7v94.121h112.422c-0.871-37.474-8.715-74.077-21.787-108.936-28.759 9.586-59.261 13.944-90.635 14.815zM660.589 445.821h112.422c-1.743-58.39-24.402-111.551-59.261-153.382-23.53 16.558-49.675 28.759-75.82 39.217 13.944 35.731 21.787 74.948 22.659 114.165zM338.138 278.495c21.787 14.815 46.189 27.016 70.591 35.731 18.301-40.96 44.446-78.434 77.563-109.808-57.518 7.843-108.936 34.86-148.153 74.077zM552.524 204.419c33.117 31.374 59.261 68.848 77.563 109.808 24.402-8.715 47.932-20.916 70.591-35.731-38.346-39.217-89.763-66.233-148.153-74.077zM823.557 453.665c5.229 0 8.715 3.486 8.715 8.715v26.145c0 5.229-3.486 8.715-8.715 8.715s-8.715-3.486-8.715-8.715v-26.145c0-5.229 4.357-8.715 8.715-8.715zM858.417 532.099c-5.229 0-8.715-3.486-8.715-8.715v-61.004c0-5.229 3.486-8.715 8.715-8.715s8.715 3.486 8.715 8.715v61.004c0 4.357-3.486 8.715-8.715 8.715zM893.277 514.669c-5.229 0-8.715-3.486-8.715-8.715v-43.574c0-5.229 3.486-8.715 8.715-8.715s8.715 3.486 8.715 8.715v43.574c0 4.357-3.486 8.715-8.715 8.715zM928.136 575.673c-5.229 0-8.715-3.486-8.715-8.715v-104.579c0-5.229 3.486-8.715 8.715-8.715s8.715 3.486 8.715 8.715v104.579c0 4.357-3.486 8.715-8.715 8.715zM962.996 540.814c-5.229 0-8.715-3.486-8.715-8.715v-69.719c0-5.229 3.486-8.715 8.715-8.715s8.715 3.486 8.715 8.715v69.719c0 4.357-3.486 8.715-8.715 8.715zM1009.185 455.408c0 5.229-3.486 8.715-8.715 8.715h-261.447c-5.229 0-8.715-3.486-8.715-8.715s3.486-8.715 8.715-8.715h261.447c4.357 0 8.715 4.357 8.715 8.715zM793.055 607.047h69.719c5.229 0 8.715 3.486 8.715 8.715s-3.486 8.715-8.715 8.715h-69.719c-5.229 0-8.715-3.486-8.715-8.715s4.357-8.715 8.715-8.715zM900.249 621.862c-1.743-1.743-2.614-3.486-2.614-6.1s0.871-4.357 2.614-6.1c1.743-1.743 4.357-2.614 6.1-2.614s4.357 0.871 6.1 2.614c1.743 1.743 2.614 3.486 2.614 6.1s-0.871 4.357-2.614 6.1-8.715 3.486-12.201 0zM880.204 650.621h26.145c5.229 0 8.715 3.486 8.715 8.715s-3.486 8.715-8.715 8.715h-26.145c-5.229 0-8.715-3.486-8.715-8.715s4.357-8.715 8.715-8.715zM793.055 650.621h17.43c5.229 0 8.715 3.486 8.715 8.715s-3.486 8.715-8.715 8.715h-17.43c-5.229 0-8.715-3.486-8.715-8.715s4.357-8.715 8.715-8.715zM845.345 650.621c2.614 0 4.357 0.871 6.1 2.614s2.614 3.486 2.614 6.1c0 2.614-0.871 4.357-2.614 6.1-3.486 3.486-8.715 3.486-12.201 0-0.871-1.743-2.614-3.486-2.614-6.1s0.871-4.357 2.614-6.1c1.743-1.743 4.357-2.614 6.1-2.614zM202.186 444.078l-85.406-84.534-13.944 13.944 88.020 87.149c1.743 1.743 4.357 2.614 6.972 2.614h61.876v-20.044h-57.518zM14.815 362.158c0-52.289 40.96-95.864 92.378-100.221v0h3.486c0.871 0 1.743 0 2.614 0s1.743 0 2.614 0c0.871 0 2.614 0 3.486 0 1.743 0 2.614 0 4.357 0 2.614 0 4.357 0.871 6.972 0.871 0.871 0 1.743 0 2.614 0.871 2.614 0.871 5.229 0.871 7.843 1.743 0.871 0 1.743 0 1.743 0.871 2.614 0.871 5.229 1.743 7.843 2.614 0.871 0 1.743 0.871 1.743 0.871 2.614 0.871 4.357 1.743 6.972 3.486 0.871 0 1.743 0.871 2.614 0.871 1.743 0.871 3.486 1.743 5.229 3.486 0.871 0.871 2.614 1.743 3.486 1.743 0.871 0.871 2.614 1.743 3.486 2.614 1.743 0.871 3.486 2.614 4.357 3.486 0 0 0 0 0 0 2.614 1.743 4.357 4.357 6.972 6.1 2.614 2.614 4.357 4.357 6.1 6.972 0 0 0 0 0 0 1.743 1.743 2.614 3.486 3.486 5.229 0.871 0.871 1.743 2.614 2.614 3.486s1.743 2.614 2.614 4.357c0.871 1.743 1.743 3.486 2.614 5.229 0.871 0.871 0.871 1.743 1.743 3.486s1.743 4.357 2.614 6.1c0 0.871 0.871 1.743 0.871 2.614 0.871 2.614 1.743 4.357 2.614 6.972 0 0.871 0.871 1.743 0.871 2.614 0.871 2.614 0.871 4.357 1.743 6.972 0 0.871 0 2.614 0.871 3.486 0 1.743 0.871 4.357 0.871 6.1s0 3.486 0 4.357c0 0.871 0 1.743 0 3.486 0 0.871 0 1.743 0 2.614s0 1.743 0 2.614v3.486c-2.614 26.145-14.815 49.675-33.117 66.233 0 0 0 0 0 0.871 0 0-0.871 0-0.871 0.871-17.43 15.687-40.089 24.402-65.362 24.402-55.775-1.743-101.093-47.060-101.093-101.964zM196.957 375.231h-65.362l43.574 43.574c11.329-12.201 19.173-27.016 21.787-43.574zM119.394 279.367v78.434h78.434c0-0.871 0-1.743 0-2.614s0-1.743 0-2.614-0.871-4.357-0.871-6.1c0-0.871 0-0.871 0-1.743-0.871-2.614-0.871-4.357-1.743-6.972 0 0 0 0 0 0-7.843-26.145-28.759-46.189-54.032-54.032 0 0 0 0 0 0-2.614-0.871-4.357-0.871-6.972-1.743-0.871 0-0.871 0-1.743 0-1.743 0-3.486-0.871-6.1-0.871-0.871 0-1.743 0-2.614 0-2.614-1.743-3.486-1.743-4.357-1.743zM32.245 362.158c0 45.317 37.474 82.791 82.791 82.791 17.43 0 33.988-5.229 47.060-14.815l-54.904-54.904h-4.357v-8.715c0 0 0 0 0 0v0-86.277c-40.089 6.1-70.591 40.089-70.591 81.92zM112.422 202.676h87.149c5.229 0 8.715 3.486 8.715 8.715s-3.486 8.715-8.715 8.715h-87.149c-5.229 0-8.715-3.486-8.715-8.715s4.357-8.715 8.715-8.715zM243.146 185.246h-130.723c-5.229 0-8.715-3.486-8.715-8.715s3.486-8.715 8.715-8.715h130.723c5.229 0 8.715 3.486 8.715 8.715s-3.486 8.715-8.715 8.715z" />
<glyph unicode="&#xe91e;" glyph-name="bgf-world-healthscience" d="M237.917 222.72c0-4.813-3.902-8.715-8.715-8.715s-8.715 3.902-8.715 8.715c0 4.813 3.902 8.715 8.715 8.715s8.715-3.902 8.715-8.715zM307.636 231.435c-28.759 0-52.289-23.53-52.289-52.289s23.53-52.289 52.289-52.289c28.759 0 52.289 23.53 52.289 52.289s-23.53 52.289-52.289 52.289zM307.636 144.286c-19.173 0-34.86 15.687-34.86 34.86s15.687 34.86 34.86 34.86c19.173 0 34.86-15.687 34.86-34.86s-15.687-34.86-34.86-34.86zM272.776 301.154c0 19.173-15.687 34.86-34.86 34.86s-34.86-15.687-34.86-34.86 15.687-34.86 34.86-34.86 34.86 15.687 34.86 34.86zM237.917 283.724c-9.586 0-17.43 7.843-17.43 17.43s7.843 17.43 17.43 17.43 17.43-7.843 17.43-17.43c0-9.586-7.843-17.43-17.43-17.43zM495.006 168.688c-9.586 2.614-20.044 3.486-29.631 0.871-3.486-0.871-6.1 0-8.715 1.743l-12.201 9.586c-3.486 2.614-4.357 7.843-2.614 12.201 0 0.871 0.871 1.743 0.871 2.614-5.229 1.743-11.329 3.486-16.558 5.229 0 0 0 0 0 0-5.229-11.329-1.743-25.273 7.843-33.117l12.201-9.586c6.1-5.229 14.815-6.972 22.659-5.229 6.972 1.743 14.815 0.871 21.787-0.871v0c18.301-5.229 33.117-21.787 34.86-40.96 1.743-14.815-3.486-28.759-14.815-39.217-10.458-10.458-25.273-14.815-40.089-13.072-20.044 2.614-37.474 19.173-40.089 39.217-1.743 8.715-0.871 16.558 2.614 24.402 2.614 6.972 2.614 15.687-1.743 22.659-3.486 6.972-9.586 12.201-18.301 13.944-7.843 1.743-17.43 0-24.402-6.1s-14.815-11.329-22.659-15.687c-12.201-6.972-18.301-20.916-15.687-35.731 0.871-2.614 0.871-5.229 0.871-7.843 0-12.201-5.229-24.402-14.815-32.245-9.586-8.715-20.916-12.201-33.988-11.329-18.301 1.743-33.988 15.687-38.346 33.988-0.871 4.357-0.871 8.715-0.871 13.072 0.871 14.815-6.1 27.888-19.173 33.117-4.357 1.743-8.715 3.486-12.201 6.1-3.486 1.743-6.972 2.614-10.458 2.614-6.1 0-12.201-2.614-16.558-6.972l-6.972-7.843c-4.357-5.229-6.972-12.201-5.229-19.173 0.871-6.1 0.871-13.072-0.871-19.173-4.357-13.944-15.687-24.402-29.631-27.016-13.072-2.614-25.273 0.871-34.86 9.586s-13.944 20.916-12.201 33.988c2.614 17.43 17.43 32.245 34.86 33.988 5.229 0.871 10.458 0 15.687-1.743 8.715-2.614 18.301-0.871 23.53 6.1 6.972 7.843 7.843 20.916 0.871 28.759-11.329 13.944-20.044 29.631-25.273 46.189-4.357 12.201-15.687 20.044-27.888 19.173l-13.944-0.871c-8.715-0.871-17.43-5.229-21.787-13.072-6.972-11.329-20.916-16.558-33.117-13.072-8.715 2.614-16.558 8.715-20.044 16.558-3.486 8.715-3.486 18.301 0.871 26.145 5.229 10.458 16.558 17.43 28.759 16.558 6.972-0.871 13.944-3.486 19.173-8.715 6.1-6.1 13.944-8.715 21.787-7.843l16.558 1.743c13.072 0.871 22.659 11.329 24.402 23.53 2.614 19.173 8.715 37.474 18.301 54.032 6.1 9.586 5.229 22.659-1.743 31.374l-3.486 4.357c-6.972 8.715-19.173 13.072-29.631 8.715-9.586-3.486-20.044-3.486-30.502-1.743-23.53 3.486-42.703 23.53-47.932 47.060-3.486 20.916 2.614 40.96 16.558 54.904 14.815 14.815 34.86 20.916 54.904 16.558 23.53-4.357 42.703-22.659 47.932-46.189 2.614-13.072 1.743-26.145-3.486-37.474-5.229-12.201-1.743-25.273 7.843-33.117s22.659-7.843 33.117-0.871c9.586 6.1 19.173 11.329 29.631 14.815 0.871 0 1.743 0.871 2.614 0.871-1.743 6.1-2.614 13.072-4.357 19.173-0.871-1.743-2.614-3.486-4.357-4.357-11.329-4.357-22.659-9.586-33.117-16.558-4.357-2.614-9.586-2.614-13.072 0-4.357 3.486-4.357 9.586-2.614 13.072 6.1 14.815 7.843 32.245 4.357 48.803-6.972 29.631-31.374 53.161-61.004 59.261-26.145 5.229-52.289-2.614-70.591-21.787-18.301-18.301-26.145-44.446-21.787-70.591 6.1-31.374 31.374-55.775 62.747-61.876 13.072-2.614 26.145-1.743 39.217 2.614 3.486 0.871 7.843 0 10.458-3.486l3.486-4.357c2.614-3.486 2.614-7.843 0.871-12.201-11.329-18.301-18.301-39.217-20.916-61.004-0.871-4.357-4.357-7.843-8.715-8.715l-16.558-1.743c-3.486 0-6.972 1.743-7.843 3.486-7.843 7.843-18.301 12.201-30.502 13.072-19.173 0.871-37.474-9.586-46.189-26.145-6.1-13.072-6.972-27.888-0.871-41.831 6.1-13.072 17.43-22.659 31.374-26.145 20.044-5.229 41.831 3.486 52.289 20.916 1.743 2.614 4.357 4.357 7.843 4.357l13.944 0.871c4.357 0.871 8.715-2.614 10.458-6.972 6.1-19.173 15.687-36.603 28.759-52.289 1.743-1.743 1.743-4.357 0-6.1s-3.486-1.743-5.229-0.871c-6.972 2.614-14.815 3.486-22.659 2.614-26.145-2.614-47.060-22.659-50.546-48.803-2.614-18.301 3.486-36.603 17.43-48.803 13.072-13.072 31.374-18.301 49.675-14.815 20.044 3.486 37.474 19.173 42.703 39.217 2.614 8.715 3.486 18.301 1.743 27.016 0 1.743 0 2.614 0.871 3.486l6.972 7.843c1.743 1.743 3.486 1.743 5.229 0.871 4.357-2.614 9.586-4.357 13.944-6.972 6.1-2.614 9.586-8.715 8.715-15.687-0.871-6.1 0-12.201 0.871-18.301 5.229-25.273 27.016-45.317 53.161-47.932 1.743 0 4.357 0 6.1 0 14.815 0 29.631 5.229 40.96 15.687 13.072 11.329 20.044 27.888 20.044 45.317 0 3.486 0 7.843-0.871 11.329-1.743 6.972 1.743 13.944 6.972 16.558 8.715 5.229 17.43 11.329 25.273 17.43 2.614 2.614 6.1 3.486 8.715 2.614 4.357-0.871 6.1-3.486 6.972-5.229 1.743-2.614 1.743-5.229 0.871-7.843-3.486-10.458-5.229-22.659-2.614-33.988 4.357-27.888 27.016-49.675 54.904-53.161 20.044-2.614 40.089 3.486 54.032 17.43 14.815 13.944 21.787 33.117 20.044 53.161-0.871 31.374-20.044 54.032-46.189 61.876zM723.336 275.009c42.703 47.932 68.848 111.551 68.848 180.398 0 72.334-27.888 137.695-74.077 186.499v0c0 0 0 0 0 0-47.932 50.546-114.165 82.791-189.113 85.406v0h-5.229c-1.743 0-2.614 0-4.357 0s-2.614 0-4.357 0h-5.229c-74.077-2.614-141.181-34.86-189.113-85.406 0 0 0 0 0 0s0 0 0 0c-46.189-48.803-74.077-114.165-74.077-186.499 0-68.848 26.145-132.466 68.848-180.398 0 0 0 0 0 0s0 0 0.871-0.871c47.932-54.032 116.78-88.020 193.471-90.635v0h5.229c1.743 0 2.614 0 4.357 0s2.614 0 4.357 0h5.229c76.691 2.614 145.539 37.474 194.342 91.506 0 0 0 0 0 0s0 0 0 0zM266.676 445.821h112.422c0.871-40.089 8.715-78.434 22.659-115.037-27.016-9.586-52.289-22.659-75.82-39.217-35.731 42.703-57.518 96.735-59.261 154.254zM331.166 624.477c23.53-14.815 47.932-27.016 74.077-36.603-15.687-38.346-24.402-80.177-26.145-122.88h-112.422c1.743 61.004 26.145 116.78 64.49 159.483zM773.011 464.994h-112.422c-0.871 42.703-9.586 84.534-26.145 122.88 26.145 8.715 50.546 20.916 74.077 36.603 38.346-42.703 62.747-98.478 64.49-159.483zM510.693 587.874c-27.016 0.871-54.032 5.229-79.306 12.201 19.173 39.217 46.189 74.077 79.306 103.707v-115.908zM510.693 568.701v-103.707h-112.422c0.871 40.96 9.586 80.177 25.273 116.78 27.888-7.843 56.647-12.201 87.149-13.072zM528.994 568.701c29.631 0.871 59.261 5.229 87.149 13.072 15.687-36.603 23.53-76.691 25.273-116.78h-112.422v103.707zM528.994 587.874v115.037c33.988-29.631 60.133-64.49 79.306-103.707-25.273-6.972-52.289-11.329-79.306-11.329zM626.601 605.304c-18.301 37.474-42.703 72.334-74.077 101.964 54.904-6.972 104.579-32.245 142.924-68.848-21.787-13.944-44.446-25.273-68.848-33.117zM412.214 605.304c-23.53 7.843-47.060 19.173-68.848 33.117 38.346 36.603 88.020 61.876 142.924 68.848-30.502-29.631-55.775-64.49-74.077-101.964zM398.271 445.821h112.422v-94.121c-31.374-0.871-61.876-6.1-90.635-14.815-13.944 34.86-20.916 71.462-21.787 108.936zM510.693 333.399v-125.494c-35.731 31.374-64.49 69.719-83.663 111.551 27.016 8.715 54.904 13.072 83.663 13.944zM528.994 207.905v125.494c28.759-0.871 56.647-5.229 83.663-13.072-19.173-42.703-47.060-81.049-83.663-112.422zM528.994 351.7v94.121h112.422c-0.871-37.474-8.715-74.077-21.787-108.936-28.759 9.586-59.261 13.944-90.635 14.815zM660.589 445.821h112.422c-1.743-58.39-24.402-111.551-59.261-153.382-23.53 16.558-49.675 28.759-75.82 39.217 13.944 35.731 21.787 74.948 22.659 114.165zM338.138 278.495c21.787 14.815 46.189 27.016 70.591 35.731 18.301-40.96 44.446-78.434 77.563-109.808-57.518 7.843-108.936 34.86-148.153 74.077zM552.524 204.419c33.117 31.374 59.261 68.848 77.563 109.808 24.402-8.715 47.932-20.916 70.591-35.731-38.346-39.217-89.763-66.233-148.153-74.077zM1010.056 559.115h-5.229l-25.273 158.611c-0.871 4.357-4.357 6.972-8.715 6.972 0 0 0 0 0 0-4.357 0-7.843-2.614-8.715-6.972l-29.631-143.796-14.815 24.402c-1.743 2.614-4.357 4.357-7.843 4.357s-6.1-1.743-7.843-4.357l-34.86-62.747-45.317 113.294c-0.871 3.486-4.357 5.229-7.843 5.229s-6.972-1.743-7.843-5.229l-40.96-89.763h0.871c-5.229 0-8.715-3.486-8.715-8.715s3.486-8.715 8.715-8.715h4.357c3.486 0 6.1 1.743 7.843 5.229l34.86 77.563 44.446-111.551c0.871-3.486 4.357-5.229 7.843-5.229 0 0 0 0 0.871 0 3.486 0 6.1 1.743 7.843 4.357l36.603 65.362 18.301-30.502c1.743-3.486 5.229-4.357 8.715-4.357 3.486 0.871 6.1 3.486 6.972 6.972l25.273 119.394 19.173-118.523c0.871-4.357 4.357-6.972 8.715-6.972h13.072c5.229 0 8.715 3.486 8.715 8.715s-4.357 6.972-9.586 6.972zM707.649 700.296l41.831-36.603c1.743-1.743 4.357-2.614 6.1-2.614 2.614 0 4.357 0.871 6.1 2.614l42.703 36.603c9.586 8.715 16.558 19.173 19.173 31.374 1.743 7.843 1.743 13.072 0.871 14.815-2.614 22.659-19.173 39.217-40.96 39.217-11.329 0-21.787-6.1-28.759-13.944-6.972 7.843-17.43 13.944-28.759 13.944-20.916 0-38.346-16.558-40.96-39.217 0-1.743-0.871-6.972 0.871-14.815 5.229-12.201 11.329-22.659 21.787-31.374zM704.163 743.871v0.871c0.871 11.329 9.586 23.53 23.53 23.53 9.586 0 17.43-8.715 20.916-16.558l7.843-18.301 7.843 18.301c3.486 7.843 11.329 16.558 20.916 16.558 13.944 0 21.787-12.201 23.53-24.402 0 0 0-2.614-0.871-8.715-1.743-8.715-6.972-15.687-13.944-21.787l-37.474-32.245-37.474 32.245c-6.972 6.1-12.201 13.944-13.944 21.787-1.743 6.1-0.871 8.715-0.871 8.715zM875.847 740.385h34.86c5.229 0 8.715 3.486 8.715 8.715s-3.486 8.715-8.715 8.715h-34.86c-5.229 0-8.715-3.486-8.715-8.715s3.486-8.715 8.715-8.715zM919.421 722.955h-69.719c-5.229 0-8.715-3.486-8.715-8.715s3.486-8.715 8.715-8.715h69.719c5.229 0 8.715 3.486 8.715 8.715s-3.486 8.715-8.715 8.715z" />
<glyph unicode="&#xe91f;" glyph-name="bgf-world-new-energy" d="M723.336 275.009c42.703 47.932 68.848 111.551 68.848 180.398 0 72.334-27.888 137.695-74.077 186.499v0c0 0 0 0 0 0-47.932 50.546-114.165 82.791-189.113 85.406v0h-5.229c-1.743 0-2.614 0-4.357 0s-2.614 0-4.357 0h-5.229c-74.077-2.614-141.181-34.86-189.113-85.406 0 0 0 0 0 0s0 0 0 0c-46.189-48.803-74.077-114.165-74.077-186.499 0-68.848 26.145-132.466 68.848-180.398 0 0 0 0 0 0s0 0 0.871-0.871c47.932-54.032 116.78-88.020 193.471-90.635v0h5.229c1.743 0 2.614 0 4.357 0s2.614 0 4.357 0h5.229c76.691 2.614 145.539 37.474 194.342 91.506 0 0 0 0 0 0s0 0 0 0zM266.676 445.821h112.422c0.871-40.089 8.715-78.434 22.659-115.037-27.016-9.586-52.289-22.659-75.82-39.217-35.731 42.703-57.518 96.735-59.261 154.254zM331.166 624.477c23.53-14.815 47.932-27.016 74.077-36.603-15.687-38.346-24.402-80.177-26.145-122.88h-112.422c1.743 61.004 26.145 116.78 64.49 159.483zM773.011 464.994h-112.422c-0.871 42.703-9.586 84.534-26.145 122.88 26.145 8.715 50.546 20.916 74.077 36.603 38.346-42.703 62.747-98.478 64.49-159.483zM510.693 587.874c-27.016 0.871-54.032 5.229-79.306 12.201 19.173 39.217 46.189 74.077 79.306 103.707v-115.908zM510.693 568.701v-103.707h-112.422c0.871 40.96 9.586 80.177 25.273 116.78 27.888-7.843 56.647-12.201 87.149-13.072zM528.994 568.701c29.631 0.871 59.261 5.229 87.149 13.072 15.687-36.603 23.53-76.691 25.273-116.78h-112.422v103.707zM528.994 587.874v115.037c33.988-29.631 60.133-64.49 79.306-103.707-25.273-6.972-52.289-11.329-79.306-11.329zM626.601 605.304c-18.301 37.474-42.703 72.334-74.077 101.964 54.904-6.972 104.579-32.245 142.924-68.848-21.787-13.944-44.446-25.273-68.848-33.117zM412.214 605.304c-23.53 7.843-47.060 19.173-68.848 33.117 38.346 36.603 88.020 61.876 142.924 68.848-30.502-29.631-55.775-64.49-74.077-101.964zM398.271 445.821h112.422v-94.121c-31.374-0.871-61.876-6.1-90.635-14.815-13.944 34.86-20.916 71.462-21.787 108.936zM510.693 333.399v-125.494c-35.731 31.374-64.49 69.719-83.663 111.551 27.016 8.715 54.904 13.072 83.663 13.944zM528.994 207.905v125.494c28.759-0.871 56.647-5.229 83.663-13.072-19.173-42.703-47.060-81.049-83.663-112.422zM528.994 351.7v94.121h112.422c-0.871-37.474-8.715-74.077-21.787-108.936-28.759 9.586-59.261 13.944-90.635 14.815zM660.589 445.821h112.422c-1.743-58.39-24.402-111.551-59.261-153.382-23.53 16.558-49.675 28.759-75.82 39.217 13.944 35.731 21.787 74.948 22.659 114.165zM338.138 278.495c21.787 14.815 46.189 27.016 70.591 35.731 18.301-40.96 44.446-78.434 77.563-109.808-57.518 7.843-108.936 34.86-148.153 74.077zM552.524 204.419c33.117 31.374 59.261 68.848 77.563 109.808 24.402-8.715 47.932-20.916 70.591-35.731-38.346-39.217-89.763-66.233-148.153-74.077zM1002.213 462.38h-27.888c0 11.329-9.586 20.916-20.916 20.916h-6.972v97.607c2.614 0.871 4.357 1.743 6.1 3.486l25.273-14.815c3.486-1.743 7.843-0.871 9.586 2.614s0.871 7.843-2.614 9.586l-25.273 14.815c1.743 9.586-3.486 20.044-13.072 23.53v28.759c0 3.486-3.486 6.972-6.972 6.972s-6.972-3.486-6.972-6.972v-28.759c-9.586-3.486-15.687-13.072-13.072-23.53l-25.273-14.815c-3.486-1.743-4.357-6.1-2.614-9.586s6.1-4.357 9.586-2.614l25.273 14.815c1.743-1.743 4.357-2.614 6.1-3.486v-97.607h-6.972c-11.329 0-20.916-9.586-20.916-20.916h-148.153v-13.944h244.017c3.486 0 6.972 3.486 6.972 6.972 1.743 4.357-1.743 6.972-5.229 6.972zM932.494 600.075c0 3.486 3.486 6.972 6.972 6.972s6.972-3.486 6.972-6.972c0-3.486-3.486-6.972-6.972-6.972s-6.972 3.486-6.972 6.972zM919.421 462.38c0 3.486 3.486 6.972 6.972 6.972h27.888c3.486 0 6.972-3.486 6.972-6.972h-41.831zM903.734 462.38h-27.888c0 11.329-9.586 20.916-20.916 20.916h-6.972v169.94c2.614 0.871 4.357 1.743 6.1 3.486l25.273-14.815c3.486-1.743 7.843-0.871 9.586 2.614s0.871 7.843-2.614 9.586l-25.273 14.815c1.743 9.586-3.486 20.044-13.072 23.53v28.759c0 3.486-3.486 6.972-6.972 6.972s-6.972-3.486-6.972-6.972v-28.759c-9.586-3.486-15.687-13.072-13.072-23.53l-25.273-14.815c-3.486-1.743-4.357-6.1-2.614-9.586s6.1-4.357 9.586-2.614l25.273 14.815c1.743-1.743 4.357-2.614 6.1-3.486v-169.94h-6.1c-11.329 0-20.916-9.586-20.916-20.916h-148.153v-13.944h244.017c3.486 0 6.972 3.486 6.972 6.972 0.871 4.357-2.614 6.972-6.1 6.972zM834.887 672.409c0 3.486 3.486 6.972 6.972 6.972s6.972-3.486 6.972-6.972c0-3.486-3.486-6.972-6.972-6.972s-6.972 3.486-6.972 6.972zM820.943 462.38c0 3.486 3.486 6.972 6.972 6.972h27.888c3.486 0 6.972-3.486 6.972-6.972h-41.831zM94.992 455.408c0-3.486 3.486-6.972 6.972-6.972h165.583v13.944h-165.583c-3.486 0-6.972-2.614-6.972-6.972zM39.217 255.837v-21.787c0-11.329 8.715-20.044 20.044-20.044h7.843v-59.261c0-9.586 7.843-17.43 17.43-17.43s17.43 7.843 17.43 17.43v59.261h13.944v-34.86h34.86v34.86h13.944v-59.261c0-9.586 7.843-17.43 17.43-17.43s17.43 7.843 17.43 17.43v59.261h7.843c11.329 0 20.044 8.715 20.044 20.044v75.82c0 24.402-19.173 43.574-43.574 43.574h-26.145v27.888h-13.072c2.614 7.843 10.458 13.944 20.044 13.944 23.53 0 41.831 18.301 41.831 41.831v16.558c0 3.486-3.486 6.972-6.972 6.972s-6.972-3.486-6.972-6.972v-16.558c0-15.687-12.201-27.888-27.888-27.888-16.558 0-30.502-12.201-33.988-27.888h-21.787v-27.888h-26.145c-24.402 0-43.574-19.173-43.574-43.574v-54.032c0 0 0 0 0 0s0 0 0 0zM88.020 154.744c0-1.743-1.743-3.486-3.486-3.486s-3.486 1.743-3.486 3.486v73.205h6.972v-73.205zM136.824 193.089h-6.972v34.86h6.972v-34.86zM185.627 154.744c0-1.743-1.743-3.486-3.486-3.486s-3.486 1.743-3.486 3.486v73.205h6.972v-73.205zM207.414 227.949h-7.843v13.944h-34.86v-13.944h-13.944v13.944h-34.86v-13.944h-13.944v13.944h-34.86v-13.944h-7.843c-3.486 0-6.1 2.614-6.1 6.1v14.815h160.354v-14.815c0-3.486-2.614-6.1-6.1-6.1zM122.88 367.387h20.916v-13.944h-20.916v13.944zM82.791 339.5h101.093c16.558 0 29.631-13.072 29.631-29.631v-47.060h-160.354v47.060c0 16.558 13.072 29.631 29.631 29.631z" />
<glyph unicode="&#xe920;" glyph-name="bgf-world-tecnology" d="M728.565 271.523c42.703 47.932 68.848 111.551 68.848 180.398 0 72.334-27.888 137.695-74.077 186.499v0 0c-47.932 51.418-115.037 83.663-189.113 86.277v0h-5.229c-1.743 0-2.614 0-4.357 0s-2.614 0-4.357 0h-5.229c-74.077-2.614-141.181-34.86-189.113-85.406v0 0c-45.317-49.675-73.205-115.037-73.205-186.499 0-68.848 26.145-132.466 68.848-180.398v0c0 0 0 0 0.871-0.871 47.932-54.032 116.78-88.020 193.471-90.635v0h5.229c1.743 0 2.614 0 4.357 0s2.614 0 4.357 0h5.229c75.82 1.743 144.667 36.603 193.471 90.635-0.871 0 0 0 0 0v0zM271.905 443.207h112.422c0.871-40.089 8.715-78.434 22.659-115.037-27.016-9.586-52.289-22.659-75.82-39.217-35.731 42.703-57.518 95.864-59.261 154.254zM335.523 620.991c23.53-14.815 47.932-27.016 74.077-36.603-15.687-38.346-24.402-80.177-26.145-122.88h-111.551c1.743 61.004 26.145 116.78 63.619 159.483zM778.24 461.508h-112.422c-0.871 42.703-9.586 84.534-26.145 122.88 26.145 8.715 50.546 20.916 74.077 36.603 38.346-42.703 61.876-98.478 64.49-159.483zM515.050 584.388c-27.016 0.871-53.161 4.357-79.306 12.201 19.173 39.217 46.189 74.077 79.306 103.707v-115.908zM515.050 565.215v-103.707h-112.422c0.871 40.96 9.586 80.177 25.273 116.78 28.759-7.843 57.518-12.201 87.149-13.072zM534.223 565.215c29.631 0.871 59.261 5.229 87.149 13.072 15.687-36.603 23.53-76.691 25.273-116.78h-112.422v103.707zM534.223 584.388v115.908c33.988-29.631 60.133-64.49 79.306-103.707-25.273-7.843-52.289-11.329-79.306-12.201zM631.83 601.818c-18.301 37.474-42.703 72.334-74.077 101.964 54.904-6.972 104.579-32.245 142.924-68.848-21.787-13.944-44.446-24.402-68.848-33.117zM417.443 601.818c-23.53 7.843-47.060 19.173-68.848 33.117 38.346 36.603 88.020 61.876 142.924 68.848-30.502-29.631-55.775-63.619-74.077-101.964zM402.628 443.207h112.422v-94.121c-31.374-0.871-61.876-6.1-90.635-14.815-13.072 33.988-20.044 70.591-21.787 108.936zM515.050 329.913v-125.494c-35.731 31.374-64.49 69.719-83.663 111.551 27.888 8.715 55.775 13.072 83.663 13.944zM534.223 205.29v124.623c28.759-0.871 56.647-5.229 83.663-13.072-19.173-42.703-47.932-80.177-83.663-111.551zM534.223 349.086v94.121h112.422c-0.871-37.474-8.715-74.077-21.787-108.936-28.759 8.715-59.261 13.944-90.635 14.815zM665.818 443.207h112.422c-2.614-58.39-24.402-111.551-59.261-153.382-23.53 16.558-49.675 28.759-75.82 39.217 13.072 35.731 20.916 74.077 22.659 114.165zM343.367 275.009c21.787 14.815 46.189 27.016 70.591 35.731 18.301-40.96 44.446-78.434 77.563-109.808-57.518 7.843-108.936 34.86-148.153 74.077zM557.753 200.933c33.117 31.374 59.261 68.848 77.563 109.808 24.402-8.715 47.932-20.916 70.591-35.731-38.346-39.217-90.635-66.233-148.153-74.077zM455.789 196.575v-27.016l-49.675-49.675c-6.1 3.486-13.072 5.229-20.044 6.1-21.787 0-40.089-18.301-40.089-40.089s18.301-40.089 40.089-40.089 40.089 18.301 40.089 40.089c0 6.972-1.743 13.944-6.1 20.044l53.161 53.161c1.743 1.743 2.614 4.357 2.614 6.972v31.374h-20.044v-0.871zM404.371 77.181c-3.486-7.843-10.458-12.201-18.301-12.201-8.715 0-17.43 6.1-19.173 14.815-2.614 8.715 1.743 18.301 9.586 22.659s17.43 3.486 24.402-3.486c4.357-5.229 6.1-13.944 3.486-21.787zM922.036 442.335l20.044-20.044c-3.486-6.1-5.229-13.072-6.1-20.044 0-21.787 18.301-40.089 40.089-40.089s40.089 18.301 40.089 40.089-18.301 40.089-40.089 40.089c-6.972 0-13.944-1.743-20.044-6.1l-22.659 22.659c-1.743 1.743-4.357 2.614-6.972 2.614h-140.31v-20.044h135.952v0.871zM962.124 417.062c6.1 6.1 16.558 7.843 24.402 3.486s11.329-13.944 9.586-22.659c-2.614-8.715-10.458-14.815-19.173-14.815-7.843 0-15.687 5.229-18.301 12.201-4.357 6.972-2.614 15.687 3.486 21.787zM885.433 522.512h-99.35v-20.044h99.35c5.229-19.173 23.53-32.245 43.574-29.631s34.86 19.173 34.86 40.089-14.815 37.474-34.86 40.089c-20.044 1.743-39.217-10.458-43.574-30.502zM903.734 512.926c0 11.329 8.715 20.044 20.044 20.044s20.044-8.715 20.044-20.044-8.715-20.044-20.044-20.044-20.044 8.715-20.044 20.044zM911.578 622.734c0 21.787-18.301 40.089-40.089 40.089s-40.089-18.301-40.089-40.089c0-6.972 1.743-13.944 6.1-20.044l-20.044-20.044h-57.518v-20.044h61.876c2.614 0 5.229 0.871 6.972 2.614l22.659 22.659c6.1-3.486 13.072-5.229 20.044-6.1 21.787 0.871 40.089 19.173 40.089 40.96zM891.534 622.734c0-7.843-5.229-15.687-12.201-18.301-7.843-3.486-15.687-1.743-21.787 4.357s-7.843 16.558-3.486 24.402c4.357 7.843 13.944 11.329 22.659 9.586 8.715-2.614 14.815-10.458 14.815-20.044zM535.966 37.964v158.611h-20.044v-158.611c-19.173-5.229-32.245-23.53-29.631-43.574s19.173-34.86 40.089-34.86c20.044 0 37.474 14.815 40.089 34.86 1.743 20.916-11.329 40.089-30.502 43.574zM525.508-19.554c-11.329 0-20.044 8.715-20.044 20.044s8.715 20.044 20.044 20.044 20.044-8.715 20.044-20.044-8.715-20.044-20.044-20.044zM665.818 125.113c-6.972 0-13.944-1.743-20.044-6.1l-49.675 49.675v27.016h-20.044v-31.374c0-2.614 0.871-5.229 2.614-6.972l53.161-53.161c-3.486-6.1-5.229-13.072-6.1-20.044 0-21.787 18.301-40.089 40.089-40.089s40.089 18.301 40.089 40.089c0 23.53-17.43 40.96-40.089 40.96zM671.047 65.852c-8.715-2.614-18.301 1.743-22.659 9.586s-3.486 17.43 3.486 24.402c6.1 6.1 13.944 7.843 21.787 4.357s12.201-10.458 12.201-18.301c0-9.586-6.1-17.43-14.815-20.044zM290.206 319.455v20.044h-191.728c-2.614 0-5.229-0.871-6.972-2.614l-22.659-22.659c-6.1 3.486-13.072 5.229-20.044 6.1-21.787 0-40.089-18.301-40.089-40.089s18.301-40.089 40.089-40.089 40.089 18.301 40.089 40.089c0 6.972-1.743 13.944-6.1 20.044l20.044 20.044 187.37-0.871zM66.233 271.523c-3.486-7.843-10.458-12.201-18.301-12.201-8.715 0-17.43 6.1-19.173 14.815-2.614 8.715 1.743 18.301 9.586 22.659s17.43 3.486 24.402-3.486c5.229-5.229 6.972-13.944 3.486-21.787zM94.992 429.263c-20.044-2.614-34.86-19.173-34.86-40.089s14.815-37.474 34.86-40.089 39.217 10.458 43.574 29.631h131.595v20.044h-131.595c-4.357 20.044-23.53 33.117-43.574 30.502zM100.221 370.002c-11.329 0-20.044 8.715-20.044 20.044s8.715 20.044 20.044 20.044 20.044-8.715 20.044-20.044-8.715-20.044-20.044-20.044zM152.511 459.765c6.972 0 13.944 1.743 20.044 6.1l22.659-22.659c1.743-1.743 4.357-2.614 6.972-2.614h61.876v20.044h-57.518l-20.044 20.044c3.486 6.1 5.229 13.072 6.1 20.044 0 21.787-18.301 40.089-40.089 40.089s-40.089-18.301-40.089-40.089c0-22.659 18.301-40.96 40.089-40.96zM147.282 519.026c8.715 2.614 18.301-1.743 22.659-9.586s3.486-17.43-3.486-24.402c-6.1-6.1-13.944-7.843-21.787-4.357s-12.201 10.458-12.201 18.301c0 9.586 6.1 18.301 14.815 20.044z" />
</font></defs></svg>