<?xml version="1.0" encoding="UTF-8"?>
<svg width="25px" height="24px" viewBox="0 0 25 24" version="1.1" xmlns="http://www.w3.org/2000/svg" xmlns:xlink="http://www.w3.org/1999/xlink">
    <!-- Generator: Sketch 49.1 (51147) - http://www.bohemiancoding.com/sketch -->
    <title>icon-sales-activity-1</title>
    <desc>Created with Sketch.</desc>
    <defs>
        <polygon id="path-1" points="0.377857143 0.6006 6.67738095 0.6006 6.67738095 1.8006 0.377857143 1.8006"></polygon>
    </defs>
    <g id="Symbols" stroke="none" stroke-width="1" fill="none" fill-rule="evenodd">
        <g id="Header_menu-02-/-home" transform="translate(-94.000000, -7.000000)">
            <g id="Group" transform="translate(65.000000, 7.000000)">
                <g id="icon-new-user" transform="translate(29.000000, 0.000000)">
                    <g id="Page-1">
                        <path d="M11.8547619,6.49332 C10.972619,6.49332 10.2547619,7.21692 10.2547619,8.10612 C10.2547619,8.99412 10.972619,9.71892 11.8547619,9.71892 C12.7369048,9.71892 13.4547619,8.99412 13.4547619,8.10612 C13.4547619,7.21692 12.7369048,6.49332 11.8547619,6.49332 M11.8547619,10.91892 C10.3166667,10.91892 9.06428571,9.65652 9.06428571,8.10612 C9.06428571,6.55452 10.3166667,5.29332 11.8547619,5.29332 C13.3928571,5.29332 14.6452381,6.55452 14.6452381,8.10612 C14.6452381,9.65652 13.3928571,10.91892 11.8547619,10.91892" id="Fill-1" fill="#87888A"></path>
                        <path d="M16.1295238,18.60588 C15.8009524,18.60588 15.5342857,18.33708 15.5342857,18.00588 C15.5342857,16.61988 15.1759524,13.39668 11.8545238,13.39668 C8.53309524,13.39668 8.1747619,16.61988 8.1747619,18.00588 C8.1747619,18.33708 7.90928571,18.60588 7.57952381,18.60588 C7.25095238,18.60588 6.98428571,18.33708 6.98428571,18.00588 C6.98428571,15.19788 8.26404762,12.19668 11.8545238,12.19668 C15.4461905,12.19668 16.7247619,15.19788 16.7247619,18.00588 C16.7247619,18.33708 16.4580952,18.60588 16.1295238,18.60588" id="Fill-3" fill="#87888A"></path>
                        <path d="M11.8547619,23.8992 C5.31785714,23.8992 0,18.5388 0,11.9496 C0,5.3604 5.31785714,0 11.8547619,0 C14.5869048,0 17.2535714,0.9612 19.3666667,2.706 C19.6190476,2.916 19.6571429,3.294 19.4488095,3.5496 C19.2392857,3.8064 18.8666667,3.8436 18.6107143,3.6336 C16.7119048,2.064 14.3119048,1.2 11.8547619,1.2 C5.975,1.2 1.19047619,6.0228 1.19047619,11.9496 C1.19047619,17.8764 5.975,22.6992 11.8547619,22.6992 C17.7345238,22.6992 22.5190476,17.8764 22.5190476,11.9496 C22.5190476,11.34 22.4607143,10.7148 22.3416667,10.0404 C22.2833333,9.7152 22.497619,9.4032 22.822619,9.3444 C23.1404762,9.2832 23.4559524,9.5028 23.5130952,9.8292 C23.6452381,10.5744 23.7095238,11.268 23.7095238,11.9496 C23.7095238,18.5388 18.3916667,23.8992 11.8547619,23.8992" id="Fill-5" fill="#87888A"></path>
                        <path d="M21.3855952,9.0744 C21.0570238,9.0744 20.7903571,8.8056 20.7903571,8.4744 L20.7903571,3.324 C20.7903571,2.9928 21.0570238,2.724 21.3855952,2.724 C21.7141667,2.724 21.9808333,2.9928 21.9808333,3.324 L21.9808333,8.4744 C21.9808333,8.8056 21.7141667,9.0744 21.3855952,9.0744" id="Fill-7" fill="#F48135"></path>
                        <g id="Group-11" transform="translate(17.857143, 4.699200)">
                            <mask id="mask-2" fill="white">
                                <use xlink:href="#path-1"></use>
                            </mask>
                            <g id="Clip-10"></g>
                            <path d="M6.08261905,1.8006 L0.973095238,1.8006 C0.64452381,1.8006 0.377857143,1.5318 0.377857143,1.2006 C0.377857143,0.8694 0.64452381,0.6006 0.973095238,0.6006 L6.08261905,0.6006 C6.41119048,0.6006 6.67785714,0.8694 6.67785714,1.2006 C6.67785714,1.5318 6.41119048,1.8006 6.08261905,1.8006" id="Fill-9" fill="#F48135" mask="url(#mask-2)"></path>
                        </g>
                    </g>
                </g>
            </g>
        </g>
    </g>
</svg>