<?xml version="1.0" encoding="UTF-8"?>
<svg width="24px" height="24px" viewBox="0 0 24 24" version="1.1" xmlns="http://www.w3.org/2000/svg" xmlns:xlink="http://www.w3.org/1999/xlink">
    <!-- Generator: Sketch 49.1 (51147) - http://www.bohemiancoding.com/sketch -->
    <title>icona-devices</title>
    <desc>Created with Sketch.</desc>
    <defs></defs>
    <g id="Symbols" stroke="none" stroke-width="1" fill="none" fill-rule="evenodd">
        <g id="Header_menu-02-/-home" transform="translate(-303.000000, -7.000000)">
            <g id="Group-8" transform="translate(281.000000, 5.000000)">
                <g id="Group-4" transform="translate(0.000000, 2.000000)">
                    <g id="icona-devices" transform="translate(22.000000, 0.000000)">
                        <g id="Page-1">
                            <path d="M9.74004,6.64044 C9.26124,6.64044 8.75244,6.98724 8.75244,7.62804 L8.75244,16.36164 C8.75244,16.84044 9.09804,17.34924 9.74004,17.34924 L14.30604,17.34924 C14.78484,17.34924 15.29364,17.00364 15.29364,16.36164 L15.29364,7.62804 C15.29364,7.14924 14.94684,6.64044 14.30604,6.64044 L9.74004,6.64044 Z M14.30604,18.54924 L9.74004,18.54924 C8.37084,18.54924 7.55244,17.43804 7.55244,16.36164 L7.55244,7.62804 C7.55244,6.25884 8.66484,5.44044 9.74004,5.44044 L14.30604,5.44044 C15.67524,5.44044 16.49364,6.55284 16.49364,7.62804 L16.49364,16.36164 C16.49364,17.73204 15.38124,18.54924 14.30604,18.54924 Z" id="Fill-1" fill="#F48135"></path>
                            <path d="M11.9238,15.96912 C11.4834,15.96912 11.1246,15.61152 11.1246,15.17112 C11.1246,14.73072 11.4834,14.37312 11.9238,14.37312 C12.3642,14.37312 12.7218,14.73072 12.7218,15.17112 C12.7218,15.61152 12.3642,15.96912 11.9238,15.96912" id="Fill-3" fill="#F48135"></path>
                            <path d="M21.11136,4.53924 C20.35656,4.53924 19.74216,5.15364 19.74216,5.90844 C19.74216,6.66324 20.35656,7.27764 21.11136,7.27764 C21.86616,7.27764 22.48056,6.66324 22.48056,5.90844 C22.48056,5.15364 21.86616,4.53924 21.11136,4.53924 M21.11136,8.47764 C19.69416,8.47764 18.54216,7.32444 18.54216,5.90844 C18.54216,4.49124 19.69416,3.33924 21.11136,3.33924 C22.52736,3.33924 23.68056,4.49124 23.68056,5.90844 C23.68056,7.32444 22.52736,8.47764 21.11136,8.47764" id="Fill-5" fill="#F48135"></path>
                            <path d="M0,12 C0,5.3832 5.3832,0 12,0 C14.2176,0 16.3764,0.594 18.2436,1.7184 C18.528,1.8888 18.6192,2.2572 18.4488,2.5416 C18.2772,2.8248 17.9064,2.9172 17.6244,2.7456 C15.9444,1.734 14.0004,1.2 12,1.2 C6.0456,1.2 1.2,6.0456 1.2,12 C1.2,18.0564 5.9436,22.8 12,22.8 C18.0564,22.8 22.8,18.0564 22.8,12 C22.8,11.5548 22.7496,11.1516 22.674,10.6824 C22.6212,10.3548 22.8432,10.0476 23.1696,9.9948 C23.5032,9.9384 23.8044,10.164 23.8584,10.4904 C23.9436,11.0172 24,11.4744 24,12 C24,18.7284 18.7284,24 12,24 C5.2716,24 0,18.7284 0,12 Z" id="Fill-7" fill="#87888A"></path>
                        </g>
                    </g>
                </g>
            </g>
        </g>
    </g>
</svg>