<?xml version="1.0" encoding="UTF-8"?>
<svg width="48px" height="48px" viewBox="0 0 48 48" version="1.1" xmlns="http://www.w3.org/2000/svg" xmlns:xlink="http://www.w3.org/1999/xlink">
    <!-- Generator: Sketch 51.1 (57501) - http://www.bohemiancoding.com/sketch -->
    <title>status/disable</title>
    <desc>Created with Sketch.</desc>
    <defs></defs>
    <g id="status/disable" stroke="none" stroke-width="1" fill="none" fill-rule="evenodd">
        <g id="Group-3">
            <circle id="Oval-6" fill="#DEDFE3" cx="24" cy="24" r="24"></circle>
            <g id="ico/attend" transform="translate(12.000000, 12.000000)" fill="#4D4D4D">
                <g transform="translate(2.000000, 0.000000)">
                    <path d="M5,13.1472672 L5,4.5 C5,3.39585763 5.89585763,2.5 7,2.5 C8.10484863,2.5 9,3.39556369 9,4.5 L9,10.5 L8,10.5 L8,4.5 C8,3.94774538 7.55246076,3.5 7,3.5 C6.44814237,3.5 6,3.94814237 6,4.5 L6,14.5 C6,14.9643346 5.42219654,15.1779036 5.1201989,14.825194 L2.51945882,11.7783591 C2.24056015,11.5403889 1.82551469,11.5561748 1.56798168,11.8131246 C1.32738508,12.0543052 1.29500192,12.4335517 1.53404149,12.7842187 C1.56789262,12.8549767 1.63243894,12.9886266 1.72398479,13.1761651 C1.87681957,13.4892585 2.04927668,13.8382654 2.23765395,14.2141721 C2.7757204,15.2878833 3.33322579,16.3614451 3.88030616,17.3623797 C4.09636725,17.7576836 4.30691567,18.1343887 4.51082468,18.4897958 C4.81355194,19.0174401 5.0989984,19.4935394 5.36395102,19.9107514 C6.19056255,21.2109987 7.62571597,22 9.165,22 L12.5,22 C14.9862185,22 17,19.9864968 17,17.5 L17,11 L18,11 L18,17.5 C18,20.5388124 15.5384724,23 12.5,23 L9.165,23 C7.2835026,23 5.53009218,22.0360312 4.51991932,20.4470446 C4.24615627,20.0159592 3.95317436,19.5272915 3.6434441,18.9874412 C3.43594831,18.6257825 3.22206159,18.2431046 3.00282221,17.8419857 C2.44940945,16.8294654 1.88663331,15.745754 1.34363041,14.6621921 C1.15363341,14.2830532 0.979644495,13.9309463 0.825336582,13.6148351 C0.732596813,13.4248508 0.666910987,13.2888415 0.674634733,13.2885096 C0.197442124,12.6130768 0.276070612,11.6922405 0.86084633,11.1060473 C1.48848085,10.4798296 2.49343505,10.441607 3.2238011,11.072806 L5,13.1472672 Z" id="Stroke-297" fill-rule="nonzero"></path>
                    <path d="M9,8.5 L8,8.5 L8,2.5 C8,1.39585763 8.89585763,0.5 10,0.5 C11.1048486,0.5 12,1.39556369 12,2.5 L12,8.5 L11,8.5 L11,2.5 C11,1.94774538 10.5524608,1.5 10,1.5 C9.44814237,1.5 9,1.94814237 9,2.5 L9,8.5 Z" id="Stroke-298" fill-rule="nonzero"></path>
                    <path d="M12,10.5 L11,10.5 L11,4.5 C11,3.39585763 11.8958576,2.5 13,2.5 C14.1048486,2.5 15,3.39556369 15,4.5 L15,10.5 L14,10.5 L14,4.5 C14,3.94774538 13.5524608,3.5 13,3.5 C12.4481424,3.5 12,3.94814237 12,4.5 L12,10.5 Z" id="Stroke-299" fill-rule="nonzero"></path>
                    <path d="M15,12 L14,12 L14,7.5 C14,6.39585763 14.8958576,5.5 16,5.5 C17.1048486,5.5 18,6.39556369 18,7.5 L18,13.5 L17,13.5 L17,7.5 C17,6.94774538 16.5524608,6.5 16,6.5 C15.4481424,6.5 15,6.94814237 15,7.5 L15,12 Z" id="Stroke-300" fill-rule="nonzero"></path>
                </g>
            </g>
        </g>
    </g>
</svg>