<?xml version="1.0" encoding="UTF-8"?>
<svg width="44px" height="41px" viewBox="0 0 44 41" version="1.1" xmlns="http://www.w3.org/2000/svg" xmlns:xlink="http://www.w3.org/1999/xlink">
    <!-- Generator: Sketch 51.1 (57501) - http://www.bohemiancoding.com/sketch -->
    <title>ico/basket-empty</title>
    <desc>Created with Sketch.</desc>
    <defs>
        <filter x="-3.4%" y="-29.2%" width="106.9%" height="166.7%" filterUnits="objectBoundingBox" id="filter-1">
            <feOffset dx="0" dy="2" in="SourceAlpha" result="shadowOffsetOuter1"></feOffset>
            <feGaussianBlur stdDeviation="5" in="shadowOffsetOuter1" result="shadowBlurOuter1"></feGaussianBlur>
            <feColorMatrix values="0 0 0 0 0   0 0 0 0 0   0 0 0 0 0  0 0 0 0.189028533 0" type="matrix" in="shadowBlurOuter1" result="shadowMatrixOuter1"></feColorMatrix>
            <feMerge>
                <feMergeNode in="shadowMatrixOuter1"></feMergeNode>
                <feMergeNode in="SourceGraphic"></feMergeNode>
            </feMerge>
        </filter>
        <path d="M21.2765957,2.65957447 L24.1781915,2.65957447 C24.938776,2.65957447 25.4823654,3.39432868 25.2605172,4.12212621 L22.6126354,12.7886463 C22.398854,13.4882189 21.7527421,13.9659574 21.0212766,13.9659574 L9.26379112,13.9659574 L9.92152295,16.1585046 C9.98051631,16.3552265 10.1607458,16.4893617 10.3659574,16.4893617 L21.8085106,16.4893617 L21.8085106,17.6893617 L10.3659574,17.6893617 C9.63072655,17.6893617 8.9833086,17.2075232 8.77211041,16.503252 L4.44017917,2.06277201 C4.38118582,1.86605009 4.20095629,1.73191489 3.99574468,1.73191489 L0,1.73191489 L0,0.531914894 L3.99574468,0.531914894 C4.73097558,0.531914894 5.37839352,1.01375342 5.58959172,1.71802457 L5.87204282,2.65957447 L21.2765957,2.65957447 Z M21.2765957,3.85957447 L6.23202513,3.85957447 L8.9038088,12.7659574 L21.0212766,12.7659574 C21.22529,12.7659574 21.40551,12.6327019 21.4650147,12.4379802 L24.085975,3.85957447 L21.2765957,3.85957447 Z M11.7702128,20.277234 C11.7702128,21.4915836 10.7850943,22.4767021 9.57074468,22.4767021 C8.35597631,22.4767021 7.37074468,21.4916967 7.37074468,20.277234 C7.37074468,19.0623526 8.35586319,18.077234 9.57074468,18.077234 C10.7852074,18.077234 11.7702128,19.0624657 11.7702128,20.277234 Z M10.5702128,20.277234 C10.5702128,19.7251457 10.122404,19.277234 9.57074468,19.277234 C9.01860489,19.277234 8.57074468,19.7250943 8.57074468,20.277234 C8.57074468,20.8288933 9.01865633,21.2767021 9.57074468,21.2767021 C10.1223526,21.2767021 10.5702128,20.8288419 10.5702128,20.277234 Z M22.4162766,20.277234 C22.4162766,21.4916967 21.431045,22.4767021 20.2162766,22.4767021 C19.001927,22.4767021 18.0168085,21.4915836 18.0168085,20.277234 C18.0168085,19.0624657 19.0018139,18.077234 20.2162766,18.077234 C21.4311581,18.077234 22.4162766,19.0623526 22.4162766,20.277234 Z M21.2162766,20.277234 C21.2162766,19.7250943 20.7684164,19.277234 20.2162766,19.277234 C19.6646173,19.277234 19.2168085,19.7251457 19.2168085,20.277234 C19.2168085,20.8288419 19.6646687,21.2767021 20.2162766,21.2767021 C20.7683649,21.2767021 21.2162766,20.8288933 21.2162766,20.277234 Z" id="path-2"></path>
    </defs>
    <g id="Banker" stroke="none" stroke-width="1" fill="none" fill-rule="evenodd">
        <g id="2_Account_Opening_Banker" transform="translate(-521.000000, -1319.000000)">
            <g id="Group-12" transform="translate(0.000000, 1292.000000)">
                <g id="Basket-" filter="url(#filter-1)" transform="translate(519.000000, 21.000000)">
                    <g id="Row">
                        <g id="Row-Footer">
                            <g id="ico/basket-empty" transform="translate(11.000000, 13.000000)">
                                <mask id="mask-3" fill="white">
                                    <use xlink:href="#path-2"></use>
                                </mask>
                                <use id="Mask" fill="#505050" fill-rule="nonzero" xlink:href="#path-2"></use>
                                <g id="Color/Green" mask="url(#mask-3)" fill="#4AAC76">
                                    <g transform="translate(-1.000000, -3.000000)" id="Swatch">
                                        <rect x="0" y="0" width="28" height="29"></rect>
                                    </g>
                                </g>
                            </g>
                        </g>
                    </g>
                </g>
            </g>
        </g>
    </g>
</svg>