<?xml version="1.0" encoding="utf-8"?>
<!-- Generator: Adobe Illustrator 22.1.0, SVG Export Plug-In . SVG Version: 6.00 Build 0)  -->
<svg version="1.1" id="Layer_1" xmlns="http://www.w3.org/2000/svg" xmlns:xlink="http://www.w3.org/1999/xlink" x="0px" y="0px"
	 width="117.5px" height="117.5px" viewBox="0 0 117.5 117.5" style="enable-background:new 0 0 117.5 117.5;" xml:space="preserve"
	>
<g>
	<path d="M31.3,12.1C20.7,12.1,12,20.8,12,31.4s8.7,19.3,19.3,19.3S50.6,42,50.6,31.4S41.9,12.1,31.3,12.1z M31.4,48.6
		c-9.5,0-17.2-7.7-17.2-17.2c0-9.5,7.7-17.2,17.2-17.2c9.5,0,17.2,7.7,17.2,17.2C48.6,40.9,40.9,48.6,31.4,48.6z"/>
	<path d="M35.5,34.4c0-2.3-1.8-4.1-4.1-4.1c-1.1,0-2-0.9-2-2c0-1.1,0.9-2,2-2c0.9,0,1.7,0.6,1.9,1.5h2c-0.2-1.5-1.2-2.8-2.6-3.3
		l-0.3-0.1v-1.7h-2v1.7l-0.3,0.1c-1.6,0.5-2.7,2-2.7,3.8c0,2.3,1.8,4.1,4.1,4.1c1.1,0,2,0.9,2,2s-0.9,2-2,2c-0.9,0-1.7-0.6-1.9-1.5
		h-2c0.2,1.5,1.2,2.8,2.6,3.3l0.3,0.1V40h2v-1.7l0.3-0.1C34.5,37.7,35.5,36.2,35.5,34.4z"/>
	<path d="M31.4,18.1c-2.8,0-5.5,0.9-7.7,2.5l1.3,1.6c2-1.3,4.1-2,6.4-2c6.1,0,11.1,5,11.1,11.1c0,2.3-0.7,4.4-2,6.4l1.6,1.3
		c1.6-2.2,2.5-4.9,2.5-7.7C44.6,24,38.7,18.1,31.4,18.1z"/>
	<path d="M31.4,44.6c2.7,0,5.4-0.9,7.7-2.5l-1.3-1.6c-1.9,1.3-4,2-6.4,2c-6.1,0-11.1-5-11.1-11.1c0-2.3,0.7-4.4,2-6.4l-1.6-1.3
		c-1.6,2.2-2.5,4.9-2.5,7.7C18.2,38.7,24.1,44.6,31.4,44.6z"/>
	<path d="M48.9,51.7h-3v9.1h-6.4v42.6h-3v2h62.8v-2h-3V39.5h-3V27.3h-3v-6.1h-7.6v-9.1h-2v9.1h-7.6v6.1h-3v12.2h-3v21.3h-4v-9.1h-3
		v-6.1h-4.6V38h-2v7.6h-4.6V51.7z M86.6,103.3H76.5V90.2h10.1V103.3z M75,23.3h13.2v4H75V23.3z M72,29.9h0.4v-0.5h18.7v10.1h-4v-6.1
		h-2v6.1H78v-6.1h-2v6.1h-4V29.9z M68.9,41.5h25.3v61.8h-5.6V88.1H74.5v15.2h-5.6V41.5z M66.8,62.8v40.5h-4V66.9h-2v36.5h-5.6V66.9
		h-2v36.5h-5.6V66.9h-2v36.5h-4V63.3H42v-0.5H66.8z M60.8,53.7v7.1h-5.6v-3h-2v3h-5.6v-7.1H60.8z M50.6,47.6h7.1v4h-7.1V47.6z"/>
	<rect x="72.9" y="45.6" width="2" height="2"/>
	<rect x="80.5" y="45.6" width="2" height="2"/>
	<rect x="88.1" y="45.6" width="2" height="2"/>
	<rect x="72.9" y="54.7" width="2" height="2"/>
	<rect x="80.5" y="54.7" width="2" height="2"/>
	<rect x="88.1" y="54.7" width="2" height="2"/>
	<rect x="72.9" y="63.8" width="2" height="2"/>
	<rect x="80.5" y="63.8" width="2" height="2"/>
	<rect x="88.1" y="63.8" width="2" height="2"/>
	<rect x="72.9" y="72.9" width="2" height="2"/>
	<rect x="80.5" y="72.9" width="2" height="2"/>
	<rect x="88.1" y="72.9" width="2" height="2"/>
	<rect x="72.9" y="82.1" width="2" height="2"/>
	<rect x="80.5" y="82.1" width="2" height="2"/>
	<rect x="88.1" y="82.1" width="2" height="2"/>
	<rect x="12.1" y="57.7" width="2" height="2"/>
	<rect x="12.1" y="63.8" width="2" height="17.2"/>
	<rect x="21.2" y="68.4" width="2" height="2"/>
	<rect x="21.2" y="74.5" width="2" height="17.2"/>
	<rect x="30.4" y="57.7" width="2" height="2"/>
	<rect x="30.4" y="63.8" width="2" height="17.2"/>
	<rect x="103.3" y="103.3" width="2" height="2"/>
	<rect x="30.4" y="103.3" width="2" height="2"/>
</g>
</svg>
