<?xml version="1.0" encoding="utf-8"?>
<!-- Generator: Adobe Illustrator 23.0.0, SVG Export Plug-In . SVG Version: 6.00 Build 0)  -->
<svg version="1.1" id="Layer_1" xmlns="http://www.w3.org/2000/svg" xmlns:xlink="http://www.w3.org/1999/xlink" x="0px" y="0px"
	 width="122px" height="122px" viewBox="0 0 122 122" style="enable-background:new 0 0 122 122;" xml:space="preserve">
<style type="text/css">
	.st0{fill:#91C141;}
	.st1{fill:#073586;}
</style>
<path class="st0" d="M85,9.5c19.3,9.1,32.7,28.7,32.7,51.5c0,31.4-25.4,56.8-56.8,56.8S4.2,92.4,4.2,61S29.6,4.2,61,4.2
	C69.6,4.2,77.7,6.1,85,9.5"/>
<g id="Page-1">
	<g id="Desktop---Megatrends-03-Tab-02" transform="translate(-967.000000, -251.000000)">
		<g id="Group-11" transform="translate(-203.000000, 125.000000)">
			<g id="Group-10-Copy-4" transform="translate(1129.000000, 65.000000)">
				<g id="Group-7_1_" transform="translate(41.000000, 61.000000)">
					<g id="Group-3">
						<path id="Fill-1" class="st1" d="M42,53c0.6-1.1,1.6-1.8,2.8-2c0.2,0,0.4,0,0.6,0c1.8,0,3.3,1.3,3.7,3.1
							c0,0.2,0.1,0.4,0.1,0.7v6.7v1.7c-0.1-0.1-0.3-0.2-0.4-0.3L48,62.2c-0.7-0.7-1.5-1.3-2.2-2c-1.2-1.2-2.2-2.4-2.8-3.7
							c-0.2-0.5-0.5-0.9-0.7-1.4c-0.2-0.4-0.4-0.8-0.5-1.1C41.6,53.7,41.6,53.4,42,53z M36.1,40.5v2.1h-2.9V41c0-0.7,0-1.4,0-2.1
							c6.6,0,13.2,0,19.7,0h4.3v3.7h-2.8v-2.1H52v2.1h-5.6v-2.1H44v2.1h-5.6v-2.1C38.4,40.5,36.1,40.5,36.1,40.5z M57.2,65.5
							c-0.3,0-0.7,0-1,0h-0.6c-0.9,0-1.9,0-2.8,0c-0.1,0-0.3-0.1-0.4-0.2c-0.1-0.1-0.2-0.1-0.2-0.1L52,65.1
							c-0.4-0.1-0.5-0.3-0.5-1.1c0-3,0-5.9,0-8.9v-0.2c0-1.8-0.6-3.4-1.9-4.6c-1.1-1-2.4-1.6-3.8-1.7c-1.5-0.1-2.8,0.3-4,1.1
							c-1.5,1-2.3,2.4-2.5,4c-0.1,1.1-0.1,2.2-0.1,3.2v1c0,1.6,0,3.3,0,4.9v2.7h-1.6c-1.4,0-2.8,0-4.3,0c0-5.9,0-11.8,0-17.7v-2.7
							h24v19.6C57.2,64.9,57.2,65.2,57.2,65.5z M78.6,39.5c0-0.6,0.3-1.2,0.7-1.7c0.4-0.4,0.9-0.6,1.5-0.6c0.1,0,0.1,0,0.2,0
							c0.9,0.1,1.6,0.6,1.9,1.4c-0.4,0.9-0.9,1.8-1.6,2.7c-0.8,1.1-1.7,2.1-2.8,3v-1C78.6,42,78.6,40.7,78.6,39.5z M85.4,38.3
							c-0.3-0.7-0.6-1.3-1-1.8c-0.6-0.8-1.5-1.3-2.5-1.6c-2.3-0.5-4.6,0.7-5.4,2.9c-0.2,0.5-0.3,1.1-0.3,1.7c0,2,0,3.9,0,5.9v0.7
							l-0.1,0.1l0,0c-0.2,0.2-0.5,0.3-0.9,0.3s-0.8,0-1.1,0c-0.3,0-0.5,0-0.8,0H73V33.1h15.8v13.4h-3.2v-7v-0.3
							C85.5,39,85.5,38.6,85.4,38.3z M85.1,29.5v1.2H82v-1.2h-2.3v1.2h-3.2v-1.2h-2.3v1.2H73v-1.8h15.8v1.8h-1.2v-1.2H85.1z
							 M96.5,50.4c0-0.1,0-0.2,0-0.3c0-0.2-0.1-0.4-0.2-0.6c-0.6-1.6-1.8-2.5-3.8-2.9c-0.4-0.1-0.8-0.1-1.2-0.1h-0.1V33.1h3v-2.4h-3
							v-4.2H70.5v4.2h-3v2.4h3v15.8h1.3c-1,0.6-2.1,1.1-3.3,1.6v-1h-2.4v1c0,0.4,0,0.7,0,1.1c-0.4,0.2-0.9,0.3-1.3,0.5
							s-0.8,0.3-1.2,0.4c-0.4,0.1-0.7,0.3-1.1,0.4v-2h-2.4V52c0,0.6,0,1.1,0,1.7c-0.2,0.1-0.4,0.1-0.6,0.2V45h4.6v-2.4h-4.7v-6.1
							H30.9v6.1h-4.7V45H31v20.9c-0.6,0.4-1.2,0.7-1.8,1.1c-1.7,1.2-2.7,2.6-3.3,4.3c-0.4,1.2-0.5,2.2-0.3,3.2l0.1,0.5l2.2-0.2v-0.7
							c0-0.2,0-0.3,0-0.5c0-0.8,0.2-1.6,0.6-2.4c0.7-1.3,1.8-2.3,3.6-3.2c0.2-0.1,0.3-0.1,0.4-0.1c1.2,0,2.5,0,3.7,0h3.1
							c0.3,1.5,0.9,3.1,1.8,4.8c1.2,2.4,2.9,4.6,5,6.8c0.8,0.8,1.6,1.5,2.3,2.2c1.2,1,2.3,1.9,3.4,2.7c1.8,1.3,3.6,2.4,5.3,3.4
							l0.1,0.1c1.9,1,3.9,2,5.9,2.9c2.4,1,4.9,1.9,6.7,2.5c1.3,0.4,2.6,0.8,3.9,1.2l1.4,0.4c0.5,0.2,1.1,0.3,1.6,0.4l0.6,0.2
							c0.1,0,0.2,0,0.3,0c0.1,0,0.3,0,0.4-0.1c0.2-0.1,0.3-0.3,0.3-0.6c0-0.2,0.1-0.4,0.2-0.7l0.2-0.8l-0.5-0.1
							c-0.6-0.2-1.2-0.3-1.9-0.5c-1.4-0.4-2.8-0.8-4.2-1.2c-2.1-0.7-4.1-1.4-6-2.1c-2.3-0.9-4.6-1.9-7.2-3.3
							c-2.1-1.1-3.8-2.2-5.3-3.2c-1.5-1.1-2.6-2-3.6-2.8c-0.8-0.7-1.7-1.5-2.5-2.4c-1.1-1.2-1.9-2.2-2.7-3.2
							c-1.3-1.7-2.3-3.6-2.9-5.5c-0.4-1.1-0.6-2-0.6-3c0-2,0-4.1,0-6.1v-1.4c0.5,0.7,1,1.4,1.6,2.1c1.4,1.6,2.9,3,4.4,4.2
							c1.3,1,2.8,2.1,4.5,3.1c2.2,1.4,4.7,2.6,7.8,3.9s6.1,2.3,9,3.1c1.9,0.5,3.7,1,5.6,1.4l1.8,0.4c0.3,0.1,0.7,0.1,1,0.2l1,0.2
							l0.3-1.5c0-0.1,0.1-0.4-0.1-0.7s-0.5-0.3-0.6-0.4c-1.6-0.4-3.3-0.7-4.9-1.1c0,0,0,0-0.1,0v-0.1c0-0.9,0-1.9,0-2.8
							c0-0.3-0.3-0.7-0.7-0.7c-0.3,0-0.6,0-0.9,0h-0.8v3l-4.3-1.3v-2.2h-2.4v1.3c-2.6-0.9-4.8-1.9-6.9-2.9h2.6V56.2L60,56
							c1-0.3,2.1-0.6,3.1-1c1.9-0.7,3.8-1.5,5.9-2.3c1.8-0.7,3.6-1.7,5.5-2.9c1.8-1.1,3.4-2.2,4.7-3.4c1.4-1.2,2.5-2.4,3.5-3.6v0.4
							c0,1.2,0,2.4,0,3.5c0,0.8-0.1,1.5-0.4,2.2c-0.7,2-1.9,3.9-3.6,5.7c-1.4,1.5-3,2.9-5,4.2c-1.9,1.3-4,2.4-6.1,3.3
							c-0.9,0.4-1.9,0.7-2.9,1.1c-0.5,0.2-1.1,0.4-1.6,0.6c-0.3,0.1-0.6,0.4-0.5,0.8c0.1,0.3,0.2,0.6,0.3,0.9l0.3,0.8l1.8-0.7
							c1.1-0.4,2.1-0.8,3.1-1.2c1.9-0.8,3.8-1.7,5.7-2.9c1.5-0.9,2.9-1.9,4.1-2.9c1.6-1.4,3-2.8,4.1-4.3c1.3-1.8,2.2-3.6,2.7-5.5
							c1.2,0,2.4,0,3.6,0h1.3c0.1,0,0.3,0,0.4,0c0.5-0.1,1.1-0.1,1.8,0.1c0.8,0.2,1.3,0.5,1.6,1c0.1,0.2,0.2,0.3,0.2,0.5l0.3,0.7
							l1.7-0.3l0.4-0.2L96.5,50.4z"/>
					</g>
				</g>
			</g>
		</g>
	</g>
</g>
</svg>
