<?xml version="1.0" encoding="utf-8"?>
<!-- Generator: Adobe Illustrator 22.1.0, SVG Export Plug-In . SVG Version: 6.00 Build 0)  -->
<svg version="1.1" id="Layer_1" xmlns="http://www.w3.org/2000/svg" xmlns:xlink="http://www.w3.org/1999/xlink" x="0px" y="0px"
	 width="110px" height="110px" viewBox="0 0 110 110" style="enable-background:new 0 0 110 110;" xml:space="preserve">
<style type="text/css">
	.st0{fill:#FFFFFF;}
</style>
<g>
	<path class="st0" d="M55,0C24.6,0,0,24.6,0,55s24.6,55,55,55s55-24.6,55-55S85.4,0,55,0z M77.9,94.6c-7,4.1-14.9,6.1-22.8,6.1
		c-4,0-8-0.5-11.9-1.6C31.4,96,21.5,88.4,15.4,77.9C9.3,67.3,7.7,55,10.8,43.2C14,31.4,21.6,21.5,32.1,15.4
		C42.7,9.3,55,7.7,66.8,10.8C78.6,14,88.5,21.6,94.6,32.1c6.1,10.6,7.7,22.9,4.6,34.7C96,78.6,88.4,88.5,77.9,94.6z"/>
	<g>
		<path class="st0" d="M90.5,34.5C85,25,76.2,18.3,65.6,15.4c-3.5-0.9-7.1-1.4-10.7-1.4c-7.1,0-14.1,1.9-20.4,5.5
			C25,25,18.3,33.8,15.4,44.4C12.6,55,14,66,19.5,75.5C25,85,33.8,91.7,44.4,94.6C55,97.4,66,96,75.5,90.5
			C85,85,91.7,76.2,94.6,65.6C97.4,55,96,44,90.5,34.5z M76.9,59.3l-29.4,17C46.8,76.7,45.9,77,45,77c-0.9,0-1.7-0.2-2.5-0.7
			c-1.6-0.9-2.5-2.5-2.5-4.3V38c0-1.8,0.9-3.4,2.5-4.3c1.6-0.9,3.4-0.9,5,0l29.4,17c1.6,0.9,2.5,2.5,2.5,4.3
			C79.4,56.8,78.5,58.4,76.9,59.3z M82.7,36.6c-0.4,0.3-0.9,0.5-1.5,0.5c-0.7,0-1.4-0.3-1.9-0.9c-4.9-6.3-12.3-10.6-20.2-11.7
			c-1.3-0.2-2.2-1.4-2-2.7c0.2-1.3,1.4-2.2,2.7-2C68.9,21,77.4,26,83.1,33.3C83.9,34.3,83.7,35.8,82.7,36.6z"/>
		<path class="st0" d="M74.6,54.8l-29.4-17c0,0-0.1,0-0.1,0c0,0-0.1,0-0.1,0c-0.1,0.1-0.1,0.1-0.1,0.2v34c0,0,0,0.1,0.1,0.2
			c0.1,0.1,0.2,0,0.2,0l29.4-17c0,0,0.1-0.1,0.1-0.2C74.7,54.9,74.6,54.8,74.6,54.8z"/>
	</g>
</g>
</svg>
