<?xml version="1.0" encoding="UTF-8"?>
<svg width="40px" height="38px" viewBox="0 0 40 38" version="1.1" xmlns="http://www.w3.org/2000/svg" xmlns:xlink="http://www.w3.org/1999/xlink">
    <!-- Generator: Sketch 51.1 (57501) - http://www.bohemiancoding.com/sketch -->
    <title>icobig/insurance_pack_A</title>
    <desc>Created with Sketch.</desc>
    <defs></defs>
    <g id="Danube" stroke="none" stroke-width="1" fill="none" fill-rule="evenodd">
        <g id="4_Open_Account_Danube" transform="translate(-135.000000, -213.000000)" fill="#FFFFFF" fill-rule="nonzero">
            <g id="01" transform="translate(47.000000, 156.000000)">
                <g id="icobig/account" transform="translate(80.000000, 48.000000)">
                    <rect id="Rectangle-path" opacity="0" x="0" y="0" width="56" height="56"></rect>
                    <path d="M45.8182589,27.6464222 L45.7476367,27.6464222 L45.7476367,22.4845444 C45.7476367,22.0549896 45.3994137,21.7067667 44.9698589,21.7067667 L41.5055589,21.7067667 L41.5055589,17.3940667 C41.5055589,16.9645119 41.1573359,16.6162889 40.7277811,16.6162889 L33.4133333,16.6162889 L26.8530811,10.0560444 C26.7072504,9.91015837 26.5094283,9.82819577 26.3031533,9.82819577 C26.0968784,9.82819577 25.8990563,9.91015837 25.7532256,10.0560444 L19.1928256,16.6162889 L11.87627,16.6162889 C10.9923576,16.6070142 10.1419761,16.9542074 9.51713419,17.5794751 C8.8922923,18.2047429 8.54567865,19.0553608 8.55555556,19.9392667 L8.55555556,42.8487889 C8.54604627,43.7331193 8.89319394,44.5839934 9.51861123,45.2092804 C10.1440285,45.8345675 10.9949749,46.1815379 11.8793033,46.1718444 L44.9698589,46.1718444 C45.3993941,46.1717972 45.7475894,45.8236019 45.7476367,45.3940667 L45.7476367,38.9404556 C46.7916653,38.3572888 47.4402287,37.2565851 47.4444444,36.0607333 L47.4444444,29.2726 C47.4433901,28.3749209 46.715938,27.6474723 45.8182589,27.6464222 Z M39.9500033,18.1718444 L39.9500033,21.7067667 L38.5038033,21.7067667 L34.9688889,18.1718444 L39.9500033,18.1718444 Z M26.3031922,11.7057889 L32.5398033,17.9424 L32.5425256,17.9451222 L36.30417,21.7067667 L32.5657033,21.7067667 L28.66157,17.7817889 C28.5158812,17.6352921 28.3178991,17.5527693 28.1112922,17.5524222 L28.1101256,17.5524222 C27.9038655,17.5524791 27.7060716,17.6344502 27.5602367,17.7803111 C26.6601144,18.6795778 25.9594922,18.6811333 25.05937,17.7810111 C24.7507903,17.4893462 24.2681719,17.4893462 23.9595922,17.7810111 L20.0352367,21.7067667 L16.3017478,21.7067667 L20.0632367,17.9455111 L20.0668922,17.9418556 L26.3031922,11.7057889 Z M30.3719033,21.7067667 L22.2344811,21.7067667 L24.5524144,19.3878222 C25.5809672,20.2048355 27.0369808,20.2049967 28.0657144,19.3882111 L30.3719033,21.7067667 Z M11.87627,18.1718444 L17.6371922,18.1718444 L14.1021144,21.7067667 L11.8793033,21.7067667 C10.9031615,21.7076043 10.1111632,20.916964 10.1103256,19.9408222 C10.109488,18.9646804 10.9001282,18.1726821 11.87627,18.1718444 Z M44.1920811,44.6162889 L11.8793033,44.6162889 C11.4072512,44.6270585 10.9513265,44.4443238 10.617383,44.110511 C10.2834396,43.7766983 10.1005264,43.3208452 10.1111111,42.8487889 L10.1111111,22.7682 C10.6430436,23.0942397 11.2554085,23.2653653 11.8793033,23.2623222 L44.1920811,23.2623222 L44.1920811,28.4242 C44.1196734,28.8987379 43.7471607,29.271093 43.2725922,29.3433 L34.7877367,29.3433 C32.0151537,29.3433 29.7675311,31.5909226 29.7675311,34.3635056 C29.7675311,37.1360885 32.0151537,39.3837111 34.7877367,39.3837111 L44.1206811,39.3837111 C44.1451811,39.3837111 44.1678144,39.3770222 44.1920811,39.3764778 L44.1920811,44.6162889 Z M45.8888889,36.0607333 C45.8874957,37.0365826 45.0965309,37.827196 44.1206811,37.8281556 L34.7877367,37.8281556 C32.8742633,37.8281556 31.3230867,36.2769789 31.3230867,34.3635056 C31.3230867,32.4500322 32.8742633,30.8988556 34.7877367,30.8988556 L43.2725922,30.8988556 C44.3155896,30.8393155 45.2276415,30.1759304 45.6055367,29.2019778 L45.8182589,29.2019778 C45.8370024,29.2019364 45.8549904,29.2093633 45.8682448,29.2226163 C45.8814993,29.2358693 45.8889282,29.2538564 45.8888889,29.2726 L45.8888889,36.0607333 Z" id="Shape"></path>
                    <rect id="Rectangle-path" x="33.93887" y="33.5856889" width="1.69765556" height="1.55555556"></rect>
                </g>
            </g>
        </g>
    </g>
</svg>