<?xml version="1.0" encoding="UTF-8"?>
<svg width="18px" height="16px" viewBox="0 0 18 16" version="1.1" xmlns="http://www.w3.org/2000/svg" xmlns:xlink="http://www.w3.org/1999/xlink">
    <!-- Generator: Sketch 51.1 (57501) - http://www.bohemiancoding.com/sketch -->
    <title>ico/share</title>
    <desc>Created with Sketch.</desc>
    <defs>
        <path d="M13.3424155,13.3990148 L4.07142857,13.3990148 C3.32189927,13.3990148 2.71428571,12.7814765 2.71428571,12.0197044 L2.71428571,1.37931034 C2.71428571,0.617538276 3.32189927,-1.39935259e-16 4.07142857,0 L15.3163265,0 C16.0658558,1.39935259e-16 16.6734694,0.617538276 16.6734694,1.37931034 L16.6734694,12.0197044 C16.6734694,12.7814765 16.0658558,13.3990148 15.3163265,13.3990148 L13.8392171,13.3990148 C13.9357636,13.4746786 13.9979592,13.5934056 13.9979592,13.7268966 C13.9979592,14.6805822 13.2375927,15.5073892 12.3112245,15.5073892 L1.70457143,15.5073892 C0.776864509,15.5073892 -7.21368836e-16,14.6786009 -6.04818667e-16,13.7268966 L6.1283015e-16,3.78403941 C7.28630352e-16,2.838459 0.771382147,2.06896552 1.70457143,2.06896552 C1.92943022,2.06896552 2.11171429,2.254227 2.11171429,2.48275862 C2.11171429,2.71129024 1.92943022,2.89655172 1.70457143,2.89655172 C1.21773501,2.89655172 0.814285714,3.29901321 0.814285714,3.78403941 L0.814285714,13.7268966 C0.814285714,14.2302737 1.23565183,14.679803 1.70457143,14.679803 L12.3112245,14.679803 C12.7751185,14.679803 13.1836735,14.2355487 13.1836735,13.7268966 C13.1836735,13.5934056 13.245869,13.4746786 13.3424155,13.3990148 Z M13.3424155,13.3990148 L13.8392171,13.3990148 C13.7704795,13.3451449 13.6843296,13.3131034 13.5908163,13.3131034 C13.4973031,13.3131034 13.4111532,13.3451449 13.3424155,13.3990148 Z M15.3163265,0.827586207 L4.07142857,0.827586207 C3.77161685,0.827586207 3.52857143,1.07460152 3.52857143,1.37931034 L3.52857143,12.0197044 C3.52857143,12.3244133 3.77161685,12.5714286 4.07142857,12.5714286 L15.3163265,12.5714286 C15.6161383,12.5714286 15.8591837,12.3244133 15.8591837,12.0197044 L15.8591837,1.37931034 C15.8591837,1.07460152 15.6161383,0.827586207 15.3163265,0.827586207 Z M8.26201654,3.46491822 C8.10306708,3.30327145 8.10314766,3.04127217 8.26219654,2.87972643 C8.42124541,2.7181807 8.67903399,2.7182626 8.83798346,2.87990936 L11.9380855,6.03261872 C12.0969647,6.19419403 12.0969647,6.45605227 11.9380855,6.61762758 L8.83798346,9.77033694 C8.67903399,9.93198371 8.42124541,9.93206561 8.26219654,9.77051987 C8.10314766,9.60897414 8.10306708,9.34697485 8.26201654,9.18532808 L11.074495,6.32512315 L8.26201654,3.46491822 Z" id="path-1"></path>
    </defs>
    <g id="Banker" stroke="none" stroke-width="1" fill="none" fill-rule="evenodd">
        <g id="8_Account_Opening_Banker" transform="translate(-1036.000000, -847.000000)">
            <g id="Group-12" transform="translate(581.000000, 678.000000)">
                <g id="Group-14" transform="translate(0.500000, 0.000000)">
                    <g id="Group-13" transform="translate(24.000000, 149.000000)">
                        <g id="Pusch" transform="translate(430.000000, 18.000000)">
                            <g id="ico/share">
                                <g id="Group" transform="translate(1.357143, 2.068966)">
                                    <mask id="mask-2" fill="white">
                                        <use xlink:href="#path-1"></use>
                                    </mask>
                                    <use id="Mask" fill="#262626" fill-rule="nonzero" xlink:href="#path-1"></use>
                                    <g id="Color/White" mask="url(#mask-2)" fill="#FFFFFF">
                                        <g transform="translate(-1.357143, -2.068966)" id="Swatch">
                                            <rect x="0" y="0" width="19" height="20"></rect>
                                        </g>
                                    </g>
                                </g>
                            </g>
                        </g>
                    </g>
                </g>
            </g>
        </g>
    </g>
</svg>