<?xml version="1.0" encoding="utf-8"?>
<!-- Generator: Adobe Illustrator 22.0.1, SVG Export Plug-In . SVG Version: 6.00 Build 0)  -->
<svg version="1.1" id="Livello_1" xmlns="http://www.w3.org/2000/svg" xmlns:xlink="http://www.w3.org/1999/xlink" x="0px" y="0px"
	 viewBox="0 0 841.9 595.3" style="enable-background:new 0 0 841.9 595.3;" xml:space="preserve">
<style type="text/css">
	.st0{fill:url(#SVGID_1_);}
	.st1{opacity:0.6;fill-rule:evenodd;clip-rule:evenodd;fill:url(#SVGID_2_);}
	.st2{fill:url(#SVGID_3_);}
	.st3{filter:url(#Adobe_OpacityMaskFilter);}
	.st4{clip-path:url(#SVGID_5_);fill:url(#SVGID_7_);}
	.st5{clip-path:url(#SVGID_5_);mask:url(#SVGID_6_);fill:url(#SVGID_8_);}
	.st6{fill-rule:evenodd;clip-rule:evenodd;fill:none;}
	.st7{filter:url(#Adobe_OpacityMaskFilter_1_);}
	.st8{clip-path:url(#SVGID_10_);fill:url(#SVGID_12_);}
	.st9{clip-path:url(#SVGID_10_);mask:url(#SVGID_11_);fill:url(#SVGID_13_);}
	.st10{filter:url(#Adobe_OpacityMaskFilter_2_);}
	.st11{clip-path:url(#SVGID_15_);fill:url(#SVGID_17_);}
	.st12{clip-path:url(#SVGID_15_);mask:url(#SVGID_16_);fill:url(#SVGID_18_);}
	.st13{fill:#EC7A37;}
	.st14{fill:#F68B33;}
	.st15{opacity:0.4;fill:url(#SVGID_19_);}
	.st16{opacity:0.6;fill:url(#SVGID_20_);}
	.st17{fill:#FFFFFF;}
</style>
<g>
	<linearGradient id="SVGID_1_" gradientUnits="userSpaceOnUse" x1="133.549" y1="278.8118" x2="362.6707" y2="278.8118">
		<stop  offset="0" style="stop-color:#EF9239"/>
		<stop  offset="1" style="stop-color:#EC7A38"/>
	</linearGradient>
	<path class="st0" d="M351.9,175H144.3c-5.9,0-10.7,4.8-10.7,10.7v153.9c0,5.9,4.8,10.7,10.7,10.7h89.9h42.6h10.7h2.7l29.1,29.1
		c1.9,1.9,4.6,3.1,7.6,3.1c0,0,0.1,0,0.1,0c2.9,0,5.6-1.2,7.5-3.1c0,0,0.1-0.1,0.1-0.1c0.4-0.4,0.8-0.9,1.2-1.4
		c0.1-0.2,0.2-0.4,0.4-0.7c0.2-0.4,0.5-0.8,0.6-1.2c0.1-0.2,0.1-0.4,0.2-0.6c0.2-0.5,0.3-0.9,0.4-1.4c0.1-0.7,0.2-1.4,0.2-2.2v-21.5
		h1.8h12.5c5.9,0,10.7-4.8,10.7-10.7V185.7C362.7,179.8,357.9,175,351.9,175z"/>
	<linearGradient id="SVGID_2_" gradientUnits="userSpaceOnUse" x1="183.8427" y1="299.1574" x2="362.6707" y2="299.1574">
		<stop  offset="0" style="stop-color:#B45227"/>
		<stop  offset="1" style="stop-color:#B45227"/>
	</linearGradient>
	<path class="st1" d="M291.1,221.5v3.6l-6.3-6.3l-101,101l30.6,30.6h19.7h42.6h5.5h8.8v0.9l28.2,28.2c1.9,1.9,4.6,3.1,7.6,3.1
		c0.1,0,0.1,0,0.1,0c2.9,0,5.6-1.2,7.5-3.1c0,0,0.1-0.1,0.1-0.1c0.4-0.4,0.8-0.9,1.2-1.4c0.1-0.2,0.2-0.4,0.4-0.7
		c0.2-0.4,0.5-0.8,0.6-1.2c0.1-0.2,0.1-0.4,0.2-0.6c0.2-0.5,0.3-0.9,0.4-1.4c0.1-0.7,0.2-1.4,0.2-2.2v-21.5h1.8h12.5
		c5.9,0,10.7-4.8,10.7-10.7V289l-73.4-73.3C290.4,217.4,291.1,219.4,291.1,221.5"/>
	<linearGradient id="SVGID_3_" gradientUnits="userSpaceOnUse" x1="61.9475" y1="314.6126" x2="291.071" y2="314.6126">
		<stop  offset="0" style="stop-color:#FAA634"/>
		<stop  offset="1" style="stop-color:#F68B33"/>
	</linearGradient>
	<path class="st2" d="M79.8,228.7h193.3v139.6h-82.7h-42.6h-10.7h-2.7c-4.7,0-9.3,1.9-12.7,5.2l-16.9,16.9v-4.2
		c0-9.9-8-17.9-17.9-17.9h-1.8h-5.4V228.7z M72.7,210.8c-5.9,0-10.7,4.8-10.7,10.7v153.9c0,5.9,4.8,10.7,10.7,10.7h12.5H87v21.5
		c0,0.7,0.1,1.5,0.2,2.2c0.1,0.5,0.3,1,0.4,1.4c0.1,0.2,0.1,0.4,0.2,0.6c0.2,0.4,0.4,0.8,0.6,1.2c0.1,0.2,0.2,0.5,0.4,0.7
		c0.3,0.5,0.8,1,1.2,1.4c0,0,0.1,0.1,0.1,0.1c1.9,1.9,4.6,3.1,7.5,3.1c0,0,0.1,0,0.1,0c3,0,5.6-1.2,7.6-3.1l29.1-29.1h2.7h10.7h42.6
		h89.9c5.9,0,10.7-4.8,10.7-10.7V221.5c0-5.9-4.8-10.7-10.7-10.7H72.7z"/>
	<g>
		<g>
			<defs>
				<path id="SVGID_4_" d="M289.4,215.8C289.4,215.7,289.3,215.7,289.4,215.8L289.4,215.8C289.3,215.7,289.4,215.7,289.4,215.8"/>
			</defs>
			<clipPath id="SVGID_5_">
				<use xlink:href="#SVGID_4_"  style="overflow:visible;"/>
			</clipPath>
			<defs>
				<filter id="Adobe_OpacityMaskFilter" filterUnits="userSpaceOnUse" x="289.3" y="215.7" width="0.2" height="0.2">
					<feColorMatrix  type="matrix" values="1 0 0 0 0  0 1 0 0 0  0 0 1 0 0  0 0 0 1 0"/>
				</filter>
			</defs>
			<mask maskUnits="userSpaceOnUse" x="289.3" y="215.7" width="0.2" height="0.2" id="SVGID_6_">
				<g class="st3">
					
						<linearGradient id="SVGID_7_" gradientUnits="userSpaceOnUse" x1="-3456.489" y1="-391.8005" x2="-3452.8567" y2="-391.8005" gradientTransform="matrix(2.140000e-02 2.140000e-02 2.140000e-02 -2.140000e-02 371.6609 281.278)">
						<stop  offset="0" style="stop-color:#BFBFBF"/>
						<stop  offset="1" style="stop-color:#404040"/>
					</linearGradient>
					<polygon class="st4" points="289.3,215.7 289.4,215.7 289.3,215.8 289.3,215.7 					"/>
				</g>
			</mask>
			
				<linearGradient id="SVGID_8_" gradientUnits="userSpaceOnUse" x1="-3456.489" y1="-391.8005" x2="-3452.8567" y2="-391.8005" gradientTransform="matrix(2.140000e-02 2.140000e-02 2.140000e-02 -2.140000e-02 371.6609 281.278)">
				<stop  offset="0" style="stop-color:#B45227"/>
				<stop  offset="1" style="stop-color:#B45227"/>
			</linearGradient>
			<polygon class="st5" points="289.3,215.7 289.4,215.7 289.3,215.8 289.3,215.7 			"/>
		</g>
		<polygon class="st6" points="291.1,350.4 291.1,225.1 284.8,218.9 273.2,230.5 273.2,350.4 276.7,350.4 282.2,350.4 		"/>
		<g>
			<defs>
				<path id="SVGID_9_" d="M290.7,219c0.1,0.2,0.1,0.4,0.1,0.6C290.8,219.4,290.8,219.2,290.7,219"/>
			</defs>
			<clipPath id="SVGID_10_">
				<use xlink:href="#SVGID_9_"  style="overflow:visible;"/>
			</clipPath>
			<defs>
				<filter id="Adobe_OpacityMaskFilter_1_" filterUnits="userSpaceOnUse" x="290.4" y="218.9" width="0.8" height="0.8">
					<feColorMatrix  type="matrix" values="1 0 0 0 0  0 1 0 0 0  0 0 1 0 0  0 0 0 1 0"/>
				</filter>
			</defs>
			<mask maskUnits="userSpaceOnUse" x="290.4" y="218.9" width="0.8" height="0.8" id="SVGID_11_">
				<g class="st7">
					
						<linearGradient id="SVGID_12_" gradientUnits="userSpaceOnUse" x1="-531.9576" y1="275.3728" x2="-528.364" y2="275.3728" gradientTransform="matrix(0.1077 0.1077 0.1077 -0.1077 318.2479 306.0586)">
						<stop  offset="0" style="stop-color:#BFBFBF"/>
						<stop  offset="1" style="stop-color:#404040"/>
					</linearGradient>
					<polygon class="st8" points="290.8,218.9 291.2,219.3 290.8,219.7 290.4,219.3 					"/>
				</g>
			</mask>
			
				<linearGradient id="SVGID_13_" gradientUnits="userSpaceOnUse" x1="-531.9576" y1="275.3728" x2="-528.364" y2="275.3728" gradientTransform="matrix(0.1077 0.1077 0.1077 -0.1077 318.2479 306.0586)">
				<stop  offset="0" style="stop-color:#B45227"/>
				<stop  offset="1" style="stop-color:#B45227"/>
			</linearGradient>
			<polygon class="st9" points="290.8,218.9 291.2,219.3 290.8,219.7 290.4,219.3 			"/>
		</g>
		<g>
			<defs>
				<path id="SVGID_14_" d="M290.1,217.1c0.1,0.2,0.2,0.4,0.3,0.7C290.3,217.6,290.2,217.4,290.1,217.1"/>
			</defs>
			<clipPath id="SVGID_15_">
				<use xlink:href="#SVGID_14_"  style="overflow:visible;"/>
			</clipPath>
			<defs>
				<filter id="Adobe_OpacityMaskFilter_2_" filterUnits="userSpaceOnUse" x="289.8" y="217" width="0.9" height="0.9">
					<feColorMatrix  type="matrix" values="1 0 0 0 0  0 1 0 0 0  0 0 1 0 0  0 0 0 1 0"/>
				</filter>
			</defs>
			<mask maskUnits="userSpaceOnUse" x="289.8" y="217" width="0.9" height="0.9" id="SVGID_16_">
				<g class="st10">
					
						<linearGradient id="SVGID_17_" gradientUnits="userSpaceOnUse" x1="-414.0147" y1="308.3622" x2="-410.4365" y2="308.3622" gradientTransform="matrix(0.1312 0.1312 0.1312 -0.1312 303.8635 312.0108)">
						<stop  offset="0" style="stop-color:#BFBFBF"/>
						<stop  offset="1" style="stop-color:#404040"/>
					</linearGradient>
					<polygon class="st11" points="290.2,217 290.7,217.5 290.2,217.9 289.8,217.5 					"/>
				</g>
			</mask>
			
				<linearGradient id="SVGID_18_" gradientUnits="userSpaceOnUse" x1="-414.0285" y1="308.3641" x2="-410.4504" y2="308.3641" gradientTransform="matrix(0.1312 0.1312 0.1312 -0.1312 303.863 312.0108)">
				<stop  offset="0" style="stop-color:#B45227"/>
				<stop  offset="1" style="stop-color:#B45227"/>
			</linearGradient>
			<polygon class="st12" points="290.2,217 290.7,217.5 290.2,217.9 289.8,217.5 			"/>
		</g>
	</g>
	<polygon class="st13" points="398.7,211.1 418.5,211.1 430.3,250.2 443.3,210.9 459.5,210.9 472.5,250.2 484.3,211.1 503.7,211.1 
		481.1,279.2 464.8,279.2 451.1,240.2 437.6,279.2 421.3,279.2 	"/>
	<rect x="511.6" y="211.1" class="st13" width="18.8" height="67.6"/>
	<polygon class="st13" points="542.8,211.1 560.3,211.1 588.1,246.8 588.1,211.1 606.7,211.1 606.7,278.7 590.2,278.7 561.3,241.6 
		561.3,278.7 542.8,278.7 	"/>
	<path class="st13" d="M618.7,211.1h26.1c24.2,0,38.2,13.9,38.2,33.4v0.2c0,19.5-14.2,34-38.6,34h-25.7V211.1z M645.1,262.1
		c11.2,0,18.6-6.2,18.6-17.1v-0.2c0-10.8-7.4-17.1-18.6-17.1h-7.6v34.4H645.1z"/>
	<path class="st14" d="M400.9,352.5v-0.2c0-19.4,15.6-35.2,36.5-35.2c20.9,0,36.3,15.6,36.3,35v0.2c0,19.4-15.7,35.2-36.5,35.2
		C416.4,387.4,400.9,371.9,400.9,352.5 M454.6,352.5v-0.2c0-9.8-7-18.3-17.4-18.3c-10.2,0-17.1,8.3-17.1,18.1v0.2
		c0,9.8,7.1,18.3,17.3,18.3C447.8,370.5,454.6,362.2,454.6,352.5"/>
	<polygon class="st14" points="483.5,318.5 501,318.5 528.9,354.2 528.9,318.5 547.4,318.5 547.4,386.1 531,386.1 502.1,349 
		502.1,386.1 483.5,386.1 	"/>
	<polygon class="st14" points="559.4,318.5 578.2,318.5 578.2,369.7 610.9,369.7 610.9,386.1 559.4,386.1 	"/>
	<rect x="619.3" y="318.5" class="st14" width="18.8" height="67.6"/>
	<polygon class="st14" points="650.6,318.5 668.1,318.5 695.9,354.2 695.9,318.5 714.4,318.5 714.4,386.1 698,386.1 669.1,349 
		669.1,386.1 650.6,386.1 	"/>
	<polygon class="st14" points="726.4,318.5 780.8,318.5 780.8,334.4 745,334.4 745,344.6 777.5,344.6 777.5,359.4 745,359.4 
		745,370.2 781.3,370.2 781.3,386.1 726.4,386.1 	"/>
	<linearGradient id="SVGID_19_" gradientUnits="userSpaceOnUse" x1="273.1666" y1="283.0482" x2="291.0676" y2="283.0482">
		<stop  offset="0" style="stop-color:#B45227"/>
		<stop  offset="1" style="stop-color:#B45227"/>
	</linearGradient>
	<polyline class="st15" points="291.1,350.4 291.1,215.7 273.2,215.7 273.2,350.4 	"/>
	<g>
		<linearGradient id="SVGID_20_" gradientUnits="userSpaceOnUse" x1="183.1403" y1="269.256" x2="294.071" y2="269.256">
			<stop  offset="0" style="stop-color:#B45227"/>
			<stop  offset="1" style="stop-color:#B45227"/>
		</linearGradient>
		<path class="st16" d="M291.5,216.4c-2-2-4.7-2.8-7.2-2.6c-0.3,0-0.6,0-0.9,0h-50.1c-5.9,0-10.7,4.8-10.7,10.7v7.2h17.9h23.1
			l-77.8,77.8c-3.5,3.5-3.5,9.2,0,12.7c3.5,3.5,9.2,3.5,12.7,0l77.8-77.7v23.1v17.9h7.2c5.9,0,10.7-4.8,10.7-10.7v-50.1
			c0-0.3,0-0.6,0-0.9C294.3,221.1,293.4,218.4,291.5,216.4z"/>
		<path class="st17" d="M288.5,213.4c-2-2-4.7-2.8-7.2-2.6c-0.3,0-0.6,0-0.9,0h-50.1c-5.9,0-10.7,4.8-10.7,10.7v7.2h17.9h23.1
			l-77.8,77.8c-3.5,3.5-3.5,9.2,0,12.7c3.5,3.5,9.2,3.5,12.7,0l77.8-77.7v23.1v17.9h7.2c5.9,0,10.7-4.8,10.7-10.7v-50.1
			c0-0.3,0-0.6,0-0.9C291.3,218.1,290.4,215.4,288.5,213.4z"/>
	</g>
</g>
</svg>
