<?xml version="1.0" encoding="UTF-8"?>
<svg width="16px" height="18px" viewBox="0 0 16 18" version="1.1" xmlns="http://www.w3.org/2000/svg" xmlns:xlink="http://www.w3.org/1999/xlink">
    <!-- Generator: Sketch 49.3 (51167) - http://www.bohemiancoding.com/sketch -->
    <title>Group</title>
    <desc>Created with Sketch.</desc>
    <defs>
        <filter x="-0.2%" y="-0.6%" width="101.5%" height="101.2%" filterUnits="objectBoundingBox" id="filter-1">
            <feOffset dx="1" dy="0" in="SourceAlpha" result="shadowOffsetOuter1"></feOffset>
            <feColorMatrix values="0 0 0 0 0.490196078   0 0 0 0 0.490196078   0 0 0 0 0.490196078  0 0 0 0.5 0" type="matrix" in="shadowOffsetOuter1" result="shadowMatrixOuter1"></feColorMatrix>
            <feMerge>
                <feMergeNode in="shadowMatrixOuter1"></feMergeNode>
                <feMergeNode in="SourceGraphic"></feMergeNode>
            </feMerge>
        </filter>
    </defs>
    <g id="Symbols" stroke="none" stroke-width="1" fill="none" fill-rule="evenodd" stroke-linecap="round" stroke-linejoin="round">
        <g id="step_next" transform="translate(-103.000000, -47.000000)" stroke="#F36F20">
            <g id="02" filter="url(#filter-1)">
                <g id="Stacked-Group-Copy" transform="translate(34.000000, 24.000000)">
                    <g id="Group-2" transform="translate(54.000000, 24.000000)">
                        <g id="Group" transform="translate(16.000000, 0.000000)">
                            <path d="M13.2173913,9.39130435 C13.2173913,13.0413913 10.258087,16 6.60869565,16 C2.95791304,16 0,13.0413913 0,9.39130435 C0,5.74121739 2.95791304,2.7826087 6.60869565,2.7826087 C10.258087,2.7826087 13.2173913,5.74121739 13.2173913,9.39130435 L13.2173913,9.39130435 Z" id="Stroke-1304"></path>
                            <path d="M4.17391304,0 L8.34782609,0" id="Stroke-1305"></path>
                            <path d="M11.1304348,4.7186087 L12.3707826,3.47826087" id="Stroke-1306"></path>
                            <polyline id="Stroke-1307" points="5.56521739 2.81530435 5.56521739 0 7.65217391 0 7.65217391 2.81530435"></polyline>
                            <path d="M11.826087,3.47826087 L12.5217391,4.17391304" id="Stroke-1308"></path>
                            <path d="M6.60869565,9.39130435 L3.47826087,6.26086957" id="Stroke-1309"></path>
                        </g>
                    </g>
                </g>
            </g>
        </g>
    </g>
</svg>