<?xml version="1.0" encoding="UTF-8"?>
<svg width="20px" height="10px" viewBox="0 0 20 10" version="1.1" xmlns="http://www.w3.org/2000/svg" xmlns:xlink="http://www.w3.org/1999/xlink">
    <!-- Generator: Sketch 49.3 (51167) - http://www.bohemiancoding.com/sketch -->
    <title>ico/diamond_separator/orange Copy 2</title>
    <desc>Created with Sketch.</desc>
    <defs>
        <polygon id="path-1" points="19 10 14.3247368 5 10 9.6252302 5.67526316 5 1 10 5.67526316 15 10 10.3747698 14.3247368 15"></polygon>
    </defs>
    <g id="Page-1" stroke="none" stroke-width="1" fill="none" fill-rule="evenodd">
        <g id="10_pal_danube" transform="translate(-502.000000, -166.000000)">
            <g id="title" transform="translate(326.000000, 113.000000)">
                <g id="ico/diamond_separator/orange-Copy-2" transform="translate(176.000000, 48.000000)">
                    <mask id="mask-2" fill="white">
                        <use xlink:href="#path-1"></use>
                    </mask>
                    <use id="Mask" stroke="#F26F23" stroke-width="0.6" xlink:href="#path-1"></use>
                </g>
            </g>
        </g>
    </g>
</svg>