<?xml version="1.0" encoding="utf-8"?>
<!-- Generator: Adobe Illustrator 22.1.0, SVG Export Plug-In . SVG Version: 6.00 Build 0)  -->
<svg version="1.1" id="Livello_1" xmlns="http://www.w3.org/2000/svg" xmlns:xlink="http://www.w3.org/1999/xlink" x="0px" y="0px"
	 viewBox="0 0 56 56" style="enable-background:new 0 0 56 56;" xml:space="preserve">
<style type="text/css">
	.st0{fill:#FFFFFF;stroke:#CDCDCD;}
	.st1{fill:none;stroke:#7A7A7A;stroke-width:2;stroke-linecap:square;}
</style>
 <ellipse id="path-1_1_" class="st0" cx="28" cy="28" rx="27" ry="27" stroke-width="2"/>
<g id="Group-5" transform="translate(29, 26)">
    <path id="Line-3" class="st1" d="M-4-4.5v14.6"/>
    <path id="Line-3_1_" class="st1" d="M3-4.5v14.6"/>
</g>
</svg>
