<?xml version="1.0" encoding="UTF-8"?>
<svg width="56px" height="56px" viewBox="0 0 56 56" version="1.1" xmlns="http://www.w3.org/2000/svg" xmlns:xlink="http://www.w3.org/1999/xlink">
    <!-- Generator: Sketch 49.3 (51167) - http://www.bohemiancoding.com/sketch -->
    <title>ico/ic_loans</title>
    <desc>Created with Sketch.</desc>
    <defs></defs>
    <g id="Page-1" stroke="none" stroke-width="1" fill="none" fill-rule="evenodd">
        <g id="09_config" transform="translate(-354.000000, -1488.000000)">
            <g id="Stacked-Group" transform="translate(260.000000, 471.000000)">
                <g id="box3" transform="translate(0.000000, 272.000000)">
                    <g id="03" transform="translate(94.000000, 743.000000)">
                        <g id="ico/ic_info_account_variant" transform="translate(0.000000, 2.000000)">
                            <g>
                                <path d="M56,28 C56,43.4642727 43.4642727,56 28,56 C12.5357273,56 0,43.4642727 0,28 C0,12.5357273 12.5357273,0 28,0 C43.4642727,0 56,12.5357273 56,28" id="Fill-1" fill="#F5F5F5"></path>
                                <rect id="Rectangle" fill="#FFFFFF" opacity="0" x="0" y="0" width="56" height="56"></rect>
                                <path d="M35.5002455,8.39700909 C37.6129727,7.85673636 39.7645182,9.12819091 40.3111545,11.2396455 L42.8890636,20.5496455 C43.5069727,22.6407364 42.3157,24.8381 40.2265182,25.4617364 L22.6813364,30.3203727 C20.5692455,30.8606455 18.4170636,29.5891909 17.8710636,27.4777364 L15.2931545,18.1677364 C14.6746091,16.0760091 15.8658818,13.8792818 17.9563364,13.2556455 L35.5002455,8.39700909 Z M18.3464273,14.6651909 L35.8903364,9.80655455 C37.2349727,9.46546364 38.6012455,10.2742818 38.9487,11.6170091 L39.0104273,11.8391 L16.7459727,18.0048273 L16.6848818,17.7827364 C16.2909727,16.4501909 17.0507909,15.0514636 18.3814273,14.6550091 L18.3464273,14.6651909 Z M39.8357909,24.0521909 L22.2912455,28.9108273 C20.9466091,29.2557364 19.5758818,28.4469182 19.2284273,27.1022818 L17.4332455,20.6221909 L39.7377909,14.4456455 L41.5323364,20.9251 C41.9256091,22.2551 41.1696091,23.6519182 39.8415182,24.0509182 L39.8357909,24.0521909 Z" id="Fill-1" fill="#4C4C4C"></path>
                                <path d="M19.2630455,27.0923545 C19.6105,28.4344455 20.9767727,29.2439 22.3207727,28.9028091 L39.8653182,24.0441727 C41.1959545,23.6477182 41.9551364,22.2489909 41.5618636,20.9170818 L39.7673182,14.4376273 L17.4691364,20.6129 L19.2630455,27.0923545 Z" id="Fill-3" fill="#FFFFFF"></path>
                                <path d="M38.9543,11.6151636 C38.6062091,10.2705273 37.2361182,9.46170909 35.8908455,9.80661818 L18.3463,14.6646182 C17.0182091,15.0636182 16.2628455,16.4610727 16.6554818,17.7904364 L16.7172091,18.0125273 L39.0160273,11.8372545 L38.9543,11.6151636 Z" id="Fill-5" fill="#FFFFFF"></path>
                                <path d="M38.0382545,20.2433636 C37.8957091,20.286 37.8136182,20.4349091 37.8537091,20.5774545 L38.2864364,22.1390909 C38.3258909,22.2829091 38.4748,22.3669091 38.6179818,22.3274545 C38.7624364,22.2873636 38.8464364,22.1390909 38.8063455,21.9946364 L38.3736182,20.4336364 C38.3348,20.2904545 38.1878,20.2051818 38.0439818,20.2420909" id="Fill-7" fill="#FFFFFF"></path>
                                <path d="M37.7629636,19.2048818 C37.0483273,19.4059727 36.6296,20.1460636 36.8243273,20.8626091 L37.2564182,22.4242455 C37.4562364,23.1427 38.2001455,23.5639727 38.9179636,23.3654273 C39.6364182,23.1662455 40.0576909,22.4223364 39.8591455,21.7032455 L39.4264182,20.1422455 C39.2253273,19.4276091 38.4858727,19.0082455 37.7693273,19.2036091 L37.7629636,19.2048818 Z M38.8123273,21.9934273 C38.8307818,22.1429727 38.7238727,22.2791545 38.5736909,22.2976091 C38.4553273,22.3116091 38.3407818,22.2467 38.2917818,22.1372455 L37.8590545,20.5762455 C37.8412364,20.4260636 37.9475091,20.2905182 38.0970545,20.2720636 C38.2166909,20.2574273 38.3312364,20.3223364 38.3802364,20.4317909 L38.8123273,21.9934273 Z" id="Fill-9" fill="#4C4C4C"></path>
                                <path d="M34.9527818,20.9968818 C34.8115091,21.0420636 34.7319636,21.1922455 34.7746,21.3347909 L35.2359636,22.8875182 C35.2792364,23.0307 35.4294182,23.1121545 35.5726,23.0695182 C35.7151455,23.0268818 35.7966,22.8767 35.7539636,22.7335182 L35.2919636,21.1807909 C35.2499636,21.0382455 35.1016909,20.9561545 34.9585091,20.9949727" id="Fill-11" fill="#FFFFFF"></path>
                                <path d="M34.6346,20.0715455 C33.9225091,20.2751818 33.5076,21.0133636 33.7010545,21.728 L34.1337818,23.289 C34.3323273,24.0080909 35.0768727,24.4287273 35.7953273,24.2301818 C36.5137818,24.031 36.9350545,23.2870909 36.7365091,22.5686364 L36.3037818,21.007 C36.1026909,20.2923636 35.3626,19.873 34.6460545,20.0683636 L34.6346,20.0715455 Z M35.6833273,22.8600909 C35.7017818,23.0096364 35.5955091,23.1458182 35.4453273,23.1636364 C35.3263273,23.1782727 35.2117818,23.1133636 35.1627818,23.0039091 L34.7306909,21.4422727 C34.7122364,21.2927273 34.8191455,21.1571818 34.9686909,21.1387273 C35.0876909,21.1240909 35.2028727,21.189 35.2512364,21.2984545 L35.6833273,22.8600909 Z" id="Fill-13" fill="#4C4C4C"></path>
                                <path d="M21.9458273,28.8494818 C21.4660091,29.0079364 20.9473727,29.0015727 20.4713727,28.8323 C19.8267364,28.5478455 19.3602818,27.9687545 19.2196455,27.2783 C19.1331,26.9887545 19.2979182,26.6839364 19.5874636,26.5967545 C19.8776455,26.5108455 20.1824636,26.6750273 20.2690091,26.9652091 L20.2690091,26.9664818 C20.3224636,27.3285727 20.5451909,27.6435727 20.8684636,27.8153909 C21.2661909,27.9013 21.6811,27.8376636 22.0349182,27.6359364 C22.2971,27.4800273 22.6356455,27.5659364 22.7915545,27.8281182 C22.9474636,28.0903 22.8609182,28.4288455 22.5987364,28.5847545 C22.3938273,28.7018455 22.1755545,28.7947545 21.9496455,28.8615727" id="Fill-15" fill="#FCE6D6"></path>
                                <path d="M19.4351818,26.1039545 C19.1456364,26.1898636 18.8401818,26.0250455 18.7549091,25.7348636 L18.4418182,24.6855 C18.3565455,24.3953182 18.522,24.0905 18.8121818,24.0045909 C19.1017273,23.9186818 19.4059091,24.0841364 19.4924545,24.3730455 L19.8042727,25.4230455 C19.8908182,25.7132273 19.7253636,26.0180455 19.4351818,26.1039545" id="Fill-17" fill="#FCE6D6"></path>
                                <path d="M22.2820182,27.9868909 C21.8976545,28.1103455 21.3828364,28.1892545 20.8724727,28.0021636 C20.3003818,27.7921636 19.8899273,27.3110727 19.6525636,26.5741636 C19.5641091,26.2992545 19.7162,26.0046182 19.9904727,25.9168 C20.2653818,25.8283455 20.5593818,25.9791636 20.6478364,26.2540727 C20.7814727,26.6696182 20.9781091,26.9273455 21.2332909,27.0208909 C21.7092909,27.1952545 22.3373818,26.8261636 22.3443818,26.8229818 C22.5887455,26.6708909 22.9113818,26.7453455 23.0641091,26.9916182 C23.2162,27.2359818 23.1411091,27.5579818 22.8961091,27.7100727 C22.8464727,27.7412545 22.6129273,27.8806182 22.2820182,27.9868909" id="Fill-19" fill="#F4F4F4"></path>
                                <path d="M19.8304273,25.4191 C19.5555182,25.5075545 19.2615182,25.3561 19.1730636,25.0811909 L18.8536091,24.0865545 C18.7651545,23.8116455 18.9159727,23.5176455 19.1908818,23.4291909 C19.4657909,23.3407364 19.7604273,23.4915545 19.8482455,23.7664636 L20.1677,24.7617364 C20.2567909,25.0366455 20.1053364,25.3306455 19.8304273,25.4191" id="Fill-21" fill="#F4F4F4"></path>
                                <path d="M23.3931727,18.6887909 C23.3702636,21.8222455 20.8101727,24.3441545 17.6767182,24.3206091 C14.5426273,24.2970636 12.0213545,21.7376091 12.0442636,18.6035182 C12.0678091,15.4694273 14.6279,12.9481545 17.7613545,12.9717 C20.8954455,12.9952455 23.4167182,15.5547 23.3931727,18.6887909" id="Fill-23" fill="#FFFFFF"></path>
                                <path d="M17.6764636,23.7359182 C14.8452818,23.7142818 12.5588273,21.3775545 12.5804636,18.5260091 C12.6014636,15.6744636 14.9229182,13.3714636 17.7541,13.3931 C20.5859182,13.4141 22.8723727,15.7514636 22.8507364,18.6030091 C22.8297364,21.4545545 20.5082818,23.7569182 17.6764636,23.7359182 M17.7636455,12.1534636 C14.2515545,12.1273727 11.3726455,14.9821 11.3465545,18.5164636 C11.3198273,22.0514636 14.1554636,24.9488273 17.6675545,24.9749182 C21.1796455,25.0016455 24.0585545,22.1469182 24.0852818,18.6119182 C24.1113727,15.0775545 21.2757364,12.1801909 17.7636455,12.1534636" id="Fill-25" fill="#4C4C4C"></path>
                                <path d="M17.9816,18.1385273 C17.3834182,17.8839818 17.2103273,17.7312545 17.2128727,17.4576182 C17.2141455,17.2393455 17.3751455,16.9854364 17.8231455,16.9886182 C18.2469636,16.9918 18.5110545,17.1464364 18.6236909,17.2126182 L18.7407818,17.2813455 L19.0004182,16.6093455 L18.9157818,16.5590727 C18.6726909,16.4133455 18.4009636,16.3287091 18.0878727,16.3026182 L18.0929636,15.6293455 L17.4375091,15.6248909 L17.4317818,16.3388909 C16.8017818,16.4750727 16.3970545,16.9351636 16.3926,17.5346182 C16.3868727,18.2581636 16.9608727,18.5897091 17.5813273,18.8404364 C18.0757818,19.0466182 18.2768727,19.2534364 18.2743273,19.5544364 C18.2717818,19.8872545 17.9911455,20.1087091 17.5743273,20.1055273 C17.2523273,20.1029818 16.9176,19.9998909 16.6586,19.8223455 L16.5351455,19.7383455 L16.2869636,20.4218 L16.3576,20.4733455 C16.5956,20.6477091 16.9761455,20.7718 17.3509636,20.8004364 L17.3452364,21.4991636 L18.0076909,21.5042545 L18.0134182,20.7692545 C18.6631455,20.6273455 19.0965091,20.1328909 19.1009636,19.5124364 C19.1060545,18.8805273 18.7706909,18.4694364 17.9816,18.1385273" id="Fill-27" fill="#4C4C4C"></path>
                                <path d="M17.4453364,21.4017364 L17.9098818,21.4049182 L17.9149727,20.6896455 L17.9919727,20.6724636 C18.6016091,20.5394636 18.9980636,20.0838273 19.0018818,19.5117364 C19.0069727,18.9186455 18.7002455,18.5470091 17.9436091,18.2301 L17.9429727,18.2294636 C17.3791545,17.9895545 17.1118818,17.8132818 17.1137909,17.4575545 C17.1157,17.1743727 17.3333364,16.8899182 17.8144273,16.8899182 L17.8239727,16.8899182 C18.2745182,16.8937364 18.5538818,17.0572818 18.6735182,17.1272818 L18.6907,17.1374636 L18.8784273,16.6512818 L18.8644273,16.6436455 C18.6340636,16.5055545 18.3776091,16.4260091 18.0791545,16.4005545 L17.9887909,16.3929182 L17.9932455,15.7272818 L17.5357,15.7241 L17.5299727,16.4190091 L17.4529727,16.4355545 C16.8637,16.5628273 16.4952455,16.9834636 16.4914273,17.5351909 C16.4863364,18.1626455 16.9381545,18.4738273 17.6177909,18.7481 C18.1497909,18.9701909 18.3757,19.2113727 18.3731545,19.5543727 C18.3718818,19.7465545 18.2891545,19.9164636 18.1408818,20.0335545 C17.9970636,20.1468273 17.7972455,20.2085545 17.5738818,20.2041 C17.2321545,20.2015545 16.8777,20.0921 16.6027909,19.9043727 L16.5837,19.8916455 L16.4048818,20.3861 L16.4163364,20.3943727 C16.6371545,20.5560091 16.9986091,20.6737364 17.3581545,20.7017364 L17.4504273,20.7093727 L17.4453364,21.4017364 Z M18.1065182,21.6034636 L17.2461545,21.5977364 L17.2512455,20.8901 C16.8878818,20.8474636 16.5302455,20.7214636 16.2992455,20.5534636 L16.1687909,20.4573727 L16.4850636,19.5849182 L16.7141545,19.7414636 C16.9578818,19.9075545 17.2722455,20.0042818 17.5751545,20.0068273 C17.7552455,20.0106455 17.9098818,19.9629182 18.0180636,19.8782818 C18.1205182,19.7981 18.1746091,19.6854636 18.1752455,19.5537364 C18.1771545,19.3392818 18.0696091,19.1509182 17.5433364,18.9313727 C16.9228818,18.6806455 16.2884273,18.3179182 16.2935182,17.5339182 C16.2979727,16.9198273 16.7039727,16.4272818 17.3333364,16.2605545 L17.3397,15.5255545 L18.1924273,15.5312818 L18.1873364,16.2128273 C18.4775182,16.2484636 18.7333364,16.3343727 18.9668818,16.4737364 L19.1221545,16.5672818 L18.7912455,17.4257364 L18.5736091,17.2978273 C18.4673364,17.2361 18.2197909,17.0903727 17.8227,17.0878273 C17.4587,17.0884636 17.3123364,17.2781 17.3117,17.4588273 C17.3097909,17.6567364 17.4116091,17.7891 18.0199727,18.0474636 C18.8408818,18.3917364 19.2055182,18.8435545 19.2004273,19.5136455 C19.1953364,20.1563727 18.7708818,20.6724636 18.1116091,20.8468273 L18.1065182,21.6034636 Z" id="Fill-29" fill="#4C4C4C"></path>
                                <path d="M41.3549182,47.8381909 L15.1189182,47.8381909 C12.8509182,47.8381909 10.9952818,45.9825545 10.9952818,43.7145545 L10.9952818,26.2285545 C10.9952818,23.9605545 12.8509182,22.1049182 15.1189182,22.1049182 L41.3549182,22.1049182 C43.6229182,22.1049182 45.4785545,23.9605545 45.4785545,26.2285545 L45.4785545,43.7145545 C45.4785545,45.9825545 43.6229182,47.8381909 41.3549182,47.8381909" id="Fill-31" fill="#FFFFFF"></path>
                                <rect id="Rectangle-12" fill="#FFFFFF" x="32.4545455" y="29.9090909" width="12.0909091" height="7"></rect>
                                <path d="M37.8040091,33.8850909 C37.8040091,34.6328182 37.1975545,35.2392727 36.4491909,35.2392727 C35.7014636,35.2392727 35.0950091,34.6328182 35.0950091,33.8850909 C35.0950091,33.1373636 35.7014636,32.5309091 36.4491909,32.5309091 C37.1975545,32.5309091 37.8040091,33.1373636 37.8040091,33.8850909" id="Fill-33" fill="#4C4C4C"></path>
                                <path d="M44.4429364,28.9395909 L44.0254818,28.8396818 C43.8364818,28.7938636 43.6404818,28.7709545 43.4425727,28.7709545 L33.8163,28.7709545 C32.3825727,28.7709545 31.2154818,29.9380455 31.2154818,31.3717727 L31.2154818,35.8600455 C31.2154818,37.2931364 32.3825727,38.4602273 33.8163,38.4602273 L43.4425727,38.4602273 C43.6404818,38.4602273 43.8364818,38.4373182 44.0254818,38.3921364 L44.4429364,38.2915909 L44.4429364,45.2826818 C44.4429364,45.8344091 43.9943,46.2836818 43.4425727,46.2836818 L13.2044818,46.2836818 C12.6527545,46.2836818 12.2034818,45.8344091 12.2034818,45.2826818 L12.2034818,23.9581364 C12.2034818,23.4064091 12.6527545,22.9571364 13.2044818,22.9571364 L43.4425727,22.9571364 C43.9943,22.9571364 44.4429364,23.4064091 44.4429364,23.9581364 L44.4429364,28.9395909 Z M44.4429364,35.8600455 C44.4429364,36.4111364 43.9943,36.8604091 43.4425727,36.8604091 L33.8163,36.8604091 C33.2645727,36.8604091 32.8159364,36.4111364 32.8159364,35.8600455 L32.8159364,31.3717727 C32.8159364,30.8200455 33.2645727,30.3707727 33.8163,30.3707727 L43.4425727,30.3707727 C43.9943,30.3707727 44.4429364,30.8200455 44.4429364,31.3717727 L44.4429364,35.8600455 Z M44.3901182,21.5405909 L12.2569364,21.5405909 C11.2654818,21.9300455 10.6030273,22.8941364 10.6030273,23.9581364 L10.6030273,45.2826818 C10.6030273,46.7164091 11.7701182,47.8828636 13.2044818,47.8828636 L43.4425727,47.8828636 C44.8763,47.8828636 46.0433909,46.7164091 46.0433909,45.2826818 L46.0433909,23.9581364 C46.0433909,22.8941364 45.3815727,21.9300455 44.3901182,21.5405909 L44.3901182,21.5405909 Z" id="Fill-37" fill="#4C4C4C"></path>
                            </g>
                        </g>
                    </g>
                </g>
            </g>
        </g>
    </g>
</svg>