<?xml version="1.0" encoding="UTF-8"?>
<svg width="25px" height="23px" viewBox="0 0 25 23" version="1.1" xmlns="http://www.w3.org/2000/svg" xmlns:xlink="http://www.w3.org/1999/xlink">
    <!-- Generator: Sketch 49.3 (51167) - http://www.bohemiancoding.com/sketch -->
    <title>ico/share</title>
    <desc>Created with Sketch.</desc>
    <defs></defs>
    <g id="ico/share" stroke="none" stroke-width="1" fill="none" fill-rule="evenodd">
        <path d="M20.6285714,5.58171429 C20.6285714,5.91308514 20.3599423,6.18171429 20.0285714,6.18171429 C19.6972006,6.18171429 19.4285714,5.91308514 19.4285714,5.58171429 C19.4285714,4.84416864 18.8264905,4.2 18.1428571,4.2 L2.512,4.2 C1.82096059,4.2 1.2,4.85181736 1.2,5.58171429 L1.2,19.9988571 C1.2,20.7021451 1.79455685,21.2857143 2.512,21.2857143 C2.84337085,21.2857143 3.112,21.5543434 3.112,21.8857143 C3.112,22.2170851 2.84337085,22.4857143 2.512,22.4857143 C1.13677369,22.4857143 0,21.3699487 0,19.9988571 L0,5.58171429 C0,4.20174298 1.14485296,3 2.512,3 L18.1428571,3 C19.5080313,3 20.6285714,4.19887005 20.6285714,5.58171429 Z" id="Stroke-744" fill="#262626" fill-rule="nonzero" transform="translate(10.314286, 12.742857) scale(-1, 1) rotate(180.000000) translate(-10.314286, -12.742857) "></path>
        <path d="M6,1.2 C5.5581722,1.2 5.2,1.5581722 5.2,2 L5.2,17.4285714 C5.2,17.8703992 5.5581722,18.2285714 6,18.2285714 L22.5714286,18.2285714 C23.0132564,18.2285714 23.3714286,17.8703992 23.3714286,17.4285714 L23.3714286,2 C23.3714286,1.5581722 23.0132564,1.2 22.5714286,1.2 L6,1.2 Z M6,0 L22.5714286,0 C23.6759981,-2.02906125e-16 24.5714286,0.8954305 24.5714286,2 L24.5714286,17.4285714 C24.5714286,18.5331409 23.6759981,19.4285714 22.5714286,19.4285714 L6,19.4285714 C4.8954305,19.4285714 4,18.5331409 4,17.4285714 L4,2 C4,0.8954305 4.8954305,2.02906125e-16 6,0 Z" id="Rectangle" fill="#262626" fill-rule="nonzero" transform="translate(14.285714, 9.714286) scale(-1, 1) translate(-14.285714, -9.714286) "></path>
        <path d="M12.1756033,5.02413142 C11.941362,4.78974361 11.9414808,4.40984464 12.1758686,4.17560333 C12.4102564,3.94136201 12.7901554,3.94148077 13.0243967,4.17586858 L17.592968,8.74729715 C17.8271058,8.98158135 17.8271058,9.36127579 17.592968,9.59555999 L13.0243967,14.1669886 C12.7901554,14.4013764 12.4102564,14.4014951 12.1758686,14.1672538 C11.9414808,13.9330125 11.941362,13.5531135 12.1756033,13.3187257 L16.3203084,9.17142857 L12.1756033,5.02413142 Z" id="Stroke-99" fill="#262626" fill-rule="nonzero"></path>
    </g>
</svg>