<?xml version="1.0" encoding="utf-8"?>
<!-- Generator: Adobe Illustrator 24.1.2, SVG Export Plug-In . SVG Version: 6.00 Build 0)  -->
<svg version="1.1" id="belgio" xmlns="http://www.w3.org/2000/svg" xmlns:xlink="http://www.w3.org/1999/xlink" x="0px" y="0px"
	 viewBox="0 0 356.1 291.4" style="enable-background:new 0 0 356.1 291.4;" xml:space="preserve">
<style type="text/css">
	.chapterCircle0{fill:#FFFFFF;}
	.chapterCircle1{opacity:0.5;fill:#FFFFFF;enable-background:new;}
</style>
<g id="map">
	<circle class="chapterCircle0" cx="352" cy="149.7" r="2.8"/>
	<circle class="chapterCircle0" cx="352" cy="157.8" r="2.8"/>
	<circle class="chapterCircle0" cx="352" cy="165.9" r="2.8"/>
	<circle class="chapterCircle0" cx="344" cy="149.7" r="2.8"/>
	<circle class="chapterCircle0" cx="344" cy="157.8" r="2.8"/>
	<circle class="chapterCircle0" cx="344" cy="165.9" r="2.8"/>
	<circle class="chapterCircle0" cx="344" cy="174" r="2.8"/>
	<circle class="chapterCircle0" cx="335.9" cy="125.4" r="2.8"/>
	<circle class="chapterCircle0" cx="335.9" cy="133.5" r="2.8"/>
	<circle class="chapterCircle0" cx="335.9" cy="141.6" r="2.8"/>
	<circle class="chapterCircle0" cx="335.9" cy="149.7" r="2.8"/>
	<circle class="chapterCircle0" cx="335.9" cy="157.8" r="2.8"/>
	<circle class="chapterCircle0" cx="335.9" cy="165.9" r="2.8"/>
	<circle class="chapterCircle0" cx="335.9" cy="174" r="2.8"/>
	<circle class="chapterCircle0" cx="335.9" cy="182.1" r="2.8"/>
	<circle class="chapterCircle0" cx="335.9" cy="190.2" r="2.8"/>
	<circle class="chapterCircle0" cx="327.8" cy="117.3" r="2.8"/>
	<circle class="chapterCircle0" cx="327.8" cy="125.4" r="2.8"/>
	<circle class="chapterCircle0" cx="327.8" cy="133.5" r="2.8"/>
	<circle class="chapterCircle0" cx="327.8" cy="141.6" r="2.8"/>
	<circle class="chapterCircle0" cx="327.8" cy="149.7" r="2.8"/>
	<circle class="chapterCircle0" cx="327.8" cy="157.8" r="2.8"/>
	<circle class="chapterCircle0" cx="327.8" cy="165.9" r="2.8"/>
	<circle class="chapterCircle0" cx="327.8" cy="174" r="2.8"/>
	<circle class="chapterCircle0" cx="327.8" cy="182.1" r="2.8"/>
	<circle class="chapterCircle0" cx="327.8" cy="190.2" r="2.8"/>
	<circle class="chapterCircle0" cx="319.7" cy="109.3" r="2.8"/>
	<circle class="chapterCircle0" cx="319.7" cy="117.3" r="2.8"/>
	<circle class="chapterCircle0" cx="319.7" cy="125.4" r="2.8"/>
	<circle class="chapterCircle0" cx="319.7" cy="133.5" r="2.8"/>
	<circle class="chapterCircle0" cx="319.7" cy="141.6" r="2.8"/>
	<circle class="chapterCircle0" cx="319.7" cy="149.7" r="2.8"/>
	<circle class="chapterCircle0" cx="319.7" cy="157.8" r="2.8"/>
	<circle class="chapterCircle0" cx="319.7" cy="165.9" r="2.8"/>
	<circle class="chapterCircle0" cx="319.7" cy="174" r="2.8"/>
	<circle class="chapterCircle0" cx="319.7" cy="182.1" r="2.8"/>
	<circle class="chapterCircle0" cx="319.7" cy="190.2" r="2.8"/>
	<circle class="chapterCircle0" cx="311.6" cy="109.3" r="2.8"/>
	<circle class="chapterCircle0" cx="311.6" cy="117.3" r="2.8"/>
	<circle class="chapterCircle0" cx="311.6" cy="125.4" r="2.8"/>
	<circle class="chapterCircle0" cx="311.6" cy="133.5" r="2.8"/>
	<circle class="chapterCircle0" cx="311.6" cy="141.6" r="2.8"/>
	<circle class="chapterCircle0" cx="311.6" cy="149.7" r="2.8"/>
	<circle class="chapterCircle0" cx="311.6" cy="157.8" r="2.8"/>
	<circle class="chapterCircle0" cx="311.6" cy="165.9" r="2.8"/>
	<circle class="chapterCircle0" cx="311.6" cy="174" r="2.8"/>
	<circle class="chapterCircle0" cx="311.6" cy="182.1" r="2.8"/>
	<circle class="chapterCircle0" cx="311.6" cy="190.2" r="2.8"/>
	<circle class="chapterCircle0" cx="311.6" cy="198.3" r="2.8"/>
	<circle class="chapterCircle0" cx="303.5" cy="109.3" r="2.8"/>
	<circle class="chapterCircle0" cx="303.5" cy="117.3" r="2.8"/>
	<circle class="chapterCircle0" cx="303.5" cy="125.4" r="2.8"/>
	<circle class="chapterCircle0" cx="303.5" cy="133.5" r="2.8"/>
	<circle class="chapterCircle0" cx="303.5" cy="141.6" r="2.8"/>
	<circle class="chapterCircle0" cx="303.5" cy="149.7" r="2.8"/>
	<circle class="chapterCircle0" cx="303.5" cy="157.8" r="2.8"/>
	<circle class="chapterCircle0" cx="303.5" cy="165.9" r="2.8"/>
	<circle class="chapterCircle0" cx="303.5" cy="174" r="2.8"/>
	<circle class="chapterCircle0" cx="303.5" cy="182.1" r="2.8"/>
	<circle class="chapterCircle0" cx="303.5" cy="190.2" r="2.8"/>
	<circle class="chapterCircle0" cx="303.5" cy="198.3" r="2.8"/>
	<circle class="chapterCircle0" cx="303.5" cy="206.4" r="2.8"/>
	<circle class="chapterCircle0" cx="303.5" cy="214.5" r="2.8"/>
	<circle class="chapterCircle0" cx="303.5" cy="222.6" r="2.8"/>
	<circle class="chapterCircle0" cx="303.5" cy="263" r="2.8"/>
	<circle class="chapterCircle0" cx="303.5" cy="271.1" r="2.8"/>
	<circle class="chapterCircle0" cx="303.5" cy="279.2" r="2.8"/>
	<circle class="chapterCircle0" cx="295.4" cy="44.5" r="2.8"/>
	<circle class="chapterCircle0" cx="295.4" cy="52.6" r="2.8"/>
	<circle class="chapterCircle0" cx="295.4" cy="60.7" r="2.8"/>
	<circle class="chapterCircle0" cx="295.4" cy="68.8" r="2.8"/>
	<circle class="chapterCircle0" cx="295.4" cy="76.9" r="2.8"/>
	<circle class="chapterCircle0" cx="295.4" cy="109.3" r="2.8"/>
	<circle class="chapterCircle0" cx="295.4" cy="117.3" r="2.8"/>
	<circle class="chapterCircle0" cx="295.4" cy="125.4" r="2.8"/>
	<circle class="chapterCircle0" cx="295.4" cy="133.5" r="2.8"/>
	<circle class="chapterCircle0" cx="295.4" cy="141.6" r="2.8"/>
	<circle class="chapterCircle0" cx="295.4" cy="149.7" r="2.8"/>
	<circle class="chapterCircle0" cx="295.4" cy="157.8" r="2.8"/>
	<circle class="chapterCircle0" cx="295.4" cy="165.9" r="2.8"/>
	<circle class="chapterCircle0" cx="295.4" cy="174" r="2.8"/>
	<circle class="chapterCircle0" cx="295.4" cy="182.1" r="2.8"/>
	<circle class="chapterCircle0" cx="295.4" cy="190.2" r="2.8"/>
	<circle class="chapterCircle0" cx="295.4" cy="198.3" r="2.8"/>
	<circle class="chapterCircle0" cx="295.4" cy="206.4" r="2.8"/>
	<circle class="chapterCircle0" cx="295.4" cy="214.5" r="2.8"/>
	<circle class="chapterCircle0" cx="295.4" cy="222.6" r="2.8"/>
	<circle class="chapterCircle0" cx="295.4" cy="230.6" r="2.8"/>
	<circle class="chapterCircle0" cx="295.4" cy="238.8" r="2.8"/>
	<circle class="chapterCircle0" cx="295.4" cy="246.8" r="2.8"/>
	<circle class="chapterCircle0" cx="295.4" cy="254.9" r="2.8"/>
	<circle class="chapterCircle0" cx="295.4" cy="263" r="2.8"/>
	<circle class="chapterCircle0" cx="295.4" cy="271.1" r="2.8"/>
	<circle class="chapterCircle0" cx="295.4" cy="279.2" r="2.8"/>
	<circle class="chapterCircle0" cx="295.4" cy="287.3" r="2.8"/>
	<circle class="chapterCircle0" cx="287.3" cy="44.5" r="2.8"/>
	<circle class="chapterCircle0" cx="287.3" cy="52.6" r="2.8"/>
	<circle class="chapterCircle0" cx="287.3" cy="60.7" r="2.8"/>
	<circle class="chapterCircle0" cx="287.3" cy="68.8" r="2.8"/>
	<circle class="chapterCircle0" cx="287.3" cy="76.9" r="2.8"/>
	<circle class="chapterCircle0" cx="287.3" cy="85" r="2.8"/>
	<circle class="chapterCircle0" cx="287.3" cy="109.3" r="2.8"/>
	<circle class="chapterCircle0" cx="287.3" cy="117.3" r="2.8"/>
	<circle class="chapterCircle0" cx="287.3" cy="125.4" r="2.8"/>
	<circle class="chapterCircle0" cx="287.3" cy="133.5" r="2.8"/>
	<circle class="chapterCircle0" cx="287.3" cy="141.6" r="2.8"/>
	<circle class="chapterCircle0" cx="287.3" cy="149.7" r="2.8"/>
	<circle class="chapterCircle0" cx="287.3" cy="157.8" r="2.8"/>
	<circle class="chapterCircle0" cx="287.3" cy="165.9" r="2.8"/>
	<circle class="chapterCircle0" cx="287.3" cy="174" r="2.8"/>
	<circle class="chapterCircle0" cx="287.3" cy="182.1" r="2.8"/>
	<circle class="chapterCircle0" cx="287.3" cy="190.2" r="2.8"/>
	<circle class="chapterCircle0" cx="287.3" cy="198.3" r="2.8"/>
	<circle class="chapterCircle0" cx="287.3" cy="206.4" r="2.8"/>
	<circle class="chapterCircle0" cx="287.3" cy="214.5" r="2.8"/>
	<circle class="chapterCircle0" cx="287.3" cy="222.6" r="2.8"/>
	<circle class="chapterCircle0" cx="287.3" cy="230.6" r="2.8"/>
	<circle class="chapterCircle0" cx="287.3" cy="238.8" r="2.8"/>
	<circle class="chapterCircle0" cx="287.3" cy="246.8" r="2.8"/>
	<circle class="chapterCircle0" cx="287.3" cy="254.9" r="2.8"/>
	<circle class="chapterCircle0" cx="287.3" cy="263" r="2.8"/>
	<circle class="chapterCircle0" cx="287.3" cy="271.1" r="2.8"/>
	<circle class="chapterCircle0" cx="287.3" cy="279.2" r="2.8"/>
	<circle class="chapterCircle0" cx="287.3" cy="287.3" r="2.8"/>
	<circle class="chapterCircle0" cx="279.2" cy="44.5" r="2.8"/>
	<circle class="chapterCircle0" cx="279.2" cy="52.6" r="2.8"/>
	<circle class="chapterCircle0" cx="279.2" cy="60.7" r="2.8"/>
	<circle class="chapterCircle0" cx="279.2" cy="68.8" r="2.8"/>
	<circle class="chapterCircle0" cx="279.2" cy="76.9" r="2.8"/>
	<circle class="chapterCircle0" cx="279.2" cy="85" r="2.8"/>
	<circle class="chapterCircle0" cx="279.2" cy="93.1" r="2.8"/>
	<circle class="chapterCircle0" cx="279.2" cy="101.2" r="2.8"/>
	<circle class="chapterCircle0" cx="279.2" cy="109.3" r="2.8"/>
	<circle class="chapterCircle0" cx="279.2" cy="117.3" r="2.8"/>
	<circle class="chapterCircle0" cx="279.2" cy="125.4" r="2.8"/>
	<circle class="chapterCircle0" cx="279.2" cy="133.5" r="2.8"/>
	<circle class="chapterCircle0" cx="279.2" cy="141.6" r="2.8"/>
	<circle class="chapterCircle0" cx="279.2" cy="149.7" r="2.8"/>
	<circle class="chapterCircle0" cx="279.2" cy="157.8" r="2.8"/>
	<circle class="chapterCircle0" cx="279.2" cy="165.9" r="2.8"/>
	<circle class="chapterCircle0" cx="279.2" cy="174" r="2.8"/>
	<circle class="chapterCircle0" cx="279.2" cy="182.1" r="2.8"/>
	<circle class="chapterCircle0" cx="279.2" cy="190.2" r="2.8"/>
	<circle class="chapterCircle0" cx="279.2" cy="198.3" r="2.8"/>
	<circle class="chapterCircle0" cx="279.2" cy="206.4" r="2.8"/>
	<circle class="chapterCircle0" cx="279.2" cy="214.5" r="2.8"/>
	<circle class="chapterCircle0" cx="279.2" cy="222.6" r="2.8"/>
	<circle class="chapterCircle0" cx="279.2" cy="230.6" r="2.8"/>
	<circle class="chapterCircle0" cx="279.2" cy="238.8" r="2.8"/>
	<circle class="chapterCircle0" cx="279.2" cy="246.8" r="2.8"/>
	<circle class="chapterCircle0" cx="279.2" cy="254.9" r="2.8"/>
	<circle class="chapterCircle0" cx="279.2" cy="263" r="2.8"/>
	<circle class="chapterCircle0" cx="279.2" cy="271.1" r="2.8"/>
	<circle class="chapterCircle0" cx="279.2" cy="279.2" r="2.8"/>
	<circle class="chapterCircle0" cx="279.2" cy="287.3" r="2.8"/>
	<circle class="chapterCircle0" cx="271.1" cy="36.4" r="2.8"/>
	<circle class="chapterCircle0" cx="271.1" cy="44.5" r="2.8"/>
	<circle class="chapterCircle0" cx="271.1" cy="52.6" r="2.8"/>
	<circle class="chapterCircle0" cx="271.1" cy="60.7" r="2.8"/>
	<circle class="chapterCircle0" cx="271.1" cy="68.8" r="2.8"/>
	<circle class="chapterCircle0" cx="271.1" cy="76.9" r="2.8"/>
	<circle class="chapterCircle0" cx="271.1" cy="85" r="2.8"/>
	<circle class="chapterCircle0" cx="271.1" cy="93.1" r="2.8"/>
	<circle class="chapterCircle0" cx="271.1" cy="101.2" r="2.8"/>
	<circle class="chapterCircle0" cx="271.1" cy="109.3" r="2.8"/>
	<circle class="chapterCircle0" cx="271.1" cy="117.3" r="2.8"/>
	<circle class="chapterCircle0" cx="271.1" cy="125.4" r="2.8"/>
	<circle class="chapterCircle0" cx="271.1" cy="133.5" r="2.8"/>
	<circle class="chapterCircle0" cx="271.1" cy="141.6" r="2.8"/>
	<circle class="chapterCircle0" cx="271.1" cy="149.7" r="2.8"/>
	<circle class="chapterCircle0" cx="271.1" cy="157.8" r="2.8"/>
	<circle class="chapterCircle0" cx="271.1" cy="165.9" r="2.8"/>
	<circle class="chapterCircle0" cx="271.1" cy="174" r="2.8"/>
	<circle class="chapterCircle0" cx="271.1" cy="182.1" r="2.8"/>
	<circle class="chapterCircle0" cx="271.1" cy="190.2" r="2.8"/>
	<circle class="chapterCircle0" cx="271.1" cy="198.3" r="2.8"/>
	<circle class="chapterCircle0" cx="271.1" cy="206.4" r="2.8"/>
	<circle class="chapterCircle0" cx="271.1" cy="214.5" r="2.8"/>
	<circle class="chapterCircle0" cx="271.1" cy="222.6" r="2.8"/>
	<circle class="chapterCircle0" cx="271.1" cy="230.6" r="2.8"/>
	<circle class="chapterCircle0" cx="271.1" cy="238.8" r="2.8"/>
	<circle class="chapterCircle0" cx="271.1" cy="246.8" r="2.8"/>
	<circle class="chapterCircle0" cx="271.1" cy="254.9" r="2.8"/>
	<circle class="chapterCircle0" cx="271.1" cy="263" r="2.8"/>
	<circle class="chapterCircle0" cx="271.1" cy="271.1" r="2.8"/>
	<circle class="chapterCircle0" cx="271.1" cy="279.2" r="2.8"/>
	<circle class="chapterCircle0" cx="271.1" cy="287.3" r="2.8"/>
	<circle class="chapterCircle0" cx="263" cy="36.4" r="2.8"/>
	<circle class="chapterCircle0" cx="263" cy="44.5" r="2.8"/>
	<circle class="chapterCircle0" cx="263" cy="52.6" r="2.8"/>
	<circle class="chapterCircle0" cx="263" cy="60.7" r="2.8"/>
	<circle class="chapterCircle0" cx="263" cy="68.8" r="2.8"/>
	<circle class="chapterCircle0" cx="263" cy="76.9" r="2.8"/>
	<circle class="chapterCircle0" cx="263" cy="85" r="2.8"/>
	<circle class="chapterCircle0" cx="263" cy="93.1" r="2.8"/>
	<circle class="chapterCircle0" cx="263" cy="101.2" r="2.8"/>
	<circle class="chapterCircle0" cx="263" cy="109.3" r="2.8"/>
	<circle class="chapterCircle0" cx="263" cy="117.3" r="2.8"/>
	<circle class="chapterCircle0" cx="263" cy="125.4" r="2.8"/>
	<circle class="chapterCircle0" cx="263" cy="133.5" r="2.8"/>
	<circle class="chapterCircle0" cx="263" cy="141.6" r="2.8"/>
	<circle class="chapterCircle0" cx="263" cy="149.7" r="2.8"/>
	<circle class="chapterCircle0" cx="263" cy="157.8" r="2.8"/>
	<circle class="chapterCircle0" cx="263" cy="165.9" r="2.8"/>
	<circle class="chapterCircle0" cx="263" cy="174" r="2.8"/>
	<circle class="chapterCircle0" cx="263" cy="182.1" r="2.8"/>
	<circle class="chapterCircle0" cx="263" cy="190.2" r="2.8"/>
	<circle class="chapterCircle0" cx="263" cy="198.3" r="2.8"/>
	<circle class="chapterCircle0" cx="263" cy="206.4" r="2.8"/>
	<circle class="chapterCircle0" cx="263" cy="214.5" r="2.8"/>
	<circle class="chapterCircle0" cx="263" cy="222.6" r="2.8"/>
	<circle class="chapterCircle0" cx="263" cy="230.6" r="2.8"/>
	<circle class="chapterCircle0" cx="263" cy="238.8" r="2.8"/>
	<circle class="chapterCircle0" cx="263" cy="246.8" r="2.8"/>
	<circle class="chapterCircle0" cx="263" cy="254.9" r="2.8"/>
	<circle class="chapterCircle0" cx="263" cy="263" r="2.8"/>
	<circle class="chapterCircle0" cx="263" cy="271.1" r="2.8"/>
	<ellipse transform="matrix(0.6408 -0.7677 0.7677 0.6408 63.561 208.8334)" class="chapterCircle0" cx="255" cy="36.5" rx="2.8" ry="2.8"/>
	<ellipse transform="matrix(0.6408 -0.7677 0.7677 0.6408 57.3434 211.7534)" class="chapterCircle0" cx="255" cy="44.6" rx="2.8" ry="2.8"/>
	<ellipse transform="matrix(0.6408 -0.7677 0.7677 0.6408 51.1279 214.5887)" class="chapterCircle0" cx="254.9" cy="52.7" rx="2.8" ry="2.8"/>
	<ellipse transform="matrix(0.6408 -0.7677 0.7677 0.6408 44.9092 217.4978)" class="chapterCircle0" cx="254.9" cy="60.8" rx="2.8" ry="2.8"/>
	<ellipse transform="matrix(0.4641 -0.8858 0.8858 0.4641 75.6257 262.6833)" class="chapterCircle0" cx="254.9" cy="68.8" rx="2.8" ry="2.8"/>
	<ellipse transform="matrix(0.4641 -0.8858 0.8858 0.4641 68.5565 267.0164)" class="chapterCircle0" cx="254.9" cy="76.9" rx="2.8" ry="2.8"/>
	<ellipse transform="matrix(0.4641 -0.8858 0.8858 0.4641 61.3817 271.3575)" class="chapterCircle0" cx="254.9" cy="85" rx="2.8" ry="2.8"/>
	<ellipse transform="matrix(0.4641 -0.8858 0.8858 0.4641 54.2118 275.7134)" class="chapterCircle0" cx="255" cy="93.1" rx="2.8" ry="2.8"/>
	<ellipse transform="matrix(0.4641 -0.8858 0.8858 0.4641 47.0417 280.0693)" class="chapterCircle0" cx="255" cy="101.2" rx="2.8" ry="2.8"/>
	<ellipse transform="matrix(0.4641 -0.8858 0.8858 0.4641 39.8669 284.4103)" class="chapterCircle0" cx="255" cy="109.3" rx="2.8" ry="2.8"/>
	
		<ellipse transform="matrix(0.4641 -0.8858 0.8858 0.4641 32.6604 288.6867)" class="chapterCircle0" cx="254.9" cy="117.4" rx="2.8" ry="2.8"/>
	<ellipse transform="matrix(0.1602 -0.9871 0.9871 0.1602 90.19 357.0057)" class="chapterCircle0" cx="254.9" cy="125.5" rx="2.8" ry="2.8"/>
	
		<ellipse transform="matrix(0.4641 -0.8858 0.8858 0.4641 18.3157 297.3837)" class="chapterCircle0" cx="254.9" cy="133.6" rx="2.8" ry="2.8"/>
	
		<ellipse transform="matrix(0.4641 -0.8858 0.8858 0.4641 11.1458 301.7396)" class="chapterCircle0" cx="254.9" cy="141.7" rx="2.8" ry="2.8"/>
	<ellipse transform="matrix(0.4641 -0.8858 0.8858 0.4641 3.9527 305.9946)" class="chapterCircle0" cx="254.9" cy="149.7" rx="2.8" ry="2.8"/>
	
		<ellipse transform="matrix(0.4641 -0.8858 0.8858 0.4641 -3.2174 310.3505)" class="chapterCircle0" cx="254.9" cy="157.8" rx="2.8" ry="2.8"/>
	
		<ellipse transform="matrix(0.4641 -0.8858 0.8858 0.4641 -10.392 314.6915)" class="chapterCircle0" cx="254.9" cy="165.9" rx="2.8" ry="2.8"/>
	<ellipse transform="matrix(0.4641 -0.8858 0.8858 0.4641 -17.562 319.0475)" class="chapterCircle0" cx="254.9" cy="174" rx="2.8" ry="2.8"/>
	
		<ellipse transform="matrix(0.4641 -0.8858 0.8858 0.4641 -24.732 323.4034)" class="chapterCircle0" cx="254.9" cy="182.1" rx="2.8" ry="2.8"/>
	
		<ellipse transform="matrix(0.4641 -0.8858 0.8858 0.4641 -31.9069 327.7443)" class="chapterCircle0" cx="254.9" cy="190.2" rx="2.8" ry="2.8"/>
	
		<ellipse transform="matrix(0.4641 -0.8858 0.8858 0.4641 -38.976 332.0775)" class="chapterCircle0" cx="254.9" cy="198.2" rx="2.8" ry="2.8"/>
	<ellipse transform="matrix(0.4641 -0.8858 0.8858 0.4641 -46.146 336.4335)" class="chapterCircle0" cx="255" cy="206.4" rx="2.8" ry="2.8"/>
	<ellipse transform="matrix(0.4641 -0.8858 0.8858 0.4641 -53.3207 340.7744)" class="chapterCircle0" cx="255" cy="214.5" rx="2.8" ry="2.8"/>
	<ellipse transform="matrix(0.4641 -0.8858 0.8858 0.4641 -60.4908 345.1303)" class="chapterCircle0" cx="255" cy="222.6" rx="2.8" ry="2.8"/>
	
		<ellipse transform="matrix(0.4641 -0.8858 0.8858 0.4641 -67.6973 349.4068)" class="chapterCircle0" cx="254.9" cy="230.6" rx="2.8" ry="2.8"/>
	<ellipse transform="matrix(0.4641 -0.8858 0.8858 0.4641 -74.8356 353.8274)" class="chapterCircle0" cx="255" cy="238.8" rx="2.8" ry="2.8"/>
	
		<ellipse transform="matrix(0.4641 -0.8858 0.8858 0.4641 -82.0421 358.1037)" class="chapterCircle0" cx="254.9" cy="246.9" rx="2.8" ry="2.8"/>
	<circle class="chapterCircle0" cx="254.9" cy="254.9" r="2.8"/>
	<circle class="chapterCircle0" cx="254.9" cy="263" r="2.8"/>
	<circle class="chapterCircle0" cx="254.9" cy="271.1" r="2.8"/>
	<circle class="chapterCircle0" cx="246.8" cy="28.3" r="2.8"/>
	<circle class="chapterCircle0" cx="246.8" cy="36.4" r="2.8"/>
	<circle class="chapterCircle0" cx="246.8" cy="44.5" r="2.8"/>
	<circle class="chapterCircle0" cx="246.8" cy="52.6" r="2.8"/>
	<circle class="chapterCircle0" cx="246.8" cy="60.7" r="2.8"/>
	<circle class="chapterCircle0" cx="246.8" cy="68.8" r="2.8"/>
	<circle class="chapterCircle0" cx="246.8" cy="76.9" r="2.8"/>
	<circle class="chapterCircle0" cx="246.8" cy="85" r="2.8"/>
	<circle class="chapterCircle0" cx="246.8" cy="93.1" r="2.8"/>
	<circle class="chapterCircle0" cx="246.8" cy="101.2" r="2.8"/>
	<circle class="chapterCircle0" cx="246.8" cy="109.3" r="2.8"/>
	<circle class="chapterCircle0" cx="246.8" cy="117.3" r="2.8"/>
	<circle class="chapterCircle0" cx="246.8" cy="125.4" r="2.8"/>
	<circle class="chapterCircle0" cx="246.8" cy="133.5" r="2.8"/>
	<circle class="chapterCircle0" cx="246.8" cy="141.6" r="2.8"/>
	<circle class="chapterCircle0" cx="246.8" cy="149.7" r="2.8"/>
	<circle class="chapterCircle0" cx="246.8" cy="157.8" r="2.8"/>
	<circle class="chapterCircle0" cx="246.8" cy="165.9" r="2.8"/>
	<circle class="chapterCircle0" cx="246.8" cy="174" r="2.8"/>
	<circle class="chapterCircle0" cx="246.8" cy="182.1" r="2.8"/>
	<circle class="chapterCircle0" cx="246.8" cy="190.2" r="2.8"/>
	<circle class="chapterCircle0" cx="246.8" cy="198.3" r="2.8"/>
	<circle class="chapterCircle0" cx="246.8" cy="206.4" r="2.8"/>
	<circle class="chapterCircle0" cx="246.8" cy="214.5" r="2.8"/>
	<circle class="chapterCircle0" cx="246.8" cy="222.6" r="2.8"/>
	<circle class="chapterCircle0" cx="246.8" cy="230.6" r="2.8"/>
	<circle class="chapterCircle0" cx="246.8" cy="238.8" r="2.8"/>
	<circle class="chapterCircle0" cx="246.8" cy="246.8" r="2.8"/>
	<circle class="chapterCircle0" cx="246.8" cy="254.9" r="2.8"/>
	<circle class="chapterCircle0" cx="246.8" cy="263" r="2.8"/>
	<circle class="chapterCircle0" cx="238.8" cy="28.3" r="2.8"/>
	<circle class="chapterCircle0" cx="238.8" cy="36.4" r="2.8"/>
	<circle class="chapterCircle0" cx="238.8" cy="44.5" r="2.8"/>
	<circle class="chapterCircle0" cx="238.8" cy="52.6" r="2.8"/>
	<circle class="chapterCircle0" cx="238.8" cy="60.7" r="2.8"/>
	<circle class="chapterCircle0" cx="238.8" cy="68.8" r="2.8"/>
	<circle class="chapterCircle0" cx="238.8" cy="76.9" r="2.8"/>
	<circle class="chapterCircle0" cx="238.8" cy="85" r="2.8"/>
	<circle class="chapterCircle0" cx="238.8" cy="93.1" r="2.8"/>
	<circle class="chapterCircle0" cx="238.8" cy="101.2" r="2.8"/>
	<circle class="chapterCircle0" cx="238.8" cy="109.3" r="2.8"/>
	<circle class="chapterCircle0" cx="238.8" cy="117.3" r="2.8"/>
	<circle class="chapterCircle0" cx="238.8" cy="125.4" r="2.8"/>
	<circle class="chapterCircle0" cx="238.8" cy="133.5" r="2.8"/>
	<circle class="chapterCircle0" cx="238.8" cy="141.6" r="2.8"/>
	<circle class="chapterCircle0" cx="238.8" cy="149.7" r="2.8"/>
	<circle class="chapterCircle0" cx="238.8" cy="157.8" r="2.8"/>
	<circle class="chapterCircle0" cx="238.8" cy="165.9" r="2.8"/>
	<circle class="chapterCircle0" cx="238.8" cy="174" r="2.8"/>
	<circle class="chapterCircle0" cx="238.8" cy="182.1" r="2.8"/>
	<circle class="chapterCircle0" cx="238.8" cy="190.2" r="2.8"/>
	<circle class="chapterCircle0" cx="238.8" cy="198.3" r="2.8"/>
	<circle class="chapterCircle0" cx="238.8" cy="206.4" r="2.8"/>
	<circle class="chapterCircle0" cx="238.8" cy="214.5" r="2.8"/>
	<circle class="chapterCircle0" cx="238.8" cy="222.6" r="2.8"/>
	<circle class="chapterCircle0" cx="238.8" cy="230.6" r="2.8"/>
	<circle class="chapterCircle0" cx="238.8" cy="238.8" r="2.8"/>
	<circle class="chapterCircle0" cx="238.8" cy="246.8" r="2.8"/>
	<circle class="chapterCircle0" cx="238.8" cy="254.9" r="2.8"/>
	<circle class="chapterCircle0" cx="230.6" cy="4.1" r="2.8"/>
	<circle class="chapterCircle0" cx="230.6" cy="12.1" r="2.8"/>
	<circle class="chapterCircle0" cx="230.6" cy="20.2" r="2.8"/>
	<circle class="chapterCircle0" cx="230.6" cy="28.3" r="2.8"/>
	<circle class="chapterCircle0" cx="230.6" cy="36.4" r="2.8"/>
	<circle class="chapterCircle0" cx="230.6" cy="44.5" r="2.8"/>
	<circle class="chapterCircle0" cx="230.6" cy="52.6" r="2.8"/>
	<circle class="chapterCircle0" cx="230.6" cy="60.7" r="2.8"/>
	<circle class="chapterCircle0" cx="230.6" cy="68.8" r="2.8"/>
	<circle class="chapterCircle0" cx="230.6" cy="76.9" r="2.8"/>
	<circle class="chapterCircle0" cx="230.6" cy="85" r="2.8"/>
	<circle class="chapterCircle0" cx="230.6" cy="93.1" r="2.8"/>
	<circle class="chapterCircle0" cx="230.6" cy="101.2" r="2.8"/>
	<circle class="chapterCircle0" cx="230.6" cy="109.3" r="2.8"/>
	<circle class="chapterCircle0" cx="230.6" cy="117.3" r="2.8"/>
	<circle class="chapterCircle0" cx="230.6" cy="125.4" r="2.8"/>
	<circle class="chapterCircle0" cx="230.6" cy="133.5" r="2.8"/>
	<circle class="chapterCircle0" cx="230.6" cy="141.6" r="2.8"/>
	<circle class="chapterCircle0" cx="230.6" cy="149.7" r="2.8"/>
	<circle class="chapterCircle0" cx="230.6" cy="157.8" r="2.8"/>
	<circle class="chapterCircle0" cx="230.6" cy="165.9" r="2.8"/>
	<circle class="chapterCircle0" cx="230.6" cy="174" r="2.8"/>
	<circle class="chapterCircle0" cx="230.6" cy="182.1" r="2.8"/>
	<circle class="chapterCircle0" cx="230.6" cy="190.2" r="2.8"/>
	<circle class="chapterCircle0" cx="230.6" cy="198.3" r="2.8"/>
	<circle class="chapterCircle0" cx="230.6" cy="206.4" r="2.8"/>
	<circle class="chapterCircle0" cx="230.6" cy="214.5" r="2.8"/>
	<circle class="chapterCircle0" cx="230.6" cy="222.6" r="2.8"/>
	<circle class="chapterCircle0" cx="230.6" cy="230.6" r="2.8"/>
	<circle class="chapterCircle0" cx="230.6" cy="238.8" r="2.8"/>
	<circle class="chapterCircle0" cx="230.6" cy="246.8" r="2.8"/>
	<circle class="chapterCircle0" cx="222.6" cy="12.1" r="2.8"/>
	<circle class="chapterCircle0" cx="222.6" cy="20.2" r="2.8"/>
	<circle class="chapterCircle0" cx="222.6" cy="28.3" r="2.8"/>
	<circle class="chapterCircle0" cx="222.6" cy="36.4" r="2.8"/>
	<circle class="chapterCircle0" cx="222.6" cy="44.5" r="2.8"/>
	<circle class="chapterCircle0" cx="222.6" cy="52.6" r="2.8"/>
	<circle class="chapterCircle0" cx="222.6" cy="60.7" r="2.8"/>
	<circle class="chapterCircle0" cx="222.6" cy="68.8" r="2.8"/>
	<circle class="chapterCircle0" cx="222.6" cy="76.9" r="2.8"/>
	<circle class="chapterCircle0" cx="222.6" cy="85" r="2.8"/>
	<circle class="chapterCircle0" cx="222.6" cy="93.1" r="2.8"/>
	<circle class="chapterCircle0" cx="222.6" cy="101.2" r="2.8"/>
	<circle class="chapterCircle0" cx="222.6" cy="109.3" r="2.8"/>
	<circle class="chapterCircle0" cx="222.6" cy="117.3" r="2.8"/>
	<circle class="chapterCircle0" cx="222.6" cy="125.4" r="2.8"/>
	<circle class="chapterCircle0" cx="222.6" cy="133.5" r="2.8"/>
	<circle class="chapterCircle0" cx="222.6" cy="141.6" r="2.8"/>
	<circle class="chapterCircle0" cx="222.6" cy="149.7" r="2.8"/>
	<circle class="chapterCircle0" cx="222.6" cy="157.8" r="2.8"/>
	<circle class="chapterCircle0" cx="222.6" cy="165.9" r="2.8"/>
	<circle class="chapterCircle0" cx="222.6" cy="174" r="2.8"/>
	<circle class="chapterCircle0" cx="222.6" cy="182.1" r="2.8"/>
	<circle class="chapterCircle0" cx="222.6" cy="190.2" r="2.8"/>
	<circle class="chapterCircle0" cx="222.6" cy="198.3" r="2.8"/>
	<circle class="chapterCircle0" cx="222.6" cy="206.4" r="2.8"/>
	<circle class="chapterCircle0" cx="222.6" cy="214.5" r="2.8"/>
	<circle class="chapterCircle0" cx="222.6" cy="222.6" r="2.8"/>
	<circle class="chapterCircle0" cx="222.6" cy="230.6" r="2.8"/>
	<circle class="chapterCircle0" cx="222.6" cy="238.8" r="2.8"/>
	<circle class="chapterCircle0" cx="222.6" cy="246.8" r="2.8"/>
	<circle class="chapterCircle0" cx="214.5" cy="12.1" r="2.8"/>
	<circle class="chapterCircle0" cx="214.5" cy="20.2" r="2.8"/>
	<circle class="chapterCircle0" cx="214.5" cy="28.3" r="2.8"/>
	<circle class="chapterCircle0" cx="214.5" cy="36.4" r="2.8"/>
	<circle class="chapterCircle0" cx="214.5" cy="44.5" r="2.8"/>
	<circle class="chapterCircle0" cx="214.5" cy="52.6" r="2.8"/>
	<circle class="chapterCircle0" cx="214.5" cy="60.7" r="2.8"/>
	<circle class="chapterCircle0" cx="214.5" cy="68.8" r="2.8"/>
	<circle class="chapterCircle0" cx="214.5" cy="76.9" r="2.8"/>
	<circle class="chapterCircle0" cx="214.5" cy="85" r="2.8"/>
	<circle class="chapterCircle0" cx="214.5" cy="93.1" r="2.8"/>
	<circle class="chapterCircle0" cx="214.5" cy="101.2" r="2.8"/>
	<circle class="chapterCircle0" cx="214.5" cy="109.3" r="2.8"/>
	<circle class="chapterCircle0" cx="214.5" cy="117.3" r="2.8"/>
	<circle class="chapterCircle0" cx="214.5" cy="125.4" r="2.8"/>
	<circle class="chapterCircle0" cx="214.5" cy="133.5" r="2.8"/>
	<circle class="chapterCircle0" cx="214.5" cy="141.6" r="2.8"/>
	<circle class="chapterCircle0" cx="214.5" cy="149.7" r="2.8"/>
	<circle class="chapterCircle0" cx="214.5" cy="157.8" r="2.8"/>
	<circle class="chapterCircle0" cx="214.5" cy="165.9" r="2.8"/>
	<circle class="chapterCircle0" cx="214.5" cy="174" r="2.8"/>
	<circle class="chapterCircle0" cx="214.5" cy="182.1" r="2.8"/>
	<circle class="chapterCircle0" cx="214.5" cy="190.2" r="2.8"/>
	<circle class="chapterCircle0" cx="214.5" cy="198.3" r="2.8"/>
	<circle class="chapterCircle0" cx="214.5" cy="206.4" r="2.8"/>
	<circle class="chapterCircle0" cx="214.5" cy="214.5" r="2.8"/>
	<circle class="chapterCircle0" cx="214.5" cy="222.6" r="2.8"/>
	<circle class="chapterCircle0" cx="214.5" cy="230.6" r="2.8"/>
	<circle class="chapterCircle0" cx="214.5" cy="238.8" r="2.8"/>
	<circle class="chapterCircle0" cx="214.5" cy="246.8" r="2.8"/>
	<circle class="chapterCircle0" cx="206.4" cy="4.1" r="2.8"/>
	<circle class="chapterCircle0" cx="206.4" cy="12.1" r="2.8"/>
	<circle class="chapterCircle0" cx="206.4" cy="20.2" r="2.8"/>
	<circle class="chapterCircle0" cx="206.4" cy="28.3" r="2.8"/>
	<circle class="chapterCircle0" cx="206.4" cy="36.4" r="2.8"/>
	<circle class="chapterCircle0" cx="206.4" cy="44.5" r="2.8"/>
	<circle class="chapterCircle0" cx="206.4" cy="52.6" r="2.8"/>
	<circle class="chapterCircle0" cx="206.4" cy="60.7" r="2.8"/>
	<circle class="chapterCircle0" cx="206.4" cy="68.8" r="2.8"/>
	<circle class="chapterCircle0" cx="206.4" cy="76.9" r="2.8"/>
	<circle class="chapterCircle0" cx="206.4" cy="85" r="2.8"/>
	<circle class="chapterCircle0" cx="206.4" cy="93.1" r="2.8"/>
	<circle class="chapterCircle0" cx="206.4" cy="101.2" r="2.8"/>
	<circle class="chapterCircle0" cx="206.4" cy="109.3" r="2.8"/>
	<circle class="chapterCircle0" cx="206.4" cy="117.3" r="2.8"/>
	<circle class="chapterCircle0" cx="206.4" cy="125.4" r="2.8"/>
	<circle class="chapterCircle0" cx="206.4" cy="133.5" r="2.8"/>
	<circle class="chapterCircle0" cx="206.4" cy="141.6" r="2.8"/>
	<circle class="chapterCircle0" cx="206.4" cy="149.7" r="2.8"/>
	<circle class="chapterCircle0" cx="206.4" cy="157.8" r="2.8"/>
	<circle class="chapterCircle0" cx="206.4" cy="165.9" r="2.8"/>
	<circle class="chapterCircle0" cx="206.4" cy="174" r="2.8"/>
	<circle class="chapterCircle0" cx="206.4" cy="182.1" r="2.8"/>
	<circle class="chapterCircle0" cx="206.4" cy="190.2" r="2.8"/>
	<circle class="chapterCircle0" cx="206.4" cy="198.3" r="2.8"/>
	<circle class="chapterCircle0" cx="206.4" cy="222.6" r="2.8"/>
	<circle class="chapterCircle0" cx="198.3" cy="4.1" r="2.8"/>
	<circle class="chapterCircle0" cx="198.3" cy="12.1" r="2.8"/>
	<circle class="chapterCircle0" cx="198.3" cy="20.2" r="2.8"/>
	<circle class="chapterCircle0" cx="198.3" cy="28.3" r="2.8"/>
	<circle class="chapterCircle0" cx="198.3" cy="36.4" r="2.8"/>
	<circle class="chapterCircle0" cx="198.3" cy="44.5" r="2.8"/>
	<circle class="chapterCircle0" cx="198.3" cy="52.6" r="2.8"/>
	<circle class="chapterCircle0" cx="198.3" cy="60.7" r="2.8"/>
	<circle class="chapterCircle0" cx="198.3" cy="68.8" r="2.8"/>
	<circle class="chapterCircle0" cx="198.3" cy="76.9" r="2.8"/>
	<circle class="chapterCircle0" cx="198.3" cy="85" r="2.8"/>
	<circle class="chapterCircle0" cx="198.3" cy="93.1" r="2.8"/>
	<circle class="chapterCircle0" cx="198.3" cy="101.2" r="2.8"/>
	<circle class="chapterCircle0" cx="198.3" cy="109.3" r="2.8"/>
	<circle class="chapterCircle0" cx="198.3" cy="117.3" r="2.8"/>
	<circle class="chapterCircle0" cx="198.3" cy="125.4" r="2.8"/>
	<circle class="chapterCircle0" cx="198.3" cy="133.5" r="2.8"/>
	<circle class="chapterCircle0" cx="198.3" cy="141.6" r="2.8"/>
	<circle class="chapterCircle0" cx="198.3" cy="149.7" r="2.8"/>
	<circle class="chapterCircle0" cx="198.3" cy="157.8" r="2.8"/>
	<circle class="chapterCircle0" cx="198.3" cy="165.9" r="2.8"/>
	<circle class="chapterCircle0" cx="198.3" cy="174" r="2.8"/>
	<circle class="chapterCircle0" cx="198.3" cy="182.1" r="2.8"/>
	<circle class="chapterCircle0" cx="198.3" cy="190.2" r="2.8"/>
	<circle class="chapterCircle0" cx="198.3" cy="198.3" r="2.8"/>
	<circle class="chapterCircle0" cx="198.3" cy="206.4" r="2.8"/>
	<circle class="chapterCircle0" cx="190.2" cy="12.1" r="2.8"/>
	<circle class="chapterCircle0" cx="190.2" cy="20.2" r="2.8"/>
	<circle class="chapterCircle0" cx="190.2" cy="28.3" r="2.8"/>
	<circle class="chapterCircle0" cx="190.2" cy="36.4" r="2.8"/>
	<circle class="chapterCircle0" cx="190.2" cy="44.5" r="2.8"/>
	<circle class="chapterCircle0" cx="190.2" cy="52.6" r="2.8"/>
	<circle class="chapterCircle0" cx="190.2" cy="60.7" r="2.8"/>
	<circle class="chapterCircle0" cx="190.2" cy="68.8" r="2.8"/>
	<circle class="chapterCircle0" cx="190.2" cy="76.9" r="2.8"/>
	<circle class="chapterCircle0" cx="190.2" cy="85" r="2.8"/>
	<circle class="chapterCircle0" cx="190.2" cy="93.1" r="2.8"/>
	<circle class="chapterCircle0" cx="190.2" cy="101.2" r="2.8"/>
	<circle class="chapterCircle0" cx="190.2" cy="109.3" r="2.8"/>
	<circle class="chapterCircle0" cx="190.2" cy="117.3" r="2.8"/>
	<circle class="chapterCircle0" cx="190.2" cy="125.4" r="2.8"/>
	<circle class="chapterCircle0" cx="190.2" cy="133.5" r="2.8"/>
	<circle class="chapterCircle0" cx="190.2" cy="141.6" r="2.8"/>
	<circle class="chapterCircle0" cx="190.2" cy="149.7" r="2.8"/>
	<circle class="chapterCircle0" cx="190.2" cy="157.8" r="2.8"/>
	<circle class="chapterCircle0" cx="190.2" cy="165.9" r="2.8"/>
	<circle class="chapterCircle0" cx="190.2" cy="174" r="2.8"/>
	<circle class="chapterCircle0" cx="190.2" cy="182.1" r="2.8"/>
	<circle class="chapterCircle0" cx="190.2" cy="190.2" r="2.8"/>
	<circle class="chapterCircle0" cx="190.2" cy="198.3" r="2.8"/>
	<circle class="chapterCircle0" cx="190.2" cy="206.4" r="2.8"/>
	<circle class="chapterCircle0" cx="190.2" cy="214.5" r="2.8"/>
	<circle class="chapterCircle0" cx="190.2" cy="222.6" r="2.8"/>
	<circle class="chapterCircle0" cx="182.1" cy="4.1" r="2.8"/>
	<circle class="chapterCircle0" cx="182.1" cy="12.1" r="2.8"/>
	<circle class="chapterCircle0" cx="182.1" cy="20.2" r="2.8"/>
	<circle class="chapterCircle0" cx="182.1" cy="28.3" r="2.8"/>
	<circle class="chapterCircle0" cx="182.1" cy="36.4" r="2.8"/>
	<circle class="chapterCircle0" cx="182.1" cy="44.5" r="2.8"/>
	<circle class="chapterCircle0" cx="182.1" cy="52.6" r="2.8"/>
	<circle class="chapterCircle0" cx="182.1" cy="60.7" r="2.8"/>
	<circle class="chapterCircle0" cx="182.1" cy="68.8" r="2.8"/>
	<circle class="chapterCircle0" cx="182.1" cy="76.9" r="2.8"/>
	<circle class="chapterCircle0" cx="182.1" cy="85" r="2.8"/>
	<circle class="chapterCircle0" cx="182.1" cy="93.1" r="2.8"/>
	<circle class="chapterCircle0" cx="182.1" cy="101.2" r="2.8"/>
	<circle class="chapterCircle0" cx="182.1" cy="109.3" r="2.8"/>
	<circle class="chapterCircle0" cx="182.1" cy="117.3" r="2.8"/>
	<circle class="chapterCircle0" cx="182.1" cy="125.4" r="2.8"/>
	<circle class="chapterCircle0" cx="182.1" cy="133.5" r="2.8"/>
	<circle class="chapterCircle0" cx="182.1" cy="141.6" r="2.8"/>
	<circle class="chapterCircle0" cx="182.1" cy="149.7" r="2.8"/>
	<circle class="chapterCircle0" cx="182.1" cy="157.8" r="2.8"/>
	<circle class="chapterCircle0" cx="182.1" cy="165.9" r="2.8"/>
	<circle class="chapterCircle0" cx="182.1" cy="174" r="2.8"/>
	<circle class="chapterCircle0" cx="182.1" cy="182.1" r="2.8"/>
	<circle class="chapterCircle0" cx="182.1" cy="190.2" r="2.8"/>
	<circle class="chapterCircle0" cx="182.1" cy="198.3" r="2.8"/>
	<circle class="chapterCircle0" cx="182.1" cy="206.4" r="2.8"/>
	<circle class="chapterCircle0" cx="182.1" cy="214.5" r="2.8"/>
	<circle class="chapterCircle0" cx="182.1" cy="222.6" r="2.8"/>
	<circle class="chapterCircle0" cx="174" cy="4.1" r="2.8"/>
	<circle class="chapterCircle0" cx="174" cy="12.1" r="2.8"/>
	<circle class="chapterCircle0" cx="174" cy="20.2" r="2.8"/>
	<circle class="chapterCircle0" cx="174" cy="28.3" r="2.8"/>
	<circle class="chapterCircle0" cx="174" cy="36.4" r="2.8"/>
	<circle class="chapterCircle0" cx="174" cy="44.5" r="2.8"/>
	<circle class="chapterCircle0" cx="174" cy="52.6" r="2.8"/>
	<circle class="chapterCircle0" cx="174" cy="60.7" r="2.8"/>
	<circle class="chapterCircle0" cx="174" cy="68.8" r="2.8"/>
	<circle class="chapterCircle0" cx="174" cy="76.9" r="2.8"/>
	<circle class="chapterCircle0" cx="174" cy="85" r="2.8"/>
	<circle class="chapterCircle0" cx="174" cy="93.1" r="2.8"/>
	<circle class="chapterCircle0" cx="174" cy="101.2" r="2.8"/>
	<circle class="chapterCircle0" cx="174" cy="109.3" r="2.8"/>
	<circle class="chapterCircle0" cx="174" cy="117.3" r="2.8"/>
	<circle class="chapterCircle0" cx="174" cy="125.4" r="2.8"/>
	<circle class="chapterCircle0" cx="174" cy="133.5" r="2.8"/>
	<circle class="chapterCircle0" cx="174" cy="141.6" r="2.8"/>
	<circle class="chapterCircle0" cx="174" cy="149.7" r="2.8"/>
	<circle class="chapterCircle0" cx="174" cy="157.8" r="2.8"/>
	<circle class="chapterCircle0" cx="174" cy="165.9" r="2.8"/>
	<circle class="chapterCircle0" cx="174" cy="174" r="2.8"/>
	<circle class="chapterCircle0" cx="174" cy="182.1" r="2.8"/>
	<circle class="chapterCircle0" cx="174" cy="190.2" r="2.8"/>
	<circle class="chapterCircle0" cx="174" cy="198.3" r="2.8"/>
	<circle class="chapterCircle0" cx="174" cy="206.4" r="2.8"/>
	<circle class="chapterCircle0" cx="174" cy="214.5" r="2.8"/>
	<circle class="chapterCircle0" cx="174" cy="222.6" r="2.8"/>
	<circle class="chapterCircle0" cx="165.9" cy="20.2" r="2.8"/>
	<circle class="chapterCircle0" cx="165.9" cy="28.3" r="2.8"/>
	<circle class="chapterCircle0" cx="165.9" cy="36.4" r="2.8"/>
	<circle class="chapterCircle0" cx="165.9" cy="44.5" r="2.8"/>
	<circle class="chapterCircle0" cx="165.9" cy="52.6" r="2.8"/>
	<circle class="chapterCircle0" cx="165.9" cy="60.7" r="2.8"/>
	<circle class="chapterCircle0" cx="165.9" cy="68.8" r="2.8"/>
	<circle class="chapterCircle0" cx="165.9" cy="76.9" r="2.8"/>
	<circle class="chapterCircle0" cx="165.9" cy="85" r="2.8"/>
	<circle class="chapterCircle0" cx="165.9" cy="93.1" r="2.8"/>
	<circle class="chapterCircle0" cx="165.9" cy="101.2" r="2.8"/>
	<circle class="chapterCircle0" cx="165.9" cy="109.3" r="2.8"/>
	<circle class="chapterCircle0" cx="165.9" cy="117.3" r="2.8"/>
	<circle class="chapterCircle0" cx="165.9" cy="125.4" r="2.8"/>
	<circle class="chapterCircle0" cx="165.9" cy="133.5" r="2.8"/>
	<circle class="chapterCircle0" cx="165.9" cy="141.6" r="2.8"/>
	<circle class="chapterCircle0" cx="165.9" cy="149.7" r="2.8"/>
	<circle class="chapterCircle0" cx="165.9" cy="157.8" r="2.8"/>
	<circle class="chapterCircle0" cx="165.9" cy="165.9" r="2.8"/>
	<circle class="chapterCircle0" cx="165.9" cy="174" r="2.8"/>
	<circle class="chapterCircle0" cx="165.9" cy="182.1" r="2.8"/>
	<circle class="chapterCircle0" cx="165.9" cy="190.2" r="2.8"/>
	<circle class="chapterCircle0" cx="165.9" cy="198.3" r="2.8"/>
	<circle class="chapterCircle0" cx="165.9" cy="206.4" r="2.8"/>
	<circle class="chapterCircle0" cx="165.9" cy="214.5" r="2.8"/>
	<circle class="chapterCircle0" cx="165.9" cy="222.6" r="2.8"/>
	<circle class="chapterCircle0" cx="157.8" cy="20.2" r="2.8"/>
	<circle class="chapterCircle0" cx="157.8" cy="28.3" r="2.8"/>
	<circle class="chapterCircle0" cx="157.8" cy="36.4" r="2.8"/>
	<circle class="chapterCircle0" cx="157.8" cy="44.5" r="2.8"/>
	<circle class="chapterCircle0" cx="157.8" cy="52.6" r="2.8"/>
	<circle class="chapterCircle0" cx="157.8" cy="60.7" r="2.8"/>
	<circle class="chapterCircle0" cx="157.8" cy="68.8" r="2.8"/>
	<circle class="chapterCircle0" cx="157.8" cy="76.9" r="2.8"/>
	<circle class="chapterCircle0" cx="157.8" cy="85" r="2.8"/>
	<circle class="chapterCircle0" cx="157.8" cy="93.1" r="2.8"/>
	<circle class="chapterCircle0" cx="157.8" cy="101.2" r="2.8"/>
	<circle class="chapterCircle0" cx="157.8" cy="109.3" r="2.8"/>
	<circle class="chapterCircle0" cx="157.8" cy="117.3" r="2.8"/>
	<circle class="chapterCircle0" cx="157.8" cy="125.4" r="2.8"/>
	<circle class="chapterCircle0" cx="157.8" cy="133.5" r="2.8"/>
	<circle class="chapterCircle0" cx="157.8" cy="141.6" r="2.8"/>
	<circle class="chapterCircle0" cx="157.8" cy="149.7" r="2.8"/>
	<circle class="chapterCircle0" cx="157.8" cy="157.8" r="2.8"/>
	<circle class="chapterCircle0" cx="157.8" cy="165.9" r="2.8"/>
	<circle class="chapterCircle0" cx="157.8" cy="174" r="2.8"/>
	<circle class="chapterCircle0" cx="157.8" cy="182.1" r="2.8"/>
	<circle class="chapterCircle0" cx="157.8" cy="190.2" r="2.8"/>
	<circle class="chapterCircle0" cx="157.8" cy="198.3" r="2.8"/>
	<circle class="chapterCircle0" cx="157.8" cy="206.4" r="2.8"/>
	<circle class="chapterCircle0" cx="157.8" cy="214.5" r="2.8"/>
	<circle class="chapterCircle0" cx="157.8" cy="222.6" r="2.8"/>
	<circle class="chapterCircle0" cx="149.7" cy="28.3" r="2.8"/>
	<circle class="chapterCircle0" cx="149.7" cy="36.4" r="2.8"/>
	<circle class="chapterCircle0" cx="149.7" cy="44.5" r="2.8"/>
	<circle class="chapterCircle0" cx="149.7" cy="52.6" r="2.8"/>
	<circle class="chapterCircle0" cx="149.7" cy="60.7" r="2.8"/>
	<circle class="chapterCircle0" cx="149.7" cy="68.8" r="2.8"/>
	<circle class="chapterCircle0" cx="149.7" cy="76.9" r="2.8"/>
	<circle class="chapterCircle0" cx="149.7" cy="85" r="2.8"/>
	<circle class="chapterCircle0" cx="149.7" cy="93.1" r="2.8"/>
	<circle class="chapterCircle0" cx="149.7" cy="101.2" r="2.8"/>
	<circle class="chapterCircle0" cx="149.7" cy="109.3" r="2.8"/>
	<circle class="chapterCircle0" cx="149.7" cy="117.3" r="2.8"/>
	<circle class="chapterCircle0" cx="149.7" cy="125.4" r="2.8"/>
	<circle class="chapterCircle0" cx="149.7" cy="133.5" r="2.8"/>
	<circle class="chapterCircle0" cx="149.7" cy="141.6" r="2.8"/>
	<circle class="chapterCircle0" cx="149.7" cy="149.7" r="2.8"/>
	<circle class="chapterCircle0" cx="149.7" cy="157.8" r="2.8"/>
	<circle class="chapterCircle0" cx="149.7" cy="165.9" r="2.8"/>
	<circle class="chapterCircle0" cx="149.7" cy="174" r="2.8"/>
	<circle class="chapterCircle0" cx="149.7" cy="182.1" r="2.8"/>
	<circle class="chapterCircle0" cx="149.7" cy="190.2" r="2.8"/>
	<circle class="chapterCircle0" cx="149.7" cy="198.3" r="2.8"/>
	<circle class="chapterCircle0" cx="149.7" cy="214.5" r="2.8"/>
	<circle class="chapterCircle0" cx="149.7" cy="222.6" r="2.8"/>
	<circle class="chapterCircle0" cx="141.6" cy="36.4" r="2.8"/>
	<circle class="chapterCircle0" cx="141.6" cy="44.5" r="2.8"/>
	<circle class="chapterCircle0" cx="141.6" cy="52.6" r="2.8"/>
	<circle class="chapterCircle0" cx="141.6" cy="60.7" r="2.8"/>
	<circle class="chapterCircle0" cx="141.6" cy="68.8" r="2.8"/>
	<circle class="chapterCircle0" cx="141.6" cy="76.9" r="2.8"/>
	<circle class="chapterCircle0" cx="141.6" cy="85" r="2.8"/>
	<circle class="chapterCircle0" cx="141.6" cy="93.1" r="2.8"/>
	<circle class="chapterCircle0" cx="141.6" cy="101.2" r="2.8"/>
	<circle class="chapterCircle0" cx="141.6" cy="109.3" r="2.8"/>
	<circle class="chapterCircle0" cx="141.6" cy="117.3" r="2.8"/>
	<circle class="chapterCircle0" cx="141.6" cy="125.4" r="2.8"/>
	<circle class="chapterCircle0" cx="141.6" cy="133.5" r="2.8"/>
	<circle class="chapterCircle0" cx="141.6" cy="141.6" r="2.8"/>
	<circle class="chapterCircle0" cx="141.6" cy="149.7" r="2.8"/>
	<circle class="chapterCircle0" cx="141.6" cy="157.8" r="2.8"/>
	<circle class="chapterCircle0" cx="141.6" cy="165.9" r="2.8"/>
	<circle class="chapterCircle0" cx="141.6" cy="174" r="2.8"/>
	<circle class="chapterCircle0" cx="133.5" cy="44.5" r="2.8"/>
	<circle class="chapterCircle0" cx="133.5" cy="52.6" r="2.8"/>
	<circle class="chapterCircle0" cx="133.5" cy="60.7" r="2.8"/>
	<circle class="chapterCircle0" cx="133.5" cy="68.8" r="2.8"/>
	<circle class="chapterCircle0" cx="133.5" cy="76.9" r="2.8"/>
	<circle class="chapterCircle0" cx="133.5" cy="85" r="2.8"/>
	<circle class="chapterCircle0" cx="133.5" cy="93.1" r="2.8"/>
	<circle class="chapterCircle0" cx="133.5" cy="101.2" r="2.8"/>
	<circle class="chapterCircle0" cx="133.5" cy="109.3" r="2.8"/>
	<circle class="chapterCircle0" cx="133.5" cy="117.3" r="2.8"/>
	<circle class="chapterCircle0" cx="133.5" cy="125.4" r="2.8"/>
	<circle class="chapterCircle0" cx="133.5" cy="133.5" r="2.8"/>
	<circle class="chapterCircle0" cx="133.5" cy="141.6" r="2.8"/>
	<circle class="chapterCircle0" cx="133.5" cy="149.7" r="2.8"/>
	<circle class="chapterCircle0" cx="133.5" cy="157.8" r="2.8"/>
	<circle class="chapterCircle0" cx="133.5" cy="165.9" r="2.8"/>
	<circle class="chapterCircle0" cx="125.4" cy="44.5" r="2.8"/>
	<circle class="chapterCircle0" cx="125.4" cy="52.6" r="2.8"/>
	<circle class="chapterCircle0" cx="125.4" cy="60.7" r="2.8"/>
	<circle class="chapterCircle0" cx="125.4" cy="68.8" r="2.8"/>
	<circle class="chapterCircle0" cx="125.4" cy="76.9" r="2.8"/>
	<circle class="chapterCircle0" cx="125.4" cy="85" r="2.8"/>
	<circle class="chapterCircle0" cx="125.4" cy="93.1" r="2.8"/>
	<circle class="chapterCircle0" cx="125.4" cy="101.2" r="2.8"/>
	<circle class="chapterCircle0" cx="125.4" cy="109.3" r="2.8"/>
	<circle class="chapterCircle0" cx="125.4" cy="117.3" r="2.8"/>
	<circle class="chapterCircle0" cx="125.4" cy="125.4" r="2.8"/>
	<circle class="chapterCircle0" cx="125.4" cy="133.5" r="2.8"/>
	<circle class="chapterCircle0" cx="125.4" cy="141.6" r="2.8"/>
	<circle class="chapterCircle0" cx="125.4" cy="149.7" r="2.8"/>
	<circle class="chapterCircle0" cx="125.4" cy="157.8" r="2.8"/>
	<circle class="chapterCircle0" cx="125.4" cy="165.9" r="2.8"/>
	<circle class="chapterCircle0" cx="117.3" cy="44.5" r="2.8"/>
	<circle class="chapterCircle0" cx="117.3" cy="52.6" r="2.8"/>
	<circle class="chapterCircle0" cx="117.3" cy="60.7" r="2.8"/>
	<circle class="chapterCircle0" cx="117.3" cy="68.8" r="2.8"/>
	<circle class="chapterCircle0" cx="117.3" cy="76.9" r="2.8"/>
	<circle class="chapterCircle0" cx="117.3" cy="85" r="2.8"/>
	<circle class="chapterCircle0" cx="117.3" cy="93.1" r="2.8"/>
	<circle class="chapterCircle0" cx="117.3" cy="101.2" r="2.8"/>
	<circle class="chapterCircle0" cx="117.3" cy="109.3" r="2.8"/>
	<circle class="chapterCircle0" cx="117.3" cy="117.3" r="2.8"/>
	<circle class="chapterCircle0" cx="117.3" cy="125.4" r="2.8"/>
	<circle class="chapterCircle0" cx="117.3" cy="133.5" r="2.8"/>
	<circle class="chapterCircle0" cx="117.3" cy="141.6" r="2.8"/>
	<circle class="chapterCircle0" cx="117.3" cy="149.7" r="2.8"/>
	<circle class="chapterCircle0" cx="117.3" cy="157.8" r="2.8"/>
	<circle class="chapterCircle0" cx="117.3" cy="165.9" r="2.8"/>
	<circle class="chapterCircle0" cx="109.3" cy="36.4" r="2.8"/>
	<circle class="chapterCircle0" cx="109.3" cy="44.5" r="2.8"/>
	<circle class="chapterCircle0" cx="109.3" cy="52.6" r="2.8"/>
	<circle class="chapterCircle0" cx="109.3" cy="60.7" r="2.8"/>
	<circle class="chapterCircle0" cx="109.3" cy="68.8" r="2.8"/>
	<circle class="chapterCircle0" cx="109.3" cy="76.9" r="2.8"/>
	<circle class="chapterCircle0" cx="109.3" cy="85" r="2.8"/>
	<circle class="chapterCircle0" cx="109.3" cy="93.1" r="2.8"/>
	<circle class="chapterCircle0" cx="109.3" cy="101.2" r="2.8"/>
	<circle class="chapterCircle0" cx="109.3" cy="109.3" r="2.8"/>
	<circle class="chapterCircle0" cx="109.3" cy="117.3" r="2.8"/>
	<circle class="chapterCircle0" cx="109.3" cy="125.4" r="2.8"/>
	<circle class="chapterCircle0" cx="109.3" cy="133.5" r="2.8"/>
	<circle class="chapterCircle0" cx="109.3" cy="141.6" r="2.8"/>
	<circle class="chapterCircle0" cx="109.3" cy="149.7" r="2.8"/>
	<circle class="chapterCircle0" cx="109.3" cy="157.8" r="2.8"/>
	<circle class="chapterCircle0" cx="109.3" cy="165.9" r="2.8"/>
	<circle class="chapterCircle0" cx="101.2" cy="36.4" r="2.8"/>
	<circle class="chapterCircle0" cx="101.2" cy="44.5" r="2.8"/>
	<circle class="chapterCircle0" cx="101.2" cy="52.6" r="2.8"/>
	<circle class="chapterCircle0" cx="101.2" cy="60.7" r="2.8"/>
	<circle class="chapterCircle0" cx="101.2" cy="68.8" r="2.8"/>
	<circle class="chapterCircle0" cx="101.2" cy="76.9" r="2.8"/>
	<circle class="chapterCircle0" cx="101.2" cy="85" r="2.8"/>
	<circle class="chapterCircle0" cx="101.2" cy="93.1" r="2.8"/>
	<circle class="chapterCircle0" cx="101.2" cy="101.2" r="2.8"/>
	<circle class="chapterCircle0" cx="101.2" cy="109.3" r="2.8"/>
	<circle class="chapterCircle0" cx="101.2" cy="117.3" r="2.8"/>
	<circle class="chapterCircle0" cx="101.2" cy="125.4" r="2.8"/>
	<circle class="chapterCircle0" cx="101.2" cy="133.5" r="2.8"/>
	<circle class="chapterCircle0" cx="101.2" cy="141.6" r="2.8"/>
	<circle class="chapterCircle0" cx="101.2" cy="149.7" r="2.8"/>
	<circle class="chapterCircle0" cx="93.1" cy="36.4" r="2.8"/>
	<circle class="chapterCircle0" cx="93.1" cy="44.5" r="2.8"/>
	<circle class="chapterCircle0" cx="93.1" cy="52.6" r="2.8"/>
	<circle class="chapterCircle0" cx="93.1" cy="60.7" r="2.8"/>
	<circle class="chapterCircle0" cx="93.1" cy="68.8" r="2.8"/>
	<circle class="chapterCircle0" cx="93.1" cy="76.9" r="2.8"/>
	<circle class="chapterCircle0" cx="93.1" cy="85" r="2.8"/>
	<circle class="chapterCircle0" cx="93.1" cy="93.1" r="2.8"/>
	<circle class="chapterCircle0" cx="93.1" cy="101.2" r="2.8"/>
	<circle class="chapterCircle0" cx="93.1" cy="109.3" r="2.8"/>
	<circle class="chapterCircle0" cx="93.1" cy="117.3" r="2.8"/>
	<circle class="chapterCircle0" cx="93.1" cy="125.4" r="2.8"/>
	<circle class="chapterCircle0" cx="93.1" cy="133.5" r="2.8"/>
	<circle class="chapterCircle0" cx="93.1" cy="141.6" r="2.8"/>
	<circle class="chapterCircle0" cx="85" cy="36.4" r="2.8"/>
	<circle class="chapterCircle0" cx="85" cy="44.5" r="2.8"/>
	<circle class="chapterCircle0" cx="85" cy="52.6" r="2.8"/>
	<circle class="chapterCircle0" cx="85" cy="60.7" r="2.8"/>
	<circle class="chapterCircle0" cx="85" cy="68.8" r="2.8"/>
	<circle class="chapterCircle0" cx="85" cy="76.9" r="2.8"/>
	<circle class="chapterCircle0" cx="85" cy="85" r="2.8"/>
	<circle class="chapterCircle0" cx="85" cy="93.1" r="2.8"/>
	<circle class="chapterCircle0" cx="85" cy="101.2" r="2.8"/>
	<circle class="chapterCircle0" cx="85" cy="109.3" r="2.8"/>
	<circle class="chapterCircle0" cx="85" cy="117.3" r="2.8"/>
	<circle class="chapterCircle0" cx="85" cy="125.4" r="2.8"/>
	<circle class="chapterCircle0" cx="85" cy="133.5" r="2.8"/>
	<circle class="chapterCircle0" cx="85" cy="141.6" r="2.8"/>
	<circle class="chapterCircle0" cx="76.9" cy="20.2" r="2.8"/>
	<circle class="chapterCircle0" cx="76.9" cy="28.3" r="2.8"/>
	<circle class="chapterCircle0" cx="76.9" cy="36.4" r="2.8"/>
	<circle class="chapterCircle0" cx="76.9" cy="44.5" r="2.8"/>
	<circle class="chapterCircle0" cx="76.9" cy="52.6" r="2.8"/>
	<circle class="chapterCircle0" cx="76.9" cy="60.7" r="2.8"/>
	<circle class="chapterCircle0" cx="76.9" cy="68.8" r="2.8"/>
	<circle class="chapterCircle0" cx="76.9" cy="76.9" r="2.8"/>
	<circle class="chapterCircle0" cx="76.9" cy="85" r="2.8"/>
	<circle class="chapterCircle0" cx="76.9" cy="93.1" r="2.8"/>
	<circle class="chapterCircle0" cx="76.9" cy="101.2" r="2.8"/>
	<circle class="chapterCircle0" cx="76.9" cy="109.3" r="2.8"/>
	<circle class="chapterCircle0" cx="76.9" cy="117.3" r="2.8"/>
	<circle class="chapterCircle0" cx="76.9" cy="125.4" r="2.8"/>
	<circle class="chapterCircle0" cx="76.9" cy="133.5" r="2.8"/>
	<circle class="chapterCircle0" cx="76.9" cy="141.6" r="2.8"/>
	<circle class="chapterCircle0" cx="68.8" cy="28.3" r="2.8"/>
	<circle class="chapterCircle0" cx="68.8" cy="36.4" r="2.8"/>
	<circle class="chapterCircle0" cx="68.8" cy="44.5" r="2.8"/>
	<circle class="chapterCircle0" cx="68.8" cy="52.6" r="2.8"/>
	<circle class="chapterCircle0" cx="68.8" cy="60.7" r="2.8"/>
	<circle class="chapterCircle0" cx="68.8" cy="68.8" r="2.8"/>
	<circle class="chapterCircle0" cx="68.8" cy="76.9" r="2.8"/>
	<circle class="chapterCircle0" cx="68.8" cy="85" r="2.8"/>
	<circle class="chapterCircle0" cx="68.8" cy="93.1" r="2.8"/>
	<circle class="chapterCircle0" cx="68.8" cy="101.2" r="2.8"/>
	<circle class="chapterCircle0" cx="68.8" cy="109.3" r="2.8"/>
	<circle class="chapterCircle0" cx="68.8" cy="117.3" r="2.8"/>
	<circle class="chapterCircle0" cx="68.8" cy="125.4" r="2.8"/>
	<circle class="chapterCircle0" cx="68.8" cy="133.5" r="2.8"/>
	<circle class="chapterCircle0" cx="68.8" cy="141.6" r="2.8"/>
	<circle class="chapterCircle0" cx="60.7" cy="28.3" r="2.8"/>
	<circle class="chapterCircle0" cx="60.7" cy="36.4" r="2.8"/>
	<circle class="chapterCircle0" cx="60.7" cy="44.5" r="2.8"/>
	<circle class="chapterCircle0" cx="60.7" cy="52.6" r="2.8"/>
	<circle class="chapterCircle0" cx="60.7" cy="60.7" r="2.8"/>
	<circle class="chapterCircle0" cx="60.7" cy="68.8" r="2.8"/>
	<circle class="chapterCircle0" cx="60.7" cy="76.9" r="2.8"/>
	<circle class="chapterCircle0" cx="60.7" cy="85" r="2.8"/>
	<circle class="chapterCircle0" cx="60.7" cy="93.1" r="2.8"/>
	<circle class="chapterCircle0" cx="60.7" cy="101.2" r="2.8"/>
	<circle class="chapterCircle0" cx="60.7" cy="109.3" r="2.8"/>
	<circle class="chapterCircle0" cx="52.6" cy="28.3" r="2.8"/>
	<circle class="chapterCircle0" cx="52.6" cy="36.4" r="2.8"/>
	<circle class="chapterCircle0" cx="52.6" cy="44.5" r="2.8"/>
	<circle class="chapterCircle0" cx="52.6" cy="52.6" r="2.8"/>
	<circle class="chapterCircle0" cx="52.6" cy="60.7" r="2.8"/>
	<circle class="chapterCircle0" cx="52.6" cy="68.8" r="2.8"/>
	<circle class="chapterCircle0" cx="52.6" cy="76.9" r="2.8"/>
	<circle class="chapterCircle0" cx="52.6" cy="85" r="2.8"/>
	<circle class="chapterCircle0" cx="52.6" cy="93.1" r="2.8"/>
	<circle class="chapterCircle0" cx="52.6" cy="101.2" r="2.8"/>
	<circle class="chapterCircle0" cx="44.5" cy="36.4" r="2.8"/>
	<circle class="chapterCircle0" cx="44.5" cy="44.5" r="2.8"/>
	<circle class="chapterCircle0" cx="44.5" cy="52.6" r="2.8"/>
	<circle class="chapterCircle0" cx="44.5" cy="60.7" r="2.8"/>
	<circle class="chapterCircle0" cx="44.5" cy="68.8" r="2.8"/>
	<circle class="chapterCircle0" cx="44.5" cy="76.9" r="2.8"/>
	<circle class="chapterCircle0" cx="44.5" cy="85" r="2.8"/>
	<circle class="chapterCircle0" cx="44.5" cy="93.1" r="2.8"/>
	<circle class="chapterCircle0" cx="44.5" cy="101.2" r="2.8"/>
	<circle class="chapterCircle0" cx="36.4" cy="36.4" r="2.8"/>
	<circle class="chapterCircle0" cx="36.4" cy="44.5" r="2.8"/>
	<circle class="chapterCircle0" cx="36.4" cy="52.6" r="2.8"/>
	<circle class="chapterCircle0" cx="36.4" cy="60.7" r="2.8"/>
	<circle class="chapterCircle0" cx="36.4" cy="68.8" r="2.8"/>
	<circle class="chapterCircle0" cx="36.4" cy="76.9" r="2.8"/>
	<circle class="chapterCircle0" cx="36.4" cy="85" r="2.8"/>
	<circle class="chapterCircle0" cx="36.4" cy="93.1" r="2.8"/>
	<circle class="chapterCircle0" cx="36.4" cy="101.2" r="2.8"/>
	<circle class="chapterCircle0" cx="36.4" cy="109.3" r="2.8"/>
	<circle class="chapterCircle0" cx="28.3" cy="44.5" r="2.8"/>
	<circle class="chapterCircle0" cx="28.3" cy="52.6" r="2.8"/>
	<circle class="chapterCircle0" cx="28.3" cy="60.7" r="2.8"/>
	<circle class="chapterCircle0" cx="28.3" cy="68.8" r="2.8"/>
	<circle class="chapterCircle0" cx="28.3" cy="76.9" r="2.8"/>
	<circle class="chapterCircle0" cx="28.3" cy="85" r="2.8"/>
	<circle class="chapterCircle0" cx="28.3" cy="93.1" r="2.8"/>
	<circle class="chapterCircle0" cx="28.3" cy="101.2" r="2.8"/>
	<circle class="chapterCircle0" cx="28.3" cy="109.3" r="2.8"/>
	<circle class="chapterCircle0" cx="20.2" cy="44.5" r="2.8"/>
	<circle class="chapterCircle0" cx="20.2" cy="52.6" r="2.8"/>
	<circle class="chapterCircle0" cx="20.2" cy="60.7" r="2.8"/>
	<circle class="chapterCircle0" cx="20.2" cy="68.8" r="2.8"/>
	<circle class="chapterCircle0" cx="20.2" cy="76.9" r="2.8"/>
	<circle class="chapterCircle0" cx="20.2" cy="85" r="2.8"/>
	<circle class="chapterCircle0" cx="20.2" cy="93.1" r="2.8"/>
	<circle class="chapterCircle0" cx="20.2" cy="101.2" r="2.8"/>
	<circle class="chapterCircle0" cx="20.2" cy="109.3" r="2.8"/>
	<circle class="chapterCircle0" cx="12.1" cy="52.6" r="2.8"/>
	<circle class="chapterCircle0" cx="12.1" cy="60.7" r="2.8"/>
	<circle class="chapterCircle0" cx="12.1" cy="68.8" r="2.8"/>
	<circle class="chapterCircle0" cx="12.1" cy="76.9" r="2.8"/>
	<circle class="chapterCircle0" cx="12.1" cy="85" r="2.8"/>
	<circle class="chapterCircle0" cx="12.1" cy="93.1" r="2.8"/>
	<circle class="chapterCircle0" cx="4.1" cy="60.7" r="2.8"/>
	<circle class="chapterCircle0" cx="4.1" cy="68.8" r="2.8"/>
</g>
<g>
	<g id="bruxelles">
		<ellipse class="chapterCircle1" cx="169.9" cy="90.8" rx="25" ry="25"/>
		<ellipse class="chapterCircle0" cx="169.9" cy="90.8" rx="16.6" ry="16.6"/>
	</g>
</g>
</svg>
