<?xml version="1.0" encoding="UTF-8"?>
<svg width="28px" height="27px" viewBox="0 0 28 27" version="1.1" xmlns="http://www.w3.org/2000/svg" xmlns:xlink="http://www.w3.org/1999/xlink">
    <!-- Generator: Sketch 51.1 (57501) - http://www.bohemiancoding.com/sketch -->
    <title>ico/sharing</title>
    <desc>Created with Sketch.</desc>
    <defs>
        <path d="M1.625,23.0009062 L26.375,23.0009062 L26.375,16.8134062 L1.625,16.8134062 L1.625,23.0009062 Z M24.6875,25.2509062 L24.6875,25.8134062 L3.3125,25.8134062 L3.3125,25.2509062 C3.3125,24.8408437 3.1994375,24.4572187 3.0065,24.1259062 L24.9935,24.1259062 C24.8005625,24.4572187 24.6875,24.8408437 24.6875,25.2509062 Z M27.1349375,15.6884062 L7.6015625,0.06159375 L6.8984375,0.94021875 L25.3338125,15.6884062 L0.5,15.6884062 L0.5,24.1259062 L1.0625,24.1259062 C1.6829375,24.1259062 2.1875,24.6304687 2.1875,25.2509062 L2.1875,26.9384062 L25.8125,26.9384062 L25.8125,25.2509062 C25.8125,24.6304687 26.3170625,24.1259062 26.9375,24.1259062 L27.5,24.1259062 L27.5,15.6884062 L27.1349375,15.6884062 Z" id="path-1"></path>
    </defs>
    <g id="Symbols" stroke="none" stroke-width="1" fill="none" fill-rule="evenodd">
        <g id="btn-slott/waiting_doc_sna" transform="translate(-28.000000, -25.000000)">
            <g id="sharing">
                <g id="Group" transform="translate(8.000000, 24.000000)">
                    <g id="ico/waiting" transform="translate(20.000000, 0.000000)">
                        <g id="Color/Gray-80" transform="translate(0.000000, 1.000000)">
                            <mask id="mask-2" fill="white">
                                <use xlink:href="#path-1"></use>
                            </mask>
                            <use id="Mask" fill="#FFFFFF" xlink:href="#path-1"></use>
                            <g id="Color/White" mask="url(#mask-2)" fill="#FFFFFF">
                                <g transform="translate(0.000000, -1.000000)" id="Swatch">
                                    <rect x="0" y="0" width="28" height="29"></rect>
                                </g>
                            </g>
                        </g>
                    </g>
                </g>
            </g>
        </g>
    </g>
</svg>