<?xml version="1.0" encoding="UTF-8"?>
<svg width="27px" height="26px" viewBox="0 0 27 26" version="1.1" xmlns="http://www.w3.org/2000/svg" xmlns:xlink="http://www.w3.org/1999/xlink">
    <!-- Generator: Sketch 51.1 (57501) - http://www.bohemiancoding.com/sketch -->
    <title>addBasket</title>
    <desc>Created with Sketch.</desc>
    <defs>
        <path d="M22.2765957,5.65957447 L25.1781915,5.65957447 C25.938776,5.65957447 26.4823654,6.39432868 26.2605172,7.12212621 L23.6126354,15.7886463 C23.398854,16.4882189 22.7527421,16.9659574 22.0212766,16.9659574 L10.2637911,16.9659574 L10.921523,19.1585046 C10.9805163,19.3552265 11.1607458,19.4893617 11.3659574,19.4893617 L22.8085106,19.4893617 L22.8085106,20.6893617 L11.3659574,20.6893617 C10.6307265,20.6893617 9.9833086,20.2075232 9.77211041,19.503252 L5.44017917,5.06277201 C5.38118582,4.86605009 5.20095629,4.73191489 4.99574468,4.73191489 L1,4.73191489 L1,3.53191489 L4.99574468,3.53191489 C5.73097558,3.53191489 6.37839352,4.01375342 6.58959172,4.71802457 L6.87204282,5.65957447 L22.2765957,5.65957447 Z M22.2765957,6.85957447 L7.23202513,6.85957447 L9.9038088,15.7659574 L22.0212766,15.7659574 C22.22529,15.7659574 22.40551,15.6327019 22.4650147,15.4379802 L25.085975,6.85957447 L22.2765957,6.85957447 Z M12.7702128,23.277234 C12.7702128,24.4915836 11.7850943,25.4767021 10.5707447,25.4767021 C9.35597631,25.4767021 8.37074468,24.4916967 8.37074468,23.277234 C8.37074468,22.0623526 9.35586319,21.077234 10.5707447,21.077234 C11.7852074,21.077234 12.7702128,22.0624657 12.7702128,23.277234 Z M11.5702128,23.277234 C11.5702128,22.7251457 11.122404,22.277234 10.5707447,22.277234 C10.0186049,22.277234 9.57074468,22.7250943 9.57074468,23.277234 C9.57074468,23.8288933 10.0186563,24.2767021 10.5707447,24.2767021 C11.1223526,24.2767021 11.5702128,23.8288419 11.5702128,23.277234 Z M23.4162766,23.277234 C23.4162766,24.4916967 22.431045,25.4767021 21.2162766,25.4767021 C20.001927,25.4767021 19.0168085,24.4915836 19.0168085,23.277234 C19.0168085,22.0624657 20.0018139,21.077234 21.2162766,21.077234 C22.4311581,21.077234 23.4162766,22.0623526 23.4162766,23.277234 Z M22.2162766,23.277234 C22.2162766,22.7250943 21.7684164,22.277234 21.2162766,22.277234 C20.6646173,22.277234 20.2168085,22.7251457 20.2168085,23.277234 C20.2168085,23.8288419 20.6646687,24.2767021 21.2162766,24.2767021 C21.7683649,24.2767021 22.2162766,23.8288933 22.2162766,23.277234 Z" id="path-1"></path>
    </defs>
    <g id="Banker" stroke="none" stroke-width="1" fill="none" fill-rule="evenodd">
        <g id="2_Account_Opening_Banker" transform="translate(-1274.000000, -973.000000)">
            <g id="Group-3" transform="translate(519.000000, 877.000000)">
                <g id="Product-2">
                    <g id="Right" transform="translate(705.000000, 77.000000)">
                        <g id="share">
                            <g id="Group-5">
                                <g id="Group-10">
                                    <g id="Group">
                                        <g id="Group-8" transform="translate(50.000000, 16.000000)">
                                            <g id="Group-11">
                                                <g id="addBasket">
                                                    <g id="Group-14">
                                                        <g id="ico/basket-empty">
                                                            <mask id="mask-2" fill="white">
                                                                <use xlink:href="#path-1"></use>
                                                            </mask>
                                                            <use id="Mask" fill="#505050" fill-rule="nonzero" xlink:href="#path-1"></use>
                                                            <g id="Color/Green" mask="url(#mask-2)" fill="#545964" fill-rule="evenodd">
                                                                <rect id="Swatch" x="0" y="0" width="28" height="29"></rect>
                                                            </g>
                                                        </g>
                                                        <!--<circle id="Oval-2" fill="#545964" cx="8" cy="21" r="8"></circle>-->
                                                    </g>
                                                </g>
                                            </g>
                                        </g>
                                    </g>
                                </g>
                            </g>
                        </g>
                    </g>
                </g>
            </g>
        </g>
    </g>
</svg>
