<?xml version="1.0" encoding="UTF-8"?>
<svg width="100px" height="125px" viewBox="0 0 100 125" version="1.1" xmlns="http://www.w3.org/2000/svg" xmlns:xlink="http://www.w3.org/1999/xlink">
    <!-- Generator: Sketch 63.1 (92452) - https://sketch.com -->
    <title>Group 43</title>
    <desc>Created with Sketch.</desc>
    <defs>
        <polygon id="path-1" points="0 0.192656587 7.25672246 0.192656587 7.25672246 4.24233261 0 4.24233261"></polygon>
    </defs>
    <g id="Symbols" stroke="none" stroke-width="1" fill="none" fill-rule="evenodd">
        <g id="icon/topic/Fashion" transform="translate(-19.000000, -11.000000)">
            <g id="Group-43" transform="translate(19.000000, 11.000000)">
                <polygon id="Fill-1" fill="#D1D8E9" points="55.449703 122.757991 40.8816685 122.757991 41.4561825 109.611393 54.1700054 109.067387"></polygon>
                <polygon id="Fill-2" fill="#D1D8E9" points="39.3108531 39.6141469 50.4706803 37.0941685 41.2449784 6.27019438"></polygon>
                <polygon id="Fill-3" fill="#D1D8E9" points="66.3229482 57.1150108 50.2038877 61.6177106 81.4352592 80.4487041"></polygon>
                <polygon id="Fill-4" fill="#D1D8E9" points="72.6450054 12.8066415 61.1863121 9.32823974 56.3037527 2.09686825 40.8815065 3.28666307 73.5605022 21.5015659"></polygon>
                <polygon id="Fill-5" fill="#D1D8E9" points="47.0881749 61.6176296 34.4569654 87.0633639 56.5112311 87.0633639"></polygon>
                <polygon id="Fill-6" fill="#D1D8E9" points="38.6918197 39.7939525 15.0009449 80.9516199 47.0881479 61.6176566"></polygon>
                <g id="Group-42" transform="translate(0.000000, 0.051836)">
                    <path d="M27.9578024,55.0648218 C26.5228672,56.7702754 25.1081803,58.5594222 23.7442495,60.3944654 C23.0771328,61.2918737 23.2639579,62.5602322 24.1613661,63.2276188 C24.5242171,63.4973272 24.9478132,63.6274568 25.3676296,63.6274568 C25.9861501,63.6274568 26.5968413,63.3450594 26.9942495,62.8105022 C28.5077484,60.7743251 30.0849622,58.7978132 31.6813445,56.9363121 C32.0919816,56.4576404 32.2558585,55.8150918 32.125189,55.1981911 L24.1486771,17.5545626 C23.8076944,15.9449514 24.837122,14.3469492 26.4437635,13.9924676 L33.11196,12.5205454 C37.1567765,11.6274568 40.2836663,8.57454104 41.2720572,4.55321274 C41.312014,4.39041577 41.4901998,4.26784557 41.6864741,4.26784557 L46.0895518,4.26784557 L50.1392279,4.26784557 L54.5298866,4.26784557 C54.7261609,4.26784557 54.9046166,4.39041577 54.9443035,4.55321274 C55.9326944,8.57454104 59.0595842,11.6274568 63.1046706,12.5205454 L69.7728672,13.9924676 C71.3795086,14.3469492 72.4089363,15.9449514 72.0679536,17.5545626 L67.3867981,39.6444654 C67.1551566,40.7384179 67.8538607,41.8132019 68.9478132,42.0451134 C70.0428456,42.2770248 71.1165497,41.5780508 71.3484611,40.4840983 L76.0298866,18.3941955 C76.8298326,14.6185475 74.4146058,10.8698974 70.6459773,10.038094 L63.9777808,8.56617171 C61.4875,8.01649568 59.4856102,6.06185205 58.8770788,3.58696004 C58.3894978,1.60315875 56.6019708,0.218169546 54.5298866,0.218169546 L41.6867441,0.218169546 C39.6146598,0.218169546 37.8271328,1.60315875 37.3395518,3.58669006 C36.7312905,6.06158207 34.7291307,8.0162257 32.2391199,8.56590173 L25.5709233,10.037824 C21.8020248,10.8698974 19.3867981,14.6182775 20.187014,18.3939255 L27.9578024,55.0648218 Z" id="Fill-7" fill="#0046AD"></path>
                    <path d="M46.5803726,90.2910907 C47.0582343,90.2989201 47.5360961,90.3080994 48.0139579,90.3080994 C48.5590443,90.3080994 49.1044006,90.2989201 49.649757,90.2883909 L49.649757,101.79838 C49.649757,101.79919 49.649487,101.8 49.649487,101.80081 L49.649487,107.475216 L46.5803726,107.475216 L46.5803726,90.2910907 Z M15.4734611,84.1228942 C24.3530508,87.5408207 33.4308045,89.55027 42.5306965,90.1285637 L42.5306965,107.54595 C40.3822084,107.915551 38.7404698,109.787311 38.7404698,112.039741 L38.7404698,120.682289 L31.8859881,120.682289 L31.8851782,120.682289 L42.7898758,120.682289 L42.7898758,112.040011 C42.7898758,111.755724 43.0209773,111.524622 43.3049946,111.524622 L52.924595,111.524622 C53.2083423,111.524622 53.4394438,111.755724 53.4394438,112.040011 L53.4394438,120.682289 L64.3444114,120.682289 L64.3436015,120.682289 L57.4893898,120.682289 L57.4893898,112.039741 C57.4893898,109.787311 55.8479212,107.915551 53.6991631,107.54595 L53.6991631,103.011933 C53.6991631,103.011123 53.699433,103.010313 53.699433,103.009503 L53.699433,90.1164147 C62.8044546,89.5165227 71.8843683,87.4835853 80.7655778,84.0419006 C81.9699514,83.575108 82.9275648,82.6169546 83.3919276,81.412851 C83.8525108,80.2176566 83.7885259,78.8761339 83.2156317,77.7330454 C79.0333963,69.3863931 74.0188175,61.6965983 68.3022948,54.8607451 L71.3484611,40.4841253 C71.5803726,39.3901728 70.8813985,38.3153888 69.787446,38.0834773 C68.6929536,37.8507559 67.6187095,38.55054 67.3867981,39.6444924 L64.1349082,54.9900648 C64.0050486,55.6045356 64.1670356,56.2446544 64.574433,56.7227862 C70.3481911,63.499784 75.4016469,71.1787797 79.5949514,79.5473002 C79.6770248,79.7109071 79.650027,79.8591253 79.61304,79.9546976 C79.5809125,80.038121 79.4974892,80.1895788 79.3012149,80.2654428 C76.6786447,81.2819114 74.0385259,82.1682505 71.3857181,82.9276998 C70.7588283,83.1385529 67.6057505,83.8985421 67.4348542,83.9609071 C61.700243,85.3199784 55.9186555,86.0794276 50.1392279,86.2289957 L46.0895518,86.2354752 C40.3228132,86.100486 34.5528348,85.3550756 28.8287527,84.0151728 C27.7191415,83.7835313 26.1238391,83.3677646 24.8708693,82.9919546 C22.2091523,82.237635 19.5598542,81.3561555 16.9281048,80.3431965 C16.7312905,80.2676026 16.6478672,80.1161447 16.6157397,80.0321814 C16.5787527,79.9363391 16.5520248,79.787041 16.6349082,79.6231641 C18.2318305,76.4673866 19.974811,73.3691145 21.8160637,70.413121 C22.4035367,69.4703564 22.1967333,68.1976782 21.2728672,67.5805076 C20.3179536,66.9425486 19.0323164,67.224406 18.4291847,68.1914687 C16.5223272,71.2476242 14.7169816,74.450378 13.0633639,77.712797 C12.7242711,78.3820734 12.524757,79.1199244 12.5305676,79.8699244 C12.5468952,81.8134989 13.7607181,83.4633369 15.4734611,84.1228942 L15.4734611,84.1228942 Z" id="Fill-9" fill="#0046AD"></path>
                    <path d="M39.3107181,41.587257 C38.624433,41.587257 37.9694654,41.237365 37.5933855,40.6347732 L22.1301026,15.8696544 C21.53777,14.9209503 21.8266469,13.6720302 22.775351,13.0796976 C23.7237851,12.487095 24.9732451,12.7762419 25.5653078,13.724676 L37.5375,32.8988121 L38.66223,3.26085313 C38.7043467,2.14314255 39.6473812,1.26733261 40.762122,1.31403888 C41.8798326,1.35642549 42.7513229,2.29676026 42.7089363,3.41420086 L41.3342063,39.6390929 C41.300459,40.5275918 40.6908477,41.2902808 39.8315065,41.5189525 C39.6587203,41.5648488 39.4837743,41.587257 39.3107181,41.587257" id="Fill-11" fill="#0046AD"></path>
                    <path d="M44.0151728,7.54389849 L51.6134449,33.7156048 L68.5921166,21.4269978 L44.0151728,7.54389849 Z M50.4703564,39.0671166 C50.249514,39.0671166 50.0275918,39.0309395 49.812959,38.9572354 C49.1898488,38.7431425 48.7098272,38.2393629 48.5262419,37.6068035 L38.7408747,3.90215983 C38.5113931,3.11166307 38.7835313,2.26069114 39.4287797,1.74989201 C40.0740281,1.23909287 40.9644168,1.16970842 41.6814795,1.57440605 L73.3323974,19.4537257 C73.9328294,19.7930886 74.3194384,20.4143089 74.3583153,21.1030238 C74.3969222,21.7917387 74.0823974,22.4526458 73.5238121,22.8570734 L51.6579914,38.6823974 C51.3080994,38.9356371 50.8915227,39.0671166 50.4703564,39.0671166 L50.4703564,39.0671166 Z" id="Fill-13" fill="#0046AD"></path>
                    <path d="M56.5114471,89.036906 C55.6885529,89.036906 54.9147948,88.5315065 54.612419,87.7148218 L45.1893629,62.2690875 C44.8937365,61.4710313 45.1286177,60.5736231 45.7771058,60.0225972 C46.4258639,59.4715713 47.3491901,59.3851782 48.0889309,59.8055346 L79.5352052,77.6848542 C80.5073974,78.2375 80.8475702,79.4737311 80.2946544,80.4459233 C79.7417387,81.4178456 78.5049676,81.7582883 77.5335853,81.2051026 L50.9158747,66.0714633 L58.4099352,86.3085043 C58.7984341,87.3571004 58.263067,88.5220572 57.2144708,88.9102862 C56.9825594,88.9964093 56.7449784,89.036906 56.5114471,89.036906" id="Fill-15" fill="#0046AD"></path>
                    <path d="M20.0320464,71.3578024 C19.6551566,71.3578024 19.2736771,71.2525108 18.9337743,71.0324784 C17.9950594,70.425027 17.7264309,69.1712473 18.3338823,68.2325324 L18.8222732,67.4760529 C20.1454374,65.4234071 21.7925756,62.8683315 23.7161717,60.3397138 C24.3935475,59.449865 25.6637959,59.2773488 26.5536447,59.9544546 C27.4437635,60.6315605 27.6162797,61.9020788 26.9389039,62.7916577 C25.1108801,65.1950054 23.5112581,67.6763769 22.2258909,69.6704374 L21.7337203,70.4328564 C21.3463013,71.0316685 20.6956533,71.3578024 20.0320464,71.3578024" id="Fill-17" fill="#0046AD"></path>
                    <path d="M55.449703,39.8053726 L64.8492711,50.950621 L66.9224352,41.4587203 L55.449703,39.8053726 Z M41.9791307,41.0356641 L46.2207613,53.0356641 L48.0652538,39.6612041 L41.9791307,41.0356641 Z M33.2704374,54.4328024 L43.7553186,58.21196 L38.8886879,44.4436015 L33.2704374,54.4328024 Z M15.0028888,82.924973 C14.3163337,82.924973 13.6467873,82.5758909 13.2666577,81.9449514 C12.6894438,80.987068 12.9980292,79.7427376 13.9559125,79.1655238 L42.3981371,62.0278348 L29.6457073,57.4309125 C29.0855022,57.2289687 28.6424676,56.7907937 28.4345842,56.2324784 C28.2269708,55.6741631 28.275567,55.0529428 28.5674136,54.5335043 L37.5412257,38.5780508 C37.7631479,38.1787527 38.1200594,37.8528888 38.5757829,37.675513 C38.6135799,37.6609341 38.6519168,37.6471652 38.6907937,37.6344762 C38.7582883,37.612878 38.8260529,37.5947894 38.8940875,37.5804806 L50.0193575,35.0683315 C50.2701674,35.0108261 50.525297,35.0027268 50.7712473,35.0397138 L69.6535367,37.7605562 C70.2102322,37.8407397 70.7086123,38.1487851 71.0288067,38.6109881 C71.3492711,39.0729212 71.462932,39.6474352 71.3430616,40.1968413 L67.9289147,55.8294006 C67.7642279,56.5831803 67.1862041,57.1774028 66.437284,57.362878 C65.6897138,57.5491631 64.900027,57.2921436 64.4027268,56.7027808 L51.8552106,41.824541 L49.0965713,61.825081 C49.087932,61.8909557 49.0763229,61.9562905 49.0614741,62.0205454 C48.9920896,62.3215713 48.8565605,62.5964093 48.6708153,62.8288607 C48.5693035,62.9562905 48.4515929,63.0721112 48.3195734,63.1733531 C48.2536987,63.2235691 48.1848542,63.2700054 48.1133099,63.312122 L16.0458153,82.6342063 C15.7188715,82.8310205 15.3584503,82.924973 15.0028888,82.924973 L15.0028888,82.924973 Z" id="Fill-19" fill="#0046AD"></path>
                    <path d="M34.4553456,89.036906 C34.1529698,89.036906 33.8460043,88.9688715 33.5565875,88.825243 C32.5549676,88.3279428 32.1459503,87.11277 32.6432505,86.1111501 L45.27446,60.6654158 C45.5158207,60.1791847 45.9426566,59.8101242 46.4588553,59.6413877 L65.3214363,53.4729212 C66.3851512,53.124919 67.5276998,53.7056425 67.875432,54.7680076 C68.2228942,55.8309125 67.6429806,56.9742711 66.5800756,57.3217333 L48.52446,63.2264309 L36.2706803,87.911906 C35.9170086,88.624379 35.200216,89.036906 34.4553456,89.036906" id="Fill-21" fill="#0046AD"></path>
                    <path d="M90.1108261,11.450135 C88.9923056,11.450135 88.0859881,10.5435475 88.0859881,9.42529698 L88.0859881,6.21822354 C88.0859881,5.099973 88.9923056,4.19338553 90.1108261,4.19338553 C91.2293467,4.19338553 92.1356641,5.099973 92.1356641,6.21822354 L92.1356641,9.42529698 C92.1356641,10.5435475 91.2293467,11.450135 90.1108261,11.450135" id="Fill-23" fill="#0046AD"></path>
                    <path d="M90.1108261,22.7280778 C88.9923056,22.7280778 88.0859881,21.8214903 88.0859881,20.7032397 L88.0859881,17.4961663 C88.0859881,16.3779158 88.9923056,15.4713283 90.1108261,15.4713283 C91.2293467,15.4713283 92.1356641,16.3779158 92.1356641,17.4961663 L92.1356641,20.7032397 C92.1356641,21.8214903 91.2293467,22.7280778 90.1108261,22.7280778" id="Fill-25" fill="#0046AD"></path>
                    <path d="M97.3533207,15.4855832 L94.1462473,15.4855832 C93.0279968,15.4855832 92.1214093,14.5789957 92.1214093,13.4607451 C92.1214093,12.3424946 93.0279968,11.4359071 94.1462473,11.4359071 L97.3533207,11.4359071 C98.4718413,11.4359071 99.3781587,12.3424946 99.3781587,13.4607451 C99.3781587,14.5789957 98.4718413,15.4855832 97.3533207,15.4855832" id="Fill-27" fill="#0046AD"></path>
                    <path d="M86.075378,15.4855832 L82.8683045,15.4855832 C81.750054,15.4855832 80.8434665,14.5789957 80.8434665,13.4607451 C80.8434665,12.3424946 81.750054,11.4359071 82.8683045,11.4359071 L86.075378,11.4359071 C87.1938985,11.4359071 88.100216,12.3424946 88.100216,13.4607451 C88.100216,14.5789957 87.1938985,15.4855832 86.075378,15.4855832" id="Fill-29" fill="#0046AD"></path>
                    <path d="M9.26733261,48.262905 C8.14908207,48.262905 7.2424946,47.3563175 7.2424946,46.238067 L7.2424946,43.0309935 C7.2424946,41.912743 8.14908207,41.0061555 9.26733261,41.0061555 C10.3855832,41.0061555 11.2921706,41.912743 11.2921706,43.0309935 L11.2921706,46.238067 C11.2921706,47.3563175 10.3855832,48.262905 9.26733261,48.262905" id="Fill-31" fill="#0046AD"></path>
                    <path d="M9.26733261,59.5409557 C8.14908207,59.5409557 7.2424946,58.6343683 7.2424946,57.5161177 L7.2424946,54.3090443 C7.2424946,53.1907937 8.14908207,52.2842063 9.26733261,52.2842063 C10.3855832,52.2842063 11.2921706,53.1907937 11.2921706,54.3090443 L11.2921706,57.5161177 C11.2921706,58.6343683 10.3855832,59.5409557 9.26733261,59.5409557" id="Fill-33" fill="#0046AD"></path>
                    <path d="M16.5098002,52.2984881 L13.3027268,52.2984881 C12.1844762,52.2984881 11.2778888,51.3919006 11.2778888,50.2736501 C11.2778888,49.1553996 12.1844762,48.2488121 13.3027268,48.2488121 L16.5098002,48.2488121 C17.6280508,48.2488121 18.5346382,49.1553996 18.5346382,50.2736501 C18.5346382,51.3919006 17.6280508,52.2984881 16.5098002,52.2984881" id="Fill-35" fill="#0046AD"></path>
                    <g id="Group-39" transform="translate(0.000000, 48.056156)">
                        <mask id="mask-2" fill="white">
                            <use xlink:href="#path-1"></use>
                        </mask>
                        <g id="Clip-38"></g>
                        <path d="M5.23188445,4.24233261 L2.02481102,4.24233261 C0.906560475,4.24233261 -2.69978402e-05,3.33574514 -2.69978402e-05,2.2174946 C-2.69978402e-05,1.09924406 0.906560475,0.192656587 2.02481102,0.192656587 L5.23188445,0.192656587 C6.35013499,0.192656587 7.25672246,1.09924406 7.25672246,2.2174946 C7.25672246,3.33574514 6.35013499,4.24233261 5.23188445,4.24233261" id="Fill-37" fill="#0046AD" mask="url(#mask-2)"></path>
                    </g>
                    <path d="M73.4612851,124.729941 L22.7687905,124.729941 C21.6510799,124.729941 20.7450324,123.824163 20.7450324,122.706183 C20.7450324,121.588472 21.6510799,120.682424 22.7687905,120.682424 L73.4612851,120.682424 C74.5789957,120.682424 75.4850432,121.588472 75.4850432,122.706183 C75.4850432,123.824163 74.5789957,124.729941 73.4612851,124.729941" id="Fill-40" fill="#0046AD"></path>
                </g>
            </g>
        </g>
    </g>
</svg>