<?xml version="1.0" encoding="UTF-8"?>
<svg width="80px" height="80px" viewBox="0 0 80 80" version="1.1" xmlns="http://www.w3.org/2000/svg" xmlns:xlink="http://www.w3.org/1999/xlink">
    <!-- Generator: Sketch 51.1 (57501) - http://www.bohemiancoding.com/sketch -->
    <title>icobig/employees</title>
    <desc>Created with Sketch.</desc>
    <defs></defs>
    <g id="icobig/employees" stroke="none" stroke-width="1" fill="none" fill-rule="evenodd">
        <g id="employees" fill-rule="nonzero">
            <g id="bg_rett" fill="#FFFFFF" opacity="0">
                <rect id="Rectangle-path" x="0" y="0" width="80" height="80"></rect>
            </g>
            <g id="Group" transform="translate(8.888889, 7.777778)" fill="#F36F20">
                <path d="M31.1111111,17.8048889 C26.2402111,17.8048889 16.6926556,20.1497778 16.6926556,25.5685556 L16.6926556,37.5444444 C16.8151551,40.6194569 19.006462,43.2202931 22.0161,43.8627778 L22.0161,62.8287778 L24.2383222,62.8287778 L24.2383222,28.2302222 L22.0161,28.2302222 L22.0161,41.5595556 C20.2698034,40.965475 19.0484347,39.3841852 18.9148778,37.5444444 L18.9148778,25.5685556 C18.9148778,22.3535556 26.2001,20.0271111 31.1111111,20.0271111 C36.0221222,20.0271111 43.3073222,22.3535556 43.3073222,25.5685556 L43.3073222,37.5444444 C43.1736874,39.3841554 41.9523481,40.9654072 40.2061,41.5595556 L40.2061,28.2302222 L37.9838778,28.2302222 L37.9838778,62.8287778 L40.2061,62.8287778 L40.2061,43.8627778 C43.215738,43.2202931 45.4070449,40.6194569 45.5295444,37.5444444 L45.5295444,25.5685556 C45.5295444,20.1497778 35.9819889,17.8048889 31.1111111,17.8048889 Z" id="Shape"></path>
                <path d="M48.4093222,21.7957778 C47.9654333,21.7957778 47.4837667,21.8196667 46.9747667,21.8684444 L47.1831,24.0798889 C47.6182111,24.0396667 48.0305444,24.018 48.4093222,24.018 C52.2395444,24.018 59.2752111,26.122 59.2752111,29.5605556 L59.2752111,41.5375556 C59.2752111,43.0674444 57.82,44.0097778 56.1739889,44.3063333 L56.1739889,32.2222222 L53.9517667,32.2222222 L53.9517667,62.8287778 L56.1739889,62.8287778 L56.1739889,46.5627778 C58.9213222,46.1924444 61.4974333,44.4586667 61.4974333,41.5375556 L61.4974333,29.5605556 C61.4974333,24.1406667 52.8309889,21.7957778 48.4093222,21.7957778 Z" id="Shape"></path>
                <path d="M31.1111111,16.0341111 C32.8350241,16.0936636 34.5063251,15.4350333 35.7261376,14.2154104 C36.9459501,12.9957875 37.6048401,11.3245889 37.5455556,9.60066667 L37.5455556,6.939 C37.6050705,5.21492239 36.9462887,3.54348865 35.7264556,2.32365554 C34.5066225,1.10382244 32.8351887,0.445040599 31.1111111,0.504555556 C29.3870326,0.445037264 27.7155969,1.10381803 26.495763,2.32365189 C25.2759291,3.54348574 24.6171484,5.21492145 24.6766667,6.939 L24.6766667,9.60066667 C24.6173754,11.3245908 25.2762633,12.9957933 26.4960773,14.2154177 C27.7158913,15.4350421 29.3871962,16.0936703 31.1111111,16.0341111 Z M26.8988889,6.939 C26.8329251,5.80290826 27.255486,4.69275714 28.0601771,3.88806599 C28.8648682,3.08337485 29.9750194,2.66081395 31.1111111,2.72677778 C32.2472029,2.66081395 33.357354,3.08337485 34.1620451,3.88806599 C34.9667363,4.69275714 35.3892972,5.80290826 35.3233333,6.939 L35.3233333,9.60066667 C35.3890726,10.7366094 34.9664036,11.8465299 34.1617314,12.6510112 C33.3570591,13.4554925 32.2470382,13.8778978 31.1111111,13.8118889 C29.975183,13.8779015 28.86516,13.4554972 28.0604869,12.6510152 C27.2558138,11.8465331 26.833146,10.7366104 26.8988889,9.60066667 L26.8988889,6.939 Z" id="Shape"></path>
                <rect id="Rectangle-path" x="30" y="41.5375556" width="2.22222222" height="21.2912222"></rect>
                <path d="M48.4093222,20.0271111 C50.1333951,20.0866094 51.804819,19.4278222 53.0246484,18.2079928 C54.2444777,16.9881635 54.9032649,15.3167395 54.8437667,13.5926667 L54.8437667,10.931 C54.8437666,7.37763068 51.9631915,4.49705575 48.4098222,4.49705575 C44.8564529,4.49705575 41.9758779,7.37763068 41.9758778,10.931 L41.9758778,13.5926667 C41.9163219,15.3165806 42.5749511,16.9878836 43.7945748,18.2076968 C45.0141984,19.42751 46.6853991,20.086399 48.4093222,20.0271111 Z M44.1981,10.931 C44.1981,8.60493005 46.0837523,6.71927778 48.4098222,6.71927778 C50.7358922,6.71927778 52.6215444,8.60493005 52.6215444,10.931 L52.6215444,13.5926667 C52.6215444,15.9187366 50.7358922,17.8043889 48.4098222,17.8043889 C46.0837523,17.8043889 44.1981,15.9187366 44.1981,13.5926667 L44.1981,10.931 Z" id="Shape"></path>
                <path d="M0.724766667,29.5605556 L0.724766667,41.5375556 C0.724766667,44.4586667 3.30087778,46.1924444 6.04821111,46.5627778 L6.04821111,62.8287778 L8.27043333,62.8287778 L8.27043333,32.2222222 L6.04821111,32.2222222 L6.04821111,44.3063333 C4.40222222,44.0097778 2.94698889,43.0674444 2.94698889,41.5375556 L2.94698889,29.5605556 C2.94698889,26.122 9.98154444,24.018 13.8118778,24.018 C14.1916556,24.018 14.6039889,24.0396667 15.0391,24.0798889 L15.2474333,21.8684444 C14.7384333,21.8196667 14.2567667,21.7957778 13.8118778,21.7957778 C9.39121111,21.7957778 0.724766667,24.1406667 0.724766667,29.5605556 Z" id="Shape"></path>
                <path d="M13.8118778,20.0271111 C15.5357896,20.0863942 17.2069763,19.4274998 18.4265812,18.2076843 C19.6461862,16.9878687 20.3047919,15.3165682 20.2452111,13.5926667 L20.2452111,10.931 C20.30456,9.20726429 19.6458418,7.53621088 18.4262543,6.31662343 C17.2066669,5.09703598 15.5356135,4.43831777 13.8118778,4.49766667 C12.0881316,4.43831625 10.4170663,5.09703019 9.19746088,6.31661452 C7.97785549,7.53619885 7.31911269,9.20725283 7.37843333,10.931 L7.37843333,13.5926667 C7.31887747,15.3165806 7.9775067,16.9878836 9.19713035,18.2076968 C10.416754,19.42751 12.0879546,20.086399 13.8118778,20.0271111 Z M9.60065556,10.931 C9.53487882,9.7952338 9.95739866,8.68545888 10.761863,7.88101581 C11.5663272,7.07657275 12.6761133,6.65408218 13.8118778,6.71988889 C14.9476313,6.6540862 16.0574042,7.07658202 16.86185,7.88102781 C17.6662958,8.68547359 18.0887916,9.79524648 18.0229889,10.931 L18.0229889,13.5926667 C18.0890274,14.7285821 17.6666472,15.838603 16.8621836,16.6432789 C16.0577201,17.4479547 14.9478106,17.8706277 13.8118778,17.8048889 C12.6759341,17.8706318 11.5660114,17.447964 10.7615293,16.6432909 C9.9570472,15.8386178 9.53464297,14.7285947 9.60065556,13.5926667 L9.60065556,10.931 Z" id="Shape"></path>
            </g>
        </g>
    </g>
</svg>