<!--?xml version="1.0" encoding="utf-8"?-->
<!-- Generator: Adobe Illustrator 22.0.1, SVG Export Plug-In . SVG Version: 6.00 Build 0)  -->
<svg version="1.1" xmlns="http://www.w3.org/2000/svg" xmlns:xlink="http://www.w3.org/1999/xlink" x="0px" y="0px" viewBox="0 0 100 100" style="" xml:space="preserve">
<style type="text/css">
	.st0{fill:none;stroke:rgba(255,255,255, .6);stroke-width:5;stroke-linecap:round;stroke-linejoin:round;stroke-miterlimit:10;}
	.st1{fill:none;stroke:rgba(255,255,255, .6);stroke-width:5;stroke-linecap:round;stroke-linejoin:round;stroke-miterlimit:10;}
	.st2{fill:none;stroke:#4374BA;stroke-width:5;stroke-linecap:round;stroke-linejoin:round;stroke-miterlimit:10;}
</style>
<g id="Back-Circle">
	<g>
		<path class="st0 XniCimWh_0" d="M9.200000000000003,50A40.8,40.8 0,1,1 90.8,50A40.8,40.8 0,1,1 9.200000000000003,50"></path>
	</g>
</g>
<g id="Front-Circle_copy">
	<g>
		<path class="st1 XniCimWh_1" d="M9.200000000000003,50A40.8,40.8 0,1,1 90.8,50A40.8,40.8 0,1,1 9.200000000000003,50"></path>
	</g>
	<g>
		<path class="st2 XniCimWh_2" d="M9.200000000000003,50A40.8,40.8 0,1,1 90.8,50A40.8,40.8 0,1,1 9.200000000000003,50"></path>
	</g>
</g>
<style>

	.XniCimWh_1{stroke-dasharray:257 259;stroke-dashoffset:258;animation:XniCimWh_draw 7000ms linear 0ms forwards;}
	.XniCimWh_2{stroke-dasharray:257 259;stroke-dashoffset:258;animation:XniCimWh_draw 7000ms linear 0ms forwards;}
	@keyframes XniCimWh_draw{100%{stroke-dashoffset:0;}}
	@keyframes XniCimWh_fade{0%{stroke-opacity:1;}94.44444444444444%{stroke-opacity:1;}100%{stroke-opacity:0;}}
</style>
</svg>
