<?xml version="1.0" encoding="UTF-8"?>
<svg width="16px" height="9px" viewBox="0 0 16 9" version="1.1" xmlns="http://www.w3.org/2000/svg" xmlns:xlink="http://www.w3.org/1999/xlink">
    <!-- Generator: Sketch 49.3 (51167) - http://www.bohemiancoding.com/sketch -->
    <title>ico/ic_arrow_down</title>
    <desc>Created with Sketch.</desc>
    <defs></defs>
    <g id="Page-1" stroke="none" stroke-width="1" fill="none" fill-rule="evenodd">
        <g id="06_config" transform="translate(-746.000000, -796.000000)" fill="#7F8080">
            <g id="Stacked-Group" transform="translate(260.000000, 471.000000)">
                <g id="box1">
                    <g id="Group-5" transform="translate(190.000000, 155.000000)">
                        <g id="Group" transform="translate(0.000000, 116.000000)">
                            <g id="UI/input/text_active_L" transform="translate(0.000000, 33.000000)">
                                <g id="ico/ic_arrow_down" transform="translate(296.000000, 17.000000)">
                                    <path d="M12.1601899,8.15570615 C12.2030655,8.48949049 12.096297,8.83894321 11.8407468,9.0944934 L5.59614917,15.3390911 C5.15754133,15.7776989 4.44979586,15.7810772 4.00853161,15.339813 C3.57032248,14.9016039 3.57200285,14.1894461 4.00925354,13.7521954 L9.53597626,8.22547272 L4.00634241,2.69583886 C3.57540476,2.26490122 3.57025888,1.57135914 4.00151781,1.14010021 C4.42979091,0.711827114 5.12391691,0.711585236 5.55725647,1.1449248 L11.8355874,7.42325577 C12.039482,7.62715032 12.1480575,7.88983228 12.1601899,8.15570615 Z" id="Combined-Shape" transform="translate(7.925000, 8.244406) rotate(90.000000) translate(-7.925000, -8.244406) "></path>
                                </g>
                            </g>
                        </g>
                    </g>
                </g>
            </g>
        </g>
    </g>
</svg>