<?xml version="1.0" encoding="UTF-8"?>
<svg width="50px" height="63px" viewBox="0 0 50 63" version="1.1" xmlns="http://www.w3.org/2000/svg" xmlns:xlink="http://www.w3.org/1999/xlink">
    <!-- Generator: Sketch 49.3 (51167) - http://www.bohemiancoding.com/sketch -->
    <title>ico/ic_coverage_condition</title>
    <desc>Created with Sketch.</desc>
    <defs>
        <path d="M40.2422222,0.297777778 L40.2422222,2.07666667 L45.2377778,2.07666667 C46.1855556,2.07666667 46.9566667,2.84777778 46.9566667,3.79555556 L46.9566667,52.0577778 C46.9566667,53.0055556 46.1855556,53.7755556 45.2377778,53.7755556 L3.49888889,53.7755556 C2.55111111,53.7755556 1.78,53.0055556 1.78,52.0577778 L1.78,3.79555556 C1.78,2.84777778 2.55111111,2.07666667 3.49888889,2.07666667 L8.49555556,2.07666667 L8.49555556,0.297777778 L3.49888889,0.297777778 C1.57,0.297777778 0,1.86777778 0,3.79555556 L0,52.0577778 C0,53.9855556 1.57,55.5555556 3.49888889,55.5555556 L45.2377778,55.5555556 C47.1666667,55.5555556 48.7366667,53.9855556 48.7366667,52.0577778 L48.7366667,3.79555556 C48.7366667,1.86777778 47.1666667,0.297777778 45.2377778,0.297777778 L40.2422222,0.297777778 Z" id="path-1"></path>
        <linearGradient x1="0%" y1="49.9995759%" x2="100.000641%" y2="49.9995759%" id="linearGradient-3">
            <stop stop-color="#ED6E1C" offset="0%"></stop>
            <stop stop-color="#E98E00" offset="100%"></stop>
        </linearGradient>
        <polygon id="path-4" points="35.7977778 1.07111111 35.7977778 2.85 37.2944444 2.85 37.2944444 44.1133333 2.55333333 44.1133333 2.55333333 2.85 4.05111111 2.85 4.05111111 1.07111111 0.773333333 1.07111111 0.773333333 45.8933333 39.0744444 45.8933333 39.0744444 1.07111111"></polygon>
        <linearGradient x1="0.000838675989%" y1="49.9994772%" x2="99.9999774%" y2="49.9994772%" id="linearGradient-6">
            <stop stop-color="#ED6E1C" offset="0%"></stop>
            <stop stop-color="#E98E00" offset="100%"></stop>
        </linearGradient>
        <path d="M14.3677778,0.442222222 C11.4033333,0.442222222 8.87555556,2.56111111 8.34111111,5.56777778 L8.32555556,5.66 L5.23777778,5.66 C2.59,5.66 0.434444444,7.81444444 0.434444444,10.4622222 L0.434444444,15.2666667 L28.3022222,15.2666667 L28.3022222,10.4622222 C28.3022222,7.81444444 26.1466667,5.66 23.4988889,5.66 L20.5055556,5.66 L20.3955556,5.56777778 L20.38,5.47777778 C19.8622222,2.56111111 17.3344444,0.442222222 14.3677778,0.442222222 Z M2.21444444,10.4622222 C2.21444444,8.79555556 3.57111111,7.43888889 5.23777778,7.43888889 L10.0411111,7.43888889 L10.0411111,6.54888889 C10.0411111,4.16333333 11.9822222,2.22222222 14.3677778,2.22222222 C16.7544444,2.22222222 18.6955556,4.16333333 18.6955556,6.54888889 L18.6955556,7.43888889 L23.4988889,7.43888889 C25.1655556,7.43888889 26.5222222,8.79555556 26.5222222,10.4622222 L26.5222222,13.4866667 L2.21444444,13.4866667 L2.21444444,10.4622222 Z" id="path-7"></path>
        <linearGradient x1="0.00239862844%" y1="49.9988585%" x2="99.9987229%" y2="49.9988585%" id="linearGradient-9">
            <stop stop-color="#ED6E1C" offset="0%"></stop>
            <stop stop-color="#E98E00" offset="100%"></stop>
        </linearGradient>
        <linearGradient x1="-0.00878201124%" y1="50.001606%" x2="100.026352%" y2="50.001606%" id="linearGradient-10">
            <stop stop-color="#ED6E1C" offset="0%"></stop>
            <stop stop-color="#E98E00" offset="100%"></stop>
        </linearGradient>
        <polygon id="path-11" points="4.12666667 5.05111111 2.30444444 3.22777778 1.04666667 4.48444444 4.12666667 7.56444444 9.81555556 1.87555556 8.55888889 0.618888889"></polygon>
        <linearGradient x1="0.0048504815%" y1="50.0018749%" x2="99.9998023%" y2="50.0018749%" id="linearGradient-13">
            <stop stop-color="#ED6E1C" offset="0%"></stop>
            <stop stop-color="#E98E00" offset="100%"></stop>
        </linearGradient>
        <polygon id="path-14" points="4.12666667 5.29333333 2.30444444 3.47 1.04666667 4.72666667 4.12666667 7.80666667 9.81555556 2.11777778 8.55888889 0.861111111"></polygon>
        <linearGradient x1="0.0048504815%" y1="49.9982499%" x2="99.9998023%" y2="49.9982499%" id="linearGradient-16">
            <stop stop-color="#ED6E1C" offset="0%"></stop>
            <stop stop-color="#E98E00" offset="100%"></stop>
        </linearGradient>
        <polygon id="path-17" points="4.12666667 5.53555556 2.30444444 3.71222222 1.04666667 4.96777778 4.12666667 8.04777778 9.81555556 2.35888889 8.55888889 1.10222222"></polygon>
        <linearGradient x1="0.0048504815%" y1="50.0028124%" x2="99.9998023%" y2="50.0028124%" id="linearGradient-19">
            <stop stop-color="#ED6E1C" offset="0%"></stop>
            <stop stop-color="#E98E00" offset="100%"></stop>
        </linearGradient>
        <linearGradient x1="-0.00138290548%" y1="50.0063421%" x2="99.9985404%" y2="50.0063421%" id="linearGradient-20">
            <stop stop-color="#ED6E1C" offset="0%"></stop>
            <stop stop-color="#E98E00" offset="100%"></stop>
        </linearGradient>
        <polygon id="path-21" points="0.145555556 0.828888889 11.4422222 0.828888889 11.4422222 2.60888889 0.145555556 2.60888889"></polygon>
        <linearGradient x1="-0.00138290548%" y1="49.9921973%" x2="99.9985404%" y2="49.9921973%" id="linearGradient-23">
            <stop stop-color="#ED6E1C" offset="0%"></stop>
            <stop stop-color="#E98E00" offset="100%"></stop>
        </linearGradient>
        <linearGradient x1="-0.00138290548%" y1="50.0092692%" x2="99.9985404%" y2="50.0092692%" id="linearGradient-24">
            <stop stop-color="#ED6E1C" offset="0%"></stop>
            <stop stop-color="#E98E00" offset="100%"></stop>
        </linearGradient>
    </defs>
    <g id="Danube" stroke="none" stroke-width="1" fill="none" fill-rule="evenodd">
        <g id="18_pal_danube" transform="translate(-163.000000, -327.000000)">
            <g id="Stacked-Group" transform="translate(148.000000, 150.000000)">
                <g id="Stacked-Group-4" transform="translate(0.000000, 168.000000)">
                    <g id="icobig/list">
                        <rect id="Rectangle" fill="#FFFFFF" opacity="0" x="0" y="0" width="80" height="80"></rect>
                        <g id="Group" stroke-width="1" transform="translate(15.555556, 8.888889)">
                            <g id="Group-3" transform="translate(0.000000, 6.666667)">
                                <mask id="mask-2" fill="white">
                                    <use xlink:href="#path-1"></use>
                                </mask>
                                <g id="Clip-2"></g>
                                <path d="M40.2422222,0.297777778 L40.2422222,2.07666667 L45.2377778,2.07666667 C46.1855556,2.07666667 46.9566667,2.84777778 46.9566667,3.79555556 L46.9566667,52.0577778 C46.9566667,53.0055556 46.1855556,53.7755556 45.2377778,53.7755556 L3.49888889,53.7755556 C2.55111111,53.7755556 1.78,53.0055556 1.78,52.0577778 L1.78,3.79555556 C1.78,2.84777778 2.55111111,2.07666667 3.49888889,2.07666667 L8.49555556,2.07666667 L8.49555556,0.297777778 L3.49888889,0.297777778 C1.57,0.297777778 0,1.86777778 0,3.79555556 L0,52.0577778 C0,53.9855556 1.57,55.5555556 3.49888889,55.5555556 L45.2377778,55.5555556 C47.1666667,55.5555556 48.7366667,53.9855556 48.7366667,52.0577778 L48.7366667,3.79555556 C48.7366667,1.86777778 47.1666667,0.297777778 45.2377778,0.297777778 L40.2422222,0.297777778 Z" id="Fill-1" fill="url(#linearGradient-3)" mask="url(#mask-2)"></path>
                            </g>
                            <g id="Group-6" transform="translate(4.444444, 11.111111)">
                                <mask id="mask-5" fill="white">
                                    <use xlink:href="#path-4"></use>
                                </mask>
                                <g id="Clip-5"></g>
                                <polygon id="Fill-4" fill="url(#linearGradient-6)" mask="url(#mask-5)" points="35.7977778 1.07111111 35.7977778 2.85 37.2944444 2.85 37.2944444 44.1133333 2.55333333 44.1133333 2.55333333 2.85 4.05111111 2.85 4.05111111 1.07111111 0.773333333 1.07111111 0.773333333 45.8933333 39.0744444 45.8933333 39.0744444 1.07111111"></polygon>
                            </g>
                            <g id="Group-9" transform="translate(10.000000, 0.000000)">
                                <mask id="mask-8" fill="white">
                                    <use xlink:href="#path-7"></use>
                                </mask>
                                <g id="Clip-8"></g>
                                <path d="M14.3677778,0.442222222 C11.4033333,0.442222222 8.87555556,2.56111111 8.34111111,5.56777778 L8.32555556,5.66 L5.23777778,5.66 C2.59,5.66 0.434444444,7.81444444 0.434444444,10.4622222 L0.434444444,15.2666667 L28.3022222,15.2666667 L28.3022222,10.4622222 C28.3022222,7.81444444 26.1466667,5.66 23.4988889,5.66 L20.5055556,5.66 L20.3955556,5.56777778 L20.38,5.47777778 C19.8622222,2.56111111 17.3344444,0.442222222 14.3677778,0.442222222 Z M2.21444444,10.4622222 C2.21444444,8.79555556 3.57111111,7.43888889 5.23777778,7.43888889 L10.0411111,7.43888889 L10.0411111,6.54888889 C10.0411111,4.16333333 11.9822222,2.22222222 14.3677778,2.22222222 C16.7544444,2.22222222 18.6955556,4.16333333 18.6955556,6.54888889 L18.6955556,7.43888889 L23.4988889,7.43888889 C25.1655556,7.43888889 26.5222222,8.79555556 26.5222222,10.4622222 L26.5222222,13.4866667 L2.21444444,13.4866667 L2.21444444,10.4622222 Z" id="Fill-7" fill="url(#linearGradient-9)" mask="url(#mask-8)"></path>
                            </g>
                            <polygon id="Fill-10" fill="url(#linearGradient-10)" points="23.4788889 7.63222222 25.2577778 7.63222222 25.2577778 5.46666667 23.4788889 5.46666667"></polygon>
                            <g id="Group-14" transform="translate(11.111111, 21.111111)">
                                <mask id="mask-12" fill="white">
                                    <use xlink:href="#path-11"></use>
                                </mask>
                                <g id="Clip-13"></g>
                                <polygon id="Fill-12" fill="url(#linearGradient-13)" mask="url(#mask-12)" points="4.12666667 5.05111111 2.30444444 3.22777778 1.04666667 4.48444444 4.12666667 7.56444444 9.81555556 1.87555556 8.55888889 0.618888889"></polygon>
                            </g>
                            <g id="Group-17" transform="translate(11.111111, 30.000000)">
                                <mask id="mask-15" fill="white">
                                    <use xlink:href="#path-14"></use>
                                </mask>
                                <g id="Clip-16"></g>
                                <polygon id="Fill-15" fill="url(#linearGradient-16)" mask="url(#mask-15)" points="4.12666667 5.29333333 2.30444444 3.47 1.04666667 4.72666667 4.12666667 7.80666667 9.81555556 2.11777778 8.55888889 0.861111111"></polygon>
                            </g>
                            <g id="Group-20" transform="translate(11.111111, 38.888889)">
                                <mask id="mask-18" fill="white">
                                    <use xlink:href="#path-17"></use>
                                </mask>
                                <g id="Clip-19"></g>
                                <polygon id="Fill-18" fill="url(#linearGradient-19)" mask="url(#mask-18)" points="4.12666667 5.53555556 2.30444444 3.71222222 1.04666667 4.96777778 4.12666667 8.04777778 9.81555556 2.35888889 8.55888889 1.10222222"></polygon>
                            </g>
                            <polygon id="Fill-21" fill="url(#linearGradient-20)" points="24.59 25.7 35.8866667 25.7 35.8866667 23.92 24.59 23.92"></polygon>
                            <g id="Group-25" transform="translate(24.444444, 32.222222)">
                                <mask id="mask-22" fill="white">
                                    <use xlink:href="#path-21"></use>
                                </mask>
                                <g id="Clip-24"></g>
                                <polygon id="Fill-23" fill="url(#linearGradient-23)" mask="url(#mask-22)" points="0.145555556 2.60888889 11.4422222 2.60888889 11.4422222 0.828888889 0.145555556 0.828888889"></polygon>
                            </g>
                            <polygon id="Fill-26" fill="url(#linearGradient-24)" points="24.59 43.9611111 35.8866667 43.9611111 35.8866667 42.1822222 24.59 42.1822222"></polygon>
                        </g>
                    </g>
                </g>
            </g>
        </g>
    </g>
</svg>