<?xml version="1.0" encoding="UTF-8"?>
<svg width="16px" height="16px" viewBox="0 0 16 16" version="1.1" xmlns="http://www.w3.org/2000/svg" xmlns:xlink="http://www.w3.org/1999/xlink">
    <!-- Generator: Sketch 51.1 (57501) - http://www.bohemiancoding.com/sketch -->
    <title>ico/ic_close</title>
    <desc>Created with Sketch.</desc>
    <defs></defs>
    <g id="Danube" stroke="none" stroke-width="1" fill="none" fill-rule="evenodd">
        <g id="5_Open_Account_Danube" transform="translate(-940.000000, -54.000000)" fill="#FFFFFF">
            <g id="Group-3" transform="translate(920.000000, 34.000000)">
                <g id="ico/ic_close-copy-3" transform="translate(20.000000, 20.000000)">
                    <rect id="Rectangle" opacity="0" x="0" y="0" width="16" height="16"></rect>
                    <path d="M15.7732601,14.6961106 L15.7732601,14.6961106 L9.08176292,8.00461347 L15.7732601,1.31311633 C15.9170688,1.16964512 15.9957248,0.977562493 15.9947121,0.772989429 C15.9940369,0.568078786 15.9140306,0.375658578 15.7688715,0.230499474 C15.4616744,-0.0770352805 14.9975028,-0.0766977012 14.6903056,0.230499474 L7.99914607,6.92165903 L1.30731135,0.230499474 C1.16181466,0.0846652103 0.969056874,0.00398375456 0.763808652,0.00364617525 C0.614598595,0.0114104994 0.394159304,0.0569837067 0.224694489,0.226110942 C0.0802105431,0.370932468 -0.000133333333,0.564027835 -0.000133333333,0.769613636 C-0.000133333333,0.975199438 0.0802105431,1.1682948 0.224694489,1.31311633 L6.91619163,8.00461347 L0.228745441,14.6913845 C0.0829111776,14.8375563 0.00256730117,15.0306517 0.00222972186,15.2352248 C0.00155456323,15.4391227 0.0808857018,15.6305301 0.224694489,15.7743389 C0.369853594,15.919498 0.562611381,15.9991668 0.768534762,15.9991668 L0.768872341,15.9991668 C0.974458143,15.9991668 1.16721593,15.919498 1.31203746,15.7743389 L7.99914607,9.08723033 L14.6903056,15.7787275 C14.9883882,16.0754597 15.4738272,16.0734342 15.7732601,15.7743389 C15.9170688,15.6308677 15.9960624,15.4391227 15.9960624,15.2352248 C15.9960624,15.0313269 15.9170688,14.8399194 15.7732601,14.6961106" id="Fill-1"></path>
                </g>
            </g>
        </g>
    </g>
</svg>