<?xml version="1.0" encoding="UTF-8"?>
<svg width="56px" height="54px" viewBox="0 0 56 54" version="1.1" xmlns="http://www.w3.org/2000/svg" xmlns:xlink="http://www.w3.org/1999/xlink">
    <!-- Generator: Sketch 49.3 (51167) - http://www.bohemiancoding.com/sketch -->
    <title>ico/ic_security_variant</title>
    <desc>Created with Sketch.</desc>
    <defs></defs>
    <g id="Danube" stroke="none" stroke-width="1" fill="none" fill-rule="evenodd">
        <g id="18_pal_danube" transform="translate(-160.000000, -163.000000)">
            <g id="Stacked-Group" transform="translate(148.000000, 150.000000)">
                <g id="Stacked-Group-3">
                    <g id="icobig/insurance_pack_C-Copy">
                        <rect id="Rectangle" fill="#FFFFFF" opacity="0" x="0" y="0" width="80" height="80"></rect>
                        <path d="M52.9221111,20.3634444 C53.6998889,23.8145556 56.5198889,26.4001111 60.3543333,27.1767778 L60.3543333,45.9278889 C60.3543333,55.9467778 42.2165556,64.4612222 39.9987778,64.4612222 C37.781,64.4612222 19.6443333,55.9467778 19.6443333,45.9278889 L19.6443333,27.1767778 C23.4787778,26.4001111 26.2998889,23.8145556 27.0754444,20.3634444 L52.9221111,20.3634444 Z M62.001,45.9278889 L62.001,25.7634444 L61.291,25.6634444 C57.5743333,25.1445556 54.8798889,22.6945556 54.4232222,19.4245556 L54.3232222,18.7134444 L25.6743333,18.7134444 L25.5743333,19.4245556 C25.121,22.6956667 22.4243333,25.1445556 18.7054444,25.6634444 L17.9965556,25.7634444 L17.9965556,45.9278889 C17.9965556,56.7178889 36.7932222,66.1112222 39.9987778,66.1112222 C43.2043333,66.1112222 62.001,56.7178889 62.001,45.9278889 Z" id="Fill-3" fill="#F36F20"></path>
                        <path d="M66.1317778,45.9298889 C66.1317778,52.1576667 62.1095556,58.1743333 54.1784444,63.8121111 L53.9728889,63.9587778 L54.924,65.3043333 L55.1306667,65.1587778 C63.5217778,59.1932222 67.7773333,52.7232222 67.7773333,45.9298889 L67.7773333,36.6532222 L66.1317778,36.6532222 L66.1317778,45.9298889 Z" id="Fill-5" fill="#F36F20"></path>
                        <polygon id="Fill-7" fill="#F36F20" points="46.4866667 15.5388889 54.6933333 15.5388889 54.6933333 13.8888889 46.4866667 13.8888889"></polygon>
                        <polygon id="Fill-9" fill="#F36F20" points="25.3055556 15.5388889 33.5144444 15.5388889 33.5144444 13.8888889 25.3055556 13.8888889"></polygon>
                        <path d="M13.8682222,45.9298889 L13.8682222,36.6532222 L12.2226667,36.6532222 L12.2226667,45.9298889 C12.2226667,52.7232222 16.4771111,59.1932222 24.8671111,65.1587778 L25.0748889,65.3043333 L26.026,63.9587778 L25.8204444,63.8121111 C17.8893333,58.1743333 13.8682222,52.1576667 13.8682222,45.9298889" id="Fill-10" fill="#F36F20"></path>
                        <polygon id="Fill-11" fill="#F36F20" points="66.1322222 27.5122222 67.7777778 27.5122222 67.7777778 25.0755556 66.1322222 25.0755556"></polygon>
                        <polygon id="Fill-12" fill="#F36F20" points="66.1322222 31.3722222 67.7777778 31.3722222 67.7777778 28.9344444 66.1322222 28.9344444"></polygon>
                        <polygon id="Fill-13" fill="#F36F20" points="66.1322222 35.2311111 67.7777778 35.2311111 67.7777778 32.7944444 66.1322222 32.7944444"></polygon>
                        <polygon id="Fill-14" fill="#F36F20" points="12.2222222 27.5111111 13.8677778 27.5111111 13.8677778 25.0744444 12.2222222 25.0744444"></polygon>
                        <polygon id="Fill-15" fill="#F36F20" points="12.2222222 31.3722222 13.8677778 31.3722222 13.8677778 28.9344444 12.2222222 28.9344444"></polygon>
                        <polygon id="Fill-16" fill="#F36F20" points="12.2222222 35.2311111 13.8677778 35.2311111 13.8677778 32.7944444 12.2222222 32.7944444"></polygon>
                        <polygon id="Fill-17" fill="#F36F20" points="38.7844444 15.5388889 41.2155556 15.5388889 41.2155556 13.8888889 38.7844444 13.8888889"></polygon>
                        <polygon id="Fill-18" fill="#F36F20" points="34.9333333 15.5388889 37.3655556 15.5388889 37.3655556 13.8888889 34.9333333 13.8888889"></polygon>
                        <polygon id="Fill-19" fill="#F36F20" points="42.6355556 15.5388889 45.0666667 15.5388889 45.0666667 13.8888889 42.6355556 13.8888889"></polygon>
                        <path d="M32.1386667,38.4011111 L36.1908889,42.0644444 C36.3986667,42.2522222 36.4864444,42.5388889 36.4208889,42.8111111 L35.1631111,47.9722222 L39.602,45.2322222 C39.8464444,45.0822222 40.1531111,45.0822222 40.3986667,45.2322222 L44.8364444,47.9722222 L43.5797778,42.81 C43.5131111,42.5388889 43.6008889,42.2522222 43.8086667,42.0644444 L47.8608889,38.4011111 L42.6275556,38.13 C42.3286667,38.1155556 42.0675556,37.9233333 41.9586667,37.6433333 L39.9997778,32.53 L38.0408889,37.6433333 C37.9331111,37.9233333 37.6708889,38.1155556 37.372,38.13 L32.1386667,38.4011111 Z M46.0131111,50.3544444 C45.8764444,50.3544444 45.7375556,50.3177778 45.6153333,50.2422222 L39.9997778,46.7755556 L34.3842222,50.2422222 C34.1208889,50.4033333 33.7853333,50.3911111 33.5386667,50.2088889 C33.2886667,50.0266667 33.1742222,49.7133333 33.2475556,49.4133333 L34.8375556,42.8911111 L29.7597778,38.3011111 C29.5308889,38.0944444 29.4486667,37.77 29.552,37.48 C29.6553333,37.19 29.922,36.99 30.2286667,36.9744444 L36.7997778,36.6344444 L39.2908889,30.1333333 C39.5164444,29.5444444 40.4842222,29.5444444 40.7097778,30.1333333 L43.1997778,36.6344444 L49.7708889,36.9744444 C50.0786667,36.99 50.3453333,37.19 50.4486667,37.48 C50.5508889,37.77 50.4686667,38.0944444 50.2397778,38.3011111 L45.1631111,42.8911111 L46.752,49.4133333 C46.8253333,49.7133333 46.7097778,50.0266667 46.4608889,50.2088889 C46.3286667,50.3055556 46.1708889,50.3544444 46.0131111,50.3544444 Z" id="Fill-20" fill="#F36F20"></path>
                    </g>
                </g>
            </g>
        </g>
    </g>
</svg>