<?xml version="1.0" encoding="UTF-8"?>
<svg width="136px" height="139px" viewBox="0 0 136 139" version="1.1" xmlns="http://www.w3.org/2000/svg" xmlns:xlink="http://www.w3.org/1999/xlink">
    <!-- Generator: Sketch 48.2 (47327) - http://www.bohemiancoding.com/sketch -->
    <title>Page 1@2x</title>
    <desc>Created with Sketch.</desc>
    <defs></defs>
    <g id="Sales-1-Copy-11" stroke="none" stroke-width="1" fill="none" fill-rule="evenodd" transform="translate(-397.000000, -543.000000)">
        <g id="Group-Copy" transform="translate(115.000000, 375.000000)" fill="#636363">
            <path d="M282.010752,214.08526 L282,221.139486 L417.290679,221.335241 L417.30143,214.281014 L282.010752,214.08526 Z M396.170997,284.080819 C396.165622,286.995978 393.753684,289.364435 390.795209,289.364435 L390.788041,289.364435 L358.68204,289.318582 L358.653369,306.954148 L390.761162,307 L390.793417,307 C403.62184,307 414.070581,296.737864 414.090293,284.109036 L414.170929,230.248255 L396.251634,230.220039 L396.170997,284.080819 Z M394.741038,187.310944 C395.753478,188.310881 396.31256,189.640602 396.310768,191.054975 L396.287473,206.413789 L414.206768,206.438479 L414.230063,191.079665 C414.239023,184.954833 411.823502,179.196821 407.431483,174.860235 C403.037671,170.521886 397.190605,168.130503 390.969026,168.121685 L358.863025,168.075833 L358.834354,185.711398 L390.942147,185.757251 C392.379275,185.757251 393.728597,186.311008 394.741038,187.310944 Z M302.990662,283.946789 L303.071299,230.086008 L285.152004,230.057791 L285.071367,283.918572 C285.060616,290.043404 287.476137,295.803179 291.869948,300.139765 C296.263759,304.476351 302.110825,306.867733 308.332404,306.878315 L340.438405,306.924167 L340.467076,289.288602 L308.361075,289.242749 C305.395432,289.239222 302.985287,286.861948 302.990662,283.946789 Z M303.130433,190.919181 C303.135809,188.004022 305.545954,185.635565 308.506221,185.635565 L308.513389,185.635565 L340.61939,185.681418 L340.648061,168.045852 L308.54206,168 L308.50443,168 C302.295394,168 296.455495,170.375511 292.0581,174.690934 C287.651746,179.015174 285.221889,184.769659 285.211138,190.894491 L285.187843,206.253305 L303.107138,206.277995 L303.130433,190.919181 Z" id="Page-1"></path>
        </g>
    </g>
</svg>