<?xml version="1.0" encoding="UTF-8"?>
<svg width="68px" height="68px" viewBox="0 0 68 68" version="1.1" xmlns="http://www.w3.org/2000/svg" xmlns:xlink="http://www.w3.org/1999/xlink">
    <!-- Generator: Sketch 51.1 (57501) - http://www.bohemiancoding.com/sketch -->
    <title>Group</title>
    <desc>Created with Sketch.</desc>
    <defs></defs>
    <g id="Danube" stroke="none" stroke-width="1" fill="none" fill-rule="evenodd">
        <g id="12_Open_Account_Danube" transform="translate(-93.000000, -534.000000)">
            <g id="Stacked-Group" transform="translate(95.000000, 536.000000)">
                <g id="Group">
                    <circle id="Oval" stroke="#F36F20" stroke-width="3" cx="32" cy="32" r="32"></circle>
                    <text id="YES" font-family="OpenSans-Semibold, Open Sans" font-size="18" font-weight="500" letter-spacing="0.7059738" fill="#F36F20">
                        <tspan x="16" y="39">YES</tspan>
                    </text>
                </g>
            </g>
        </g>
    </g>
</svg>