<?xml version="1.0" encoding="UTF-8"?>
<svg width="72px" height="72px" viewBox="0 0 72 72" version="1.1" xmlns="http://www.w3.org/2000/svg" xmlns:xlink="http://www.w3.org/1999/xlink">
    <!-- Generator: Sketch 50.2 (55047) - http://www.bohemiancoding.com/sketch -->
    <title>icobig/assistance</title>
    <desc>Created with Sketch.</desc>
    <defs></defs>
    <g id="icobig/assistance" stroke="none" stroke-width="1" fill="none" fill-rule="evenodd">
        <g transform="translate(7.000000, 7.000000)" fill="#F36F20" fill-rule="nonzero">
            <path d="M6.64065336,25.3530099 L6.64065336,21.4320514 C6.64065336,10.5784257 17.360614,0.0344827586 29.4065336,0.0344827586 C41.4524532,0.0344827586 52.1724138,10.5784257 52.1724138,21.4320514 L52.1724138,31.6487434 L50.2413793,31.6487434 L50.2413793,21.4320514 C50.2413793,11.6521282 40.3930628,1.96551724 29.4065336,1.96551724 C18.4200044,1.96551724 8.57168784,11.6521282 8.57168784,21.4320514 L8.57168784,40.609585 L3.64246824,40.609585 C1.62440504,40.609585 0.0344827586,38.8282999 0.0344827586,36.6831327 L0.0344827586,29.2794623 C0.0344827586,27.1342951 1.62440504,25.3530099 3.64246824,25.3530099 L6.64065336,25.3530099 Z M3.64246824,27.2840444 C2.74287194,27.2840444 1.96551724,28.1549615 1.96551724,29.2794623 L1.96551724,36.6831327 C1.96551724,37.8076335 2.74287194,38.6785506 3.64246824,38.6785506 L6.64065336,38.6785506 L6.64065336,27.2840444 L3.64246824,27.2840444 Z" id="Stroke-1"></path>
            <path d="M51.2068966,27.0841613 L51.2068966,25.1531268 L54.1034483,25.1531268 C56.2438869,25.1531268 57.9655172,26.9391702 57.9655172,29.1239932 L57.9655172,36.6387186 C57.9655172,38.8235417 56.2438869,40.609585 54.1034483,40.609585 L51.2068966,40.609585 L51.2068966,38.6785506 L54.1034483,38.6785506 C55.1612133,38.6785506 56.0344828,37.7726086 56.0344828,36.6387186 L56.0344828,29.1239932 C56.0344828,27.9901032 55.1612133,27.0841613 54.1034483,27.0841613 L51.2068966,27.0841613 Z" id="Stroke-3"></path>
            <path d="M45.4137932,31.9149315 L47.3448275,31.915577 L47.3434489,35.9650637 C47.3019224,41.4980861 44.4464171,47.8660347 40.1991554,51.044233 L39.0422239,49.4981399 C42.7774667,46.703082 45.3752482,40.909873 45.4124417,35.9574947 L45.4137932,31.9149315 Z" id="Stroke-5"></path>
            <path d="M20.3103448,10.6610169 L22.2413793,10.6610169 C22.2413793,18.6961866 39.4296889,30.949737 49.2758621,30.949737 L49.2758621,32.8807715 C38.4762752,32.8807715 20.3103448,19.930275 20.3103448,10.6610169 Z" id="Stroke-7"></path>
            <path d="M21.4159907,14.6012128 L22.1631642,16.381838 C18.300763,18.0025518 13.5517241,25.2034391 13.5517241,30.0562322 L13.5517241,35.3524893 C13.5517241,41.1654581 17.7077999,47.6758468 23.6065874,50.358385 L22.8072057,52.1161913 C16.216568,49.1190267 11.6206897,41.9196983 11.6206897,35.3524893 L11.6206897,30.0562322 C11.6206897,24.428455 16.8337492,16.523981 21.4159907,14.6012128 Z" id="Stroke-9"></path>
            <path d="M34.7931034,55.5847458 C34.7931034,54.8154243 34.0159561,54.1350088 33,54.1350088 L28.862069,54.1350088 C27.8461129,54.1350088 27.0689655,54.8154243 27.0689655,55.5847458 C27.0689655,56.3540672 27.8461129,57.0344828 28.862069,57.0344828 L33,57.0344828 C34.0159561,57.0344828 34.7931034,56.3540672 34.7931034,55.5847458 Z M36.7241379,55.5847458 C36.7241379,57.481865 35.0295612,58.9655172 33,58.9655172 L28.862069,58.9655172 C26.8325078,58.9655172 25.137931,57.481865 25.137931,55.5847458 C25.137931,53.6876265 26.8325078,52.2039743 28.862069,52.2039743 L33,52.2039743 C35.0295612,52.2039743 36.7241379,53.6876265 36.7241379,55.5847458 Z" id="Stroke-11"></path>
            <path d="M34.7931034,57.0333139 L34.7931034,55.1022794 L36.3732838,55.1022794 C44.5632588,55.1022794 51.2068966,48.3807572 51.2068966,40.0834508 L51.2068966,35.779661 L53.137931,35.779661 L53.137931,40.0834508 C53.137931,49.4422326 45.6348101,57.0333139 36.3732838,57.0333139 L34.7931034,57.0333139 Z" id="Stroke-13"></path>
        </g>
    </g>
</svg>