<?xml version="1.0" encoding="UTF-8"?>
<svg width="79px" height="82px" viewBox="0 0 79 82" version="1.1" xmlns="http://www.w3.org/2000/svg" xmlns:xlink="http://www.w3.org/1999/xlink">
    <!-- Generator: Sketch 51.1 (57501) - http://www.bohemiancoding.com/sketch -->
    <title>ico/big/check</title>
    <desc>Created with Sketch.</desc>
    <defs>
        <linearGradient x1="100%" y1="0%" x2="0%" y2="100%" id="linearGradient-1">
            <stop stop-color="#57CA85" offset="0%"></stop>
            <stop stop-color="#13815A" offset="100%"></stop>
        </linearGradient>
        <linearGradient x1="128.857224%" y1="27.5527072%" x2="23.9419278%" y2="77.3625891%" id="linearGradient-2">
            <stop stop-color="#656C7E" offset="0%"></stop>
            <stop stop-color="#495061" offset="100%"></stop>
        </linearGradient>
    </defs>
    <g id="Banker" stroke="none" stroke-width="1" fill="none" fill-rule="evenodd">
        <g id="17_Account_Opening_Banker" transform="translate(-411.000000, -407.000000)">
            <g id="Box-o" transform="translate(195.000000, 341.000000)">
                <g id="Stacked-Group" transform="translate(32.000000, 64.000000)">
                    <g id="ico/big/check" transform="translate(182.000000, 0.000000)">
                        <g id="Group-3">
                            <circle id="Oval-6" fill="url(#linearGradient-1)" cx="42.9009009" cy="43.6936937" r="28.8648649"></circle>
                            <circle id="Oval-6-Copy-4" fill="url(#linearGradient-2)" opacity="0.225" transform="translate(77.792793, 60.333333) rotate(32.000000) translate(-77.792793, -60.333333) " cx="77.7927928" cy="60.3333333" r="3.20720721"></circle>
                            <circle id="Oval-6-Copy-5" fill="url(#linearGradient-2)" opacity="0.225" transform="translate(5.207207, 33.270270) rotate(32.000000) translate(-5.207207, -33.270270) " cx="5.20720721" cy="33.2702703" r="3.20720721"></circle>
                            <circle id="Oval-6-Copy-6" fill="url(#linearGradient-2)" opacity="0.225" transform="translate(41.297297, 5.207207) rotate(32.000000) translate(-41.297297, -5.207207) " cx="41.2972973" cy="5.20720721" r="3.20720721"></circle>
                            <circle id="Oval-6-Copy-7" fill="url(#linearGradient-2)" opacity="0.225" transform="translate(76.585586, 23.648649) rotate(32.000000) translate(-76.585586, -23.648649) " cx="76.5855856" cy="23.6486486" r="3.20720721"></circle>
                            <circle id="Oval-6-Copy-8" fill="url(#linearGradient-2)" opacity="0.225" transform="translate(13.828829, 70.360360) rotate(32.000000) translate(-13.828829, -70.360360) " cx="13.8288288" cy="70.3603604" r="3.20720721"></circle>
                            <circle id="Oval-6-Copy-9" fill="url(#linearGradient-2)" opacity="0.225" transform="translate(49.117117, 80.783784) rotate(32.000000) translate(-49.117117, -80.783784) " cx="49.1171171" cy="80.7837838" r="3.20720721"></circle>
                            <g id="ico/attend" transform="translate(22.855856, 22.846847)" fill="#FFFFFF">
                                <path d="M39.6291176,1.17591363 L16.8524121,23.9526191 L7.48747836,14.5876853 C5.91959352,13.0198005 3.37707756,13.0409881 1.80919272,14.6088729 C0.262495515,16.1767578 0.262495515,18.7192737 1.83038036,20.2871586 L13.8437683,32.2793589 L14.0132693,32.4912352 C15.6023418,34.0379324 18.1448578,34.0379324 19.691555,32.4912352 L45.3285909,6.8753869 C46.8964757,5.30750206 46.8964757,2.74379847 45.3285909,1.17591363 C43.7395184,-0.39197121 41.1970024,-0.39197121 39.6291176,1.17591363 Z" id="Page-1"></path>
                            </g>
                        </g>
                    </g>
                </g>
            </g>
        </g>
    </g>
</svg>