<?xml version="1.0" encoding="UTF-8"?>
<svg width="48px" height="48px" viewBox="0 0 48 48" version="1.1" xmlns="http://www.w3.org/2000/svg" xmlns:xlink="http://www.w3.org/1999/xlink">
    <!-- Generator: Sketch 51.1 (57501) - http://www.bohemiancoding.com/sketch -->
    <title>status/special</title>
    <desc>Created with Sketch.</desc>
    <defs>
        <path d="M15.8196786,29.5481918 L34.1803214,29.5481918 L34.1803214,24.9580311 L15.8196786,24.9580311 L15.8196786,29.5481918 Z M32.9284594,31.2173411 L32.9284594,31.6346285 L17.0715406,31.6346285 L17.0715406,31.2173411 C17.0715406,30.9131386 16.9876658,30.6285487 16.8445363,30.3827664 L33.1554637,30.3827664 C33.0123342,30.6285487 32.9284594,30.9131386 32.9284594,31.2173411 Z M34.7440766,24.1234564 L20.2533565,12.5307969 L19.7317474,13.1825997 L33.4079226,24.1234564 L14.9851039,24.1234564 L14.9851039,30.3827664 L15.4023912,30.3827664 C15.8626592,30.3827664 16.2369659,30.7570732 16.2369659,31.2173411 L16.2369659,32.4692031 L33.7630341,32.4692031 L33.7630341,31.2173411 C33.7630341,30.7570732 34.1373408,30.3827664 34.5976088,30.3827664 L35.0148961,30.3827664 L35.0148961,24.1234564 L34.7440766,24.1234564 Z" id="path-1"></path>
    </defs>
    <g id="Symbols" stroke="none" stroke-width="1" fill="none" fill-rule="evenodd">
        <g id="status/scanner-sharing">
            <g id="status/special">
                <circle id="Oval-6-Copy-3" fill="#F7B63B" cx="24" cy="24" r="24"></circle>
                <mask id="mask-2" fill="white">
                    <use xlink:href="#path-1"></use>
                </mask>
                <use id="Mask" stroke="#4F4F4F" stroke-width="0.5" fill="#4D4D4D" xlink:href="#path-1"></use>
            </g>
        </g>
    </g>
</svg>