<?xml version="1.0" encoding="UTF-8"?>
<svg width="40px" height="40px" viewBox="0 0 40 40" version="1.1" xmlns="http://www.w3.org/2000/svg" xmlns:xlink="http://www.w3.org/1999/xlink">
    <!-- Generator: Sketch 51.1 (57501) - http://www.bohemiancoding.com/sketch -->
    <title>button/next copy</title>
    <desc>Created with Sketch.</desc>
    <defs></defs>
    <g id="Danube" stroke="none" stroke-width="1" fill="none" fill-rule="evenodd">
        <g id="6_Open_Account_Danube" transform="translate(-923.000000, -402.000000)">
            <g id="Group-2" transform="translate(46.000000, 402.000000)">
                <g id="btn/next" transform="translate(877.000000, 0.000000)">
                    <g id="Group-3">
                        <circle id="Oval" stroke="#CCCCCC" stroke-width="2" fill="#FFFFFF" cx="20" cy="20" r="19"></circle>
                        <g id="ico/ic_arrow_right" transform="translate(14.285714, 14.285714)" fill="#808080">
                            <path d="M4.25093591,10.7401407 L8.85456335,6.13225328 L8.87018331,6.12089331 C9.20104241,5.77583425 9.20104241,5.23055573 8.87018331,4.87981669 L8.85456335,4.86419673 L4.25093591,0.257729297 C3.90445685,-0.0859097657 3.34781837,-0.0859097657 3.00985929,0.257729297 C2.66338024,0.595688375 2.66338024,1.15232686 3.00985929,1.49454592 L4.48239528,2.9685019 L7.02702834,5.48757503 L4.27791583,8.23384754 L4.27791583,8.23384754 L3.00985929,9.50332408 C2.66338024,9.84554315 2.66338024,10.4021816 3.00985929,10.7401407 C3.34781837,11.0866198 3.90445685,11.0866198 4.25093591,10.7401407" id="form"></path>
                        </g>
                    </g>
                </g>
            </g>
        </g>
    </g>
</svg>