<?xml version="1.0" encoding="UTF-8"?>
<svg width="52px" height="38px" viewBox="0 0 52 38" version="1.1" xmlns="http://www.w3.org/2000/svg" xmlns:xlink="http://www.w3.org/1999/xlink">
    <!-- Generator: Sketch 49.3 (51167) - http://www.bohemiancoding.com/sketch -->
    <title>ico/ic_loans</title>
    <desc>Created with Sketch.</desc>
    <defs></defs>
    <g id="Page-1" stroke="none" stroke-width="1" fill="none" fill-rule="evenodd">
        <g id="09_config" transform="translate(-356.000000, -905.000000)">
            <g id="Stacked-Group" transform="translate(260.000000, 471.000000)">
                <g id="box3" transform="translate(0.000000, 272.000000)">
                    <g id="01" transform="translate(94.000000, 151.000000)">
                        <g id="ico/ic_loans" transform="translate(0.000000, 2.000000)">
                            <rect id="Rectangle" fill="#FFFFFF" opacity="0" x="0" y="0" width="56" height="56"></rect>
                            <polygon id="Fill-1" fill="#FFFFFF" points="2.54545455 42.5614195 12.1780114 42.5614195 12.1780114 26.4645941 2.54545455 26.4645941"></polygon>
                            <polygon id="Fill-2" fill="#4C4C4C" points="8.16449483 40.1469836 9.7700186 40.1469836 9.7700186 38.5373596 8.16449483 38.5373596"></polygon>
                            <polygon id="Fill-3" fill="#4C4C4C" points="8.16449483 36.9277356 9.7700186 36.9277356 9.7700186 35.3181117 8.16449483 35.3181117"></polygon>
                            <path d="M48.2334711,25.6027893 C48.2334711,34.6607314 40.8905868,42.0036157 31.8326446,42.0036157 C22.7747025,42.0036157 15.4318182,34.6607314 15.4318182,25.6027893 C15.4318182,16.5448471 22.7747025,9.20196281 31.8326446,9.20196281 C40.8905868,9.20196281 48.2334711,16.5448471 48.2334711,25.6027893" id="Fill-4" fill="#F2F2F2"></path>
                            <path d="M42.3760331,25.8956612 C42.3760331,31.556875 37.7867304,36.1461777 32.1255165,36.1461777 C26.4643027,36.1461777 21.875,31.556875 21.875,25.8956612 C21.875,20.2344473 26.4643027,15.6451446 32.1255165,15.6451446 C37.7867304,15.6451446 42.3760331,20.2344473 42.3760331,25.8956612" id="Fill-7" fill="#FFFFFF"></path>
                            <path d="M41.7123268,25.6564434 C41.7123268,31.0693019 37.337992,35.4729238 31.9608639,35.4729238 C26.5837358,35.4729238 22.2088154,31.0693019 22.2088154,25.6564434 C22.2088154,20.2435849 26.5837358,15.839963 31.9608639,15.839963 C37.337992,15.839963 41.7123268,20.2435849 41.7123268,25.6564434 M42.9617183,25.6564434 C42.9617183,19.5494785 38.0268268,14.5811996 31.9608639,14.5811996 C25.8954869,14.5811996 20.9605954,19.5494785 20.9605954,25.6564434 C20.9605954,31.7634083 25.8954869,36.7316872 31.9608639,36.7316872 C38.0268268,36.7316872 42.9617183,31.7634083 42.9617183,25.6564434" id="Fill-9" fill="#4C4C4C"></path>
                            <path d="M32.4353164,24.8850188 C31.3516904,24.4339961 31.0389032,24.1604537 31.0389032,23.6672574 C31.0389032,23.2736376 31.3259177,22.813243 32.1336584,22.813243 C32.8974683,22.813243 33.376021,23.0891283 33.5804456,23.2062771 L33.7930706,23.3286975 L34.251708,22.1126934 L34.0982431,22.0230746 C33.6583495,21.7635901 33.1669104,21.6153969 32.6016677,21.5714661 L32.6016677,20.357805 L31.4190509,20.357805 L31.4190509,21.6464413 C30.2838794,21.9000684 29.5604858,22.7359248 29.5604858,23.8166221 C29.5604858,25.1216593 30.6001811,25.7126748 31.7224662,26.1554971 C32.6174827,26.5210012 32.9818154,26.8917771 32.9818154,27.4347616 C32.9818154,28.0345632 32.4780757,28.437555 31.7271522,28.437555 C31.1455086,28.437555 30.5416067,28.2565601 30.0706687,27.9402585 L29.8469146,27.7903081 L29.4087782,29.0262275 L29.5376418,29.118775 C29.969335,29.429805 30.6569982,29.6471159 31.3329466,29.6945612 L31.3329466,30.9550818 L32.5278639,30.9550818 L32.5278639,29.6289579 C33.6981801,29.3642017 34.4725334,28.4668421 34.4725334,27.3480715 C34.4725334,26.2076283 33.8627741,25.4707626 32.4353164,24.8850188" id="Fill-11" fill="#4C4C4C"></path>
                            <path d="M50.7085901,30.4891812 C49.9061211,30.4891812 36.6325808,35.8124209 36.6325808,35.8124209 L36.6044651,35.818864 C37.3524599,35.4082576 37.8649857,34.6221895 37.8649857,33.7084291 C37.8649857,32.3746905 36.7866314,31.2939932 35.456993,31.2939932 L28.2324289,31.2939932 L19.4029269,28.0747452 L12.9808318,28.0747452 L12.9808318,40.951737 L16.1912936,40.951737 C16.1912936,40.951737 29.0354837,45.7806089 31.4434764,45.7806089 C33.8514692,45.7806089 52.3141138,34.5132411 52.3141138,34.5132411 C52.9145012,34.074519 53.1165829,33.7060862 53.1165829,32.9036171 C53.1165829,31.5698785 52.0382285,30.4891812 50.7085901,30.4891812" id="Fill-13" fill="#FFFFFF"></path>
                            <path d="M50.7085901,29.8305709 C50.3278566,29.8305709 47.933336,30.6025812 38.6885415,34.2822238 L38.4560012,34.3747713 L38.4899744,34.1264159 C38.5116469,33.9659221 38.5216045,33.8329583 38.5216045,33.7081948 C38.5216045,32.0142238 37.1468638,30.6353829 35.4564072,30.6353829 L28.323805,30.6265967 L19.5183184,27.4161349 L12.8343959,27.4161349 L12.8343959,25.806511 L2.6916562,25.806511 L2.6916562,27.1238488 L11.521744,27.1238488 L11.521744,41.9027506 L2.6916562,41.9027506 L2.6916562,43.2195027 L12.8343959,43.2195027 L12.8343959,28.732887 L19.3109651,28.7416731 L28.1170374,31.9521349 L35.4564072,31.9521349 C36.4228845,31.9521349 37.2089527,32.7399603 37.2089527,33.7081948 C37.2089527,34.6764293 36.4228845,35.4642548 35.4564072,35.4642548 L26.6274909,35.4642548 C24.9862368,35.4642548 23.6425405,36.7640202 23.5658081,38.3906308 L24.8813886,38.3906308 C24.9557781,37.4903426 25.7102161,36.7810068 26.6274909,36.7810068 L35.4564072,36.7810068 C35.9671758,36.7810068 36.4732585,36.6521432 36.9195952,36.407888 C41.053775,34.7484758 49.8334888,31.2920017 50.6839888,31.1496659 L50.688089,31.1496659 C51.6768246,31.1496659 52.4605498,31.9363198 52.4605498,32.9033829 C52.4605498,33.5002558 52.3527729,33.6701215 51.9837543,33.9430781 C43.1132502,39.3576938 32.907836,45.1108694 31.4446479,45.1219986 C29.761806,45.1219986 21.5391345,42.2594686 16.4220767,40.335886 L16.3101996,40.2931267 L12.5028649,40.2931267 L12.5028649,41.6098787 L16.0975746,41.6192506 C17.4137409,42.1130326 29.0237688,46.4387506 31.4434764,46.4387506 C33.9861903,46.4387506 50.8011376,36.2058064 52.7100767,35.0395905 C53.4920446,34.4673188 53.7726159,33.9061762 53.7726159,32.9033829 C53.7726159,31.2094118 52.398461,29.8305709 50.7085901,29.8305709" id="Fill-15" fill="#4C4C4C"></path>
                        </g>
                    </g>
                </g>
            </g>
        </g>
    </g>
</svg>