<?xml version="1.0" encoding="UTF-8"?>
<svg width="48px" height="48px" viewBox="0 0 48 48" version="1.1" xmlns="http://www.w3.org/2000/svg" xmlns:xlink="http://www.w3.org/1999/xlink">
    <!-- Generator: Sketch 51.1 (57501) - http://www.bohemiancoding.com/sketch -->
    <title>status/occhio</title>
    <desc>Created with Sketch.</desc>
    <defs>
        <path d="M15.8345747,30.0173949 L34.1952175,30.0173949 L34.1952175,25.4272342 L15.8345747,25.4272342 L15.8345747,30.0173949 Z M32.9433555,31.6865442 L32.9433555,32.1038316 L17.0864367,32.1038316 L17.0864367,31.6865442 C17.0864367,31.3823418 17.0025619,31.0977518 16.8594324,30.8519696 L33.1703598,30.8519696 C33.0272302,31.0977518 32.9433555,31.3823418 32.9433555,31.6865442 Z M34.7589727,24.5926595 L20.2682526,13 L19.7466435,13.6518028 L33.4228186,24.5926595 L15,24.5926595 L15,30.8519696 L15.4172873,30.8519696 C15.8775553,30.8519696 16.251862,31.2262763 16.251862,31.6865442 L16.251862,32.9384062 L33.7779302,32.9384062 L33.7779302,31.6865442 C33.7779302,31.2262763 34.1522369,30.8519696 34.6125048,30.8519696 L35.0297922,30.8519696 L35.0297922,24.5926595 L34.7589727,24.5926595 Z" id="path-1"></path>
    </defs>
    <g id="Banker" stroke="none" stroke-width="1" fill="none" fill-rule="evenodd">
        <g id="0_Account_Opening_Banker" transform="translate(-227.000000, -927.000000)">
            <g id="Stacked-Group" transform="translate(195.000000, 781.000000)">
                <g id="Box-02" transform="translate(0.000000, 122.000000)">
                    <g id="Title" transform="translate(32.000000, 24.000000)">
                        <g id="status/scanner">
                            <g id="status/special" stroke-width="1" fill-rule="evenodd" fill="#DEDFE3">
                                <circle id="Oval-6-Copy-3" cx="24" cy="24" r="24"></circle>
                            </g>
                            <mask id="mask-2" fill="white">
                                <use xlink:href="#path-1"></use>
                            </mask>
                            <use id="Mask" stroke="#4F4F4F" stroke-width="0.5" fill="#4D4D4D" fill-rule="evenodd" xlink:href="#path-1"></use>
                        </g>
                    </g>
                </g>
            </g>
        </g>
    </g>
</svg>