<?xml version="1.0" encoding="UTF-8"?>
<svg width="89px" height="28px" viewBox="0 0 89 28" version="1.1" xmlns="http://www.w3.org/2000/svg" xmlns:xlink="http://www.w3.org/1999/xlink">
    <!-- Generator: Sketch 51.1 (57501) - http://www.bohemiancoding.com/sketch -->
    <title>Group 6</title>
    <desc>Created with Sketch.</desc>
    <defs>
        <linearGradient x1="100%" y1="84.0740382%" x2="71.7786015%" y2="20.896547%" id="linearGradient-1">
            <stop stop-color="#F08E00" offset="0%"></stop>
            <stop stop-color="#F36F20" offset="100%"></stop>
        </linearGradient>
    </defs>
    <g id="Danube" stroke="none" stroke-width="1" fill="none" fill-rule="evenodd">
        <g id="5_Open_Account_Danube" transform="translate(-417.000000, -417.000000)">
            <g id="Group-5" transform="translate(45.000000, 415.000000)">
                <g id="Group" transform="translate(372.000000, 2.000000)">
                    <g id="Group-6">
                        <path d="M0,0 L89,0 C80.3442644,9.33333333 76.0163966,14 76.0163966,14 C76.0163966,14 80.3442644,18.6666667 89,28 L0,28 L0,0 Z" id="Rectangle-21" fill="url(#linearGradient-1)"></path>
                        <path d="M19.0253906,11.9296875 C19.0253906,12.7968793 18.7294951,13.4638649 18.1376953,13.9306641 C17.5458955,14.3974633 16.6992243,14.6308594 15.5976562,14.6308594 L14.5898438,14.6308594 L14.5898438,18 L13.59375,18 L13.59375,9.43359375 L15.8144531,9.43359375 C17.9550888,9.43359375 19.0253906,10.2656167 19.0253906,11.9296875 Z M14.5898438,13.7753906 L15.4863281,13.7753906 C16.369145,13.7753906 17.0078105,13.6328139 17.4023438,13.3476562 C17.796877,13.0624986 17.9941406,12.6054719 17.9941406,11.9765625 C17.9941406,11.4101534 17.8085956,10.9882826 17.4375,10.7109375 C17.0664044,10.4335924 16.4882852,10.2949219 15.703125,10.2949219 L14.5898438,10.2949219 L14.5898438,13.7753906 Z M23.8144531,14.4375 L23.8144531,18 L22.8183594,18 L22.8183594,9.43359375 L25.1679688,9.43359375 C26.2187553,9.43359375 26.9951147,9.63476361 27.4970703,10.0371094 C27.9990259,10.4394551 28.25,11.0449178 28.25,11.8535156 C28.25,12.9863338 27.675787,13.7519511 26.5273438,14.1503906 L28.8535156,18 L27.6757812,18 L25.6015625,14.4375 L23.8144531,14.4375 Z M23.8144531,13.5820312 L25.1796875,13.5820312 C25.882816,13.5820312 26.3984359,13.4423842 26.7265625,13.1630859 C27.0546891,12.8837877 27.21875,12.4648465 27.21875,11.90625 C27.21875,11.3398409 27.0517595,10.9316419 26.7177734,10.6816406 C26.3837874,10.4316394 25.8476599,10.3066406 25.109375,10.3066406 L23.8144531,10.3066406 L23.8144531,13.5820312 Z M39.671875,13.7050781 C39.671875,15.0761787 39.3251988,16.1542929 38.6318359,16.9394531 C37.9384731,17.7246133 36.9746155,18.1171875 35.7402344,18.1171875 C34.4785093,18.1171875 33.5048862,17.7314492 32.8193359,16.9599609 C32.1337856,16.1884727 31.7910156,15.0996164 31.7910156,13.6933594 C31.7910156,12.2988212 32.1347622,11.2177773 32.8222656,10.4501953 C33.5097691,9.68261335 34.4863218,9.29882812 35.7519531,9.29882812 C36.982428,9.29882812 37.9433559,9.68944922 38.6347656,10.4707031 C39.3261753,11.251957 39.671875,12.3300712 39.671875,13.7050781 Z M32.8457031,13.7050781 C32.8457031,14.8652402 33.092771,15.7451142 33.5869141,16.3447266 C34.0810572,16.9443389 34.7988234,17.2441406 35.7402344,17.2441406 C36.6894579,17.2441406 37.4062476,16.9453155 37.890625,16.3476562 C38.3750024,15.749997 38.6171875,14.8691464 38.6171875,13.7050781 C38.6171875,12.5527286 38.375979,11.6787139 37.8935547,11.0830078 C37.4111304,10.4873017 36.6972704,10.1894531 35.7519531,10.1894531 C34.8027296,10.1894531 34.0810572,10.4892548 33.5869141,11.0888672 C33.092771,11.6884796 32.8457031,12.5605412 32.8457031,13.7050781 Z M47.3730469,18 L44.4667969,10.40625 L44.4199219,10.40625 C44.4746096,11.0078155 44.5019531,11.7226521 44.5019531,12.5507812 L44.5019531,18 L43.5820312,18 L43.5820312,9.43359375 L45.0820312,9.43359375 L47.7949219,16.5 L47.8417969,16.5 L50.578125,9.43359375 L52.0664062,9.43359375 L52.0664062,18 L51.0703125,18 L51.0703125,12.4804688 C51.0703125,11.8476531 51.097656,11.16016 51.1523438,10.4179688 L51.1054688,10.4179688 L48.1757812,18 L47.3730469,18 Z M63.8515625,13.7050781 C63.8515625,15.0761787 63.5048863,16.1542929 62.8115234,16.9394531 C62.1181606,17.7246133 61.154303,18.1171875 59.9199219,18.1171875 C58.6581968,18.1171875 57.6845737,17.7314492 56.9990234,16.9599609 C56.3134731,16.1884727 55.9707031,15.0996164 55.9707031,13.6933594 C55.9707031,12.2988212 56.3144497,11.2177773 57.0019531,10.4501953 C57.6894566,9.68261335 58.6660093,9.29882812 59.9316406,9.29882812 C61.1621155,9.29882812 62.1230434,9.68944922 62.8144531,10.4707031 C63.5058628,11.251957 63.8515625,12.3300712 63.8515625,13.7050781 Z M57.0253906,13.7050781 C57.0253906,14.8652402 57.2724585,15.7451142 57.7666016,16.3447266 C58.2607447,16.9443389 58.9785109,17.2441406 59.9199219,17.2441406 C60.8691454,17.2441406 61.5859351,16.9453155 62.0703125,16.3476562 C62.5546899,15.749997 62.796875,14.8691464 62.796875,13.7050781 C62.796875,12.5527286 62.5556665,11.6787139 62.0732422,11.0830078 C61.5908179,10.4873017 60.8769579,10.1894531 59.9316406,10.1894531 C58.9824171,10.1894531 58.2607447,10.4892548 57.7666016,11.0888672 C57.2724585,11.6884796 57.0253906,12.5605412 57.0253906,13.7050781 Z" id="PROMO" fill="#FFFFFF"></path>
                    </g>
                </g>
            </g>
        </g>
    </g>
</svg>