<?xml version="1.0" encoding="UTF-8"?>
<svg width="12px" height="8px" viewBox="0 0 12 8" version="1.1" xmlns="http://www.w3.org/2000/svg" xmlns:xlink="http://www.w3.org/1999/xlink">
    <!-- Generator: Sketch 51.1 (57501) - http://www.bohemiancoding.com/sketch -->
    <title>Icon/Arrows/triangle-down</title>
    <desc>Created with Sketch.</desc>
    <defs>
        <polygon id="path-1" points="6 0 12 8 0 8"></polygon>
    </defs>
    <g id="Banker" stroke="none" stroke-width="1" fill="none" fill-rule="evenodd">
        <g id="2_Account_Opening_Banker" transform="translate(-351.000000, -791.000000)">
            <g id="Sidebar---left" transform="translate(87.000000, 342.000000)">
                <g id="Tags" transform="translate(0.000000, 71.000000)">
                    <g id="Tag---Payment-method" transform="translate(0.000000, 358.000000)">
                        <g id="Icon/Arrows/triangle-down" transform="translate(246.000000, 0.000000)">
                            <g id="Icon" transform="translate(18.000000, 20.000000)">
                                <mask id="mask-2" fill="white">
                                    <use xlink:href="#path-1"></use>
                                </mask>
                                <use id="Mask" fill="#384048" transform="translate(6.000000, 4.000000) scale(1, -1) translate(-6.000000, -4.000000) " xlink:href="#path-1"></use>
                                <g id="Color/Gray-60" mask="url(#mask-2)" fill="#6E737D">
                                    <g transform="translate(-18.000000, -20.000000)" id="Swatch">
                                        <rect x="0" y="0" width="48" height="48"></rect>
                                    </g>
                                </g>
                            </g>
                        </g>
                    </g>
                </g>
            </g>
        </g>
    </g>
</svg>