<svg xmlns="http://www.w3.org/2000/svg" width="72" height="72" viewBox="0 0 72 72">
  <g fill="#FFFFFF" transform="translate(9 10)">
    <circle cx="11.5" cy="36.5" r="1.5"/>
    <path d="M53.8847483,27.3929067 C53.8847483,26.4739196 53.6017996,25.6204277 53.1197986,24.9147865 C54.2548159,24.1220345 55,22.8021861 55,21.3099533 C55,18.891384 53.0442812,16.9236081 50.6405066,16.9236081 L39.179152,16.9236081 L39.9051076,15.2860104 C40.9664337,12.8914345 41.5074092,10.3477109 41.5129951,7.72584697 C41.5129951,7.72584697 41.5195478,4.52598195 41.5195478,4.508041 C41.5195478,2.02235533 39.509581,0 37.0388827,0 C35.2024019,0 33.5710965,1.10682669 32.8829534,2.81997089 C32.8526604,2.89551741 31.8099183,5.98622366 31.8099183,5.98622366 C30.8696565,8.73453884 29.201398,11.1727783 26.9858262,13.0377721 L21.6693131,17.512525 L18.5957645,17.512525 L18.5957645,16.1009184 C18.5957645,14.6179803 17.3966164,13.4113977 15.9225763,13.4113977 L2.67318814,13.4113977 C1.19914805,13.4113977 0,14.6178723 0,16.1009184 L0,42.3104792 C0,43.7934173 1.19914805,45 2.67318814,45 L15.9223615,45 C17.3962941,45 18.5955496,43.7935254 18.5955496,42.3104792 L18.5955496,40.20512 L20.2735835,40.20512 L21.9395861,41.0153807 C25.8806721,42.9320358 30.2774409,43.9451588 34.6547663,43.9451588 L40.7477231,43.9451588 L42.6063328,43.9451588 L47.294644,43.9451588 C49.698526,43.9451588 51.6543522,41.977491 51.6543522,39.5590298 C51.6543522,38.6400427 51.3714036,37.7865508 50.8894026,37.0809096 C52.0244199,36.2881575 52.769604,34.9683091 52.769604,33.4760763 C52.769604,32.5570892 52.4866553,31.7035973 52.0046543,30.9979561 C53.1396716,30.2052041 53.8847483,28.8852476 53.8847483,27.3929067 Z M2.67318814,42.3104792 L2.67318814,16.1008103 L15.9223615,16.1008103 L15.9240802,42.3104792 C15.9240802,42.3104792 11.5071162,42.3104792 2.67318814,42.3104792 Z M50.6405066,23.0068858 L48.7384986,23.0068858 C48.0002969,23.0068858 47.4019582,23.6088802 47.4019582,24.3515921 C47.4019582,25.094304 48.0002969,25.6962984 48.7384986,25.6962984 L49.5252548,25.6962984 C50.4552042,25.6962984 51.211775,26.4573836 51.211775,27.3931229 C51.211775,28.3288621 50.4553116,29.0899473 49.5252548,29.0899473 L47.6234617,29.0899473 C46.88526,29.0899473 46.2869213,29.6919417 46.2869213,30.4346536 C46.2869213,31.1773656 46.88526,31.77936 47.6234617,31.77936 L48.4102179,31.77936 C49.3400599,31.77936 50.0967381,32.5404452 50.0967381,33.4761844 C50.0967381,34.4117075 49.3402747,35.1729008 48.4102179,35.1729008 L46.5084248,35.1729008 C45.7702231,35.1729008 45.1718844,35.7748952 45.1718844,36.5176071 C45.1718844,37.260319 45.7702231,37.8623134 46.5084248,37.8623134 L47.2951811,37.8623134 C48.2251304,37.8623134 48.9817012,38.6236148 48.9817012,39.5591379 C48.9814864,40.4944448 48.2249156,41.25553 47.2949662,41.25553 L42.6066551,41.25553 L40.7480454,41.25553 L34.6550886,41.25553 C30.6782311,41.25553 26.6837565,40.3351378 23.103285,38.5938934 L21.1616384,37.649616 C20.9803106,37.5614243 20.7813657,37.5154912 20.57995,37.5154912 L18.5957645,37.5154912 L18.5957645,20.2018296 L22.1546442,20.2018296 C22.4682081,20.2018296 22.7717817,20.0909416 23.0121914,19.8885115 L28.7009205,15.1004405 C31.2897826,12.9215882 33.2388413,10.0725443 34.3374427,6.86143921 C34.3374427,6.86143921 35.4009172,3.74630734 35.4071476,3.72512405 C35.7068541,3.09265166 36.3352708,2.68952076 37.0389902,2.68952076 C38.0356484,2.68952076 38.8464671,3.50529342 38.8464671,4.508041 C38.8464671,4.52587387 38.8399144,7.72022692 38.8399144,7.72022692 C38.8351878,9.96435828 38.3722004,12.1412651 37.4637354,14.190748 L35.9068732,17.7034988 C35.7704477,18.011413 35.7592759,18.3431044 35.8499397,18.6421562 C35.8575667,18.6686353 36.1462087,19.613345 37.133199,19.613345 L50.6407214,19.613345 C51.5705633,19.613345 52.3271341,20.3744302 52.3271341,21.3101694 C52.3268119,22.2456925 51.5703485,23.0068858 50.6405066,23.0068858 Z"/>
  </g>
</svg>
