<?xml version="1.0" encoding="UTF-8"?>
<svg width="38px" height="38px" viewBox="0 0 38 38" version="1.1" xmlns="http://www.w3.org/2000/svg" xmlns:xlink="http://www.w3.org/1999/xlink">
    <!-- Generator: Sketch 51 (57462) - http://www.bohemiancoding.com/sketch -->
    <title>Btn/Close</title>
    <desc>Created with Sketch.</desc>
    <defs></defs>
    <g id="Banker" stroke="none" stroke-width="1" fill="none" fill-rule="evenodd">
        <g id="02_-Sales-/-Debit-Cards-Comparison" transform="translate(-1315.000000, -26.000000)">
            <rect fill="#F1F2F6" x="0" y="0" width="1440" height="939"></rect>
            <g id="Header">
                <g id="Btn/Close" transform="translate(1315.000000, 26.000000)">
                    <circle id="Oval-3" stroke="#FEFEFE" fill="#FEFEFE" cx="19" cy="19" r="18.5"></circle>
                    <rect id="Rectangle-3" fill="#363C47" transform="translate(18.605840, 18.875000) rotate(-315.000000) translate(-18.605840, -18.875000) " x="11" y="18" width="15.2116793" height="1.75"></rect>
                    <rect id="Rectangle-3" fill="#363C47" transform="translate(18.605840, 18.875000) rotate(-225.000000) translate(-18.605840, -18.875000) " x="11" y="18" width="15.2116793" height="1.75"></rect>
                </g>
            </g>
        </g>
    </g>
</svg>