<?xml version="1.0" encoding="UTF-8"?>
<svg width="24px" height="24px" viewBox="0 0 24 24" version="1.1" xmlns="http://www.w3.org/2000/svg" xmlns:xlink="http://www.w3.org/1999/xlink">
    <!-- Generator: Sketch 51.1 (57501) - http://www.bohemiancoding.com/sketch -->
    <title>ico/ic_search</title>
    <desc>Created with Sketch.</desc>
    <defs></defs>
    <g id="Dashboard_PBZ" stroke="none" stroke-width="1" fill="none" fill-rule="evenodd">
        <g id="00_Dashboard" transform="translate(-649.000000, -282.000000)">
            <g id="search" transform="translate(518.000000, 264.000000)">
                <g transform="translate(109.000000, 0.000000)" id="ico/ic_search">
                    <g transform="translate(22.000000, 18.000000)">
                        <rect id="Rectangle" fill="#FFFFFF" opacity="0" x="0" y="0" width="24" height="24"></rect>
                        <path d="M16.0972124,8.69195303 C16.0972124,12.7448208 12.7883492,16.0422942 8.72148239,16.0422942 C4.65461562,16.0422942 1.34525893,12.7448208 1.34525893,8.69195303 C1.34525893,4.63908526 4.65461562,1.34161185 8.72148239,1.34161185 C12.7883492,1.34161185 16.0972124,4.63908526 16.0972124,8.69195303 M23.795686,22.8216635 L15.2735744,14.4100326 C16.6198203,12.8795721 17.4434583,10.8819082 17.4434583,8.69195303 C17.4434583,3.89942829 13.530561,0 8.72148239,0 C3.9124038,0 0,3.89942829 0,8.69195303 C0,13.4844778 3.9124038,17.3839061 8.72148239,17.3839061 C10.8365887,17.3839061 12.7769988,16.6285117 14.2885645,15.3759144 L22.823507,23.8008238 C22.9537889,23.9291818 23.126511,24 23.3095965,24 C23.495643,24 23.6698456,23.9272146 23.8001275,23.7959058 C24.0685871,23.5259114 24.0661196,23.0887072 23.795686,22.8216635" id="Fill-1" fill="#808080"></path>
                    </g>
                </g>
            </g>
        </g>
    </g>
</svg>