<?xml version="1.0" encoding="utf-8"?>
<!-- Generator: Adobe Illustrator 24.2.1, SVG Export Plug-In . SVG Version: 6.00 Build 0)  -->
<svg version="1.1" id="australia" xmlns="http://www.w3.org/2000/svg" xmlns:xlink="http://www.w3.org/1999/xlink" x="0px" y="0px"
	 width="817px" height="767.6px" viewBox="0 0 817 767.6" style="enable-background:new 0 0 817 767.6;" xml:space="preserve">
<style type="text/css">
	.st0{opacity:0.7;fill:#FFFFFF;stroke:#FFFFFF;stroke-miterlimit:10;enable-background:new    ;}
	.st1{fill:#FFFFFF;stroke:#FFFFFF;stroke-miterlimit:10;}
</style>
<image style="overflow:visible;" width="1696" height="1593" xlink:href="australia.png"  transform="matrix(0.48 0 0 0.48 1.44 2)">
</image>
<g id="sidney">
	<path class="st0" d="M761.8,503.6c-16.6,0-30,13.6-29.9,30.1c0,16.6,13.6,30,30.1,29.9c16.6,0,30-13.4,29.9-30
		C791.9,517,778.3,503.6,761.8,503.6L761.8,503.6z M761.8,552.4c-10.4,0-19-8.5-19-19c0-10.4,8.5-19,19-19c10.4,0,19,8.5,19,19
		C780.7,543.9,772.2,552.4,761.8,552.4z"/>
	<ellipse class="st1" cx="761.8" cy="533.6" rx="18.8" ry="18.8"/>
</g>
</svg>
