<?xml version="1.0" encoding="utf-8"?>
<!-- Generator: Adobe Illustrator 24.2.1, SVG Export Plug-In . SVG Version: 6.00 Build 0)  -->
<svg version="1.1" id="cina" xmlns="http://www.w3.org/2000/svg" xmlns:xlink="http://www.w3.org/1999/xlink" x="0px" y="0px"
	 width="791.4px" height="633.8px" viewBox="0 0 791.4 633.8" style="enable-background:new 0 0 791.4 633.8;" xml:space="preserve"
	>
<style type="text/css">
	.st0{opacity:0.5;fill:#FFFFFF;enable-background:new    ;}
	.st1{fill:#FFFFFF;}
</style>
<image style="overflow:visible;" width="1634" height="1315" xlink:href="cina.png"  transform="matrix(0.48 0 0 0.48 4.32 1.16)">
</image>
<g>
	<g id="shangai">
		<ellipse class="st0" cx="615.3" cy="251.3" rx="30" ry="30"/>
		<ellipse class="st1" cx="615.3" cy="251.3" rx="19.9" ry="19.9"/>
	</g>
</g>
<g>
	<g id="beijing">
		<ellipse class="st0" cx="691.4" cy="403.2" rx="30" ry="30"/>
		<ellipse class="st1" cx="691.4" cy="403.2" rx="19.9" ry="19.9"/>
	</g>
</g>
</svg>
