<?xml version="1.0" encoding="utf-8"?>
<!-- Generator: Adobe Illustrator 24.2.1, SVG Export Plug-In . SVG Version: 6.00 Build 0)  -->
<svg version="1.1" id="danimarca" xmlns="http://www.w3.org/2000/svg" xmlns:xlink="http://www.w3.org/1999/xlink" x="0px" y="0px"
	 width="590.4px" height="697.7px" viewBox="0 0 590.4 697.7" style="enable-background:new 0 0 590.4 697.7;" xml:space="preserve"
	>
<style type="text/css">
	.st0{opacity:0.5;fill:#FFFFFF;enable-background:new    ;}
	.st1{fill:#FFFFFF;}
</style>
<image style="overflow:visible;" width="1226" height="1450" xlink:href="danimarca.png"  transform="matrix(0.48 0 0 0.48 0.96 0.74)">
</image>
<g>
	<g id="copenaghen">
		<ellipse class="st0" cx="548.2" cy="435.2" rx="30" ry="30"/>
		<ellipse class="st1" cx="548.2" cy="435.2" rx="19.9" ry="19.9"/>
	</g>
</g>
</svg>
