<?xml version="1.0" encoding="utf-8"?>
<!-- Generator: Adobe Illustrator 24.2.1, SVG Export Plug-In . SVG Version: 6.00 Build 0)  -->
<svg version="1.1" id="grecia" xmlns="http://www.w3.org/2000/svg" xmlns:xlink="http://www.w3.org/1999/xlink" x="0px" y="0px"
	 width="749.7px" height="689.2px" viewBox="0 0 749.7 689.2" style="enable-background:new 0 0 749.7 689.2;" xml:space="preserve"
	>
<style type="text/css">
	.st0{opacity:0.5;fill:#FFFFFF;enable-background:new    ;}
	.st1{fill:#FFFFFF;}
</style>
<image style="overflow:visible;" width="1553" height="1432" xlink:href="grecia.png"  transform="matrix(0.48 0 0 0.48 3.36 0.88)">
</image>
<g>
	<g id="atene">
		<ellipse class="st0" cx="378.7" cy="395.4" rx="30" ry="30"/>
		<ellipse class="st1" cx="378.7" cy="395.4" rx="19.9" ry="19.9"/>
	</g>
</g>
</svg>
