<?xml version="1.0" encoding="utf-8"?>
<!-- Generator: Adobe Illustrator 24.2.1, SVG Export Plug-In . SVG Version: 6.00 Build 0)  -->
<svg version="1.1" id="Italia" xmlns="http://www.w3.org/2000/svg" xmlns:xlink="http://www.w3.org/1999/xlink" x="0px" y="0px"
	 width="554.4px" height="647px" viewBox="0 0 554.4 647" style="enable-background:new 0 0 554.4 647;" xml:space="preserve">
<style type="text/css">
	.st0{opacity:0.7;fill:#FFFFFF;stroke:#FFFFFF;stroke-miterlimit:10;enable-background:new    ;}
	.st1{fill:#FFFFFF;stroke:#FFFFFF;stroke-miterlimit:10;}
	.st2{opacity:0.5;fill:#FFFFFF;enable-background:new    ;}
	.st3{fill:#FFFFFF;}
</style>
<image style="overflow:visible;" width="1135" height="1344" xlink:href="italia.png"  transform="matrix(0.48 0 0 0.48 1.92 0.92)">
</image>
<g id="pescara">
	<path class="st0" d="M352.3,276c-16.6,0-30,13.6-29.9,30.1c0,16.6,13.6,30,30.1,29.9c16.6,0,29.9-13.4,29.9-30
		C382.3,289.3,368.8,275.9,352.3,276L352.3,276z M352.3,324.7c-10.4,0-18.8-8.5-18.8-18.8c0-10.4,8.5-18.8,18.8-18.8
		c10.4,0,18.8,8.5,18.8,18.8C371.1,316.2,362.7,324.8,352.3,324.7L352.3,324.7z"/>
	<ellipse class="st1" cx="352.3" cy="305.9" rx="18.8" ry="18.8"/>
</g>
<g>
	<g id="bari">
		<ellipse class="st2" cx="463.2" cy="381.6" rx="30" ry="30"/>
		<ellipse class="st3" cx="463.2" cy="381.6" rx="19.9" ry="19.9"/>
	</g>
</g>
<g>
	<g id="lecce">
		<ellipse class="st2" cx="527.3" cy="420.5" rx="30" ry="30"/>
		
			<ellipse transform="matrix(0.1602 -0.9871 0.9871 0.1602 27.7656 873.6345)" class="st3" cx="527.3" cy="420.5" rx="19.9" ry="19.9"/>
	</g>
</g>
<g>
	<g id="catania">
		<ellipse class="st2" cx="383.7" cy="598" rx="30" ry="30"/>
		<ellipse class="st3" cx="383.7" cy="598" rx="19.9" ry="19.9"/>
	</g>
</g>
<g>
	<g id="palermo">
		<ellipse class="st2" cx="304.6" cy="559.3" rx="30" ry="30"/>
		<ellipse class="st3" cx="304.6" cy="559.3" rx="19.9" ry="19.9"/>
	</g>
</g>
<g>
	<g id="napoli">
		<ellipse class="st2" cx="337.4" cy="398.3" rx="30" ry="30"/>
		<ellipse class="st3" cx="337.4" cy="398.3" rx="19.9" ry="19.9"/>
	</g>
</g>
<g>
	<g id="sardegna">
		<ellipse class="st2" cx="146" cy="447.3" rx="30" ry="30"/>
		<ellipse class="st3" cx="146" cy="447.3" rx="19.9" ry="19.9"/>
	</g>
</g>
<g>
	<g id="roma">
		<ellipse class="st2" cx="266.9" cy="339.2" rx="30" ry="30"/>
		<ellipse class="st3" cx="266.9" cy="339.2" rx="19.9" ry="19.9"/>
	</g>
</g>
<g>
	<g id="ancona">
		<ellipse class="st2" cx="308.8" cy="235.4" rx="30" ry="30"/>
		<ellipse class="st3" cx="308.8" cy="235.4" rx="19.9" ry="19.9"/>
	</g>
</g>
<g>
	<g id="rimini">
		<ellipse class="st2" cx="262.8" cy="203.4" rx="30" ry="30"/>
		<ellipse class="st3" cx="262.8" cy="203.4" rx="19.9" ry="19.9"/>
	</g>
</g>
<g>
	<g id="bologna">
		<ellipse class="st2" cx="221.6" cy="185.4" rx="30" ry="30"/>
		<ellipse class="st3" cx="221.6" cy="185.4" rx="19.9" ry="19.9"/>
	</g>
</g>
<g>
	<g id="ferrara">
		<ellipse transform="matrix(0.1602 -0.9871 0.9871 0.1602 58.5512 367.4186)" class="st2" cx="245.2" cy="149.3" rx="30" ry="30"/>
		
			<ellipse transform="matrix(0.1602 -0.9871 0.9871 0.1602 58.5511 367.4186)" class="st3" cx="245.2" cy="149.3" rx="19.9" ry="19.9"/>
	</g>
</g>
<g>
	<g id="padova-rovigo">
		<ellipse class="st2" cx="270.6" cy="81.8" rx="30" ry="30"/>
		<ellipse class="st3" cx="270.6" cy="81.8" rx="19.9" ry="19.9"/>
	</g>
</g>
<g>
	<g id="verona">
		<ellipse class="st2" cx="233.1" cy="102.2" rx="30" ry="30"/>
		<ellipse class="st3" cx="233.1" cy="102.2" rx="19.9" ry="19.9"/>
	</g>
</g>
<g>
	<g id="pavia">
		<ellipse class="st2" cx="189.6" cy="158.3" rx="30" ry="30"/>
		<ellipse class="st3" cx="189.6" cy="158.3" rx="19.9" ry="19.9"/>
	</g>
</g>
<g>
	<g id="bergamo">
		<ellipse class="st2" cx="195.9" cy="115.3" rx="30" ry="30"/>
		<ellipse class="st3" cx="195.9" cy="115.3" rx="19.9" ry="19.9"/>
	</g>
</g>
<g>
	<g id="monza">
		<ellipse class="st2" cx="119.4" cy="137.1" rx="30" ry="30"/>
		<ellipse class="st3" cx="119.4" cy="137.1" rx="19.9" ry="19.9"/>
	</g>
</g>
<g>
	<g id="como">
		<ellipse class="st2" cx="92.6" cy="97.1" rx="30" ry="30"/>
		<ellipse class="st3" cx="92.6" cy="97.1" rx="19.9" ry="19.9"/>
	</g>
</g>
<g>
	<g id="genova">
		<ellipse class="st2" cx="100.7" cy="186.1" rx="30" ry="30"/>
		<ellipse class="st3" cx="100.7" cy="186.1" rx="19.9" ry="19.9"/>
	</g>
</g>
<g>
	<g id="torino">
		<ellipse class="st2" cx="35.8" cy="140.3" rx="30" ry="30"/>
		<ellipse class="st3" cx="35.8" cy="140.3" rx="19.9" ry="19.9"/>
	</g>
</g>
<g>
	<g id="lecco">
		<ellipse class="st2" cx="132.8" cy="66.2" rx="30" ry="30"/>
		<ellipse class="st3" cx="132.8" cy="66.2" rx="19.9" ry="19.9"/>
	</g>
</g>
<g>
	<g id="varese">
		<ellipse class="st2" cx="69.3" cy="64.3" rx="30" ry="30"/>
		<ellipse class="st3" cx="69.3" cy="64.3" rx="19.9" ry="19.9"/>
	</g>
</g>
</svg>
