<?xml version="1.0" encoding="utf-8"?>
<!-- Generator: Adobe Illustrator 24.2.1, SVG Export Plug-In . SVG Version: 6.00 Build 0)  -->
<svg version="1.1" id="portogallo" xmlns="http://www.w3.org/2000/svg" xmlns:xlink="http://www.w3.org/1999/xlink" x="0px" y="0px"
	 width="155.9px" height="278.2px" viewBox="0 0 155.9 278.2" style="enable-background:new 0 0 155.9 278.2;" xml:space="preserve"
	>
<style type="text/css">
	.st0{opacity:0.5;fill:#FFFFFF;enable-background:new    ;}
	.st1{fill:#FFFFFF;}
</style>
<image style="overflow:visible;" width="286" height="576" xlink:href="portogallo.png"  transform="matrix(0.48 0 0 0.48 17.76 0.76)">
</image>
<g>
	<g id="lisbona">
		<ellipse class="st0" cx="30" cy="173" rx="30" ry="30"/>
		
			<ellipse transform="matrix(3.327794e-02 -0.9994 0.9994 3.327794e-02 -143.9025 197.2263)" class="st1" cx="30" cy="173" rx="19.9" ry="19.9"/>
	</g>
</g>
</svg>
