<?xml version="1.0" encoding="utf-8"?>
<!-- Generator: Adobe Illustrator 24.2.1, SVG Export Plug-In . SVG Version: 6.00 Build 0)  -->
<svg version="1.1" id="russia" xmlns="http://www.w3.org/2000/svg" xmlns:xlink="http://www.w3.org/1999/xlink" x="0px" y="0px"
	 width="536px" height="293.1px" viewBox="0 0 536 293.1" style="enable-background:new 0 0 536 293.1;" xml:space="preserve">
<style type="text/css">
	.st0{opacity:0.5;fill:#FFFFFF;enable-background:new    ;}
	.st1{fill:#FFFFFF;}
</style>
<image style="overflow:visible;" width="1113" height="606" xlink:href="russia.png"  transform="matrix(0.48 0 0 0.48 0.96 1.26)">
</image>
<g>
	<g id="mosca">
		<ellipse class="st0" cx="79.6" cy="126.7" rx="30" ry="30"/>
		<ellipse class="st1" cx="79.6" cy="126.7" rx="19.9" ry="19.9"/>
	</g>
</g>
</svg>
