<?xml version="1.0" encoding="utf-8"?>
<!-- Generator: Adobe Illustrator 24.2.1, SVG Export Plug-In . SVG Version: 6.00 Build 0)  -->
<svg version="1.1" id="svizzera" xmlns="http://www.w3.org/2000/svg" xmlns:xlink="http://www.w3.org/1999/xlink" x="0px" y="0px"
	 width="429.4px" height="283.8px" viewBox="0 0 429.4 283.8" style="enable-background:new 0 0 429.4 283.8;" xml:space="preserve"
	>
<style type="text/css">
	.st0{opacity:0.5;fill:#FFFFFF;enable-background:new    ;}
	.st1{fill:#FFFFFF;}
</style>
<image style="overflow:visible;" width="853" height="550" xlink:href="svizzera.png"  transform="matrix(0.48 0 0 0.48 19.2 1.08)">
</image>
<g>
	<g id="ginevra">
		<ellipse class="st0" cx="39.9" cy="210.2" rx="30" ry="30"/>
		
			<ellipse transform="matrix(3.327794e-02 -0.9994 0.9994 3.327794e-02 -171.5114 243.0829)" class="st1" cx="39.9" cy="210.2" rx="19.9" ry="19.9"/>
	</g>
</g>
<g>
	<g id="lugano">
		<ellipse class="st0" cx="293.8" cy="243.8" rx="30" ry="30"/>
		<ellipse class="st1" cx="293.8" cy="243.8" rx="19.9" ry="19.9"/>
	</g>
</g>
<g>
	<g id="zurigo">
		<ellipse class="st0" cx="263.5" cy="56" rx="30" ry="30"/>
		<ellipse class="st1" cx="263.5" cy="56" rx="19.9" ry="19.9"/>
	</g>
</g>
</svg>
