<?xml version="1.0" encoding="utf-8"?>
<!-- Generator: Adobe Illustrator 24.2.1, SVG Export Plug-In . SVG Version: 6.00 Build 0)  -->
<svg version="1.1" id="texas" xmlns="http://www.w3.org/2000/svg" xmlns:xlink="http://www.w3.org/1999/xlink" x="0px" y="0px"
	 width="654.5px" height="638.2px" viewBox="0 0 654.5 638.2" style="enable-background:new 0 0 654.5 638.2;" xml:space="preserve"
	>
<style type="text/css">
	.st0{opacity:0.5;fill:#FFFFFF;enable-background:new    ;}
	.st1{fill:#FFFFFF;}
</style>
<image style="overflow:visible;" width="1353" height="1323" xlink:href="texas.png"  transform="matrix(0.48 0 0 0.48 4.32 0.76)">
</image>
<g>
	<g id="dallas">
		<ellipse class="st0" cx="529.3" cy="201.4" rx="30" ry="30"/>
		<ellipse class="st1" cx="529.3" cy="201.4" rx="19.9" ry="19.9"/>
	</g>
</g>
</svg>
