<?xml version="1.0" encoding="utf-8"?>
<!-- Generator: Adobe Illustrator 24.2.1, SVG Export Plug-In . SVG Version: 6.00 Build 0)  -->
<svg version="1.1" id="ungheria" xmlns="http://www.w3.org/2000/svg" xmlns:xlink="http://www.w3.org/1999/xlink" x="0px" y="0px"
	 width="979.6px" height="594.8px" viewBox="0 0 979.6 594.8" style="enable-background:new 0 0 979.6 594.8;" xml:space="preserve"
	>
<style type="text/css">
	.st0{opacity:0.5;fill:#FFFFFF;enable-background:new    ;}
	.st1{fill:#FFFFFF;}
</style>
<image style="overflow:visible;" width="2037" height="1235" xlink:href="ungheria.png"  transform="matrix(0.48 0 0 0.48 0.96 1.04)">
</image>
<g>
	<g id="budapest">
		<ellipse class="st0" cx="435.8" cy="232.4" rx="30" ry="30"/>
		<ellipse class="st1" cx="435.8" cy="232.4" rx="19.9" ry="19.9"/>
	</g>
</g>
</svg>
