<?xml version="1.0" encoding="utf-8"?>
<!-- Generator: Adobe Illustrator 24.2.1, SVG Export Plug-In . SVG Version: 6.00 Build 0)  -->
<svg version="1.1" id="vietnam" xmlns="http://www.w3.org/2000/svg" xmlns:xlink="http://www.w3.org/1999/xlink" x="0px" y="0px"
	 width="351.1px" height="737.2px" viewBox="0 0 351.1 737.2" style="enable-background:new 0 0 351.1 737.2;" xml:space="preserve"
	>
<style type="text/css">
	.st0{opacity:0.5;fill:#FFFFFF;enable-background:new    ;}
	.st1{fill:#FFFFFF;}
</style>
<image style="overflow:visible;" width="727" height="1527" xlink:href="vietnam.png"  transform="matrix(0.48 0 0 0.48 0.96 0.88)">
</image>
<g>
	<g id="hanoi">
		<ellipse class="st0" cx="170.5" cy="115.5" rx="30" ry="30"/>
		<ellipse class="st1" cx="170.5" cy="115.5" rx="19.9" ry="19.9"/>
	</g>
</g>
</svg>
