<?xml version="1.0" encoding="UTF-8"?>
<svg width="16px" height="16px" viewBox="0 0 16 16" version="1.1" xmlns="http://www.w3.org/2000/svg" xmlns:xlink="http://www.w3.org/1999/xlink">
    <!-- Generator: Sketch 51.1 (57501) - http://www.bohemiancoding.com/sketch -->
    <title>ico/ic_refresh</title>
    <desc>Created with Sketch.</desc>
    <defs></defs>
    <g id="ico/ic_refresh" stroke="none" stroke-width="1" fill="none" fill-rule="evenodd">
        <rect id="Rectangle" fill="#FFFFFF" opacity="0" x="0" y="0" width="16" height="16"></rect>
        <path d="M14.9291863,11.7750297 C15.0881902,11.4910461 14.9867916,11.1316029 14.702471,10.972599 C14.4181505,10.8135951 14.0590442,10.9153306 13.9000403,11.1993143 C12.4184743,13.8478073 9.23704874,15.248187 6.33522752,14.528627 C4.01552228,13.9535853 2.20247355,12.1806244 1.48493475,9.78613344 C0.782555224,7.44149963 1.30976096,5.01669011 2.89508377,3.29998696 C4.35913241,1.71500103 6.574744,0.945246964 8.82269535,1.24135804 C10.9025472,1.51523553 12.7166066,2.6683507 13.7588907,4.35574592 L12.4124106,3.93970817 C12.1011402,3.84336259 11.771005,4.01752576 11.6749963,4.32879611 C11.657142,4.38673821 11.6487202,4.44535406 11.6487202,4.50295928 C11.6487202,4.75460317 11.8110929,4.98805593 12.0644211,5.06587352 L14.8749498,5.93500502 C15.0420387,5.98654654 15.2239499,5.96128109 15.3708264,5.86560925 C15.517366,5.77027429 15.6140485,5.61430224 15.6345977,5.44013906 L15.996399,2.35438536 C16.0317706,2.03233509 15.8026972,1.73824524 15.4792994,1.70017863 C15.1562385,1.66244889 14.8631593,1.89388042 14.8250927,2.21727818 L14.6644044,3.58700248 C13.4237023,1.6819875 11.3468823,0.38435396 8.97664617,0.0724098631 C6.34937618,-0.273558374 3.75242473,0.633976612 2.02898412,2.50025123 C0.700358291,3.93869755 0,5.79250788 0,7.73053638 C0,8.52185029 0.116894818,9.32764973 0.355400672,10.1243536 C1.19387676,12.922418 3.32324894,14.9965431 6.05158073,15.6733203 C9.45938471,16.5178601 13.1929446,14.8786377 14.9291863,11.7750297" id="Fill-1" fill="#808080"></path>
    </g>
</svg>