<?xml version="1.0" encoding="UTF-8"?>
<svg width="24px" height="20px" viewBox="0 0 24 20" version="1.1" xmlns="http://www.w3.org/2000/svg" xmlns:xlink="http://www.w3.org/1999/xlink">
    <!-- Generator: Sketch 51.1 (57501) - http://www.bohemiancoding.com/sketch -->
    <title>Icon/Arrows/arrow-left</title>
    <desc>Created with Sketch.</desc>
    <defs></defs>
    <g id="Banker" stroke="none" stroke-width="1" fill="none" fill-rule="evenodd">
        <g id="8_Account_Opening_Banker" transform="translate(-99.000000, -566.000000)" fill="#202632">
            <g id="Icon/Arrows/arrow-left" transform="translate(87.000000, 552.000000)">
                <g id="Icon" transform="translate(12.000000, 14.000000)">
                    <g id="Color/Gray-100" transform="translate(-6.923077, -8.461538)">
                        <rect id="Swatch" x="0" y="0" width="37" height="37"></rect>
                    </g>
                </g>
            </g>
        </g>
    </g>
</svg>