<?xml version="1.0" encoding="UTF-8"?>
<svg width="72px" height="72px" viewBox="0 0 72 72" version="1.1" xmlns="http://www.w3.org/2000/svg" xmlns:xlink="http://www.w3.org/1999/xlink">
    <!-- Generator: Sketch 50.2 (55047) - http://www.bohemiancoding.com/sketch -->
    <title>icobig/completely_online</title>
    <desc>Created with Sketch.</desc>
    <defs></defs>
    <g id="icobig/completely_online" stroke="none" stroke-width="1" fill="none" fill-rule="evenodd">
        <rect id="Rectangle-path" fill="#FFFFFF" fill-rule="nonzero" opacity="0" x="0" y="0" width="72" height="72"></rect>
        <polygon id="Shape" fill="#F36F20" fill-rule="nonzero" points="38.1 50.4 36.5 50.4 36.5 54.9 27.8 54.9 27.8 50.4 26.2 50.4 26.2 54.9 20.3 54.9 20.3 56.6 43.9 56.6 43.9 54.9 38.1 54.9"></polygon>
        <path d="M61.7,26.6 L56.1,26.6 L56.1,15.9 C56.1,15.4 55.7,15.1 55.3,15.1 L10.3,15.1 C9.1,15.1 8.2,16 8.2,17.2 L8.2,46.7 C8.2,47.9 9.1,48.8 10.3,48.8 L46.2,48.8 L46.2,54.7 C46.2,55.9 47.1,56.8 48.3,56.8 L61.7,56.8 C62.9,56.8 63.8,55.9 63.8,54.7 L63.8,28.7 C63.8,27.5 62.8,26.6 61.7,26.6 Z M46.2,41.2 L46.2,47.3 L10.3,47.3 C10,47.3 9.8,47.1 9.8,46.8 L9.8,41.2 L46.2,41.2 Z M62.2,53 L62.2,54.7 C62.2,55 62,55.2 61.7,55.2 L48.3,55.2 C48,55.2 47.8,55 47.8,54.7 L47.8,53 L62.2,53 Z M62.2,31.4 L62.2,51.4 L47.9,51.4 L47.9,31.4 L62.2,31.4 Z M48.3,28.2 L61.7,28.2 C62,28.2 62.2,28.4 62.2,28.7 L62.2,29.8 L47.9,29.8 L47.9,28.7 C47.9,28.4 48.1,28.2 48.3,28.2 Z M54.4,16.8 L54.4,26.6 L48.3,26.6 C47.1,26.6 46.2,27.5 46.2,28.7 L46.2,39.6 L9.8,39.6 L9.8,17.2 C9.8,16.9 10,16.7 10.3,16.7 L54.4,16.7 L54.4,16.8 Z" id="Shape" fill="#F36F20" fill-rule="nonzero"></path>
        <rect id="Rectangle-path" fill="#F36F20" fill-rule="nonzero" x="53.8" y="53.3" width="2.4" height="1.6"></rect>
        <polygon id="Shape" fill="#F36F20" fill-rule="nonzero" points="57.4 42.9 51.9 37.1 50.7 38.2 56.2 44"></polygon>
        <polygon id="Shape" fill="#F36F20" fill-rule="nonzero" points="59 40 55.3 36.3 54.1 37.4 57.9 41.2"></polygon>
    </g>
</svg>