<?xml version="1.0" encoding="UTF-8"?>
<svg width="72px" height="72px" viewBox="0 0 72 72" version="1.1" xmlns="http://www.w3.org/2000/svg" xmlns:xlink="http://www.w3.org/1999/xlink">
    <!-- Generator: Sketch 50.2 (55047) - http://www.bohemiancoding.com/sketch -->
    <title>icobig/loans</title>
    <desc>Created with Sketch.</desc>
    <defs></defs>
    <g id="icobig/loans" stroke="none" stroke-width="1" fill="none" fill-rule="evenodd">
        <g id="svg_icobig-loans" fill-rule="nonzero">
            <rect id="Rectangle-path" fill="#FFFFFF" opacity="0" x="0" y="0" width="72" height="72"></rect>
            <g id="Group" transform="translate(9.000000, 8.000000)" fill="#F36F20">
                <path d="M53.5,27.3 C52.6,26.1 50.4,25.2 47.9,25.8 C47.9,25.8 47.9,25.8 47.9,25.8 C47.9,25.7 47.9,25.6 47.9,25.5 C47.9,19.5 44.3,13.8 37.6,8.9 C38.7,6.2 39.9,3 39.9,2.2 L39.8,1.3 L38.7,1.3 C38,1.3 36.7,1.4 33.7,0.6 C31.8,0.1 28.2,-0.8 26.5,2.2 C26.2,2.7 26.1,2.9 29.4,8.9 C22.7,13.8 19.2,19.5 19.2,25.5 C19.2,26.8 19.5,28.1 20,29.3 L19,29.3 C17.1,29.3 15,30.7 13.7,31.9 L9.7,35.9 L7.4,33.6 L0.2,40.8 L15.4,56 L22.6,48.8 L20.3,46.5 C20.5,46.4 20.8,46.3 21.3,46.3 L37.6,46.3 C39.6,46.3 47.6,37.9 47.6,37.8 C48.5,36.8 52.5,30.9 53.6,28.2 L53.8,27.7 L53.5,27.3 Z M35.6,8.6 C35.3,8.7 34.2,8.9 33.5,8.9 C32.8,8.9 31.7,8.7 31.3,8.6 C29.9,6.1 28.7,3.7 28.3,2.8 C29.1,1.8 30.4,1.7 33.2,2.4 C35,2.8 36.4,3.1 37.7,3.1 C37.3,4.4 36.5,6.5 35.6,8.6 Z M30.6,10.3 C31.7,10.8 33.4,10.8 33.5,10.8 C33.6,10.8 35.3,10.8 36.4,10.3 C42.7,14.9 46,20 46,25.5 C46,25.9 46,26.3 45.9,26.7 C44.5,27.7 43.5,29.3 42.7,30.7 L38.5,32.9 C37.9,32.3 36.9,31.7 35.2,31.7 L29.1,31.7 C28.9,31.7 28.2,31.1 27.9,30.9 C26.9,30.2 25.9,29.3 24.7,29.3 L22,29.3 C21.3,28.2 21,26.9 21,25.5 C21,20 24.2,14.9 30.6,10.3 Z M29.1,33.5 L35.3,33.5 C37.1,33.5 37.9,34.5 37.9,35.5 C37.9,36.5 37.1,37.5 35.3,37.5 L25.6,37.5 L25.6,39.4 L35.3,39.4 C38.2,39.4 39.7,37.5 39.7,35.6 C39.7,35.3 39.6,34.9 39.5,34.6 L44.1,32.2 L44.2,31.9 C45.6,29.2 46.7,28.1 48.2,27.7 C49.7,27.4 50.9,27.7 51.5,28.2 C50.2,30.9 46.8,35.9 46.1,36.7 C44.5,38.5 38.3,44.4 37.5,44.6 L21.2,44.6 C20,44.6 19.3,45 18.9,45.4 L10.9,37.4 L14.9,33.4 C16,32.4 17.8,31.3 18.9,31.3 L24.7,31.3 C25.2,31.3 26.1,32 26.8,32.5 C27.6,32.9 28.3,33.5 29.1,33.5 Z M19.9,48.9 L15.4,53.4 L2.7,40.7 L7.2,36.2 L19.9,48.9 Z" id="Shape"></path>
                <polygon id="Shape" points="9.2 44 10.5 42.6 7.7 39.8 6.3 41.1"></polygon>
                <path d="M31.7,28.8 L32,28.8 L32,30.6 L33.9,30.6 L33.9,28.8 L34.1,28.8 C35.9,28.8 37.4,27.3 37.4,25.5 L37.4,24.8 C37.4,23.4 36.5,22.1 35.2,21.7 L31.4,20.4 C30.8,20.2 30.4,19.7 30.4,19.1 L30.4,18.4 C30.4,17.6 31,17 31.8,17 L34.1,17 C34.9,17 35.5,17.6 35.5,18.4 L35.5,19.9 L37.4,19.9 L37.4,18.4 C37.4,16.6 35.9,15.1 34.1,15.1 L33.9,15.1 L33.9,13.3 L32,13.3 L32,15.1 L31.8,15.1 C30,15.1 28.5,16.6 28.5,18.4 L28.5,19.1 C28.5,20.5 29.4,21.8 30.7,22.2 L34.5,23.5 C35.1,23.7 35.5,24.2 35.5,24.8 L35.5,25.5 C35.5,26.3 34.9,26.9 34.1,26.9 L31.8,26.9 C31,26.9 30.4,26.3 30.4,25.5 L30.4,24 L28.5,24 L28.5,25.5 C28.5,27.3 29.9,28.8 31.7,28.8 Z" id="Shape"></path>
            </g>
        </g>
    </g>
</svg>