<?xml version="1.0" encoding="UTF-8"?>
<svg width="48px" height="48px" viewBox="0 0 48 48" version="1.1" xmlns="http://www.w3.org/2000/svg" xmlns:xlink="http://www.w3.org/1999/xlink">
    <!-- Generator: Sketch 49.3 (51167) - http://www.bohemiancoding.com/sketch -->
    <title>status/grey</title>
    <desc>Created with Sketch.</desc>
    <defs></defs>
    <g id="Symbols" stroke="none" stroke-width="1" fill="none" fill-rule="evenodd">
        <g id="01" transform="translate(-32.000000, -32.000000)">
            <g id="Stacked-Group" transform="translate(32.000000, 32.000000)">
                <g id="status/grey">
                    <g id="Group-3">
                        <circle id="Oval-6" fill="#DEDFE3" cx="24" cy="24" r="24"></circle>
                        <g id="ico/print" transform="translate(13.000000, 13.000000)" fill="#4D4D4D">
                            <g id="Group">
                                <path d="M5.5,15.125 C5.75313051,15.125 5.95833333,15.3302028 5.95833333,15.5833333 C5.95833333,15.8364638 5.75313051,16.0416667 5.5,16.0416667 L2.75,16.0416667 C1.48853616,16.0416667 0.458333333,15.0114638 0.458333333,13.75 L0.458333333,8.25 C0.458333333,6.98853616 1.48853616,5.95833333 2.75,5.95833333 L20.1666667,5.95833333 C21.4287665,5.95833333 22.4583333,6.98825533 22.4583333,8.25 L22.4583333,13.75 C22.4583333,15.0117447 21.4287665,16.0416667 20.1666667,16.0416667 L17.4166667,16.0416667 C17.1635362,16.0416667 16.9583333,15.8364638 16.9583333,15.5833333 C16.9583333,15.3302028 17.1635362,15.125 17.4166667,15.125 L20.1666667,15.125 C20.9224347,15.125 21.5416667,14.5055544 21.5416667,13.75 L21.5416667,8.25 C21.5416667,7.4944456 20.9224347,6.875 20.1666667,6.875 L2.75,6.875 C1.99479718,6.875 1.375,7.49479718 1.375,8.25 L1.375,13.75 C1.375,14.5052028 1.99479718,15.125 2.75,15.125 L5.5,15.125 Z" id="Stroke-693" fill-rule="nonzero"></path>
                                <path d="M5.95833333,1.375 L5.95833333,4.58333333 C5.95833333,4.83646384 5.75313051,5.04166667 5.5,5.04166667 C5.24686949,5.04166667 5.04166667,4.83646384 5.04166667,4.58333333 L5.04166667,0.916666667 C5.04166667,0.663536156 5.24686949,0.458333333 5.5,0.458333333 L14.6666667,0.458333333 C14.7882242,0.458333333 14.9048031,0.506621885 14.9907573,0.592576059 L17.7407573,3.34257606 C17.8267114,3.42853023 17.875,3.54510911 17.875,3.66666667 L17.875,4.58333333 C17.875,4.83646384 17.6697972,5.04166667 17.4166667,5.04166667 C17.1635362,5.04166667 16.9583333,4.83646384 16.9583333,4.58333333 L16.9583333,3.85651455 L14.4768188,1.375 L5.95833333,1.375 Z" id="Stroke-694" fill-rule="nonzero"></path>
                                <path d="M16.9583333,19.7083333 L16.9583333,13.2916667 L5.95833333,13.2916667 L5.95833333,19.7083333 L16.9583333,19.7083333 Z M17.4166667,20.625 L5.5,20.625 C5.24686949,20.625 5.04166667,20.4197972 5.04166667,20.1666667 L5.04166667,12.8333333 C5.04166667,12.5802028 5.24686949,12.375 5.5,12.375 L17.4166667,12.375 C17.6697972,12.375 17.875,12.5802028 17.875,12.8333333 L17.875,20.1666667 C17.875,20.4197972 17.6697972,20.625 17.4166667,20.625 Z" id="Stroke-695" fill-rule="nonzero"></path>
                                <path d="M4.125,9.16666667 C4.125,8.91288051 3.92045282,8.70833333 3.66666667,8.70833333 C3.41340957,8.70833333 3.20833333,8.91326795 3.20833333,9.16666667 C3.20833333,9.41953616 3.41379718,9.625 3.66666667,9.625 C3.92006539,9.625 4.125,9.41992376 4.125,9.16666667 Z M5.04166667,9.16666667 C5.04166667,9.92604307 4.42646822,10.5416667 3.66666667,10.5416667 C2.90753616,10.5416667 2.29166667,9.92579718 2.29166667,9.16666667 C2.29166667,8.40686511 2.90729026,7.79166667 3.66666667,7.79166667 C4.42671384,7.79166667 5.04166667,8.40661949 5.04166667,9.16666667 Z" id="Stroke-696" fill-rule="nonzero"></path>
                                <path d="M7.33333333,15.125 C7.08020282,15.125 6.875,14.9197972 6.875,14.6666667 C6.875,14.4135362 7.08020282,14.2083333 7.33333333,14.2083333 L15.5833333,14.2083333 C15.8364638,14.2083333 16.0416667,14.4135362 16.0416667,14.6666667 C16.0416667,14.9197972 15.8364638,15.125 15.5833333,15.125 L7.33333333,15.125 Z" id="Stroke-697" fill-rule="nonzero"></path>
                                <path d="M7.33333333,16.9583333 C7.08020282,16.9583333 6.875,16.7531305 6.875,16.5 C6.875,16.2468695 7.08020282,16.0416667 7.33333333,16.0416667 L15.5833333,16.0416667 C15.8364638,16.0416667 16.0416667,16.2468695 16.0416667,16.5 C16.0416667,16.7531305 15.8364638,16.9583333 15.5833333,16.9583333 L7.33333333,16.9583333 Z" id="Stroke-698" fill-rule="nonzero"></path>
                                <path d="M7.33333333,18.7916667 C7.08020282,18.7916667 6.875,18.5864638 6.875,18.3333333 C6.875,18.0802028 7.08020282,17.875 7.33333333,17.875 L15.5833333,17.875 C15.8364638,17.875 16.0416667,18.0802028 16.0416667,18.3333333 C16.0416667,18.5864638 15.8364638,18.7916667 15.5833333,18.7916667 L7.33333333,18.7916667 Z" id="Stroke-699" fill-rule="nonzero"></path>
                                <path d="M15.125,3.20833333 L17.4166667,3.20833333 C17.6697972,3.20833333 17.875,3.41353616 17.875,3.66666667 C17.875,3.91979718 17.6697972,4.125 17.4166667,4.125 L14.6666667,4.125 C14.4135362,4.125 14.2083333,3.91979718 14.2083333,3.66666667 L14.2083333,0.916666667 C14.2083333,0.663536156 14.4135362,0.458333333 14.6666667,0.458333333 C14.9197972,0.458333333 15.125,0.663536156 15.125,0.916666667 L15.125,3.20833333 Z" id="Stroke-700" fill-rule="nonzero"></path>
                            </g>
                        </g>
                    </g>
                </g>
            </g>
        </g>
    </g>
</svg>