<?xml version="1.0" encoding="UTF-8"?>
<svg width="60px" height="58px" viewBox="0 0 60 58" version="1.1" xmlns="http://www.w3.org/2000/svg" xmlns:xlink="http://www.w3.org/1999/xlink">
    <!-- Generator: Sketch 50.2 (55047) - http://www.bohemiancoding.com/sketch -->
    <title>icobig/thanks</title>
    <desc>Created with Sketch.</desc>
    <defs></defs>
    <g id="Symbols" stroke="none" stroke-width="1" fill="none" fill-rule="evenodd">
        <g id="icobig/thanks" transform="translate(-6.000000, -7.000000)">
            <g>
                <polygon id="Bg" fill-opacity="0" fill="#FFFFFF" points="0 72 72 72 72 0 0 0"></polygon>
                <path d="M21.9158,9.7746 C21.0558,9.7746 20.3548,10.4746 20.3548,11.3356 L20.3548,43.3436 C20.3548,44.2046 21.0558,44.9046 21.9158,44.9046 L46.6308,44.9046 C46.9018,44.9046 47.1608,45.0146 47.3498,45.2096 L56.2838,54.4556 C56.3928,54.5666 56.5108,54.5516 56.5918,54.5206 C56.6718,54.4886 56.7668,54.4176 56.7668,54.2606 L56.7668,45.9046 C56.7668,45.3516 57.2138,44.9046 57.7668,44.9046 L61.6068,44.9046 C62.4678,44.9046 63.1678,44.2046 63.1678,43.3436 L63.1678,11.3356 C63.1678,10.4746 62.4678,9.7746 61.6068,9.7746 L21.9158,9.7746 Z M56.4818,56.5426 C55.8778,56.5426 55.2858,56.3006 54.8468,55.8456 L46.2068,46.9046 L21.9158,46.9046 C19.9528,46.9046 18.3548,45.3066 18.3548,43.3436 L18.3548,11.3356 C18.3548,9.3726 19.9528,7.7746 21.9158,7.7746 L61.6068,7.7746 C63.5698,7.7746 65.1678,9.3726 65.1678,11.3356 L65.1678,43.3436 C65.1678,45.3066 63.5698,46.9046 61.6068,46.9046 L58.7668,46.9046 L58.7668,54.2606 C58.7668,55.1946 58.2068,56.0246 57.3418,56.3746 C57.0618,56.4876 56.7698,56.5426 56.4818,56.5426 Z" id="Fill-1" fill="#F36F20"></path>
                <path d="M15.5173,64.2248 C15.2303,64.2248 14.9383,64.1698 14.6593,64.0568 C13.7933,63.7058 13.2343,62.8768 13.2343,61.9428 L13.2343,54.5868 L10.3923,54.5868 C8.4293,54.5868 6.8313,52.9898 6.8313,51.0268 L6.8313,25.4188 C6.8313,23.4558 8.4293,21.8588 10.3923,21.8588 L15.5143,21.8588 L15.5143,23.8588 L10.3923,23.8588 C9.5323,23.8588 8.8313,24.5588 8.8313,25.4188 L8.8313,51.0268 C8.8313,51.8868 9.5323,52.5868 10.3923,52.5868 L14.2343,52.5868 C14.7873,52.5868 15.2343,53.0348 15.2343,53.5868 L15.2343,61.9428 C15.2343,62.0988 15.3293,62.1698 15.4093,62.2028 C15.4903,62.2358 15.6083,62.2498 15.7163,62.1368 L24.6503,52.8918 C24.8383,52.6978 25.0973,52.5868 25.3693,52.5868 L39.8413,52.5868 C40.7023,52.5868 41.4023,51.8868 41.4023,51.0268 L41.4023,49.7458 L43.4023,49.7458 L43.4023,51.0268 C43.4023,52.9898 41.8043,54.5868 39.8413,54.5868 L25.7923,54.5868 L17.1543,63.5278 C16.7143,63.9828 16.1223,64.2248 15.5173,64.2248" id="Fill-3" fill="#F36F20"></path>
                <path d="M49.9744,40.5032 L37.8714,40.5032 C35.6794,40.5032 34.7894,39.4672 34.1404,38.7112 C33.6494,38.1402 33.4524,37.9422 32.9014,37.9422 L28.3184,37.9422 C27.7654,37.9422 27.3184,37.4952 27.3184,36.9422 L27.3184,24.1392 C27.3184,23.5862 27.7654,23.1392 28.3184,23.1392 L34.0464,23.1392 C34.4204,23.0892 35.7934,22.2292 36.9604,21.2992 C38.5494,19.9582 40.1214,18.4342 40.1214,16.0742 L40.1214,15.0652 C40.1214,14.3412 40.4894,13.7332 41.1294,13.3992 C42.2964,12.7902 44.0074,13.2382 45.0934,13.9952 C46.6204,15.0582 47.2434,16.5132 47.2434,19.0172 C47.2434,20.8322 46.5624,22.1032 46.1554,22.8612 C46.0764,23.0102 46.0044,23.1312 45.9624,23.2322 L45.9624,26.1602 C45.9624,28.8722 44.4124,31.4612 41.5964,33.4492 L40.4424,31.8162 C41.7574,30.8882 43.9624,28.9182 43.9624,26.1602 L43.9624,23.1352 C43.9624,22.7192 44.1524,22.3652 44.3924,21.9172 C44.7514,21.2472 45.2434,20.3302 45.2434,19.0172 C45.2434,16.9322 44.7884,16.2202 43.9514,15.6362 C43.2394,15.1412 42.4134,15.0592 42.1214,15.1452 L42.1214,16.0742 C42.1214,19.5602 39.5894,21.6972 38.2284,22.8462 C37.1404,23.7132 35.1824,25.1392 34.0464,25.1392 L29.3184,25.1392 L29.3184,35.9422 L32.9014,35.9422 C34.3984,35.9422 35.1254,36.7892 35.6574,37.4082 C36.2034,38.0442 36.5974,38.5032 37.8714,38.5032 L49.9744,38.5032 C50.5384,38.5032 51.3794,37.6752 51.3794,37.1182 C51.3794,37.0572 51.3854,36.9962 51.3964,36.9362 L52.9984,28.2992 C53.1274,27.5292 52.8834,26.6792 52.3434,26.0402 C51.8514,25.4592 51.1994,25.1392 50.5054,25.1392 L47.5234,25.1392 L47.5234,23.1392 L50.5054,23.1392 C51.7784,23.1392 53.0044,23.7262 53.8704,24.7482 C54.7864,25.8292 55.1964,27.2872 54.9684,28.6472 L53.3774,37.2222 C53.3084,38.8642 51.6264,40.5032 49.9744,40.5032" id="Fill-5" fill="#F36F20"></path>
            </g>
        </g>
    </g>
</svg>