<svg xmlns="http://www.w3.org/2000/svg" width="72" height="72" viewBox="0 0 72 72">
  <defs>
    <linearGradient id="a" x1="-.045%" x2="100.042%" y1="49.948%" y2="49.948%">
      <stop stop-color="#ED6E1D" offset="0%"/>
      <stop stop-color="#EA8E00" offset="100%"/>
    </linearGradient>
    <linearGradient id="b" x1="-.057%" x2="100.149%" y1="50.223%" y2="50.223%">
      <stop stop-color="#ED6E1D" offset="0%"/>
      <stop stop-color="#EA8E00" offset="100%"/>
    </linearGradient>
    <linearGradient id="c" x1=".032%" x2="100.052%" y1="49.856%" y2="49.856%">
      <stop stop-color="#ED6E1D" offset="0%"/>
      <stop stop-color="#EA8E00" offset="100%"/>
    </linearGradient>
    <linearGradient id="d" x1="-.057%" x2="99.974%" y1="49.856%" y2="49.856%">
      <stop stop-color="#ED6E1D" offset="0%"/>
      <stop stop-color="#EA8E00" offset="100%"/>
    </linearGradient>
    <linearGradient id="e" x1="-.151%" x2="100.046%" y1="50.223%" y2="50.223%">
      <stop stop-color="#ED6E1D" offset="0%"/>
      <stop stop-color="#EA8E00" offset="100%"/>
    </linearGradient>
    <linearGradient id="f" x1=".046%" x2="100.087%" y1="50.093%" y2="50.093%">
      <stop stop-color="#ED6E1D" offset="0%"/>
      <stop stop-color="#EA8E00" offset="100%"/>
    </linearGradient>
    <linearGradient id="g" x1="-.151%" x2="100.173%" y1="49.629%" y2="49.629%">
      <stop stop-color="#ED6E1D" offset="0%"/>
      <stop stop-color="#EA8E00" offset="100%"/>
    </linearGradient>
    <linearGradient id="h" x1="-.3%" x2="101.263%" y1="50.054%" y2="50.054%">
      <stop stop-color="#ED6E1D" offset="0%"/>
      <stop stop-color="#EA8E00" offset="100%"/>
    </linearGradient>
    <linearGradient id="i" x1="-.3%" x2="101.263%" y1="50.096%" y2="50.096%">
      <stop stop-color="#ED6E1D" offset="0%"/>
      <stop stop-color="#EA8E00" offset="100%"/>
    </linearGradient>
    <linearGradient id="j" x1="-.3%" x2="101.263%" y1="50.146%" y2="50.146%">
      <stop stop-color="#ED6E1D" offset="0%"/>
      <stop stop-color="#EA8E00" offset="100%"/>
    </linearGradient>
    <linearGradient id="k" x1="-1.288%" x2="100.275%" y1="50.054%" y2="50.054%">
      <stop stop-color="#ED6E1D" offset="0%"/>
      <stop stop-color="#EA8E00" offset="100%"/>
    </linearGradient>
    <linearGradient id="l" x1="-1.288%" x2="100.275%" y1="50.096%" y2="50.096%">
      <stop stop-color="#ED6E1D" offset="0%"/>
      <stop stop-color="#EA8E00" offset="100%"/>
    </linearGradient>
    <linearGradient id="m" x1="-1.288%" x2="100.275%" y1="50.146%" y2="50.146%">
      <stop stop-color="#ED6E1D" offset="0%"/>
      <stop stop-color="#EA8E00" offset="100%"/>
    </linearGradient>
    <linearGradient id="n" x1="-.037%" x2="99.979%" y1="49.856%" y2="49.856%">
      <stop stop-color="#ED6E1D" offset="0%"/>
      <stop stop-color="#EA8E00" offset="100%"/>
    </linearGradient>
    <linearGradient id="o" x1="-.071%" x2="99.987%" y1="49.856%" y2="49.856%">
      <stop stop-color="#ED6E1D" offset="0%"/>
      <stop stop-color="#EA8E00" offset="100%"/>
    </linearGradient>
    <linearGradient id="p" x1=".037%" x2="100.054%" y1="49.856%" y2="49.856%">
      <stop stop-color="#ED6E1D" offset="0%"/>
      <stop stop-color="#EA8E00" offset="100%"/>
    </linearGradient>
  </defs>
  <g fill="none">
    <rect width="72" height="72" fill="#FFFFFF" opacity="0"/>
    <path fill="url(#a)" d="M57.7,41.8 L57.7,22 L57,21.9 C53.3,21.4 50.7,19 50.2,15.8 L50.1,15 L21.9,15 L21.8,15.7 C21.4,18.9 18.7,21.3 15,21.8 L14.3,22 L14.3,41.9 C14.3,52.5 32.9,61.8 36,61.8 C39.1,61.8 57.7,52.5 57.7,41.8 Z M48.8,16.7 C49.6,20.1 52.4,22.6 56.1,23.4 L56.1,41.9 C56.1,51.8 38.2,60.2 36,60.2 C33.8,60.2 15.9,51.8 15.9,41.9 L15.9,23.4 C19.7,22.6 22.5,20.1 23.2,16.7 L48.8,16.7 Z"/>
    <path fill="url(#b)" d="M61.8,41.8 C61.8,47.9 57.8,53.9 50,59.4 L49.8,59.5 L50.7,60.8 L50.9,60.7 C59.2,54.8 63.4,48.5 63.4,41.8 L63.4,32.7 L61.8,32.7 L61.8,41.8 Z"/>
    <rect width="8.1" height="1.6" x="42.4" y="10.3" fill="url(#c)"/>
    <rect width="8.1" height="1.6" x="21.5" y="10.3" fill="url(#d)"/>
    <path fill="url(#e)" d="M10.2,41.8 L10.2,32.7 L8.6,32.7 L8.6,41.8 C8.6,48.5 12.8,54.9 21.1,60.7 L21.3,60.8 L22.2,59.5 L22,59.5 C14.2,53.9 10.2,48 10.2,41.8 Z"/>
    <path fill="url(#f)" d="M35.1,51.8 C43.2,51.8 49.8,45.2 49.8,37.1 L49.8,36.9 L48.2,36.9 L48.2,37.1 C48.2,44.3 42.3,50.2 35.1,50.2 C27.9,50.2 22,44.3 22,37.1 C22,29.9 27.9,24 35.1,24 C36.7,24 38.3,24.3 39.8,24.9 L40,25 L40.6,23.5 L40.4,23.4 C38.7,22.8 37,22.4 35.1,22.4 C27,22.4 20.4,29 20.4,37.1 C20.4,45.2 27,51.8 35.1,51.8 Z"/>
    <path fill="url(#g)" d="M30.8,29.5 L25.5,34.8 L36,45.4 L53.8,27.6 L48.5,22.3 L36,34.7 L30.8,29.5 Z M30.8,31.8 L36,37 L48.5,24.5 L51.5,27.5 L36,43.1 L27.8,34.9 L30.8,31.8 Z"/>
    <rect width="1.6" height="2.4" x="61.8" y="21.3" fill="url(#h)"/>
    <rect width="1.6" height="2.4" x="61.8" y="25.1" fill="url(#i)"/>
    <rect width="1.6" height="2.4" x="61.8" y="28.9" fill="url(#j)"/>
    <rect width="1.6" height="2.4" x="8.6" y="21.3" fill="url(#k)"/>
    <rect width="1.6" height="2.4" x="8.6" y="25.1" fill="url(#l)"/>
    <rect width="1.6" height="2.4" x="8.6" y="28.9" fill="url(#m)"/>
    <rect width="2.4" height="1.6" x="34.8" y="10.3" fill="url(#n)"/>
    <rect width="2.4" height="1.6" x="31" y="10.3" fill="url(#o)"/>
    <rect width="2.4" height="1.6" x="38.6" y="10.3" fill="url(#p)"/>
  </g>
</svg>
