<!--?xml version="1.0" encoding="utf-8"?-->
<!-- Generator: Adobe Illustrator 22.0.1, SVG Export Plug-In . SVG Version: 6.00 Build 0)  -->
<svg version="1.1" id="Layer_1" xmlns="http://www.w3.org/2000/svg" xmlns:xlink="http://www.w3.org/1999/xlink" x="0px" y="0px" viewBox="0 0 64 64" style="" xml:space="preserve">
<style type="text/css">
	.st0{fill:none;stroke:#f36f20;stroke-width:2;stroke-linecap:round;stroke-linejoin:round;}
</style>
<title></title>
<path class="st0 sSNoSywR_0" d="M19.8,42.2c-1.2-2-1.8-4.3-1.8-6.7v-11c0-2.9,1-5.8,2.7-8.1"></path>
<path class="st0 sSNoSywR_1" d="M44.3,39.9c-2.4,7-10.1,10.8-17.1,8.4C25.6,47.8,24.2,47,23,46"></path>
<path class="st0 sSNoSywR_2" d="M45,23L45,36"></path>
<path class="st0 sSNoSywR_3" d="M23.9,13.4c6.1-4.2,14.5-2.7,18.8,3.5c0,0,0,0.1,0.1,0.1"></path>
<path class="st0 sSNoSywR_4" d="M41,29v6.5c0,3.8-2.2,7.2-5.7,8.7"></path>
<path class="st0 sSNoSywR_5" d="M35.1,15.7c3.6,1.5,5.9,4.9,5.9,8.8"></path>
<path class="st0 sSNoSywR_6" d="M22.8,20.8c1.5-3.5,4.9-5.8,8.8-5.8"></path>
<path class="st0 sSNoSywR_7" d="M22,32L22,25"></path>
<path class="st0 sSNoSywR_8" d="M31.5,45c-5.2,0-9.5-4.3-9.5-9.5"></path>
<path class="st0 sSNoSywR_9" d="M28,39.7c-1.3-1-2-2.6-2-4.2v-11c0-1.5,0.6-2.9,1.6-3.9"></path>
<path class="st0 sSNoSywR_10" d="M37,35.5c0,3-2.5,5.5-5.5,5.5"></path>
<path class="st0 sSNoSywR_11" d="M37,25L37,32"></path>
<path class="st0 sSNoSywR_12" d="M31.5,19c1.5,0,2.9,0.6,3.9,1.6"></path>
<path class="st0 sSNoSywR_13" d="M33,35.5c0,0.8-0.7,1.5-1.5,1.5S30,36.3,30,35.5V29"></path>
<path class="st0 sSNoSywR_14" d="M30,24.5c0-0.8,0.7-1.5,1.5-1.5s1.5,0.7,1.5,1.5V31"></path>
<style>.sSNoSywR_0{stroke-dasharray:27 29;stroke-dashoffset:28;animation:sSNoSywR_draw_0 2500ms linear 0ms infinite,sSNoSywR_fade 2500ms linear 0ms infinite;}.sSNoSywR_1{stroke-dasharray:26 28;stroke-dashoffset:27;animation:sSNoSywR_draw_1 2500ms linear 0ms infinite,sSNoSywR_fade 2500ms linear 0ms infinite;}.sSNoSywR_2{stroke-dasharray:13 15;stroke-dashoffset:14;animation:sSNoSywR_draw_2 2500ms linear 0ms infinite,sSNoSywR_fade 2500ms linear 0ms infinite;}.sSNoSywR_3{stroke-dasharray:22 24;stroke-dashoffset:23;animation:sSNoSywR_draw_3 2500ms linear 0ms infinite,sSNoSywR_fade 2500ms linear 0ms infinite;}.sSNoSywR_4{stroke-dasharray:18 20;stroke-dashoffset:19;animation:sSNoSywR_draw_4 2500ms linear 0ms infinite,sSNoSywR_fade 2500ms linear 0ms infinite;}.sSNoSywR_5{stroke-dasharray:12 14;stroke-dashoffset:13;animation:sSNoSywR_draw_5 2500ms linear 0ms infinite,sSNoSywR_fade 2500ms linear 0ms infinite;}.sSNoSywR_6{stroke-dasharray:12 14;stroke-dashoffset:13;animation:sSNoSywR_draw_6 2500ms linear 0ms infinite,sSNoSywR_fade 2500ms linear 0ms infinite;}.sSNoSywR_7{stroke-dasharray:7 9;stroke-dashoffset:8;animation:sSNoSywR_draw_7 2500ms linear 0ms infinite,sSNoSywR_fade 2500ms linear 0ms infinite;}.sSNoSywR_8{stroke-dasharray:15 17;stroke-dashoffset:16;animation:sSNoSywR_draw_8 2500ms linear 0ms infinite,sSNoSywR_fade 2500ms linear 0ms infinite;}.sSNoSywR_9{stroke-dasharray:21 23;stroke-dashoffset:22;animation:sSNoSywR_draw_9 2500ms linear 0ms infinite,sSNoSywR_fade 2500ms linear 0ms infinite;}.sSNoSywR_10{stroke-dasharray:9 11;stroke-dashoffset:10;animation:sSNoSywR_draw_10 2500ms linear 0ms infinite,sSNoSywR_fade 2500ms linear 0ms infinite;}.sSNoSywR_11{stroke-dasharray:7 9;stroke-dashoffset:8;animation:sSNoSywR_draw_11 2500ms linear 0ms infinite,sSNoSywR_fade 2500ms linear 0ms infinite;}.sSNoSywR_12{stroke-dasharray:5 7;stroke-dashoffset:6;animation:sSNoSywR_draw_12 2500ms linear 0ms infinite,sSNoSywR_fade 2500ms linear 0ms infinite;}.sSNoSywR_13{stroke-dasharray:12 14;stroke-dashoffset:13;animation:sSNoSywR_draw_13 2500ms linear 0ms infinite,sSNoSywR_fade 2500ms linear 0ms infinite;}.sSNoSywR_14{stroke-dasharray:12 14;stroke-dashoffset:13;animation:sSNoSywR_draw_14 2500ms linear 0ms infinite,sSNoSywR_fade 2500ms linear 0ms infinite;}@keyframes sSNoSywR_draw{100%{stroke-dashoffset:0;}}@keyframes sSNoSywR_fade{0%{stroke-opacity:1;}80%{stroke-opacity:1;}100%{stroke-opacity:0;}}@keyframes sSNoSywR_draw_0{20%{stroke-dashoffset: 28}46.666666666666664%{ stroke-dashoffset: 0;}100%{ stroke-dashoffset: 0;}}@keyframes sSNoSywR_draw_1{20.952380952380953%{stroke-dashoffset: 27}47.61904761904762%{ stroke-dashoffset: 0;}100%{ stroke-dashoffset: 0;}}@keyframes sSNoSywR_draw_2{21.904761904761905%{stroke-dashoffset: 14}48.57142857142857%{ stroke-dashoffset: 0;}100%{ stroke-dashoffset: 0;}}@keyframes sSNoSywR_draw_3{22.857142857142858%{stroke-dashoffset: 23}49.523809523809526%{ stroke-dashoffset: 0;}100%{ stroke-dashoffset: 0;}}@keyframes sSNoSywR_draw_4{23.809523809523807%{stroke-dashoffset: 19}50.476190476190474%{ stroke-dashoffset: 0;}100%{ stroke-dashoffset: 0;}}@keyframes sSNoSywR_draw_5{24.761904761904763%{stroke-dashoffset: 13}51.42857142857144%{ stroke-dashoffset: 0;}100%{ stroke-dashoffset: 0;}}@keyframes sSNoSywR_draw_6{25.71428571428572%{stroke-dashoffset: 13}52.38095238095239%{ stroke-dashoffset: 0;}100%{ stroke-dashoffset: 0;}}@keyframes sSNoSywR_draw_7{26.666666666666668%{stroke-dashoffset: 8}53.33333333333334%{ stroke-dashoffset: 0;}100%{ stroke-dashoffset: 0;}}@keyframes sSNoSywR_draw_8{27.61904761904762%{stroke-dashoffset: 16}54.28571428571429%{ stroke-dashoffset: 0;}100%{ stroke-dashoffset: 0;}}@keyframes sSNoSywR_draw_9{28.57142857142857%{stroke-dashoffset: 22}55.23809523809524%{ stroke-dashoffset: 0;}100%{ stroke-dashoffset: 0;}}@keyframes sSNoSywR_draw_10{29.523809523809526%{stroke-dashoffset: 10}56.19047619047619%{ stroke-dashoffset: 0;}100%{ stroke-dashoffset: 0;}}@keyframes sSNoSywR_draw_11{30.476190476190478%{stroke-dashoffset: 8}57.14285714285715%{ stroke-dashoffset: 0;}100%{ stroke-dashoffset: 0;}}@keyframes sSNoSywR_draw_12{31.428571428571427%{stroke-dashoffset: 6}58.09523809523809%{ stroke-dashoffset: 0;}100%{ stroke-dashoffset: 0;}}@keyframes sSNoSywR_draw_13{32.38095238095238%{stroke-dashoffset: 13}59.04761904761905%{ stroke-dashoffset: 0;}100%{ stroke-dashoffset: 0;}}@keyframes sSNoSywR_draw_14{33.33333333333333%{stroke-dashoffset: 13}60%{ stroke-dashoffset: 0;}100%{ stroke-dashoffset: 0;}}</style></svg>
