<?xml version="1.0" encoding="UTF-8"?>
<svg width="72px" height="58px" viewBox="0 0 72 58" version="1.1" xmlns="http://www.w3.org/2000/svg" xmlns:xlink="http://www.w3.org/1999/xlink">
    <!-- Generator: Sketch 51.2 (57519) - http://www.bohemiancoding.com/sketch -->
    <title>ico/new_app</title>
    <desc>Created with Sketch.</desc>
    <defs>
        <polygon id="path-1" points="0.000228571429 0.926514286 71.3714286 0.926514286 71.3714286 11.4282286 0.000228571429 11.4282286"></polygon>
        <polygon id="path-3" points="0 58.2857143 71.3714286 58.2857143 71.3714286 0.614857143 0 0.614857143"></polygon>
    </defs>
    <g id="Banker" stroke="none" stroke-width="1" fill="none" fill-rule="evenodd">
        <g id="00_Account_Opening_Banker" transform="translate(-679.000000, -195.000000)">
            <g id="Group" transform="translate(195.000000, 194.000000)">
                <g id="Stacked-Group">
                    <g id="ico/new_app" transform="translate(484.000000, 0.000000)">
                        <g id="Group-19">
                            <polygon id="Fill-1" fill="#F3F2F3" points="6.42971429 10.0753143 24.2274286 10.0753143 25.0331429 11.1473143 25.0331429 23.1336 25.0331429 29.2147429 39.168 29.2147429 40.2514286 29.9781714 40.92 40.7667429 43.5337143 39.6341714 53.9474286 29.2204571 66.1211429 29.2204571 66.1211429 48.9976 5.25142857 48.9976 5.25142857 10.7301714"></polygon>
                            <g id="Group-18" transform="translate(0.000000, 0.527886)">
                                <path d="M66.8069714,49.1550857 L4.56582857,49.1550857 L4.56582857,11.9470857 C4.56582857,9.89108571 6.23897143,8.21794286 8.29497143,8.21794286 L25.0332571,8.21794286 L25.0332571,9.58937143 L8.29497143,9.58937143 C6.9944,9.58937143 5.93611429,10.6465143 5.93611429,11.9470857 L5.93611429,47.7836571 L65.4366857,47.7836571 L65.4366857,28.6922286 L66.8069714,28.6922286 L66.8069714,49.1550857 Z" id="Fill-2" fill="#4D4C4C"></path>
                                <path d="M70.6864,48.4692571 L0.685257143,48.4692571 L0.685257143,53.0281143 C0.685257143,55.5538286 2.73211429,57.5995429 5.25668571,57.5995429 L66.1149714,57.5995429 C68.6406857,57.5995429 70.6864,55.5538286 70.6864,53.0281143 L70.6864,48.4692571 Z" id="Fill-4" fill="#E6E5E5"></path>
                                <g id="Group-8" transform="translate(0.000000, 46.857143)">
                                    <mask id="mask-2" fill="white">
                                        <use xlink:href="#path-1"></use>
                                    </mask>
                                    <g id="Clip-7"></g>
                                    <path d="M1.37051429,2.29794286 L1.37051429,6.17108571 C1.37051429,8.31394286 3.11337143,10.0568 5.25622857,10.0568 L66.1145143,10.0568 C68.2573714,10.0568 70.0013714,8.31394286 70.0013714,6.17108571 L70.0013714,2.29794286 L1.37051429,2.29794286 Z M66.1145143,11.4282286 L5.25622857,11.4282286 C2.35794286,11.4282286 0.000228571429,9.07051429 0.000228571429,6.17108571 L0.000228571429,0.926514286 L71.3716571,0.926514286 L71.3716571,6.17108571 C71.3716571,9.07051429 69.0139429,11.4282286 66.1145143,11.4282286 Z" id="Fill-6" fill="#4D4C4C" mask="url(#mask-2)"></path>
                                </g>
                                <mask id="mask-4" fill="white">
                                    <use xlink:href="#path-3"></use>
                                </mask>
                                <g id="Clip-10"></g>
                                <polygon id="Fill-9" fill="#4D4C4C" mask="url(#mask-4)" points="32.6434286 53.72 40.2514286 53.72 40.2514286 52.3485714 32.6434286 52.3485714"></polygon>
                                <path d="M41.7868571,40.928 C41.5011429,40.928 41.2097143,40.8708571 40.9285714,40.7542857 C40.0874286,40.4057143 39.5662857,39.624 39.5662857,38.7142857 L39.5662857,29.3782857 L34.164,29.3782857 L34.164,28.0068571 L40.9365714,28.0068571 L40.9365714,38.7142857 C40.9365714,39.2331429 41.332,39.4365714 41.4531429,39.4868571 C41.5731429,39.536 41.9982857,39.6708571 42.3651429,39.3062857 L53.6645714,28.0068571 L66.1217143,28.0068571 C68.26,28.0068571 70.0005714,26.2662857 70.0005714,24.1268571 L70.0005714,5.86628571 C70.0005714,3.72685714 68.26,1.98628571 66.1217143,1.98628571 L29.5994286,1.98628571 C27.46,1.98628571 25.7182857,3.72685714 25.7182857,5.86628571 L25.7182857,19.5622857 L24.348,19.5622857 L24.348,5.86628571 C24.348,2.97028571 26.7034286,0.614857143 29.5994286,0.614857143 L66.1217143,0.614857143 C69.0165714,0.614857143 71.372,2.97028571 71.372,5.86628571 L71.372,24.1268571 C71.372,27.0228571 69.0165714,29.3782857 66.1217143,29.3782857 L54.2325714,29.3782857 L43.3342857,40.2754286 C42.9057143,40.7028571 42.356,40.928 41.7868571,40.928" id="Fill-11" fill="#4D4C4C" mask="url(#mask-4)"></path>
                                <path d="M37.2075429,47.8414857 L37.2075429,45.6654857 C37.2075429,41.8929143 28.4246857,39.7237714 25.0338286,39.7237714 C21.6429714,39.7237714 12.8589714,41.8929143 12.8589714,45.6654857 L12.8589714,47.8414857" id="Fill-12" fill="#FFFFFF" mask="url(#mask-4)"></path>
                                <path d="M37.8929143,47.8414857 L36.5226286,47.8414857 L36.5226286,45.6654857 C36.5226286,42.6289143 28.4597714,40.4094857 25.0334857,40.4094857 C21.6072,40.4094857 13.5443429,42.6289143 13.5443429,45.6654857 L13.5443429,47.8414857 L12.1740571,47.8414857 L12.1740571,45.6654857 C12.1740571,41.1032 22.0380571,39.0380571 25.0334857,39.0380571 C28.0289143,39.0380571 37.8929143,41.1032 37.8929143,45.6654857 L37.8929143,47.8414857 Z" id="Fill-13" fill="#4D4C4C" mask="url(#mask-4)"></path>
                                <path d="M25.0334857,22.6054857 C21.6872,22.6054857 18.9466286,25.3186286 18.9466286,28.6660571 L18.9466286,30.2500571 C18.9466286,33.5963429 21.6872,36.3094857 25.0334857,36.3094857 C28.3809143,36.3094857 31.1203429,33.5963429 31.1203429,30.2500571 L31.1203429,28.6660571 C31.1203429,25.3186286 28.3809143,22.6054857 25.0334857,22.6054857" id="Fill-14" fill="#FFFFFF" mask="url(#mask-4)"></path>
                                <path d="M25.0334857,23.2913143 C22.0552,23.2913143 19.6312,25.7016 19.6312,28.6661714 L19.6312,30.2501714 C19.6312,33.2136 22.0552,35.6238857 25.0334857,35.6238857 C28.0117714,35.6238857 30.4357714,33.2136 30.4357714,30.2501714 L30.4357714,28.6661714 C30.4357714,25.7016 28.0117714,23.2913143 25.0334857,23.2913143 M25.0334857,36.9953143 C21.2986286,36.9953143 18.2609143,33.9690286 18.2609143,30.2501714 L18.2609143,28.6661714 C18.2609143,24.9461714 21.2986286,21.9198857 25.0334857,21.9198857 C28.7683429,21.9198857 31.8060571,24.9461714 31.8060571,28.6661714 L31.8060571,30.2501714 C31.8060571,33.9690286 28.7683429,36.9953143 25.0334857,36.9953143" id="Fill-15" fill="#4D4C4C" mask="url(#mask-4)"></path>
                                <polygon id="Fill-16" fill="#4D4C4C" mask="url(#mask-4)" points="35.6857143 12.6388571 60.0342857 12.6388571 60.0342857 11.2674286 35.6857143 11.2674286"></polygon>
                                <polygon id="Fill-17" fill="#4D4C4C" mask="url(#mask-4)" points="35.6868571 18.7257143 49.3817143 18.7257143 49.3817143 17.3542857 35.6868571 17.3542857"></polygon>
                            </g>
                        </g>
                    </g>
                </g>
            </g>
        </g>
    </g>
</svg>