<?xml version="1.0" encoding="UTF-8"?>
<svg width="236px" height="454px" viewBox="0 0 236 454" version="1.1" xmlns="http://www.w3.org/2000/svg" xmlns:xlink="http://www.w3.org/1999/xlink">
    <!-- Generator: Sketch 48.2 (47327) - http://www.bohemiancoding.com/sketch -->
    <title>phone</title>
    <desc>Created with Sketch.</desc>
    <defs></defs>
    <g id="Page-1" stroke="none" stroke-width="1" fill="none" fill-rule="evenodd">
        <g id="phone" stroke="#616161">
            <g id="illu_phone">
                <rect id="Rectangle" x="2.26779026" y="0.5" width="230.580524" height="453" rx="40"></rect>
                <rect id="Rectangle" x="4.91947566" y="3.15497076" width="226.161049" height="447.690058" rx="40"></rect>
                <rect id="Rectangle-4" x="98.6123596" y="12.0048733" width="38.7752809" height="3.42495127" rx="1.71247563"></rect>
                <ellipse id="Oval" cx="148.494382" cy="15.9298246" rx="2.65168539" ry="2.65497076"></ellipse>
                <ellipse id="Oval-Copy" cx="160.868914" cy="15.9298246" rx="2.65168539" ry="2.65497076"></ellipse>
                <ellipse id="Oval-Copy-2" cx="200.644195" cy="20.3547758" rx="2.65168539" ry="2.65497076"></ellipse>
                <path d="M0.5,77.3543905 L0.5,131.503309 L2.15168539,132.054553 L2.15168539,76.8031466 L0.5,77.3543905 Z" id="Rectangle-2"></path>
                <path d="M232.964419,116.574304 L232.964419,149.807762 L235.5,149.173082 L235.5,117.208984 L232.964419,116.574304 Z" id="Rectangle-5"></path>
                <rect id="Rectangle-6" x="14.6423221" y="46.5194932" width="204.947566" height="361.846004"></rect>
                <rect id="Rectangle-4" x="94.1928839" y="422.640351" width="47.6142322" height="15.8148148" rx="7.90740741"></rect>
            </g>
        </g>
    </g>
</svg>