<?xml version="1.0" encoding="utf-8"?>
<!-- Generator: Adobe Illustrator 24.1.2, SVG Export Plug-In . SVG Version: 6.00 Build 0)  -->
<svg version="1.1" id="germania" xmlns="http://www.w3.org/2000/svg" xmlns:xlink="http://www.w3.org/1999/xlink" x="0px" y="0px"
	 viewBox="0 0 322.8 456.6" style="enable-background:new 0 0 322.8 456.6;" xml:space="preserve">
<style type="text/css">
	.chapterCircle0{fill:#FFFFFF;}
	.chapterCircle1{opacity:0.5;fill:#FFFFFF;enable-background:new;}
</style>
<g id="map">
	<circle class="chapterCircle0" cx="318.7" cy="219.3" r="2.9"/>
	<circle class="chapterCircle0" cx="318.7" cy="227.6" r="2.9"/>
	<circle class="chapterCircle0" cx="318.7" cy="235.9" r="2.9"/>
	<circle class="chapterCircle0" cx="318.7" cy="244.2" r="2.9"/>
	<circle class="chapterCircle0" cx="318.7" cy="252.4" r="2.9"/>
	<circle class="chapterCircle0" cx="310.4" cy="169.7" r="2.9"/>
	<circle class="chapterCircle0" cx="310.4" cy="177.9" r="2.9"/>
	<circle class="chapterCircle0" cx="310.4" cy="186.2" r="2.9"/>
	<circle class="chapterCircle0" cx="310.4" cy="194.5" r="2.9"/>
	<circle class="chapterCircle0" cx="310.4" cy="202.8" r="2.9"/>
	<circle class="chapterCircle0" cx="310.4" cy="211.1" r="2.9"/>
	<circle class="chapterCircle0" cx="310.4" cy="219.3" r="2.9"/>
	<circle class="chapterCircle0" cx="310.4" cy="227.6" r="2.9"/>
	<circle class="chapterCircle0" cx="310.4" cy="235.9" r="2.9"/>
	<circle class="chapterCircle0" cx="310.4" cy="244.2" r="2.9"/>
	<circle class="chapterCircle0" cx="302.1" cy="153.1" r="2.9"/>
	<circle class="chapterCircle0" cx="302.1" cy="161.4" r="2.9"/>
	<circle class="chapterCircle0" cx="302.1" cy="169.7" r="2.9"/>
	<circle class="chapterCircle0" cx="302.1" cy="177.9" r="2.9"/>
	<circle class="chapterCircle0" cx="302.1" cy="186.2" r="2.9"/>
	<circle class="chapterCircle0" cx="302.1" cy="194.5" r="2.9"/>
	<circle class="chapterCircle0" cx="302.1" cy="202.8" r="2.9"/>
	<circle class="chapterCircle0" cx="302.1" cy="211.1" r="2.9"/>
	<circle class="chapterCircle0" cx="302.1" cy="219.3" r="2.9"/>
	<circle class="chapterCircle0" cx="302.1" cy="227.6" r="2.9"/>
	<circle class="chapterCircle0" cx="302.1" cy="235.9" r="2.9"/>
	<circle class="chapterCircle0" cx="302.1" cy="244.2" r="2.9"/>
	<circle class="chapterCircle0" cx="293.8" cy="95.2" r="2.9"/>
	<circle class="chapterCircle0" cx="293.8" cy="103.5" r="2.9"/>
	<circle class="chapterCircle0" cx="293.8" cy="111.7" r="2.9"/>
	<circle class="chapterCircle0" cx="293.8" cy="120" r="2.9"/>
	<circle class="chapterCircle0" cx="293.8" cy="128.3" r="2.9"/>
	<circle class="chapterCircle0" cx="293.8" cy="144.9" r="2.9"/>
	<circle class="chapterCircle0" cx="293.8" cy="153.1" r="2.9"/>
	<circle class="chapterCircle0" cx="293.8" cy="161.4" r="2.9"/>
	<circle class="chapterCircle0" cx="293.8" cy="169.7" r="2.9"/>
	<circle class="chapterCircle0" cx="293.8" cy="177.9" r="2.9"/>
	<circle class="chapterCircle0" cx="293.8" cy="186.2" r="2.9"/>
	<circle class="chapterCircle0" cx="293.8" cy="194.5" r="2.9"/>
	<circle class="chapterCircle0" cx="293.8" cy="202.8" r="2.9"/>
	<circle class="chapterCircle0" cx="293.8" cy="211.1" r="2.9"/>
	<circle class="chapterCircle0" cx="293.8" cy="219.3" r="2.9"/>
	<circle class="chapterCircle0" cx="293.8" cy="227.6" r="2.9"/>
	<circle class="chapterCircle0" cx="293.8" cy="235.9" r="2.9"/>
	<circle class="chapterCircle0" cx="293.8" cy="244.2" r="2.9"/>
	<circle class="chapterCircle0" cx="293.8" cy="252.4" r="2.9"/>
	<circle class="chapterCircle0" cx="285.5" cy="70.3" r="2.9"/>
	<circle class="chapterCircle0" cx="285.5" cy="78.6" r="2.9"/>
	<circle class="chapterCircle0" cx="285.5" cy="86.9" r="2.9"/>
	<circle class="chapterCircle0" cx="285.5" cy="95.2" r="2.9"/>
	<circle class="chapterCircle0" cx="285.5" cy="103.5" r="2.9"/>
	<circle class="chapterCircle0" cx="285.5" cy="111.7" r="2.9"/>
	<circle class="chapterCircle0" cx="285.5" cy="120" r="2.9"/>
	<circle class="chapterCircle0" cx="285.5" cy="128.3" r="2.9"/>
	<circle class="chapterCircle0" cx="285.5" cy="136.6" r="2.9"/>
	<circle class="chapterCircle0" cx="285.5" cy="144.9" r="2.9"/>
	<circle class="chapterCircle0" cx="285.5" cy="153.1" r="2.9"/>
	<circle class="chapterCircle0" cx="285.5" cy="161.4" r="2.9"/>
	<circle class="chapterCircle0" cx="285.5" cy="169.7" r="2.9"/>
	<circle class="chapterCircle0" cx="285.5" cy="177.9" r="2.9"/>
	<circle class="chapterCircle0" cx="285.5" cy="186.2" r="2.9"/>
	<circle class="chapterCircle0" cx="285.5" cy="194.5" r="2.9"/>
	<circle class="chapterCircle0" cx="285.5" cy="202.8" r="2.9"/>
	<circle class="chapterCircle0" cx="285.5" cy="211.1" r="2.9"/>
	<circle class="chapterCircle0" cx="285.5" cy="219.3" r="2.9"/>
	<circle class="chapterCircle0" cx="285.5" cy="227.6" r="2.9"/>
	<circle class="chapterCircle0" cx="285.5" cy="235.9" r="2.9"/>
	<circle class="chapterCircle0" cx="285.5" cy="244.2" r="2.9"/>
	<circle class="chapterCircle0" cx="285.5" cy="252.4" r="2.9"/>
	<circle class="chapterCircle0" cx="277.3" cy="53.8" r="2.9"/>
	<circle class="chapterCircle0" cx="277.3" cy="78.6" r="2.9"/>
	<circle class="chapterCircle0" cx="277.3" cy="86.9" r="2.9"/>
	<circle class="chapterCircle0" cx="277.3" cy="95.2" r="2.9"/>
	<circle class="chapterCircle0" cx="277.3" cy="103.5" r="2.9"/>
	<circle class="chapterCircle0" cx="277.3" cy="111.7" r="2.9"/>
	<circle class="chapterCircle0" cx="277.3" cy="120" r="2.9"/>
	<circle class="chapterCircle0" cx="277.3" cy="128.3" r="2.9"/>
	<circle class="chapterCircle0" cx="277.3" cy="136.6" r="2.9"/>
	<circle class="chapterCircle0" cx="277.3" cy="144.9" r="2.9"/>
	<circle class="chapterCircle0" cx="277.3" cy="153.1" r="2.9"/>
	<circle class="chapterCircle0" cx="277.3" cy="161.4" r="2.9"/>
	<circle class="chapterCircle0" cx="277.3" cy="169.7" r="2.9"/>
	<circle class="chapterCircle0" cx="277.3" cy="177.9" r="2.9"/>
	<circle class="chapterCircle0" cx="277.3" cy="186.2" r="2.9"/>
	<circle class="chapterCircle0" cx="277.3" cy="194.5" r="2.9"/>
	<circle class="chapterCircle0" cx="277.3" cy="202.8" r="2.9"/>
	<circle class="chapterCircle0" cx="277.3" cy="211.1" r="2.9"/>
	<circle class="chapterCircle0" cx="277.3" cy="219.3" r="2.9"/>
	<circle class="chapterCircle0" cx="277.3" cy="227.6" r="2.9"/>
	<circle class="chapterCircle0" cx="277.3" cy="235.9" r="2.9"/>
	<circle class="chapterCircle0" cx="277.3" cy="244.2" r="2.9"/>
	<circle class="chapterCircle0" cx="277.3" cy="252.4" r="2.9"/>
	<circle class="chapterCircle0" cx="277.3" cy="260.7" r="2.9"/>
	<circle class="chapterCircle0" cx="277.3" cy="376.6" r="2.9"/>
	<circle class="chapterCircle0" cx="277.3" cy="384.9" r="2.9"/>
	<circle class="chapterCircle0" cx="269" cy="37.2" r="2.9"/>
	<circle class="chapterCircle0" cx="269" cy="45.5" r="2.9"/>
	<circle class="chapterCircle0" cx="269" cy="53.8" r="2.9"/>
	<circle class="chapterCircle0" cx="269" cy="70.3" r="2.9"/>
	<circle class="chapterCircle0" cx="269" cy="78.6" r="2.9"/>
	<circle class="chapterCircle0" cx="269" cy="86.9" r="2.9"/>
	<circle class="chapterCircle0" cx="269" cy="95.2" r="2.9"/>
	<circle class="chapterCircle0" cx="269" cy="103.5" r="2.9"/>
	<circle class="chapterCircle0" cx="269" cy="111.7" r="2.9"/>
	<circle class="chapterCircle0" cx="269" cy="120" r="2.9"/>
	<circle class="chapterCircle0" cx="269" cy="128.3" r="2.9"/>
	<circle class="chapterCircle0" cx="269" cy="136.6" r="2.9"/>
	<circle class="chapterCircle0" cx="269" cy="144.9" r="2.9"/>
	<circle class="chapterCircle0" cx="269" cy="153.1" r="2.9"/>
	<circle class="chapterCircle0" cx="269" cy="161.4" r="2.9"/>
	<circle class="chapterCircle0" cx="269" cy="169.7" r="2.9"/>
	<circle class="chapterCircle0" cx="269" cy="177.9" r="2.9"/>
	<circle class="chapterCircle0" cx="269" cy="186.2" r="2.9"/>
	<circle class="chapterCircle0" cx="269" cy="194.5" r="2.9"/>
	<circle class="chapterCircle0" cx="269" cy="202.8" r="2.9"/>
	<circle class="chapterCircle0" cx="269" cy="211.1" r="2.9"/>
	<circle class="chapterCircle0" cx="269" cy="219.3" r="2.9"/>
	<circle class="chapterCircle0" cx="269" cy="227.6" r="2.9"/>
	<circle class="chapterCircle0" cx="269" cy="235.9" r="2.9"/>
	<circle class="chapterCircle0" cx="269" cy="244.2" r="2.9"/>
	<circle class="chapterCircle0" cx="269" cy="252.4" r="2.9"/>
	<circle class="chapterCircle0" cx="269" cy="260.7" r="2.9"/>
	<circle class="chapterCircle0" cx="269" cy="269" r="2.9"/>
	<circle class="chapterCircle0" cx="269" cy="368.3" r="2.9"/>
	<circle class="chapterCircle0" cx="269" cy="376.6" r="2.9"/>
	<circle class="chapterCircle0" cx="269" cy="384.9" r="2.9"/>
	<circle class="chapterCircle0" cx="269" cy="393.1" r="2.9"/>
	<circle class="chapterCircle0" cx="260.7" cy="37.2" r="2.9"/>
	<circle class="chapterCircle0" cx="260.7" cy="45.5" r="2.9"/>
	<circle class="chapterCircle0" cx="260.7" cy="53.8" r="2.9"/>
	<circle class="chapterCircle0" cx="260.7" cy="62.1" r="2.9"/>
	<circle class="chapterCircle0" cx="260.7" cy="70.3" r="2.9"/>
	<circle class="chapterCircle0" cx="260.7" cy="78.6" r="2.9"/>
	<circle class="chapterCircle0" cx="260.7" cy="86.9" r="2.9"/>
	<circle class="chapterCircle0" cx="260.7" cy="95.2" r="2.9"/>
	<circle class="chapterCircle0" cx="260.7" cy="103.5" r="2.9"/>
	<circle class="chapterCircle0" cx="260.7" cy="111.7" r="2.9"/>
	<circle class="chapterCircle0" cx="260.7" cy="120" r="2.9"/>
	<circle class="chapterCircle0" cx="260.7" cy="128.3" r="2.9"/>
	<circle class="chapterCircle0" cx="260.7" cy="136.6" r="2.9"/>
	<circle class="chapterCircle0" cx="260.7" cy="144.9" r="2.9"/>
	<circle class="chapterCircle0" cx="260.7" cy="153.1" r="2.9"/>
	<circle class="chapterCircle0" cx="260.7" cy="161.4" r="2.9"/>
	<circle class="chapterCircle0" cx="260.7" cy="169.7" r="2.9"/>
	<circle class="chapterCircle0" cx="260.7" cy="177.9" r="2.9"/>
	<circle class="chapterCircle0" cx="260.7" cy="186.2" r="2.9"/>
	<circle class="chapterCircle0" cx="260.7" cy="194.5" r="2.9"/>
	<circle class="chapterCircle0" cx="260.7" cy="202.8" r="2.9"/>
	<circle class="chapterCircle0" cx="260.7" cy="211.1" r="2.9"/>
	<circle class="chapterCircle0" cx="260.7" cy="219.3" r="2.9"/>
	<circle class="chapterCircle0" cx="260.7" cy="227.6" r="2.9"/>
	<circle class="chapterCircle0" cx="260.7" cy="235.9" r="2.9"/>
	<circle class="chapterCircle0" cx="260.7" cy="244.2" r="2.9"/>
	<circle class="chapterCircle0" cx="260.7" cy="252.4" r="2.9"/>
	<circle class="chapterCircle0" cx="260.7" cy="260.7" r="2.9"/>
	<circle class="chapterCircle0" cx="260.7" cy="269" r="2.9"/>
	<circle class="chapterCircle0" cx="260.7" cy="360" r="2.9"/>
	<circle class="chapterCircle0" cx="260.7" cy="368.3" r="2.9"/>
	<circle class="chapterCircle0" cx="260.7" cy="376.6" r="2.9"/>
	<circle class="chapterCircle0" cx="260.7" cy="384.9" r="2.9"/>
	<circle class="chapterCircle0" cx="260.7" cy="393.1" r="2.9"/>
	<circle class="chapterCircle0" cx="260.7" cy="401.4" r="2.9"/>
	<circle class="chapterCircle0" cx="252.4" cy="53.8" r="2.9"/>
	<circle class="chapterCircle0" cx="252.4" cy="62.1" r="2.9"/>
	<circle class="chapterCircle0" cx="252.4" cy="70.3" r="2.9"/>
	<circle class="chapterCircle0" cx="252.4" cy="78.6" r="2.9"/>
	<circle class="chapterCircle0" cx="252.4" cy="86.9" r="2.9"/>
	<circle class="chapterCircle0" cx="252.4" cy="95.2" r="2.9"/>
	<circle class="chapterCircle0" cx="252.4" cy="103.5" r="2.9"/>
	<circle class="chapterCircle0" cx="252.4" cy="111.7" r="2.9"/>
	<circle class="chapterCircle0" cx="252.4" cy="120" r="2.9"/>
	<circle class="chapterCircle0" cx="252.4" cy="128.3" r="2.9"/>
	<circle class="chapterCircle0" cx="252.4" cy="136.6" r="2.9"/>
	<circle class="chapterCircle0" cx="252.4" cy="144.9" r="2.9"/>
	<circle class="chapterCircle0" cx="252.4" cy="153.1" r="2.9"/>
	<circle class="chapterCircle0" cx="252.4" cy="161.4" r="2.9"/>
	<circle class="chapterCircle0" cx="252.4" cy="169.7" r="2.9"/>
	<circle class="chapterCircle0" cx="252.4" cy="177.9" r="2.9"/>
	<circle class="chapterCircle0" cx="252.4" cy="186.2" r="2.9"/>
	<circle class="chapterCircle0" cx="252.4" cy="194.5" r="2.9"/>
	<circle class="chapterCircle0" cx="252.4" cy="202.8" r="2.9"/>
	<circle class="chapterCircle0" cx="252.4" cy="211.1" r="2.9"/>
	<circle class="chapterCircle0" cx="252.4" cy="219.3" r="2.9"/>
	<circle class="chapterCircle0" cx="252.4" cy="227.6" r="2.9"/>
	<circle class="chapterCircle0" cx="252.4" cy="235.9" r="2.9"/>
	<circle class="chapterCircle0" cx="252.4" cy="244.2" r="2.9"/>
	<circle class="chapterCircle0" cx="252.4" cy="252.4" r="2.9"/>
	<circle class="chapterCircle0" cx="252.4" cy="260.7" r="2.9"/>
	<circle class="chapterCircle0" cx="252.4" cy="269" r="2.9"/>
	<circle class="chapterCircle0" cx="252.4" cy="277.3" r="2.9"/>
	<circle class="chapterCircle0" cx="252.4" cy="351.8" r="2.9"/>
	<circle class="chapterCircle0" cx="252.4" cy="360" r="2.9"/>
	<circle class="chapterCircle0" cx="252.4" cy="368.3" r="2.9"/>
	<circle class="chapterCircle0" cx="252.4" cy="376.6" r="2.9"/>
	<circle class="chapterCircle0" cx="252.4" cy="384.9" r="2.9"/>
	<circle class="chapterCircle0" cx="252.4" cy="393.1" r="2.9"/>
	<circle class="chapterCircle0" cx="252.4" cy="401.4" r="2.9"/>
	<circle class="chapterCircle0" cx="252.4" cy="409.7" r="2.9"/>
	<circle class="chapterCircle0" cx="252.4" cy="434.5" r="2.9"/>
	<circle class="chapterCircle0" cx="252.4" cy="442.8" r="2.9"/>
	<circle class="chapterCircle0" cx="252.4" cy="452.5" r="2.9"/>
	<circle class="chapterCircle0" cx="244.2" cy="53.8" r="2.9"/>
	<circle class="chapterCircle0" cx="244.2" cy="62.1" r="2.9"/>
	<circle class="chapterCircle0" cx="244.2" cy="70.3" r="2.9"/>
	<circle class="chapterCircle0" cx="244.2" cy="78.6" r="2.9"/>
	<circle class="chapterCircle0" cx="244.2" cy="86.9" r="2.9"/>
	<circle class="chapterCircle0" cx="244.2" cy="95.2" r="2.9"/>
	<circle class="chapterCircle0" cx="244.2" cy="103.5" r="2.9"/>
	<circle class="chapterCircle0" cx="244.2" cy="111.7" r="2.9"/>
	<circle class="chapterCircle0" cx="244.2" cy="120" r="2.9"/>
	<circle class="chapterCircle0" cx="244.2" cy="128.3" r="2.9"/>
	<circle class="chapterCircle0" cx="244.2" cy="136.6" r="2.9"/>
	<circle class="chapterCircle0" cx="244.2" cy="144.9" r="2.9"/>
	<circle class="chapterCircle0" cx="244.2" cy="153.1" r="2.9"/>
	<circle class="chapterCircle0" cx="244.2" cy="161.4" r="2.9"/>
	<circle class="chapterCircle0" cx="244.2" cy="169.7" r="2.9"/>
	<circle class="chapterCircle0" cx="244.2" cy="177.9" r="2.9"/>
	<circle class="chapterCircle0" cx="244.2" cy="186.2" r="2.9"/>
	<circle class="chapterCircle0" cx="244.2" cy="194.5" r="2.9"/>
	<circle class="chapterCircle0" cx="244.2" cy="202.8" r="2.9"/>
	<circle class="chapterCircle0" cx="244.2" cy="211.1" r="2.9"/>
	<circle class="chapterCircle0" cx="244.2" cy="219.3" r="2.9"/>
	<circle class="chapterCircle0" cx="244.2" cy="227.6" r="2.9"/>
	<circle class="chapterCircle0" cx="244.2" cy="235.9" r="2.9"/>
	<circle class="chapterCircle0" cx="244.2" cy="244.2" r="2.9"/>
	<circle class="chapterCircle0" cx="244.2" cy="252.4" r="2.9"/>
	<circle class="chapterCircle0" cx="244.2" cy="260.7" r="2.9"/>
	<circle class="chapterCircle0" cx="244.2" cy="269" r="2.9"/>
	<circle class="chapterCircle0" cx="244.2" cy="277.3" r="2.9"/>
	<circle class="chapterCircle0" cx="244.2" cy="343.5" r="2.9"/>
	<circle class="chapterCircle0" cx="244.2" cy="351.8" r="2.9"/>
	<circle class="chapterCircle0" cx="244.2" cy="360" r="2.9"/>
	<circle class="chapterCircle0" cx="244.2" cy="368.3" r="2.9"/>
	<circle class="chapterCircle0" cx="244.2" cy="376.6" r="2.9"/>
	<circle class="chapterCircle0" cx="244.2" cy="384.9" r="2.9"/>
	<circle class="chapterCircle0" cx="244.2" cy="393.1" r="2.9"/>
	<circle class="chapterCircle0" cx="244.2" cy="401.4" r="2.9"/>
	<circle class="chapterCircle0" cx="244.2" cy="409.7" r="2.9"/>
	<circle class="chapterCircle0" cx="244.2" cy="418" r="2.9"/>
	<circle class="chapterCircle0" cx="244.2" cy="426.3" r="2.9"/>
	<circle class="chapterCircle0" cx="244.2" cy="434.5" r="2.9"/>
	<circle class="chapterCircle0" cx="235.9" cy="45.5" r="2.9"/>
	<circle class="chapterCircle0" cx="235.9" cy="53.8" r="2.9"/>
	<circle class="chapterCircle0" cx="235.9" cy="62.1" r="2.9"/>
	<circle class="chapterCircle0" cx="235.9" cy="70.3" r="2.9"/>
	<circle class="chapterCircle0" cx="235.9" cy="78.6" r="2.9"/>
	<circle class="chapterCircle0" cx="235.9" cy="86.9" r="2.9"/>
	<circle class="chapterCircle0" cx="235.9" cy="95.2" r="2.9"/>
	<circle class="chapterCircle0" cx="235.9" cy="103.5" r="2.9"/>
	<circle class="chapterCircle0" cx="235.9" cy="111.7" r="2.9"/>
	<circle class="chapterCircle0" cx="235.9" cy="120" r="2.9"/>
	<circle class="chapterCircle0" cx="235.9" cy="128.3" r="2.9"/>
	<circle class="chapterCircle0" cx="235.9" cy="136.6" r="2.9"/>
	<circle class="chapterCircle0" cx="235.9" cy="144.9" r="2.9"/>
	<circle class="chapterCircle0" cx="235.9" cy="153.1" r="2.9"/>
	<circle class="chapterCircle0" cx="235.9" cy="161.4" r="2.9"/>
	<circle class="chapterCircle0" cx="235.9" cy="169.7" r="2.9"/>
	<circle class="chapterCircle0" cx="235.9" cy="177.9" r="2.9"/>
	<circle class="chapterCircle0" cx="235.9" cy="186.2" r="2.9"/>
	<circle class="chapterCircle0" cx="235.9" cy="194.5" r="2.9"/>
	<circle class="chapterCircle0" cx="235.9" cy="202.8" r="2.9"/>
	<circle class="chapterCircle0" cx="235.9" cy="211.1" r="2.9"/>
	<circle class="chapterCircle0" cx="235.9" cy="219.3" r="2.9"/>
	<circle class="chapterCircle0" cx="235.9" cy="227.6" r="2.9"/>
	<circle class="chapterCircle0" cx="235.9" cy="235.9" r="2.9"/>
	<circle class="chapterCircle0" cx="235.9" cy="244.2" r="2.9"/>
	<circle class="chapterCircle0" cx="235.9" cy="252.4" r="2.9"/>
	<circle class="chapterCircle0" cx="235.9" cy="260.7" r="2.9"/>
	<circle class="chapterCircle0" cx="235.9" cy="269" r="2.9"/>
	<circle class="chapterCircle0" cx="235.9" cy="277.3" r="2.9"/>
	<circle class="chapterCircle0" cx="235.9" cy="285.5" r="2.9"/>
	<circle class="chapterCircle0" cx="235.9" cy="335.2" r="2.9"/>
	<circle class="chapterCircle0" cx="235.9" cy="343.5" r="2.9"/>
	<circle class="chapterCircle0" cx="235.9" cy="351.8" r="2.9"/>
	<circle class="chapterCircle0" cx="235.9" cy="360" r="2.9"/>
	<circle class="chapterCircle0" cx="235.9" cy="368.3" r="2.9"/>
	<circle class="chapterCircle0" cx="235.9" cy="376.6" r="2.9"/>
	<circle class="chapterCircle0" cx="235.9" cy="384.9" r="2.9"/>
	<circle class="chapterCircle0" cx="235.9" cy="393.1" r="2.9"/>
	<circle class="chapterCircle0" cx="235.9" cy="401.4" r="2.9"/>
	<circle class="chapterCircle0" cx="235.9" cy="409.7" r="2.9"/>
	<circle class="chapterCircle0" cx="235.9" cy="418" r="2.9"/>
	<circle class="chapterCircle0" cx="235.9" cy="426.3" r="2.9"/>
	<circle class="chapterCircle0" cx="235.9" cy="434.5" r="2.9"/>
	<circle class="chapterCircle0" cx="227.6" cy="53.8" r="2.9"/>
	<circle class="chapterCircle0" cx="227.6" cy="62.1" r="2.9"/>
	<circle class="chapterCircle0" cx="227.6" cy="70.3" r="2.9"/>
	<circle class="chapterCircle0" cx="227.6" cy="78.6" r="2.9"/>
	<circle class="chapterCircle0" cx="227.6" cy="86.9" r="2.9"/>
	<circle class="chapterCircle0" cx="227.6" cy="95.2" r="2.9"/>
	<circle class="chapterCircle0" cx="227.6" cy="103.5" r="2.9"/>
	<circle class="chapterCircle0" cx="227.6" cy="111.7" r="2.9"/>
	<circle class="chapterCircle0" cx="227.6" cy="120" r="2.9"/>
	<circle class="chapterCircle0" cx="227.6" cy="128.3" r="2.9"/>
	<circle class="chapterCircle0" cx="227.6" cy="136.6" r="2.9"/>
	<circle class="chapterCircle0" cx="227.6" cy="144.9" r="2.9"/>
	<circle class="chapterCircle0" cx="227.6" cy="153.1" r="2.9"/>
	<circle class="chapterCircle0" cx="227.6" cy="161.4" r="2.9"/>
	<circle class="chapterCircle0" cx="227.6" cy="169.7" r="2.9"/>
	<circle class="chapterCircle0" cx="227.6" cy="177.9" r="2.9"/>
	<circle class="chapterCircle0" cx="227.6" cy="186.2" r="2.9"/>
	<circle class="chapterCircle0" cx="227.6" cy="194.5" r="2.9"/>
	<circle class="chapterCircle0" cx="227.6" cy="202.8" r="2.9"/>
	<circle class="chapterCircle0" cx="227.6" cy="211.1" r="2.9"/>
	<circle class="chapterCircle0" cx="227.6" cy="219.3" r="2.9"/>
	<circle class="chapterCircle0" cx="227.6" cy="227.6" r="2.9"/>
	<circle class="chapterCircle0" cx="227.6" cy="235.9" r="2.9"/>
	<circle class="chapterCircle0" cx="227.6" cy="244.2" r="2.9"/>
	<circle class="chapterCircle0" cx="227.6" cy="252.4" r="2.9"/>
	<circle class="chapterCircle0" cx="227.6" cy="260.7" r="2.9"/>
	<circle class="chapterCircle0" cx="227.6" cy="269" r="2.9"/>
	<circle class="chapterCircle0" cx="227.6" cy="277.3" r="2.9"/>
	<circle class="chapterCircle0" cx="227.6" cy="285.5" r="2.9"/>
	<circle class="chapterCircle0" cx="227.6" cy="302.1" r="2.9"/>
	<circle class="chapterCircle0" cx="227.6" cy="310.4" r="2.9"/>
	<circle class="chapterCircle0" cx="227.6" cy="318.7" r="2.9"/>
	<circle class="chapterCircle0" cx="227.6" cy="326.9" r="2.9"/>
	<circle class="chapterCircle0" cx="227.6" cy="335.2" r="2.9"/>
	<circle class="chapterCircle0" cx="227.6" cy="343.5" r="2.9"/>
	<circle class="chapterCircle0" cx="227.6" cy="351.8" r="2.9"/>
	<circle class="chapterCircle0" cx="227.6" cy="360" r="2.9"/>
	<circle class="chapterCircle0" cx="227.6" cy="368.3" r="2.9"/>
	<circle class="chapterCircle0" cx="227.6" cy="376.6" r="2.9"/>
	<circle class="chapterCircle0" cx="227.6" cy="384.9" r="2.9"/>
	<circle class="chapterCircle0" cx="227.6" cy="393.1" r="2.9"/>
	<circle class="chapterCircle0" cx="227.6" cy="401.4" r="2.9"/>
	<circle class="chapterCircle0" cx="227.6" cy="409.7" r="2.9"/>
	<circle class="chapterCircle0" cx="227.6" cy="418" r="2.9"/>
	<circle class="chapterCircle0" cx="227.6" cy="426.3" r="2.9"/>
	<circle class="chapterCircle0" cx="227.6" cy="434.5" r="2.9"/>
	<circle class="chapterCircle0" cx="219.3" cy="70.3" r="2.9"/>
	<circle class="chapterCircle0" cx="219.3" cy="78.6" r="2.9"/>
	<circle class="chapterCircle0" cx="219.3" cy="86.9" r="2.9"/>
	<circle class="chapterCircle0" cx="219.3" cy="95.2" r="2.9"/>
	<circle class="chapterCircle0" cx="219.3" cy="103.5" r="2.9"/>
	<circle class="chapterCircle0" cx="219.3" cy="111.7" r="2.9"/>
	<circle class="chapterCircle0" cx="219.3" cy="120" r="2.9"/>
	<circle class="chapterCircle0" cx="219.3" cy="128.3" r="2.9"/>
	<circle class="chapterCircle0" cx="219.3" cy="136.6" r="2.9"/>
	<circle class="chapterCircle0" cx="219.3" cy="144.9" r="2.9"/>
	<circle class="chapterCircle0" cx="219.3" cy="153.1" r="2.9"/>
	<circle class="chapterCircle0" cx="219.3" cy="161.4" r="2.9"/>
	<circle class="chapterCircle0" cx="219.3" cy="169.7" r="2.9"/>
	<circle class="chapterCircle0" cx="219.3" cy="177.9" r="2.9"/>
	<circle class="chapterCircle0" cx="219.3" cy="186.2" r="2.9"/>
	<circle class="chapterCircle0" cx="219.3" cy="194.5" r="2.9"/>
	<circle class="chapterCircle0" cx="219.3" cy="202.8" r="2.9"/>
	<circle class="chapterCircle0" cx="219.3" cy="211.1" r="2.9"/>
	<circle class="chapterCircle0" cx="219.3" cy="219.3" r="2.9"/>
	<circle class="chapterCircle0" cx="219.3" cy="227.6" r="2.9"/>
	<circle class="chapterCircle0" cx="219.3" cy="235.9" r="2.9"/>
	<circle class="chapterCircle0" cx="219.3" cy="244.2" r="2.9"/>
	<circle class="chapterCircle0" cx="219.3" cy="252.4" r="2.9"/>
	<circle class="chapterCircle0" cx="219.3" cy="260.7" r="2.9"/>
	<circle class="chapterCircle0" cx="219.3" cy="269" r="2.9"/>
	<circle class="chapterCircle0" cx="219.3" cy="277.3" r="2.9"/>
	<circle class="chapterCircle0" cx="219.3" cy="285.5" r="2.9"/>
	<circle class="chapterCircle0" cx="219.3" cy="293.8" r="2.9"/>
	<circle class="chapterCircle0" cx="219.3" cy="302.1" r="2.9"/>
	<circle class="chapterCircle0" cx="219.3" cy="310.4" r="2.9"/>
	<circle class="chapterCircle0" cx="219.3" cy="318.7" r="2.9"/>
	<circle class="chapterCircle0" cx="219.3" cy="326.9" r="2.9"/>
	<circle class="chapterCircle0" cx="219.3" cy="335.2" r="2.9"/>
	<circle class="chapterCircle0" cx="219.3" cy="343.5" r="2.9"/>
	<circle class="chapterCircle0" cx="219.3" cy="351.8" r="2.9"/>
	<circle class="chapterCircle0" cx="219.3" cy="360" r="2.9"/>
	<circle class="chapterCircle0" cx="219.3" cy="368.3" r="2.9"/>
	<circle class="chapterCircle0" cx="219.3" cy="376.6" r="2.9"/>
	<circle class="chapterCircle0" cx="219.3" cy="384.9" r="2.9"/>
	<circle class="chapterCircle0" cx="219.3" cy="393.1" r="2.9"/>
	<circle class="chapterCircle0" cx="219.3" cy="401.4" r="2.9"/>
	<circle class="chapterCircle0" cx="219.3" cy="409.7" r="2.9"/>
	<circle class="chapterCircle0" cx="219.3" cy="418" r="2.9"/>
	<circle class="chapterCircle0" cx="219.3" cy="426.3" r="2.9"/>
	<circle class="chapterCircle0" cx="219.3" cy="434.5" r="2.9"/>
	<circle class="chapterCircle0" cx="219.3" cy="442.8" r="2.9"/>
	<circle class="chapterCircle0" cx="211.1" cy="70.3" r="2.9"/>
	<circle class="chapterCircle0" cx="211.1" cy="78.6" r="2.9"/>
	<circle class="chapterCircle0" cx="211.1" cy="86.9" r="2.9"/>
	<circle class="chapterCircle0" cx="211.1" cy="95.2" r="2.9"/>
	<circle class="chapterCircle0" cx="211.1" cy="103.5" r="2.9"/>
	<circle class="chapterCircle0" cx="211.1" cy="111.7" r="2.9"/>
	<circle class="chapterCircle0" cx="211.1" cy="120" r="2.9"/>
	<circle class="chapterCircle0" cx="211.1" cy="128.3" r="2.9"/>
	<circle class="chapterCircle0" cx="211.1" cy="136.6" r="2.9"/>
	<circle class="chapterCircle0" cx="211.1" cy="144.9" r="2.9"/>
	<circle class="chapterCircle0" cx="211.1" cy="153.1" r="2.9"/>
	<circle class="chapterCircle0" cx="211.1" cy="161.4" r="2.9"/>
	<circle class="chapterCircle0" cx="211.1" cy="169.7" r="2.9"/>
	<circle class="chapterCircle0" cx="211.1" cy="177.9" r="2.9"/>
	<circle class="chapterCircle0" cx="211.1" cy="186.2" r="2.9"/>
	<circle class="chapterCircle0" cx="211.1" cy="194.5" r="2.9"/>
	<circle class="chapterCircle0" cx="211.1" cy="202.8" r="2.9"/>
	<circle class="chapterCircle0" cx="211.1" cy="211.1" r="2.9"/>
	<circle class="chapterCircle0" cx="211.1" cy="219.3" r="2.9"/>
	<circle class="chapterCircle0" cx="211.1" cy="227.6" r="2.9"/>
	<circle class="chapterCircle0" cx="211.1" cy="235.9" r="2.9"/>
	<circle class="chapterCircle0" cx="211.1" cy="244.2" r="2.9"/>
	<circle class="chapterCircle0" cx="211.1" cy="252.4" r="2.9"/>
	<circle class="chapterCircle0" cx="211.1" cy="260.7" r="2.9"/>
	<circle class="chapterCircle0" cx="211.1" cy="269" r="2.9"/>
	<circle class="chapterCircle0" cx="211.1" cy="277.3" r="2.9"/>
	<circle class="chapterCircle0" cx="211.1" cy="285.5" r="2.9"/>
	<circle class="chapterCircle0" cx="211.1" cy="293.8" r="2.9"/>
	<circle class="chapterCircle0" cx="211.1" cy="302.1" r="2.9"/>
	<circle class="chapterCircle0" cx="211.1" cy="310.4" r="2.9"/>
	<circle class="chapterCircle0" cx="211.1" cy="318.7" r="2.9"/>
	<circle class="chapterCircle0" cx="211.1" cy="326.9" r="2.9"/>
	<circle class="chapterCircle0" cx="211.1" cy="335.2" r="2.9"/>
	<circle class="chapterCircle0" cx="211.1" cy="343.5" r="2.9"/>
	<circle class="chapterCircle0" cx="211.1" cy="351.8" r="2.9"/>
	<circle class="chapterCircle0" cx="211.1" cy="360" r="2.9"/>
	<circle class="chapterCircle0" cx="211.1" cy="368.3" r="2.9"/>
	<circle class="chapterCircle0" cx="211.1" cy="376.6" r="2.9"/>
	<circle class="chapterCircle0" cx="211.1" cy="384.9" r="2.9"/>
	<circle class="chapterCircle0" cx="211.1" cy="393.1" r="2.9"/>
	<circle class="chapterCircle0" cx="211.1" cy="401.4" r="2.9"/>
	<circle class="chapterCircle0" cx="211.1" cy="409.7" r="2.9"/>
	<circle class="chapterCircle0" cx="211.1" cy="418" r="2.9"/>
	<circle class="chapterCircle0" cx="211.1" cy="426.3" r="2.9"/>
	<circle class="chapterCircle0" cx="211.1" cy="434.5" r="2.9"/>
	<circle class="chapterCircle0" cx="211.1" cy="442.8" r="2.9"/>
	<circle class="chapterCircle0" cx="202.8" cy="70.3" r="2.9"/>
	<circle class="chapterCircle0" cx="202.8" cy="78.6" r="2.9"/>
	<circle class="chapterCircle0" cx="202.8" cy="86.9" r="2.9"/>
	<circle class="chapterCircle0" cx="202.8" cy="95.2" r="2.9"/>
	<circle class="chapterCircle0" cx="202.8" cy="103.5" r="2.9"/>
	<circle class="chapterCircle0" cx="202.8" cy="111.7" r="2.9"/>
	<circle class="chapterCircle0" cx="202.8" cy="120" r="2.9"/>
	<circle class="chapterCircle0" cx="202.8" cy="128.3" r="2.9"/>
	<circle class="chapterCircle0" cx="202.8" cy="136.6" r="2.9"/>
	<circle class="chapterCircle0" cx="202.8" cy="144.9" r="2.9"/>
	<circle class="chapterCircle0" cx="202.8" cy="153.1" r="2.9"/>
	<circle class="chapterCircle0" cx="202.8" cy="161.4" r="2.9"/>
	<circle class="chapterCircle0" cx="202.8" cy="169.7" r="2.9"/>
	<circle class="chapterCircle0" cx="202.8" cy="177.9" r="2.9"/>
	<circle class="chapterCircle0" cx="202.8" cy="186.2" r="2.9"/>
	<circle class="chapterCircle0" cx="202.8" cy="194.5" r="2.9"/>
	<circle class="chapterCircle0" cx="202.8" cy="202.8" r="2.9"/>
	<circle class="chapterCircle0" cx="202.8" cy="211.1" r="2.9"/>
	<circle class="chapterCircle0" cx="202.8" cy="219.3" r="2.9"/>
	<circle class="chapterCircle0" cx="202.8" cy="227.6" r="2.9"/>
	<circle class="chapterCircle0" cx="202.8" cy="235.9" r="2.9"/>
	<circle class="chapterCircle0" cx="202.8" cy="244.2" r="2.9"/>
	<circle class="chapterCircle0" cx="202.8" cy="252.4" r="2.9"/>
	<circle class="chapterCircle0" cx="202.8" cy="260.7" r="2.9"/>
	<circle class="chapterCircle0" cx="202.8" cy="269" r="2.9"/>
	<circle class="chapterCircle0" cx="202.8" cy="277.3" r="2.9"/>
	<circle class="chapterCircle0" cx="202.8" cy="285.5" r="2.9"/>
	<circle class="chapterCircle0" cx="202.8" cy="293.8" r="2.9"/>
	<circle class="chapterCircle0" cx="202.8" cy="302.1" r="2.9"/>
	<circle class="chapterCircle0" cx="202.8" cy="310.4" r="2.9"/>
	<circle class="chapterCircle0" cx="202.8" cy="318.7" r="2.9"/>
	<circle class="chapterCircle0" cx="202.8" cy="326.9" r="2.9"/>
	<circle class="chapterCircle0" cx="202.8" cy="335.2" r="2.9"/>
	<circle class="chapterCircle0" cx="202.8" cy="343.5" r="2.9"/>
	<circle class="chapterCircle0" cx="202.8" cy="351.8" r="2.9"/>
	<circle class="chapterCircle0" cx="202.8" cy="360" r="2.9"/>
	<circle class="chapterCircle0" cx="202.8" cy="368.3" r="2.9"/>
	<circle class="chapterCircle0" cx="202.8" cy="376.6" r="2.9"/>
	<circle class="chapterCircle0" cx="202.8" cy="384.9" r="2.9"/>
	<circle class="chapterCircle0" cx="202.8" cy="393.1" r="2.9"/>
	<circle class="chapterCircle0" cx="202.8" cy="401.4" r="2.9"/>
	<circle class="chapterCircle0" cx="202.8" cy="409.7" r="2.9"/>
	<circle class="chapterCircle0" cx="202.8" cy="418" r="2.9"/>
	<circle class="chapterCircle0" cx="202.8" cy="426.3" r="2.9"/>
	<circle class="chapterCircle0" cx="202.8" cy="434.5" r="2.9"/>
	<circle class="chapterCircle0" cx="202.8" cy="442.8" r="2.9"/>
	<circle class="chapterCircle0" cx="194.5" cy="78.6" r="2.9"/>
	<circle class="chapterCircle0" cx="194.5" cy="86.9" r="2.9"/>
	<circle class="chapterCircle0" cx="194.5" cy="95.2" r="2.9"/>
	<circle class="chapterCircle0" cx="194.5" cy="103.5" r="2.9"/>
	<circle class="chapterCircle0" cx="194.5" cy="111.7" r="2.9"/>
	<circle class="chapterCircle0" cx="194.5" cy="120" r="2.9"/>
	<circle class="chapterCircle0" cx="194.5" cy="128.3" r="2.9"/>
	<circle class="chapterCircle0" cx="194.5" cy="136.6" r="2.9"/>
	<circle class="chapterCircle0" cx="194.5" cy="144.9" r="2.9"/>
	<circle class="chapterCircle0" cx="194.5" cy="153.1" r="2.9"/>
	<circle class="chapterCircle0" cx="194.5" cy="161.4" r="2.9"/>
	<circle class="chapterCircle0" cx="194.5" cy="169.7" r="2.9"/>
	<circle class="chapterCircle0" cx="194.5" cy="177.9" r="2.9"/>
	<circle class="chapterCircle0" cx="194.5" cy="186.2" r="2.9"/>
	<circle class="chapterCircle0" cx="194.5" cy="194.5" r="2.9"/>
	<circle class="chapterCircle0" cx="194.5" cy="202.8" r="2.9"/>
	<circle class="chapterCircle0" cx="194.5" cy="211.1" r="2.9"/>
	<circle class="chapterCircle0" cx="194.5" cy="219.3" r="2.9"/>
	<circle class="chapterCircle0" cx="194.5" cy="227.6" r="2.9"/>
	<circle class="chapterCircle0" cx="194.5" cy="235.9" r="2.9"/>
	<circle class="chapterCircle0" cx="194.5" cy="244.2" r="2.9"/>
	<circle class="chapterCircle0" cx="194.5" cy="252.4" r="2.9"/>
	<circle class="chapterCircle0" cx="194.5" cy="260.7" r="2.9"/>
	<circle class="chapterCircle0" cx="194.5" cy="269" r="2.9"/>
	<circle class="chapterCircle0" cx="194.5" cy="277.3" r="2.9"/>
	<circle class="chapterCircle0" cx="194.5" cy="285.5" r="2.9"/>
	<circle class="chapterCircle0" cx="194.5" cy="293.8" r="2.9"/>
	<circle class="chapterCircle0" cx="194.5" cy="302.1" r="2.9"/>
	<circle class="chapterCircle0" cx="194.5" cy="310.4" r="2.9"/>
	<circle class="chapterCircle0" cx="194.5" cy="318.7" r="2.9"/>
	<circle class="chapterCircle0" cx="194.5" cy="326.9" r="2.9"/>
	<circle class="chapterCircle0" cx="194.5" cy="335.2" r="2.9"/>
	<circle class="chapterCircle0" cx="194.5" cy="343.5" r="2.9"/>
	<circle class="chapterCircle0" cx="194.5" cy="351.8" r="2.9"/>
	<circle class="chapterCircle0" cx="194.5" cy="360" r="2.9"/>
	<circle class="chapterCircle0" cx="194.5" cy="368.3" r="2.9"/>
	<circle class="chapterCircle0" cx="194.5" cy="376.6" r="2.9"/>
	<circle class="chapterCircle0" cx="194.5" cy="384.9" r="2.9"/>
	<circle class="chapterCircle0" cx="194.5" cy="393.1" r="2.9"/>
	<circle class="chapterCircle0" cx="194.5" cy="401.4" r="2.9"/>
	<circle class="chapterCircle0" cx="194.5" cy="409.7" r="2.9"/>
	<circle class="chapterCircle0" cx="194.5" cy="418" r="2.9"/>
	<circle class="chapterCircle0" cx="194.5" cy="426.3" r="2.9"/>
	<circle class="chapterCircle0" cx="194.5" cy="434.5" r="2.9"/>
	<circle class="chapterCircle0" cx="194.5" cy="442.8" r="2.9"/>
	<circle class="chapterCircle0" cx="194.5" cy="452.5" r="2.9"/>
	<circle class="chapterCircle0" cx="186.2" cy="45.5" r="2.9"/>
	<circle class="chapterCircle0" cx="186.2" cy="78.6" r="2.9"/>
	<circle class="chapterCircle0" cx="186.2" cy="86.9" r="2.9"/>
	<circle class="chapterCircle0" cx="186.2" cy="95.2" r="2.9"/>
	<circle class="chapterCircle0" cx="186.2" cy="103.5" r="2.9"/>
	<circle class="chapterCircle0" cx="186.2" cy="111.7" r="2.9"/>
	<circle class="chapterCircle0" cx="186.2" cy="120" r="2.9"/>
	<circle class="chapterCircle0" cx="186.2" cy="128.3" r="2.9"/>
	<circle class="chapterCircle0" cx="186.2" cy="136.6" r="2.9"/>
	<circle class="chapterCircle0" cx="186.2" cy="144.9" r="2.9"/>
	<circle class="chapterCircle0" cx="186.2" cy="153.1" r="2.9"/>
	<circle class="chapterCircle0" cx="186.2" cy="161.4" r="2.9"/>
	<circle class="chapterCircle0" cx="186.2" cy="169.7" r="2.9"/>
	<circle class="chapterCircle0" cx="186.2" cy="177.9" r="2.9"/>
	<circle class="chapterCircle0" cx="186.2" cy="186.2" r="2.9"/>
	<circle class="chapterCircle0" cx="186.2" cy="194.5" r="2.9"/>
	<circle class="chapterCircle0" cx="186.2" cy="202.8" r="2.9"/>
	<circle class="chapterCircle0" cx="186.2" cy="211.1" r="2.9"/>
	<circle class="chapterCircle0" cx="186.2" cy="219.3" r="2.9"/>
	<circle class="chapterCircle0" cx="186.2" cy="227.6" r="2.9"/>
	<circle class="chapterCircle0" cx="186.2" cy="235.9" r="2.9"/>
	<circle class="chapterCircle0" cx="186.2" cy="244.2" r="2.9"/>
	<circle class="chapterCircle0" cx="186.2" cy="252.4" r="2.9"/>
	<circle class="chapterCircle0" cx="186.2" cy="260.7" r="2.9"/>
	<circle class="chapterCircle0" cx="186.2" cy="269" r="2.9"/>
	<circle class="chapterCircle0" cx="186.2" cy="277.3" r="2.9"/>
	<circle class="chapterCircle0" cx="186.2" cy="285.5" r="2.9"/>
	<circle class="chapterCircle0" cx="186.2" cy="293.8" r="2.9"/>
	<circle class="chapterCircle0" cx="186.2" cy="302.1" r="2.9"/>
	<circle class="chapterCircle0" cx="186.2" cy="310.4" r="2.9"/>
	<circle class="chapterCircle0" cx="186.2" cy="318.7" r="2.9"/>
	<circle class="chapterCircle0" cx="186.2" cy="326.9" r="2.9"/>
	<circle class="chapterCircle0" cx="186.2" cy="335.2" r="2.9"/>
	<circle class="chapterCircle0" cx="186.2" cy="343.5" r="2.9"/>
	<circle class="chapterCircle0" cx="186.2" cy="351.8" r="2.9"/>
	<circle class="chapterCircle0" cx="186.2" cy="360" r="2.9"/>
	<circle class="chapterCircle0" cx="186.2" cy="368.3" r="2.9"/>
	<circle class="chapterCircle0" cx="186.2" cy="376.6" r="2.9"/>
	<circle class="chapterCircle0" cx="186.2" cy="384.9" r="2.9"/>
	<circle class="chapterCircle0" cx="186.2" cy="393.1" r="2.9"/>
	<circle class="chapterCircle0" cx="186.2" cy="401.4" r="2.9"/>
	<circle class="chapterCircle0" cx="186.2" cy="409.7" r="2.9"/>
	<circle class="chapterCircle0" cx="186.2" cy="418" r="2.9"/>
	<circle class="chapterCircle0" cx="186.2" cy="426.3" r="2.9"/>
	<circle class="chapterCircle0" cx="186.2" cy="434.5" r="2.9"/>
	<circle class="chapterCircle0" cx="186.2" cy="442.8" r="2.9"/>
	<circle class="chapterCircle0" cx="186.2" cy="452.5" r="2.9"/>
	<circle class="chapterCircle0" cx="177.9" cy="53.8" r="2.9"/>
	<circle class="chapterCircle0" cx="177.9" cy="62.1" r="2.9"/>
	<circle class="chapterCircle0" cx="177.9" cy="86.9" r="2.9"/>
	<circle class="chapterCircle0" cx="177.9" cy="95.2" r="2.9"/>
	<circle class="chapterCircle0" cx="177.9" cy="103.5" r="2.9"/>
	<circle class="chapterCircle0" cx="177.9" cy="111.7" r="2.9"/>
	<circle class="chapterCircle0" cx="177.9" cy="120" r="2.9"/>
	<circle class="chapterCircle0" cx="177.9" cy="128.3" r="2.9"/>
	<circle class="chapterCircle0" cx="177.9" cy="136.6" r="2.9"/>
	<circle class="chapterCircle0" cx="177.9" cy="144.9" r="2.9"/>
	<circle class="chapterCircle0" cx="177.9" cy="153.1" r="2.9"/>
	<circle class="chapterCircle0" cx="177.9" cy="161.4" r="2.9"/>
	<circle class="chapterCircle0" cx="177.9" cy="169.7" r="2.9"/>
	<circle class="chapterCircle0" cx="177.9" cy="177.9" r="2.9"/>
	<circle class="chapterCircle0" cx="177.9" cy="186.2" r="2.9"/>
	<circle class="chapterCircle0" cx="177.9" cy="194.5" r="2.9"/>
	<circle class="chapterCircle0" cx="177.9" cy="202.8" r="2.9"/>
	<circle class="chapterCircle0" cx="177.9" cy="211.1" r="2.9"/>
	<circle class="chapterCircle0" cx="177.9" cy="219.3" r="2.9"/>
	<circle class="chapterCircle0" cx="177.9" cy="227.6" r="2.9"/>
	<circle class="chapterCircle0" cx="177.9" cy="235.9" r="2.9"/>
	<circle class="chapterCircle0" cx="177.9" cy="244.2" r="2.9"/>
	<circle class="chapterCircle0" cx="177.9" cy="252.4" r="2.9"/>
	<circle class="chapterCircle0" cx="177.9" cy="260.7" r="2.9"/>
	<circle class="chapterCircle0" cx="177.9" cy="269" r="2.9"/>
	<circle class="chapterCircle0" cx="177.9" cy="277.3" r="2.9"/>
	<circle class="chapterCircle0" cx="177.9" cy="285.5" r="2.9"/>
	<circle class="chapterCircle0" cx="177.9" cy="293.8" r="2.9"/>
	<circle class="chapterCircle0" cx="177.9" cy="302.1" r="2.9"/>
	<circle class="chapterCircle0" cx="177.9" cy="310.4" r="2.9"/>
	<circle class="chapterCircle0" cx="177.9" cy="318.7" r="2.9"/>
	<circle class="chapterCircle0" cx="177.9" cy="326.9" r="2.9"/>
	<circle class="chapterCircle0" cx="177.9" cy="335.2" r="2.9"/>
	<circle class="chapterCircle0" cx="177.9" cy="343.5" r="2.9"/>
	<circle class="chapterCircle0" cx="177.9" cy="351.8" r="2.9"/>
	<circle class="chapterCircle0" cx="177.9" cy="360" r="2.9"/>
	<circle class="chapterCircle0" cx="177.9" cy="368.3" r="2.9"/>
	<circle class="chapterCircle0" cx="177.9" cy="376.6" r="2.9"/>
	<circle class="chapterCircle0" cx="177.9" cy="384.9" r="2.9"/>
	<circle class="chapterCircle0" cx="177.9" cy="393.1" r="2.9"/>
	<circle class="chapterCircle0" cx="177.9" cy="401.4" r="2.9"/>
	<circle class="chapterCircle0" cx="177.9" cy="409.7" r="2.9"/>
	<circle class="chapterCircle0" cx="177.9" cy="418" r="2.9"/>
	<circle class="chapterCircle0" cx="177.9" cy="426.3" r="2.9"/>
	<circle class="chapterCircle0" cx="177.9" cy="434.5" r="2.9"/>
	<circle class="chapterCircle0" cx="177.9" cy="442.8" r="2.9"/>
	<circle class="chapterCircle0" cx="177.9" cy="452.5" r="2.9"/>
	<circle class="chapterCircle0" cx="169.7" cy="53.8" r="2.9"/>
	<circle class="chapterCircle0" cx="169.7" cy="62.1" r="2.9"/>
	<circle class="chapterCircle0" cx="169.7" cy="70.3" r="2.9"/>
	<circle class="chapterCircle0" cx="169.7" cy="78.6" r="2.9"/>
	<circle class="chapterCircle0" cx="169.7" cy="86.9" r="2.9"/>
	<circle class="chapterCircle0" cx="169.7" cy="95.2" r="2.9"/>
	<circle class="chapterCircle0" cx="169.7" cy="103.5" r="2.9"/>
	<circle class="chapterCircle0" cx="169.7" cy="111.7" r="2.9"/>
	<circle class="chapterCircle0" cx="169.7" cy="120" r="2.9"/>
	<circle class="chapterCircle0" cx="169.7" cy="128.3" r="2.9"/>
	<circle class="chapterCircle0" cx="169.7" cy="136.6" r="2.9"/>
	<circle class="chapterCircle0" cx="169.7" cy="144.9" r="2.9"/>
	<circle class="chapterCircle0" cx="169.7" cy="153.1" r="2.9"/>
	<circle class="chapterCircle0" cx="169.7" cy="161.4" r="2.9"/>
	<circle class="chapterCircle0" cx="169.7" cy="169.7" r="2.9"/>
	<circle class="chapterCircle0" cx="169.7" cy="177.9" r="2.9"/>
	<circle class="chapterCircle0" cx="169.7" cy="186.2" r="2.9"/>
	<circle class="chapterCircle0" cx="169.7" cy="194.5" r="2.9"/>
	<circle class="chapterCircle0" cx="169.7" cy="202.8" r="2.9"/>
	<circle class="chapterCircle0" cx="169.7" cy="211.1" r="2.9"/>
	<circle class="chapterCircle0" cx="169.7" cy="219.3" r="2.9"/>
	<circle class="chapterCircle0" cx="169.7" cy="227.6" r="2.9"/>
	<circle class="chapterCircle0" cx="169.7" cy="235.9" r="2.9"/>
	<circle class="chapterCircle0" cx="169.7" cy="244.2" r="2.9"/>
	<circle class="chapterCircle0" cx="169.7" cy="252.4" r="2.9"/>
	<circle class="chapterCircle0" cx="169.7" cy="260.7" r="2.9"/>
	<circle class="chapterCircle0" cx="169.7" cy="269" r="2.9"/>
	<circle class="chapterCircle0" cx="169.7" cy="277.3" r="2.9"/>
	<circle class="chapterCircle0" cx="169.7" cy="285.5" r="2.9"/>
	<circle class="chapterCircle0" cx="169.7" cy="293.8" r="2.9"/>
	<circle class="chapterCircle0" cx="169.7" cy="302.1" r="2.9"/>
	<circle class="chapterCircle0" cx="169.7" cy="310.4" r="2.9"/>
	<circle class="chapterCircle0" cx="169.7" cy="318.7" r="2.9"/>
	<circle class="chapterCircle0" cx="169.7" cy="326.9" r="2.9"/>
	<circle class="chapterCircle0" cx="169.7" cy="335.2" r="2.9"/>
	<circle class="chapterCircle0" cx="169.7" cy="343.5" r="2.9"/>
	<circle class="chapterCircle0" cx="169.7" cy="351.8" r="2.9"/>
	<circle class="chapterCircle0" cx="169.7" cy="360" r="2.9"/>
	<circle class="chapterCircle0" cx="169.7" cy="368.3" r="2.9"/>
	<circle class="chapterCircle0" cx="169.7" cy="376.6" r="2.9"/>
	<circle class="chapterCircle0" cx="169.7" cy="384.9" r="2.9"/>
	<circle class="chapterCircle0" cx="169.7" cy="393.1" r="2.9"/>
	<circle class="chapterCircle0" cx="169.7" cy="401.4" r="2.9"/>
	<circle class="chapterCircle0" cx="169.7" cy="409.7" r="2.9"/>
	<circle class="chapterCircle0" cx="169.7" cy="418" r="2.9"/>
	<circle class="chapterCircle0" cx="169.7" cy="426.3" r="2.9"/>
	<circle class="chapterCircle0" cx="169.7" cy="434.5" r="2.9"/>
	<circle class="chapterCircle0" cx="169.7" cy="442.8" r="2.9"/>
	<circle class="chapterCircle0" cx="161.4" cy="53.8" r="2.9"/>
	<circle class="chapterCircle0" cx="161.4" cy="62.1" r="2.9"/>
	<circle class="chapterCircle0" cx="161.4" cy="70.3" r="2.9"/>
	<circle class="chapterCircle0" cx="161.4" cy="78.6" r="2.9"/>
	<circle class="chapterCircle0" cx="161.4" cy="86.9" r="2.9"/>
	<circle class="chapterCircle0" cx="161.4" cy="95.2" r="2.9"/>
	<circle class="chapterCircle0" cx="161.4" cy="103.5" r="2.9"/>
	<circle class="chapterCircle0" cx="161.4" cy="111.7" r="2.9"/>
	<circle class="chapterCircle0" cx="161.4" cy="120" r="2.9"/>
	<circle class="chapterCircle0" cx="161.4" cy="128.3" r="2.9"/>
	<circle class="chapterCircle0" cx="161.4" cy="136.6" r="2.9"/>
	<circle class="chapterCircle0" cx="161.4" cy="144.9" r="2.9"/>
	<circle class="chapterCircle0" cx="161.4" cy="153.1" r="2.9"/>
	<circle class="chapterCircle0" cx="161.4" cy="161.4" r="2.9"/>
	<circle class="chapterCircle0" cx="161.4" cy="169.7" r="2.9"/>
	<circle class="chapterCircle0" cx="161.4" cy="177.9" r="2.9"/>
	<circle class="chapterCircle0" cx="161.4" cy="186.2" r="2.9"/>
	<circle class="chapterCircle0" cx="161.4" cy="194.5" r="2.9"/>
	<circle class="chapterCircle0" cx="161.4" cy="202.8" r="2.9"/>
	<circle class="chapterCircle0" cx="161.4" cy="211.1" r="2.9"/>
	<circle class="chapterCircle0" cx="161.4" cy="219.3" r="2.9"/>
	<circle class="chapterCircle0" cx="161.4" cy="227.6" r="2.9"/>
	<circle class="chapterCircle0" cx="161.4" cy="235.9" r="2.9"/>
	<circle class="chapterCircle0" cx="161.4" cy="244.2" r="2.9"/>
	<circle class="chapterCircle0" cx="161.4" cy="252.4" r="2.9"/>
	<circle class="chapterCircle0" cx="161.4" cy="260.7" r="2.9"/>
	<circle class="chapterCircle0" cx="161.4" cy="269" r="2.9"/>
	<circle class="chapterCircle0" cx="161.4" cy="277.3" r="2.9"/>
	<circle class="chapterCircle0" cx="161.4" cy="285.5" r="2.9"/>
	<circle class="chapterCircle0" cx="161.4" cy="293.8" r="2.9"/>
	<circle class="chapterCircle0" cx="161.4" cy="302.1" r="2.9"/>
	<circle class="chapterCircle0" cx="161.4" cy="310.4" r="2.9"/>
	<circle class="chapterCircle0" cx="161.4" cy="318.7" r="2.9"/>
	<circle class="chapterCircle0" cx="161.4" cy="326.9" r="2.9"/>
	<circle class="chapterCircle0" cx="161.4" cy="335.2" r="2.9"/>
	<circle class="chapterCircle0" cx="161.4" cy="343.5" r="2.9"/>
	<circle class="chapterCircle0" cx="161.4" cy="351.8" r="2.9"/>
	<circle class="chapterCircle0" cx="161.4" cy="360" r="2.9"/>
	<circle class="chapterCircle0" cx="161.4" cy="368.3" r="2.9"/>
	<circle class="chapterCircle0" cx="161.4" cy="376.6" r="2.9"/>
	<circle class="chapterCircle0" cx="161.4" cy="384.9" r="2.9"/>
	<circle class="chapterCircle0" cx="161.4" cy="393.1" r="2.9"/>
	<circle class="chapterCircle0" cx="161.4" cy="401.4" r="2.9"/>
	<circle class="chapterCircle0" cx="161.4" cy="409.7" r="2.9"/>
	<circle class="chapterCircle0" cx="161.4" cy="418" r="2.9"/>
	<circle class="chapterCircle0" cx="161.4" cy="426.3" r="2.9"/>
	<circle class="chapterCircle0" cx="161.4" cy="434.5" r="2.9"/>
	<circle class="chapterCircle0" cx="161.4" cy="442.8" r="2.9"/>
	<circle class="chapterCircle0" cx="153.1" cy="53.8" r="2.9"/>
	<circle class="chapterCircle0" cx="153.1" cy="62.1" r="2.9"/>
	<circle class="chapterCircle0" cx="153.1" cy="70.3" r="2.9"/>
	<circle class="chapterCircle0" cx="153.1" cy="78.6" r="2.9"/>
	<circle class="chapterCircle0" cx="153.1" cy="86.9" r="2.9"/>
	<circle class="chapterCircle0" cx="153.1" cy="95.2" r="2.9"/>
	<circle class="chapterCircle0" cx="153.1" cy="103.5" r="2.9"/>
	<circle class="chapterCircle0" cx="153.1" cy="111.7" r="2.9"/>
	<circle class="chapterCircle0" cx="153.1" cy="120" r="2.9"/>
	<circle class="chapterCircle0" cx="153.1" cy="128.3" r="2.9"/>
	<circle class="chapterCircle0" cx="153.1" cy="136.6" r="2.9"/>
	<circle class="chapterCircle0" cx="153.1" cy="144.9" r="2.9"/>
	<circle class="chapterCircle0" cx="153.1" cy="153.1" r="2.9"/>
	<circle class="chapterCircle0" cx="153.1" cy="161.4" r="2.9"/>
	<circle class="chapterCircle0" cx="153.1" cy="169.7" r="2.9"/>
	<circle class="chapterCircle0" cx="153.1" cy="177.9" r="2.9"/>
	<circle class="chapterCircle0" cx="153.1" cy="186.2" r="2.9"/>
	<circle class="chapterCircle0" cx="153.1" cy="194.5" r="2.9"/>
	<circle class="chapterCircle0" cx="153.1" cy="202.8" r="2.9"/>
	<circle class="chapterCircle0" cx="153.1" cy="211.1" r="2.9"/>
	<circle class="chapterCircle0" cx="153.1" cy="219.3" r="2.9"/>
	<circle class="chapterCircle0" cx="153.1" cy="227.6" r="2.9"/>
	<circle class="chapterCircle0" cx="153.1" cy="235.9" r="2.9"/>
	<circle class="chapterCircle0" cx="153.1" cy="244.2" r="2.9"/>
	<circle class="chapterCircle0" cx="153.1" cy="252.4" r="2.9"/>
	<circle class="chapterCircle0" cx="153.1" cy="260.7" r="2.9"/>
	<circle class="chapterCircle0" cx="153.1" cy="269" r="2.9"/>
	<circle class="chapterCircle0" cx="153.1" cy="277.3" r="2.9"/>
	<circle class="chapterCircle0" cx="153.1" cy="285.5" r="2.9"/>
	<circle class="chapterCircle0" cx="153.1" cy="293.8" r="2.9"/>
	<circle class="chapterCircle0" cx="153.1" cy="302.1" r="2.9"/>
	<circle class="chapterCircle0" cx="153.1" cy="310.4" r="2.9"/>
	<circle class="chapterCircle0" cx="153.1" cy="318.7" r="2.9"/>
	<circle class="chapterCircle0" cx="153.1" cy="326.9" r="2.9"/>
	<circle class="chapterCircle0" cx="153.1" cy="335.2" r="2.9"/>
	<circle class="chapterCircle0" cx="153.1" cy="343.5" r="2.9"/>
	<circle class="chapterCircle0" cx="153.1" cy="351.8" r="2.9"/>
	<circle class="chapterCircle0" cx="153.1" cy="360" r="2.9"/>
	<circle class="chapterCircle0" cx="153.1" cy="368.3" r="2.9"/>
	<circle class="chapterCircle0" cx="153.1" cy="376.6" r="2.9"/>
	<circle class="chapterCircle0" cx="153.1" cy="384.9" r="2.9"/>
	<circle class="chapterCircle0" cx="153.1" cy="393.1" r="2.9"/>
	<circle class="chapterCircle0" cx="153.1" cy="401.4" r="2.9"/>
	<circle class="chapterCircle0" cx="153.1" cy="409.7" r="2.9"/>
	<circle class="chapterCircle0" cx="153.1" cy="418" r="2.9"/>
	<circle class="chapterCircle0" cx="153.1" cy="426.3" r="2.9"/>
	<circle class="chapterCircle0" cx="153.1" cy="434.5" r="2.9"/>
	<circle class="chapterCircle0" cx="153.1" cy="442.8" r="2.9"/>
	<circle class="chapterCircle0" cx="144.9" cy="29" r="2.9"/>
	<circle class="chapterCircle0" cx="144.9" cy="37.2" r="2.9"/>
	<circle class="chapterCircle0" cx="144.9" cy="45.5" r="2.9"/>
	<circle class="chapterCircle0" cx="144.9" cy="53.8" r="2.9"/>
	<circle class="chapterCircle0" cx="144.9" cy="62.1" r="2.9"/>
	<circle class="chapterCircle0" cx="144.9" cy="70.3" r="2.9"/>
	<circle class="chapterCircle0" cx="144.9" cy="78.6" r="2.9"/>
	<circle class="chapterCircle0" cx="144.9" cy="86.9" r="2.9"/>
	<circle class="chapterCircle0" cx="144.9" cy="95.2" r="2.9"/>
	<circle class="chapterCircle0" cx="144.9" cy="103.5" r="2.9"/>
	<circle class="chapterCircle0" cx="144.9" cy="111.7" r="2.9"/>
	<circle class="chapterCircle0" cx="144.9" cy="120" r="2.9"/>
	<circle class="chapterCircle0" cx="144.9" cy="128.3" r="2.9"/>
	<circle class="chapterCircle0" cx="144.9" cy="136.6" r="2.9"/>
	<circle class="chapterCircle0" cx="144.9" cy="144.9" r="2.9"/>
	<circle class="chapterCircle0" cx="144.9" cy="153.1" r="2.9"/>
	<circle class="chapterCircle0" cx="144.9" cy="161.4" r="2.9"/>
	<circle class="chapterCircle0" cx="144.9" cy="169.7" r="2.9"/>
	<circle class="chapterCircle0" cx="144.9" cy="177.9" r="2.9"/>
	<circle class="chapterCircle0" cx="144.9" cy="186.2" r="2.9"/>
	<circle class="chapterCircle0" cx="144.9" cy="194.5" r="2.9"/>
	<circle class="chapterCircle0" cx="144.9" cy="202.8" r="2.9"/>
	<circle class="chapterCircle0" cx="144.9" cy="211.1" r="2.9"/>
	<circle class="chapterCircle0" cx="144.9" cy="219.3" r="2.9"/>
	<circle class="chapterCircle0" cx="144.9" cy="227.6" r="2.9"/>
	<circle class="chapterCircle0" cx="144.9" cy="235.9" r="2.9"/>
	<circle class="chapterCircle0" cx="144.9" cy="244.2" r="2.9"/>
	<circle class="chapterCircle0" cx="144.9" cy="252.4" r="2.9"/>
	<circle class="chapterCircle0" cx="144.9" cy="260.7" r="2.9"/>
	<circle class="chapterCircle0" cx="144.9" cy="269" r="2.9"/>
	<circle class="chapterCircle0" cx="144.9" cy="277.3" r="2.9"/>
	<circle class="chapterCircle0" cx="144.9" cy="285.5" r="2.9"/>
	<circle class="chapterCircle0" cx="144.9" cy="293.8" r="2.9"/>
	<circle class="chapterCircle0" cx="144.9" cy="302.1" r="2.9"/>
	<circle class="chapterCircle0" cx="144.9" cy="310.4" r="2.9"/>
	<circle class="chapterCircle0" cx="144.9" cy="318.7" r="2.9"/>
	<circle class="chapterCircle0" cx="144.9" cy="326.9" r="2.9"/>
	<circle class="chapterCircle0" cx="144.9" cy="335.2" r="2.9"/>
	<circle class="chapterCircle0" cx="144.9" cy="343.5" r="2.9"/>
	<circle class="chapterCircle0" cx="144.9" cy="351.8" r="2.9"/>
	<circle class="chapterCircle0" cx="144.9" cy="360" r="2.9"/>
	<circle class="chapterCircle0" cx="144.9" cy="368.3" r="2.9"/>
	<circle class="chapterCircle0" cx="144.9" cy="376.6" r="2.9"/>
	<circle class="chapterCircle0" cx="144.9" cy="384.9" r="2.9"/>
	<circle class="chapterCircle0" cx="144.9" cy="393.1" r="2.9"/>
	<circle class="chapterCircle0" cx="144.9" cy="401.4" r="2.9"/>
	<circle class="chapterCircle0" cx="144.9" cy="409.7" r="2.9"/>
	<circle class="chapterCircle0" cx="144.9" cy="418" r="2.9"/>
	<circle class="chapterCircle0" cx="144.9" cy="426.3" r="2.9"/>
	<circle class="chapterCircle0" cx="144.9" cy="434.5" r="2.9"/>
	<circle class="chapterCircle0" cx="144.9" cy="442.8" r="2.9"/>
	<circle class="chapterCircle0" cx="144.9" cy="452.5" r="2.9"/>
	<circle class="chapterCircle0" cx="136.6" cy="29" r="2.9"/>
	<circle class="chapterCircle0" cx="136.6" cy="37.2" r="2.9"/>
	<circle class="chapterCircle0" cx="136.6" cy="45.5" r="2.9"/>
	<circle class="chapterCircle0" cx="136.6" cy="53.8" r="2.9"/>
	<circle class="chapterCircle0" cx="136.6" cy="62.1" r="2.9"/>
	<circle class="chapterCircle0" cx="136.6" cy="70.3" r="2.9"/>
	<circle class="chapterCircle0" cx="136.6" cy="78.6" r="2.9"/>
	<circle class="chapterCircle0" cx="136.6" cy="86.9" r="2.9"/>
	<circle class="chapterCircle0" cx="136.6" cy="95.2" r="2.9"/>
	<circle class="chapterCircle0" cx="136.6" cy="103.5" r="2.9"/>
	<circle class="chapterCircle0" cx="136.6" cy="111.7" r="2.9"/>
	<circle class="chapterCircle0" cx="136.6" cy="120" r="2.9"/>
	<circle class="chapterCircle0" cx="136.6" cy="128.3" r="2.9"/>
	<circle class="chapterCircle0" cx="136.6" cy="136.6" r="2.9"/>
	<circle class="chapterCircle0" cx="136.6" cy="144.9" r="2.9"/>
	<circle class="chapterCircle0" cx="136.6" cy="153.1" r="2.9"/>
	<circle class="chapterCircle0" cx="136.6" cy="161.4" r="2.9"/>
	<circle class="chapterCircle0" cx="136.6" cy="169.7" r="2.9"/>
	<circle class="chapterCircle0" cx="136.6" cy="177.9" r="2.9"/>
	<circle class="chapterCircle0" cx="136.6" cy="186.2" r="2.9"/>
	<circle class="chapterCircle0" cx="136.6" cy="194.5" r="2.9"/>
	<circle class="chapterCircle0" cx="136.6" cy="202.8" r="2.9"/>
	<circle class="chapterCircle0" cx="136.6" cy="211.1" r="2.9"/>
	<circle class="chapterCircle0" cx="136.6" cy="219.3" r="2.9"/>
	<circle class="chapterCircle0" cx="136.6" cy="227.6" r="2.9"/>
	<circle class="chapterCircle0" cx="136.6" cy="235.9" r="2.9"/>
	<circle class="chapterCircle0" cx="136.6" cy="244.2" r="2.9"/>
	<circle class="chapterCircle0" cx="136.6" cy="252.4" r="2.9"/>
	<circle class="chapterCircle0" cx="136.6" cy="260.7" r="2.9"/>
	<circle class="chapterCircle0" cx="136.6" cy="269" r="2.9"/>
	<circle class="chapterCircle0" cx="136.6" cy="277.3" r="2.9"/>
	<circle class="chapterCircle0" cx="136.6" cy="285.5" r="2.9"/>
	<circle class="chapterCircle0" cx="136.6" cy="293.8" r="2.9"/>
	<circle class="chapterCircle0" cx="136.6" cy="302.1" r="2.9"/>
	<circle class="chapterCircle0" cx="136.6" cy="310.4" r="2.9"/>
	<circle class="chapterCircle0" cx="136.6" cy="318.7" r="2.9"/>
	<circle class="chapterCircle0" cx="136.6" cy="326.9" r="2.9"/>
	<circle class="chapterCircle0" cx="136.6" cy="335.2" r="2.9"/>
	<circle class="chapterCircle0" cx="136.6" cy="343.5" r="2.9"/>
	<circle class="chapterCircle0" cx="136.6" cy="351.8" r="2.9"/>
	<circle class="chapterCircle0" cx="136.6" cy="360" r="2.9"/>
	<circle class="chapterCircle0" cx="136.6" cy="368.3" r="2.9"/>
	<circle class="chapterCircle0" cx="136.6" cy="376.6" r="2.9"/>
	<circle class="chapterCircle0" cx="136.6" cy="384.9" r="2.9"/>
	<circle class="chapterCircle0" cx="136.6" cy="393.1" r="2.9"/>
	<circle class="chapterCircle0" cx="136.6" cy="401.4" r="2.9"/>
	<circle class="chapterCircle0" cx="136.6" cy="409.7" r="2.9"/>
	<circle class="chapterCircle0" cx="136.6" cy="418" r="2.9"/>
	<circle class="chapterCircle0" cx="136.6" cy="426.3" r="2.9"/>
	<circle class="chapterCircle0" cx="136.6" cy="434.5" r="2.9"/>
	<circle class="chapterCircle0" cx="136.6" cy="442.8" r="2.9"/>
	<circle class="chapterCircle0" cx="128.3" cy="29" r="2.9"/>
	<circle class="chapterCircle0" cx="128.3" cy="37.2" r="2.9"/>
	<circle class="chapterCircle0" cx="128.3" cy="45.5" r="2.9"/>
	<circle class="chapterCircle0" cx="128.3" cy="53.8" r="2.9"/>
	<circle class="chapterCircle0" cx="128.3" cy="62.1" r="2.9"/>
	<circle class="chapterCircle0" cx="128.3" cy="70.3" r="2.9"/>
	<circle class="chapterCircle0" cx="128.3" cy="78.6" r="2.9"/>
	<circle class="chapterCircle0" cx="128.3" cy="86.9" r="2.9"/>
	<circle class="chapterCircle0" cx="128.3" cy="95.2" r="2.9"/>
	<circle class="chapterCircle0" cx="128.3" cy="103.5" r="2.9"/>
	<circle class="chapterCircle0" cx="128.3" cy="111.7" r="2.9"/>
	<circle class="chapterCircle0" cx="128.3" cy="120" r="2.9"/>
	<circle class="chapterCircle0" cx="128.3" cy="128.3" r="2.9"/>
	<circle class="chapterCircle0" cx="128.3" cy="136.6" r="2.9"/>
	<circle class="chapterCircle0" cx="128.3" cy="144.9" r="2.9"/>
	<circle class="chapterCircle0" cx="128.3" cy="153.1" r="2.9"/>
	<circle class="chapterCircle0" cx="128.3" cy="161.4" r="2.9"/>
	<circle class="chapterCircle0" cx="128.3" cy="169.7" r="2.9"/>
	<circle class="chapterCircle0" cx="128.3" cy="177.9" r="2.9"/>
	<circle class="chapterCircle0" cx="128.3" cy="186.2" r="2.9"/>
	<circle class="chapterCircle0" cx="128.3" cy="194.5" r="2.9"/>
	<circle class="chapterCircle0" cx="128.3" cy="202.8" r="2.9"/>
	<circle class="chapterCircle0" cx="128.3" cy="211.1" r="2.9"/>
	<circle class="chapterCircle0" cx="128.3" cy="219.3" r="2.9"/>
	<circle class="chapterCircle0" cx="128.3" cy="227.6" r="2.9"/>
	<circle class="chapterCircle0" cx="128.3" cy="235.9" r="2.9"/>
	<circle class="chapterCircle0" cx="128.3" cy="244.2" r="2.9"/>
	<circle class="chapterCircle0" cx="128.3" cy="252.4" r="2.9"/>
	<circle class="chapterCircle0" cx="128.3" cy="260.7" r="2.9"/>
	<circle class="chapterCircle0" cx="128.3" cy="269" r="2.9"/>
	<circle class="chapterCircle0" cx="128.3" cy="277.3" r="2.9"/>
	<circle class="chapterCircle0" cx="128.3" cy="285.5" r="2.9"/>
	<circle class="chapterCircle0" cx="128.3" cy="293.8" r="2.9"/>
	<circle class="chapterCircle0" cx="128.3" cy="302.1" r="2.9"/>
	<circle class="chapterCircle0" cx="128.3" cy="310.4" r="2.9"/>
	<circle class="chapterCircle0" cx="128.3" cy="318.7" r="2.9"/>
	<circle class="chapterCircle0" cx="128.3" cy="326.9" r="2.9"/>
	<circle class="chapterCircle0" cx="128.3" cy="335.2" r="2.9"/>
	<circle class="chapterCircle0" cx="128.3" cy="343.5" r="2.9"/>
	<circle class="chapterCircle0" cx="128.3" cy="351.8" r="2.9"/>
	<circle class="chapterCircle0" cx="128.3" cy="360" r="2.9"/>
	<circle class="chapterCircle0" cx="128.3" cy="368.3" r="2.9"/>
	<circle class="chapterCircle0" cx="128.3" cy="376.6" r="2.9"/>
	<circle class="chapterCircle0" cx="128.3" cy="384.9" r="2.9"/>
	<circle class="chapterCircle0" cx="128.3" cy="393.1" r="2.9"/>
	<circle class="chapterCircle0" cx="128.3" cy="401.4" r="2.9"/>
	<circle class="chapterCircle0" cx="128.3" cy="409.7" r="2.9"/>
	<circle class="chapterCircle0" cx="128.3" cy="418" r="2.9"/>
	<circle class="chapterCircle0" cx="128.3" cy="426.3" r="2.9"/>
	<circle class="chapterCircle0" cx="128.3" cy="434.5" r="2.9"/>
	<circle class="chapterCircle0" cx="128.3" cy="442.8" r="2.9"/>
	<circle class="chapterCircle0" cx="120" cy="29" r="2.9"/>
	<circle class="chapterCircle0" cx="120" cy="37.2" r="2.9"/>
	<circle class="chapterCircle0" cx="120" cy="45.5" r="2.9"/>
	<circle class="chapterCircle0" cx="120" cy="53.8" r="2.9"/>
	<circle class="chapterCircle0" cx="120" cy="62.1" r="2.9"/>
	<circle class="chapterCircle0" cx="120" cy="70.3" r="2.9"/>
	<circle class="chapterCircle0" cx="120" cy="78.6" r="2.9"/>
	<circle class="chapterCircle0" cx="120" cy="86.9" r="2.9"/>
	<circle class="chapterCircle0" cx="120" cy="95.2" r="2.9"/>
	<circle class="chapterCircle0" cx="120" cy="103.5" r="2.9"/>
	<circle class="chapterCircle0" cx="120" cy="111.7" r="2.9"/>
	<circle class="chapterCircle0" cx="120" cy="120" r="2.9"/>
	<circle class="chapterCircle0" cx="120" cy="128.3" r="2.9"/>
	<circle class="chapterCircle0" cx="120" cy="136.6" r="2.9"/>
	<circle class="chapterCircle0" cx="120" cy="144.9" r="2.9"/>
	<circle class="chapterCircle0" cx="120" cy="153.1" r="2.9"/>
	<circle class="chapterCircle0" cx="120" cy="161.4" r="2.9"/>
	<circle class="chapterCircle0" cx="120" cy="169.7" r="2.9"/>
	<circle class="chapterCircle0" cx="120" cy="177.9" r="2.9"/>
	<circle class="chapterCircle0" cx="120" cy="186.2" r="2.9"/>
	<circle class="chapterCircle0" cx="120" cy="194.5" r="2.9"/>
	<circle class="chapterCircle0" cx="120" cy="202.8" r="2.9"/>
	<circle class="chapterCircle0" cx="120" cy="211.1" r="2.9"/>
	<circle class="chapterCircle0" cx="120" cy="219.3" r="2.9"/>
	<circle class="chapterCircle0" cx="120" cy="227.6" r="2.9"/>
	<circle class="chapterCircle0" cx="120" cy="235.9" r="2.9"/>
	<circle class="chapterCircle0" cx="120" cy="244.2" r="2.9"/>
	<circle class="chapterCircle0" cx="120" cy="252.4" r="2.9"/>
	<circle class="chapterCircle0" cx="120" cy="260.7" r="2.9"/>
	<circle class="chapterCircle0" cx="120" cy="269" r="2.9"/>
	<circle class="chapterCircle0" cx="120" cy="277.3" r="2.9"/>
	<circle class="chapterCircle0" cx="120" cy="285.5" r="2.9"/>
	<circle class="chapterCircle0" cx="120" cy="293.8" r="2.9"/>
	<circle class="chapterCircle0" cx="120" cy="302.1" r="2.9"/>
	<circle class="chapterCircle0" cx="120" cy="310.4" r="2.9"/>
	<circle class="chapterCircle0" cx="120" cy="318.7" r="2.9"/>
	<circle class="chapterCircle0" cx="120" cy="326.9" r="2.9"/>
	<circle class="chapterCircle0" cx="120" cy="335.2" r="2.9"/>
	<circle class="chapterCircle0" cx="120" cy="343.5" r="2.9"/>
	<circle class="chapterCircle0" cx="120" cy="351.8" r="2.9"/>
	<circle class="chapterCircle0" cx="120" cy="360" r="2.9"/>
	<circle class="chapterCircle0" cx="120" cy="368.3" r="2.9"/>
	<circle class="chapterCircle0" cx="120" cy="376.6" r="2.9"/>
	<circle class="chapterCircle0" cx="120" cy="384.9" r="2.9"/>
	<circle class="chapterCircle0" cx="120" cy="393.1" r="2.9"/>
	<circle class="chapterCircle0" cx="120" cy="401.4" r="2.9"/>
	<circle class="chapterCircle0" cx="120" cy="409.7" r="2.9"/>
	<circle class="chapterCircle0" cx="120" cy="418" r="2.9"/>
	<circle class="chapterCircle0" cx="120" cy="426.3" r="2.9"/>
	<circle class="chapterCircle0" cx="120" cy="434.5" r="2.9"/>
	<circle class="chapterCircle0" cx="111.7" cy="20.7" r="2.9"/>
	<circle class="chapterCircle0" cx="111.7" cy="29" r="2.9"/>
	<circle class="chapterCircle0" cx="111.7" cy="37.2" r="2.9"/>
	<circle class="chapterCircle0" cx="111.7" cy="45.5" r="2.9"/>
	<circle class="chapterCircle0" cx="111.7" cy="53.8" r="2.9"/>
	<circle class="chapterCircle0" cx="111.7" cy="62.1" r="2.9"/>
	<circle class="chapterCircle0" cx="111.7" cy="86.9" r="2.9"/>
	<circle class="chapterCircle0" cx="111.7" cy="95.2" r="2.9"/>
	<circle class="chapterCircle0" cx="111.7" cy="103.5" r="2.9"/>
	<circle class="chapterCircle0" cx="111.7" cy="111.7" r="2.9"/>
	<circle class="chapterCircle0" cx="111.7" cy="120" r="2.9"/>
	<circle class="chapterCircle0" cx="111.7" cy="128.3" r="2.9"/>
	<circle class="chapterCircle0" cx="111.7" cy="136.6" r="2.9"/>
	<circle class="chapterCircle0" cx="111.7" cy="144.9" r="2.9"/>
	<circle class="chapterCircle0" cx="111.7" cy="153.1" r="2.9"/>
	<circle class="chapterCircle0" cx="111.7" cy="161.4" r="2.9"/>
	<circle class="chapterCircle0" cx="111.7" cy="169.7" r="2.9"/>
	<circle class="chapterCircle0" cx="111.7" cy="177.9" r="2.9"/>
	<circle class="chapterCircle0" cx="111.7" cy="186.2" r="2.9"/>
	<circle class="chapterCircle0" cx="111.7" cy="194.5" r="2.9"/>
	<circle class="chapterCircle0" cx="111.7" cy="202.8" r="2.9"/>
	<circle class="chapterCircle0" cx="111.7" cy="211.1" r="2.9"/>
	<circle class="chapterCircle0" cx="111.7" cy="219.3" r="2.9"/>
	<circle class="chapterCircle0" cx="111.7" cy="227.6" r="2.9"/>
	<circle class="chapterCircle0" cx="111.7" cy="235.9" r="2.9"/>
	<circle class="chapterCircle0" cx="111.7" cy="244.2" r="2.9"/>
	<circle class="chapterCircle0" cx="111.7" cy="252.4" r="2.9"/>
	<circle class="chapterCircle0" cx="111.7" cy="260.7" r="2.9"/>
	<circle class="chapterCircle0" cx="111.7" cy="269" r="2.9"/>
	<circle class="chapterCircle0" cx="111.7" cy="277.3" r="2.9"/>
	<circle class="chapterCircle0" cx="111.7" cy="285.5" r="2.9"/>
	<circle class="chapterCircle0" cx="111.7" cy="293.8" r="2.9"/>
	<circle class="chapterCircle0" cx="111.7" cy="302.1" r="2.9"/>
	<circle class="chapterCircle0" cx="111.7" cy="310.4" r="2.9"/>
	<circle class="chapterCircle0" cx="111.7" cy="318.7" r="2.9"/>
	<circle class="chapterCircle0" cx="111.7" cy="326.9" r="2.9"/>
	<circle class="chapterCircle0" cx="111.7" cy="335.2" r="2.9"/>
	<circle class="chapterCircle0" cx="111.7" cy="343.5" r="2.9"/>
	<circle class="chapterCircle0" cx="111.7" cy="351.8" r="2.9"/>
	<circle class="chapterCircle0" cx="111.7" cy="360" r="2.9"/>
	<circle class="chapterCircle0" cx="111.7" cy="368.3" r="2.9"/>
	<circle class="chapterCircle0" cx="111.7" cy="376.6" r="2.9"/>
	<circle class="chapterCircle0" cx="111.7" cy="384.9" r="2.9"/>
	<circle class="chapterCircle0" cx="111.7" cy="393.1" r="2.9"/>
	<circle class="chapterCircle0" cx="111.7" cy="401.4" r="2.9"/>
	<circle class="chapterCircle0" cx="111.7" cy="409.7" r="2.9"/>
	<circle class="chapterCircle0" cx="111.7" cy="418" r="2.9"/>
	<circle class="chapterCircle0" cx="111.7" cy="426.3" r="2.9"/>
	<circle class="chapterCircle0" cx="111.7" cy="434.5" r="2.9"/>
	<circle class="chapterCircle0" cx="103.5" cy="20.7" r="2.9"/>
	<circle class="chapterCircle0" cx="103.5" cy="53.8" r="2.9"/>
	<circle class="chapterCircle0" cx="103.5" cy="86.9" r="2.9"/>
	<circle class="chapterCircle0" cx="103.5" cy="95.2" r="2.9"/>
	<circle class="chapterCircle0" cx="103.5" cy="103.5" r="2.9"/>
	<circle class="chapterCircle0" cx="103.5" cy="111.7" r="2.9"/>
	<circle class="chapterCircle0" cx="103.5" cy="120" r="2.9"/>
	<circle class="chapterCircle0" cx="103.5" cy="128.3" r="2.9"/>
	<circle class="chapterCircle0" cx="103.5" cy="136.6" r="2.9"/>
	<circle class="chapterCircle0" cx="103.5" cy="144.9" r="2.9"/>
	<circle class="chapterCircle0" cx="103.5" cy="153.1" r="2.9"/>
	<circle class="chapterCircle0" cx="103.5" cy="161.4" r="2.9"/>
	<circle class="chapterCircle0" cx="103.5" cy="169.7" r="2.9"/>
	<circle class="chapterCircle0" cx="103.5" cy="177.9" r="2.9"/>
	<circle class="chapterCircle0" cx="103.5" cy="186.2" r="2.9"/>
	<circle class="chapterCircle0" cx="103.5" cy="194.5" r="2.9"/>
	<circle class="chapterCircle0" cx="103.5" cy="202.8" r="2.9"/>
	<circle class="chapterCircle0" cx="103.5" cy="211.1" r="2.9"/>
	<circle class="chapterCircle0" cx="103.5" cy="219.3" r="2.9"/>
	<circle class="chapterCircle0" cx="103.5" cy="227.6" r="2.9"/>
	<circle class="chapterCircle0" cx="103.5" cy="235.9" r="2.9"/>
	<circle class="chapterCircle0" cx="103.5" cy="244.2" r="2.9"/>
	<circle class="chapterCircle0" cx="103.5" cy="252.4" r="2.9"/>
	<circle class="chapterCircle0" cx="103.5" cy="260.7" r="2.9"/>
	<circle class="chapterCircle0" cx="103.5" cy="269" r="2.9"/>
	<circle class="chapterCircle0" cx="103.5" cy="277.3" r="2.9"/>
	<circle class="chapterCircle0" cx="103.5" cy="285.5" r="2.9"/>
	<circle class="chapterCircle0" cx="103.5" cy="293.8" r="2.9"/>
	<circle class="chapterCircle0" cx="103.5" cy="302.1" r="2.9"/>
	<circle class="chapterCircle0" cx="103.5" cy="310.4" r="2.9"/>
	<circle class="chapterCircle0" cx="103.5" cy="318.7" r="2.9"/>
	<circle class="chapterCircle0" cx="103.5" cy="326.9" r="2.9"/>
	<circle class="chapterCircle0" cx="103.5" cy="335.2" r="2.9"/>
	<circle class="chapterCircle0" cx="103.5" cy="343.5" r="2.9"/>
	<circle class="chapterCircle0" cx="103.5" cy="351.8" r="2.9"/>
	<circle class="chapterCircle0" cx="103.5" cy="360" r="2.9"/>
	<circle class="chapterCircle0" cx="103.5" cy="368.3" r="2.9"/>
	<circle class="chapterCircle0" cx="103.5" cy="376.6" r="2.9"/>
	<circle class="chapterCircle0" cx="103.5" cy="384.9" r="2.9"/>
	<circle class="chapterCircle0" cx="103.5" cy="393.1" r="2.9"/>
	<circle class="chapterCircle0" cx="103.5" cy="401.4" r="2.9"/>
	<circle class="chapterCircle0" cx="103.5" cy="409.7" r="2.9"/>
	<circle class="chapterCircle0" cx="103.5" cy="418" r="2.9"/>
	<circle class="chapterCircle0" cx="103.5" cy="426.3" r="2.9"/>
	<circle class="chapterCircle0" cx="103.5" cy="434.5" r="2.9"/>
	<circle class="chapterCircle0" cx="95.2" cy="20.7" r="2.9"/>
	<circle class="chapterCircle0" cx="95.2" cy="95.2" r="2.9"/>
	<circle class="chapterCircle0" cx="95.2" cy="103.5" r="2.9"/>
	<circle class="chapterCircle0" cx="95.2" cy="111.7" r="2.9"/>
	<circle class="chapterCircle0" cx="95.2" cy="120" r="2.9"/>
	<circle class="chapterCircle0" cx="95.2" cy="128.3" r="2.9"/>
	<circle class="chapterCircle0" cx="95.2" cy="136.6" r="2.9"/>
	<circle class="chapterCircle0" cx="95.2" cy="144.9" r="2.9"/>
	<circle class="chapterCircle0" cx="95.2" cy="153.1" r="2.9"/>
	<circle class="chapterCircle0" cx="95.2" cy="161.4" r="2.9"/>
	<circle class="chapterCircle0" cx="95.2" cy="169.7" r="2.9"/>
	<circle class="chapterCircle0" cx="95.2" cy="177.9" r="2.9"/>
	<circle class="chapterCircle0" cx="95.2" cy="186.2" r="2.9"/>
	<circle class="chapterCircle0" cx="95.2" cy="194.5" r="2.9"/>
	<circle class="chapterCircle0" cx="95.2" cy="202.8" r="2.9"/>
	<circle class="chapterCircle0" cx="95.2" cy="211.1" r="2.9"/>
	<circle class="chapterCircle0" cx="95.2" cy="219.3" r="2.9"/>
	<circle class="chapterCircle0" cx="95.2" cy="227.6" r="2.9"/>
	<circle class="chapterCircle0" cx="95.2" cy="235.9" r="2.9"/>
	<circle class="chapterCircle0" cx="95.2" cy="244.2" r="2.9"/>
	<circle class="chapterCircle0" cx="95.2" cy="252.4" r="2.9"/>
	<circle class="chapterCircle0" cx="95.2" cy="260.7" r="2.9"/>
	<circle class="chapterCircle0" cx="95.2" cy="269" r="2.9"/>
	<circle class="chapterCircle0" cx="95.2" cy="277.3" r="2.9"/>
	<circle class="chapterCircle0" cx="95.2" cy="285.5" r="2.9"/>
	<circle class="chapterCircle0" cx="95.2" cy="293.8" r="2.9"/>
	<circle class="chapterCircle0" cx="95.2" cy="302.1" r="2.9"/>
	<circle class="chapterCircle0" cx="95.2" cy="310.4" r="2.9"/>
	<circle class="chapterCircle0" cx="95.2" cy="318.7" r="2.9"/>
	<circle class="chapterCircle0" cx="95.2" cy="326.9" r="2.9"/>
	<circle class="chapterCircle0" cx="95.2" cy="335.2" r="2.9"/>
	<circle class="chapterCircle0" cx="95.2" cy="343.5" r="2.9"/>
	<circle class="chapterCircle0" cx="95.2" cy="351.8" r="2.9"/>
	<circle class="chapterCircle0" cx="95.2" cy="360" r="2.9"/>
	<circle class="chapterCircle0" cx="95.2" cy="368.3" r="2.9"/>
	<circle class="chapterCircle0" cx="95.2" cy="376.6" r="2.9"/>
	<circle class="chapterCircle0" cx="95.2" cy="384.9" r="2.9"/>
	<circle class="chapterCircle0" cx="95.2" cy="393.1" r="2.9"/>
	<circle class="chapterCircle0" cx="95.2" cy="401.4" r="2.9"/>
	<circle class="chapterCircle0" cx="95.2" cy="409.7" r="2.9"/>
	<circle class="chapterCircle0" cx="95.2" cy="418" r="2.9"/>
	<circle class="chapterCircle0" cx="95.2" cy="426.3" r="2.9"/>
	<circle class="chapterCircle0" cx="95.2" cy="434.5" r="2.9"/>
	<circle class="chapterCircle0" cx="95.2" cy="12.4" r="2.9"/>
	<circle class="chapterCircle0" cx="86.9" cy="111.7" r="2.9"/>
	<circle class="chapterCircle0" cx="86.9" cy="120" r="2.9"/>
	<circle class="chapterCircle0" cx="86.9" cy="128.3" r="2.9"/>
	<circle class="chapterCircle0" cx="86.9" cy="136.6" r="2.9"/>
	<circle class="chapterCircle0" cx="86.9" cy="144.9" r="2.9"/>
	<circle class="chapterCircle0" cx="86.9" cy="153.1" r="2.9"/>
	<circle class="chapterCircle0" cx="86.9" cy="161.4" r="2.9"/>
	<circle class="chapterCircle0" cx="86.9" cy="169.7" r="2.9"/>
	<circle class="chapterCircle0" cx="86.9" cy="177.9" r="2.9"/>
	<circle class="chapterCircle0" cx="86.9" cy="186.2" r="2.9"/>
	<circle class="chapterCircle0" cx="86.9" cy="194.5" r="2.9"/>
	<circle class="chapterCircle0" cx="86.9" cy="202.8" r="2.9"/>
	<circle class="chapterCircle0" cx="86.9" cy="211.1" r="2.9"/>
	<circle class="chapterCircle0" cx="86.9" cy="219.3" r="2.9"/>
	<circle class="chapterCircle0" cx="86.9" cy="227.6" r="2.9"/>
	<circle class="chapterCircle0" cx="86.9" cy="235.9" r="2.9"/>
	<circle class="chapterCircle0" cx="86.9" cy="244.2" r="2.9"/>
	<circle class="chapterCircle0" cx="86.9" cy="252.4" r="2.9"/>
	<circle class="chapterCircle0" cx="86.9" cy="260.7" r="2.9"/>
	<circle class="chapterCircle0" cx="86.9" cy="269" r="2.9"/>
	<circle class="chapterCircle0" cx="86.9" cy="277.3" r="2.9"/>
	<circle class="chapterCircle0" cx="86.9" cy="285.5" r="2.9"/>
	<circle class="chapterCircle0" cx="86.9" cy="293.8" r="2.9"/>
	<circle class="chapterCircle0" cx="86.9" cy="302.1" r="2.9"/>
	<circle class="chapterCircle0" cx="86.9" cy="310.4" r="2.9"/>
	<circle class="chapterCircle0" cx="86.9" cy="318.7" r="2.9"/>
	<circle class="chapterCircle0" cx="86.9" cy="326.9" r="2.9"/>
	<circle class="chapterCircle0" cx="86.9" cy="335.2" r="2.9"/>
	<circle class="chapterCircle0" cx="86.9" cy="343.5" r="2.9"/>
	<circle class="chapterCircle0" cx="86.9" cy="351.8" r="2.9"/>
	<circle class="chapterCircle0" cx="86.9" cy="360" r="2.9"/>
	<circle class="chapterCircle0" cx="86.9" cy="368.3" r="2.9"/>
	<circle class="chapterCircle0" cx="86.9" cy="376.6" r="2.9"/>
	<circle class="chapterCircle0" cx="86.9" cy="384.9" r="2.9"/>
	<circle class="chapterCircle0" cx="86.9" cy="393.1" r="2.9"/>
	<circle class="chapterCircle0" cx="86.9" cy="401.4" r="2.9"/>
	<circle class="chapterCircle0" cx="86.9" cy="409.7" r="2.9"/>
	<circle class="chapterCircle0" cx="86.9" cy="418" r="2.9"/>
	<circle class="chapterCircle0" cx="86.9" cy="426.3" r="2.9"/>
	<circle class="chapterCircle0" cx="103.5" cy="4.1" r="2.9"/>
	<circle class="chapterCircle0" cx="78.6" cy="95.2" r="2.9"/>
	<circle class="chapterCircle0" cx="78.6" cy="103.5" r="2.9"/>
	<circle class="chapterCircle0" cx="78.6" cy="111.7" r="2.9"/>
	<circle class="chapterCircle0" cx="78.6" cy="120" r="2.9"/>
	<circle class="chapterCircle0" cx="78.6" cy="128.3" r="2.9"/>
	<circle class="chapterCircle0" cx="78.6" cy="136.6" r="2.9"/>
	<circle class="chapterCircle0" cx="78.6" cy="144.9" r="2.9"/>
	<circle class="chapterCircle0" cx="78.6" cy="153.1" r="2.9"/>
	<circle class="chapterCircle0" cx="78.6" cy="161.4" r="2.9"/>
	<circle class="chapterCircle0" cx="78.6" cy="169.7" r="2.9"/>
	<circle class="chapterCircle0" cx="78.6" cy="177.9" r="2.9"/>
	<circle class="chapterCircle0" cx="78.6" cy="186.2" r="2.9"/>
	<circle class="chapterCircle0" cx="78.6" cy="194.5" r="2.9"/>
	<circle class="chapterCircle0" cx="78.6" cy="202.8" r="2.9"/>
	<circle class="chapterCircle0" cx="78.6" cy="211.1" r="2.9"/>
	<circle class="chapterCircle0" cx="78.6" cy="219.3" r="2.9"/>
	<circle class="chapterCircle0" cx="78.6" cy="227.6" r="2.9"/>
	<circle class="chapterCircle0" cx="78.6" cy="235.9" r="2.9"/>
	<circle class="chapterCircle0" cx="78.6" cy="244.2" r="2.9"/>
	<circle class="chapterCircle0" cx="78.6" cy="252.4" r="2.9"/>
	<circle class="chapterCircle0" cx="78.6" cy="260.7" r="2.9"/>
	<circle class="chapterCircle0" cx="78.6" cy="269" r="2.9"/>
	<circle class="chapterCircle0" cx="78.6" cy="277.3" r="2.9"/>
	<circle class="chapterCircle0" cx="78.6" cy="285.5" r="2.9"/>
	<circle class="chapterCircle0" cx="78.6" cy="293.8" r="2.9"/>
	<circle class="chapterCircle0" cx="78.6" cy="302.1" r="2.9"/>
	<circle class="chapterCircle0" cx="78.6" cy="310.4" r="2.9"/>
	<circle class="chapterCircle0" cx="78.6" cy="318.7" r="2.9"/>
	<circle class="chapterCircle0" cx="78.6" cy="326.9" r="2.9"/>
	<circle class="chapterCircle0" cx="78.6" cy="335.2" r="2.9"/>
	<circle class="chapterCircle0" cx="78.6" cy="343.5" r="2.9"/>
	<circle class="chapterCircle0" cx="78.6" cy="351.8" r="2.9"/>
	<circle class="chapterCircle0" cx="78.6" cy="360" r="2.9"/>
	<circle class="chapterCircle0" cx="78.6" cy="368.3" r="2.9"/>
	<circle class="chapterCircle0" cx="78.6" cy="376.6" r="2.9"/>
	<circle class="chapterCircle0" cx="78.6" cy="384.9" r="2.9"/>
	<circle class="chapterCircle0" cx="78.6" cy="393.1" r="2.9"/>
	<circle class="chapterCircle0" cx="78.6" cy="401.4" r="2.9"/>
	<circle class="chapterCircle0" cx="78.6" cy="409.7" r="2.9"/>
	<circle class="chapterCircle0" cx="78.6" cy="418" r="2.9"/>
	<circle class="chapterCircle0" cx="78.6" cy="426.3" r="2.9"/>
	<circle class="chapterCircle0" cx="78.6" cy="442.8" r="2.9"/>
	<circle class="chapterCircle0" cx="70.3" cy="95.2" r="2.9"/>
	<circle class="chapterCircle0" cx="70.3" cy="103.5" r="2.9"/>
	<circle class="chapterCircle0" cx="70.3" cy="111.7" r="2.9"/>
	<circle class="chapterCircle0" cx="70.3" cy="120" r="2.9"/>
	<circle class="chapterCircle0" cx="70.3" cy="128.3" r="2.9"/>
	<circle class="chapterCircle0" cx="70.3" cy="136.6" r="2.9"/>
	<circle class="chapterCircle0" cx="70.3" cy="144.9" r="2.9"/>
	<circle class="chapterCircle0" cx="70.3" cy="153.1" r="2.9"/>
	<circle class="chapterCircle0" cx="70.3" cy="161.4" r="2.9"/>
	<circle class="chapterCircle0" cx="70.3" cy="169.7" r="2.9"/>
	<circle class="chapterCircle0" cx="70.3" cy="177.9" r="2.9"/>
	<circle class="chapterCircle0" cx="70.3" cy="186.2" r="2.9"/>
	<circle class="chapterCircle0" cx="70.3" cy="194.5" r="2.9"/>
	<circle class="chapterCircle0" cx="70.3" cy="202.8" r="2.9"/>
	<circle class="chapterCircle0" cx="70.3" cy="211.1" r="2.9"/>
	<circle class="chapterCircle0" cx="70.3" cy="219.3" r="2.9"/>
	<circle class="chapterCircle0" cx="70.3" cy="227.6" r="2.9"/>
	<circle class="chapterCircle0" cx="70.3" cy="235.9" r="2.9"/>
	<circle class="chapterCircle0" cx="70.3" cy="244.2" r="2.9"/>
	<circle class="chapterCircle0" cx="70.3" cy="252.4" r="2.9"/>
	<circle class="chapterCircle0" cx="70.3" cy="260.7" r="2.9"/>
	<circle class="chapterCircle0" cx="70.3" cy="269" r="2.9"/>
	<circle class="chapterCircle0" cx="70.3" cy="277.3" r="2.9"/>
	<circle class="chapterCircle0" cx="70.3" cy="285.5" r="2.9"/>
	<circle class="chapterCircle0" cx="70.3" cy="293.8" r="2.9"/>
	<circle class="chapterCircle0" cx="70.3" cy="302.1" r="2.9"/>
	<circle class="chapterCircle0" cx="70.3" cy="310.4" r="2.9"/>
	<circle class="chapterCircle0" cx="70.3" cy="318.7" r="2.9"/>
	<circle class="chapterCircle0" cx="70.3" cy="326.9" r="2.9"/>
	<circle class="chapterCircle0" cx="70.3" cy="335.2" r="2.9"/>
	<circle class="chapterCircle0" cx="70.3" cy="343.5" r="2.9"/>
	<circle class="chapterCircle0" cx="70.3" cy="351.8" r="2.9"/>
	<circle class="chapterCircle0" cx="70.3" cy="360" r="2.9"/>
	<circle class="chapterCircle0" cx="70.3" cy="376.6" r="2.9"/>
	<circle class="chapterCircle0" cx="70.3" cy="384.9" r="2.9"/>
	<circle class="chapterCircle0" cx="70.3" cy="393.1" r="2.9"/>
	<circle class="chapterCircle0" cx="70.3" cy="401.4" r="2.9"/>
	<circle class="chapterCircle0" cx="70.3" cy="409.7" r="2.9"/>
	<circle class="chapterCircle0" cx="70.3" cy="418" r="2.9"/>
	<circle class="chapterCircle0" cx="70.3" cy="426.3" r="2.9"/>
	<circle class="chapterCircle0" cx="70.3" cy="434.5" r="2.9"/>
	<circle class="chapterCircle0" cx="62.1" cy="95.2" r="2.9"/>
	<circle class="chapterCircle0" cx="62.1" cy="103.5" r="2.9"/>
	<circle class="chapterCircle0" cx="62.1" cy="111.7" r="2.9"/>
	<circle class="chapterCircle0" cx="62.1" cy="120" r="2.9"/>
	<circle class="chapterCircle0" cx="62.1" cy="128.3" r="2.9"/>
	<circle class="chapterCircle0" cx="62.1" cy="136.6" r="2.9"/>
	<circle class="chapterCircle0" cx="62.1" cy="144.9" r="2.9"/>
	<circle class="chapterCircle0" cx="62.1" cy="153.1" r="2.9"/>
	<circle class="chapterCircle0" cx="62.1" cy="161.4" r="2.9"/>
	<circle class="chapterCircle0" cx="62.1" cy="169.7" r="2.9"/>
	<circle class="chapterCircle0" cx="62.1" cy="177.9" r="2.9"/>
	<circle class="chapterCircle0" cx="62.1" cy="186.2" r="2.9"/>
	<circle class="chapterCircle0" cx="62.1" cy="194.5" r="2.9"/>
	<circle class="chapterCircle0" cx="62.1" cy="202.8" r="2.9"/>
	<circle class="chapterCircle0" cx="62.1" cy="211.1" r="2.9"/>
	<circle class="chapterCircle0" cx="62.1" cy="219.3" r="2.9"/>
	<circle class="chapterCircle0" cx="62.1" cy="227.6" r="2.9"/>
	<circle class="chapterCircle0" cx="62.1" cy="235.9" r="2.9"/>
	<circle class="chapterCircle0" cx="62.1" cy="244.2" r="2.9"/>
	<circle class="chapterCircle0" cx="62.1" cy="252.4" r="2.9"/>
	<circle class="chapterCircle0" cx="62.1" cy="260.7" r="2.9"/>
	<circle class="chapterCircle0" cx="62.1" cy="269" r="2.9"/>
	<circle class="chapterCircle0" cx="62.1" cy="277.3" r="2.9"/>
	<circle class="chapterCircle0" cx="62.1" cy="285.5" r="2.9"/>
	<circle class="chapterCircle0" cx="62.1" cy="293.8" r="2.9"/>
	<circle class="chapterCircle0" cx="62.1" cy="302.1" r="2.9"/>
	<circle class="chapterCircle0" cx="62.1" cy="310.4" r="2.9"/>
	<circle class="chapterCircle0" cx="62.1" cy="318.7" r="2.9"/>
	<circle class="chapterCircle0" cx="62.1" cy="326.9" r="2.9"/>
	<circle class="chapterCircle0" cx="62.1" cy="335.2" r="2.9"/>
	<circle class="chapterCircle0" cx="62.1" cy="343.5" r="2.9"/>
	<circle class="chapterCircle0" cx="62.1" cy="351.8" r="2.9"/>
	<circle class="chapterCircle0" cx="62.1" cy="384.9" r="2.9"/>
	<circle class="chapterCircle0" cx="62.1" cy="393.1" r="2.9"/>
	<circle class="chapterCircle0" cx="62.1" cy="401.4" r="2.9"/>
	<circle class="chapterCircle0" cx="62.1" cy="409.7" r="2.9"/>
	<circle class="chapterCircle0" cx="62.1" cy="418" r="2.9"/>
	<circle class="chapterCircle0" cx="62.1" cy="426.3" r="2.9"/>
	<circle class="chapterCircle0" cx="62.1" cy="434.5" r="2.9"/>
	<circle class="chapterCircle0" cx="53.8" cy="95.2" r="2.9"/>
	<circle class="chapterCircle0" cx="53.8" cy="103.5" r="2.9"/>
	<circle class="chapterCircle0" cx="53.8" cy="111.7" r="2.9"/>
	<circle class="chapterCircle0" cx="53.8" cy="120" r="2.9"/>
	<circle class="chapterCircle0" cx="53.8" cy="128.3" r="2.9"/>
	<circle class="chapterCircle0" cx="53.8" cy="136.6" r="2.9"/>
	<circle class="chapterCircle0" cx="53.8" cy="144.9" r="2.9"/>
	<circle class="chapterCircle0" cx="53.8" cy="153.1" r="2.9"/>
	<circle class="chapterCircle0" cx="53.8" cy="161.4" r="2.9"/>
	<circle class="chapterCircle0" cx="53.8" cy="169.7" r="2.9"/>
	<circle class="chapterCircle0" cx="53.8" cy="177.9" r="2.9"/>
	<circle class="chapterCircle0" cx="53.8" cy="186.2" r="2.9"/>
	<circle class="chapterCircle0" cx="53.8" cy="194.5" r="2.9"/>
	<circle class="chapterCircle0" cx="53.8" cy="202.8" r="2.9"/>
	<circle class="chapterCircle0" cx="53.8" cy="211.1" r="2.9"/>
	<circle class="chapterCircle0" cx="53.8" cy="219.3" r="2.9"/>
	<circle class="chapterCircle0" cx="53.8" cy="227.6" r="2.9"/>
	<circle class="chapterCircle0" cx="53.8" cy="235.9" r="2.9"/>
	<circle class="chapterCircle0" cx="53.8" cy="244.2" r="2.9"/>
	<circle class="chapterCircle0" cx="53.8" cy="252.4" r="2.9"/>
	<circle class="chapterCircle0" cx="53.8" cy="260.7" r="2.9"/>
	<circle class="chapterCircle0" cx="53.8" cy="269" r="2.9"/>
	<circle class="chapterCircle0" cx="53.8" cy="277.3" r="2.9"/>
	<circle class="chapterCircle0" cx="53.8" cy="285.5" r="2.9"/>
	<circle class="chapterCircle0" cx="53.8" cy="293.8" r="2.9"/>
	<circle class="chapterCircle0" cx="53.8" cy="302.1" r="2.9"/>
	<circle class="chapterCircle0" cx="53.8" cy="310.4" r="2.9"/>
	<circle class="chapterCircle0" cx="53.8" cy="318.7" r="2.9"/>
	<circle class="chapterCircle0" cx="53.8" cy="326.9" r="2.9"/>
	<circle class="chapterCircle0" cx="53.8" cy="335.2" r="2.9"/>
	<circle class="chapterCircle0" cx="53.8" cy="343.5" r="2.9"/>
	<circle class="chapterCircle0" cx="53.8" cy="351.8" r="2.9"/>
	<circle class="chapterCircle0" cx="53.8" cy="401.4" r="2.9"/>
	<circle class="chapterCircle0" cx="53.8" cy="409.7" r="2.9"/>
	<circle class="chapterCircle0" cx="53.8" cy="418" r="2.9"/>
	<circle class="chapterCircle0" cx="53.8" cy="426.3" r="2.9"/>
	<circle class="chapterCircle0" cx="53.8" cy="434.5" r="2.9"/>
	<circle class="chapterCircle0" cx="53.8" cy="442.8" r="2.9"/>
	<circle class="chapterCircle0" cx="45.5" cy="103.5" r="2.9"/>
	<circle class="chapterCircle0" cx="45.5" cy="144.9" r="2.9"/>
	<circle class="chapterCircle0" cx="45.5" cy="153.1" r="2.9"/>
	<circle class="chapterCircle0" cx="45.5" cy="161.4" r="2.9"/>
	<circle class="chapterCircle0" cx="45.5" cy="169.7" r="2.9"/>
	<circle class="chapterCircle0" cx="45.5" cy="177.9" r="2.9"/>
	<circle class="chapterCircle0" cx="45.5" cy="186.2" r="2.9"/>
	<circle class="chapterCircle0" cx="45.5" cy="194.5" r="2.9"/>
	<circle class="chapterCircle0" cx="45.5" cy="202.8" r="2.9"/>
	<circle class="chapterCircle0" cx="45.5" cy="211.1" r="2.9"/>
	<circle class="chapterCircle0" cx="45.5" cy="219.3" r="2.9"/>
	<circle class="chapterCircle0" cx="45.5" cy="227.6" r="2.9"/>
	<circle class="chapterCircle0" cx="45.5" cy="235.9" r="2.9"/>
	<circle class="chapterCircle0" cx="45.5" cy="244.2" r="2.9"/>
	<circle class="chapterCircle0" cx="45.5" cy="252.4" r="2.9"/>
	<circle class="chapterCircle0" cx="45.5" cy="260.7" r="2.9"/>
	<circle class="chapterCircle0" cx="45.5" cy="269" r="2.9"/>
	<circle class="chapterCircle0" cx="45.5" cy="277.3" r="2.9"/>
	<circle class="chapterCircle0" cx="45.5" cy="285.5" r="2.9"/>
	<circle class="chapterCircle0" cx="45.5" cy="293.8" r="2.9"/>
	<circle class="chapterCircle0" cx="45.5" cy="302.1" r="2.9"/>
	<circle class="chapterCircle0" cx="45.5" cy="310.4" r="2.9"/>
	<circle class="chapterCircle0" cx="45.5" cy="318.7" r="2.9"/>
	<circle class="chapterCircle0" cx="45.5" cy="326.9" r="2.9"/>
	<circle class="chapterCircle0" cx="45.5" cy="335.2" r="2.9"/>
	<circle class="chapterCircle0" cx="45.5" cy="343.5" r="2.9"/>
	<circle class="chapterCircle0" cx="45.5" cy="351.8" r="2.9"/>
	<circle class="chapterCircle0" cx="45.5" cy="426.3" r="2.9"/>
	<circle class="chapterCircle0" cx="45.5" cy="434.5" r="2.9"/>
	<circle class="chapterCircle0" cx="37.2" cy="153.1" r="2.9"/>
	<circle class="chapterCircle0" cx="37.2" cy="177.9" r="2.9"/>
	<circle class="chapterCircle0" cx="37.2" cy="186.2" r="2.9"/>
	<circle class="chapterCircle0" cx="37.2" cy="194.5" r="2.9"/>
	<circle class="chapterCircle0" cx="37.2" cy="202.8" r="2.9"/>
	<circle class="chapterCircle0" cx="37.2" cy="211.1" r="2.9"/>
	<circle class="chapterCircle0" cx="37.2" cy="219.3" r="2.9"/>
	<circle class="chapterCircle0" cx="37.2" cy="227.6" r="2.9"/>
	<circle class="chapterCircle0" cx="37.2" cy="235.9" r="2.9"/>
	<circle class="chapterCircle0" cx="37.2" cy="244.2" r="2.9"/>
	<circle class="chapterCircle0" cx="37.2" cy="252.4" r="2.9"/>
	<circle class="chapterCircle0" cx="37.2" cy="260.7" r="2.9"/>
	<circle class="chapterCircle0" cx="37.2" cy="269" r="2.9"/>
	<circle class="chapterCircle0" cx="37.2" cy="277.3" r="2.9"/>
	<circle class="chapterCircle0" cx="37.2" cy="285.5" r="2.9"/>
	<circle class="chapterCircle0" cx="37.2" cy="293.8" r="2.9"/>
	<circle class="chapterCircle0" cx="37.2" cy="302.1" r="2.9"/>
	<circle class="chapterCircle0" cx="37.2" cy="310.4" r="2.9"/>
	<circle class="chapterCircle0" cx="37.2" cy="318.7" r="2.9"/>
	<circle class="chapterCircle0" cx="37.2" cy="326.9" r="2.9"/>
	<circle class="chapterCircle0" cx="37.2" cy="335.2" r="2.9"/>
	<circle class="chapterCircle0" cx="37.2" cy="343.5" r="2.9"/>
	<circle class="chapterCircle0" cx="37.2" cy="351.8" r="2.9"/>
	<circle class="chapterCircle0" cx="29" cy="194.5" r="2.9"/>
	<circle class="chapterCircle0" cx="29" cy="202.8" r="2.9"/>
	<circle class="chapterCircle0" cx="29" cy="211.1" r="2.9"/>
	<circle class="chapterCircle0" cx="29" cy="219.3" r="2.9"/>
	<circle class="chapterCircle0" cx="29" cy="227.6" r="2.9"/>
	<circle class="chapterCircle0" cx="29" cy="235.9" r="2.9"/>
	<circle class="chapterCircle0" cx="29" cy="244.2" r="2.9"/>
	<circle class="chapterCircle0" cx="29" cy="252.4" r="2.9"/>
	<circle class="chapterCircle0" cx="29" cy="260.7" r="2.9"/>
	<circle class="chapterCircle0" cx="29" cy="269" r="2.9"/>
	<circle class="chapterCircle0" cx="29" cy="277.3" r="2.9"/>
	<circle class="chapterCircle0" cx="29" cy="285.5" r="2.9"/>
	<circle class="chapterCircle0" cx="29" cy="293.8" r="2.9"/>
	<circle class="chapterCircle0" cx="29" cy="302.1" r="2.9"/>
	<circle class="chapterCircle0" cx="29" cy="310.4" r="2.9"/>
	<circle class="chapterCircle0" cx="29" cy="318.7" r="2.9"/>
	<circle class="chapterCircle0" cx="29" cy="326.9" r="2.9"/>
	<circle class="chapterCircle0" cx="29" cy="335.2" r="2.9"/>
	<circle class="chapterCircle0" cx="29" cy="343.5" r="2.9"/>
	<circle class="chapterCircle0" cx="20.7" cy="194.5" r="2.9"/>
	<circle class="chapterCircle0" cx="20.7" cy="202.8" r="2.9"/>
	<circle class="chapterCircle0" cx="20.7" cy="211.1" r="2.9"/>
	<circle class="chapterCircle0" cx="20.7" cy="219.3" r="2.9"/>
	<circle class="chapterCircle0" cx="20.7" cy="227.6" r="2.9"/>
	<circle class="chapterCircle0" cx="20.7" cy="235.9" r="2.9"/>
	<circle class="chapterCircle0" cx="20.7" cy="244.2" r="2.9"/>
	<circle class="chapterCircle0" cx="20.7" cy="252.4" r="2.9"/>
	<circle class="chapterCircle0" cx="20.7" cy="260.7" r="2.9"/>
	<circle class="chapterCircle0" cx="20.7" cy="269" r="2.9"/>
	<circle class="chapterCircle0" cx="20.7" cy="277.3" r="2.9"/>
	<circle class="chapterCircle0" cx="20.7" cy="285.5" r="2.9"/>
	<circle class="chapterCircle0" cx="20.7" cy="293.8" r="2.9"/>
	<circle class="chapterCircle0" cx="20.7" cy="302.1" r="2.9"/>
	<circle class="chapterCircle0" cx="20.7" cy="310.4" r="2.9"/>
	<circle class="chapterCircle0" cx="20.7" cy="318.7" r="2.9"/>
	<circle class="chapterCircle0" cx="20.7" cy="326.9" r="2.9"/>
	<circle class="chapterCircle0" cx="20.7" cy="335.2" r="2.9"/>
	<circle class="chapterCircle0" cx="20.7" cy="343.5" r="2.9"/>
	<circle class="chapterCircle0" cx="12.4" cy="194.5" r="2.9"/>
	<circle class="chapterCircle0" cx="12.4" cy="202.8" r="2.9"/>
	<circle class="chapterCircle0" cx="12.4" cy="211.1" r="2.9"/>
	<circle class="chapterCircle0" cx="12.4" cy="219.3" r="2.9"/>
	<circle class="chapterCircle0" cx="12.4" cy="227.6" r="2.9"/>
	<circle class="chapterCircle0" cx="12.4" cy="235.9" r="2.9"/>
	<circle class="chapterCircle0" cx="12.4" cy="244.2" r="2.9"/>
	<circle class="chapterCircle0" cx="12.4" cy="252.4" r="2.9"/>
	<circle class="chapterCircle0" cx="12.4" cy="260.7" r="2.9"/>
	<circle class="chapterCircle0" cx="12.4" cy="269" r="2.9"/>
	<circle class="chapterCircle0" cx="12.4" cy="277.3" r="2.9"/>
	<circle class="chapterCircle0" cx="12.4" cy="285.5" r="2.9"/>
	<circle class="chapterCircle0" cx="12.4" cy="293.8" r="2.9"/>
	<circle class="chapterCircle0" cx="12.4" cy="302.1" r="2.9"/>
	<circle class="chapterCircle0" cx="12.4" cy="310.4" r="2.9"/>
	<circle class="chapterCircle0" cx="12.4" cy="318.7" r="2.9"/>
	<circle class="chapterCircle0" cx="12.4" cy="326.9" r="2.9"/>
	<circle class="chapterCircle0" cx="4.1" cy="194.5" r="2.9"/>
	<circle class="chapterCircle0" cx="4.1" cy="227.6" r="2.9"/>
	<circle class="chapterCircle0" cx="4.1" cy="235.9" r="2.9"/>
	<circle class="chapterCircle0" cx="4.1" cy="244.2" r="2.9"/>
	<circle class="chapterCircle0" cx="4.1" cy="252.4" r="2.9"/>
	<ellipse class="chapterCircle0" cx="4.1" cy="293.9" rx="2.9" ry="2.9"/>
	<ellipse class="chapterCircle0" cx="4.1" cy="302.1" rx="2.9" ry="2.9"/>
</g>
<g>
	<g id="berlino">
		<ellipse class="chapterCircle1" cx="260.3" cy="161.1" rx="40" ry="40"/>
		<ellipse class="chapterCircle0" cx="260.3" cy="161.1" rx="26.5" ry="26.5"/>
	</g>
</g>
<g>
	<g id="francoforte">
		<ellipse class="chapterCircle1" cx="102.2" cy="276.3" rx="40" ry="40"/>
		<ellipse class="chapterCircle0" cx="102.2" cy="276.3" rx="26.5" ry="26.5"/>
	</g>
</g>
<g>
	<g id="monaco_di_baviera">
		<ellipse class="chapterCircle1" cx="197.4" cy="402.1" rx="40" ry="40"/>
		<ellipse class="chapterCircle0" cx="197.4" cy="402.1" rx="26.5" ry="26.5"/>
	</g>
</g>
</svg>
