<?xml version="1.0" encoding="utf-8"?>
<!-- Generator: Adobe Illustrator 24.1.2, SVG Export Plug-In . SVG Version: 6.00 Build 0)  -->
<svg version="1.1" id="giappone" xmlns="http://www.w3.org/2000/svg" xmlns:xlink="http://www.w3.org/1999/xlink" x="0px" y="0px"
	 viewBox="0 0 689.5 799.4" style="enable-background:new 0 0 689.5 799.4;" xml:space="preserve">
<style type="text/css">
	.chapterCircle0{fill:#FFFFFF;}
	.chapterCircle1{opacity:0.5;fill:#FFFFFF;enable-background:new;}
</style>
<g id="map">
	<circle class="chapterCircle0" cx="81.5" cy="786.6" r="2.9"/>
	<circle class="chapterCircle0" cx="81.5" cy="795.1" r="2.9"/>
	<circle class="chapterCircle0" cx="73" cy="786.6" r="2.9"/>
	<circle class="chapterCircle0" cx="73" cy="795.1" r="2.9"/>
	<circle class="chapterCircle0" cx="557.7" cy="293.4" r="2.9"/>
	<circle class="chapterCircle0" cx="557.7" cy="301.9" r="2.9"/>
	<circle class="chapterCircle0" cx="557.7" cy="310.4" r="2.9"/>
	<circle class="chapterCircle0" cx="557.7" cy="318.9" r="2.9"/>
	<circle class="chapterCircle0" cx="557.7" cy="327.4" r="2.9"/>
	<circle class="chapterCircle0" cx="549.2" cy="276.4" r="2.9"/>
	<circle class="chapterCircle0" cx="549.2" cy="284.9" r="2.9"/>
	<circle class="chapterCircle0" cx="549.2" cy="293.4" r="2.9"/>
	<circle class="chapterCircle0" cx="549.2" cy="301.9" r="2.9"/>
	<circle class="chapterCircle0" cx="549.2" cy="310.4" r="2.9"/>
	<circle class="chapterCircle0" cx="549.2" cy="318.9" r="2.9"/>
	<circle class="chapterCircle0" cx="549.2" cy="327.4" r="2.9"/>
	<circle class="chapterCircle0" cx="549.2" cy="335.9" r="2.9"/>
	<circle class="chapterCircle0" cx="540.7" cy="267.9" r="2.9"/>
	<circle class="chapterCircle0" cx="540.7" cy="276.4" r="2.9"/>
	<circle class="chapterCircle0" cx="540.7" cy="284.9" r="2.9"/>
	<circle class="chapterCircle0" cx="540.7" cy="293.4" r="2.9"/>
	<circle class="chapterCircle0" cx="540.7" cy="301.9" r="2.9"/>
	<circle class="chapterCircle0" cx="540.7" cy="310.4" r="2.9"/>
	<circle class="chapterCircle0" cx="540.7" cy="318.9" r="2.9"/>
	<circle class="chapterCircle0" cx="540.7" cy="327.4" r="2.9"/>
	<circle class="chapterCircle0" cx="540.7" cy="335.9" r="2.9"/>
	<circle class="chapterCircle0" cx="540.7" cy="344.4" r="2.9"/>
	<circle class="chapterCircle0" cx="540.7" cy="352.9" r="2.9"/>
	<circle class="chapterCircle0" cx="540.7" cy="361.4" r="2.9"/>
	<circle class="chapterCircle0" cx="540.7" cy="369.9" r="2.9"/>
	<circle class="chapterCircle0" cx="532.2" cy="250.9" r="2.9"/>
	<circle class="chapterCircle0" cx="532.2" cy="259.4" r="2.9"/>
	<circle class="chapterCircle0" cx="532.2" cy="267.9" r="2.9"/>
	<circle class="chapterCircle0" cx="532.2" cy="276.4" r="2.9"/>
	<circle class="chapterCircle0" cx="532.2" cy="284.9" r="2.9"/>
	<circle class="chapterCircle0" cx="532.2" cy="293.4" r="2.9"/>
	<circle class="chapterCircle0" cx="532.2" cy="301.9" r="2.9"/>
	<circle class="chapterCircle0" cx="532.2" cy="310.4" r="2.9"/>
	<circle class="chapterCircle0" cx="532.2" cy="318.9" r="2.9"/>
	<circle class="chapterCircle0" cx="532.2" cy="327.4" r="2.9"/>
	<circle class="chapterCircle0" cx="532.2" cy="335.9" r="2.9"/>
	<circle class="chapterCircle0" cx="532.2" cy="344.4" r="2.9"/>
	<circle class="chapterCircle0" cx="532.2" cy="352.9" r="2.9"/>
	<circle class="chapterCircle0" cx="532.2" cy="361.4" r="2.9"/>
	<circle class="chapterCircle0" cx="532.2" cy="369.9" r="2.9"/>
	<circle class="chapterCircle0" cx="523.7" cy="216.9" r="2.9"/>
	<circle class="chapterCircle0" cx="523.7" cy="225.4" r="2.9"/>
	<circle class="chapterCircle0" cx="523.7" cy="233.9" r="2.9"/>
	<circle class="chapterCircle0" cx="523.7" cy="242.4" r="2.9"/>
	<circle class="chapterCircle0" cx="523.7" cy="250.9" r="2.9"/>
	<circle class="chapterCircle0" cx="523.7" cy="259.4" r="2.9"/>
	<circle class="chapterCircle0" cx="523.7" cy="267.9" r="2.9"/>
	<circle class="chapterCircle0" cx="523.7" cy="276.4" r="2.9"/>
	<circle class="chapterCircle0" cx="523.7" cy="284.9" r="2.9"/>
	<circle class="chapterCircle0" cx="523.7" cy="293.4" r="2.9"/>
	<circle class="chapterCircle0" cx="523.7" cy="301.9" r="2.9"/>
	<circle class="chapterCircle0" cx="523.7" cy="310.4" r="2.9"/>
	<circle class="chapterCircle0" cx="523.7" cy="318.9" r="2.9"/>
	<circle class="chapterCircle0" cx="523.7" cy="327.4" r="2.9"/>
	<circle class="chapterCircle0" cx="523.7" cy="335.9" r="2.9"/>
	<circle class="chapterCircle0" cx="523.7" cy="344.4" r="2.9"/>
	<circle class="chapterCircle0" cx="523.7" cy="352.9" r="2.9"/>
	<circle class="chapterCircle0" cx="523.7" cy="361.4" r="2.9"/>
	<circle class="chapterCircle0" cx="523.7" cy="369.9" r="2.9"/>
	<circle class="chapterCircle0" cx="523.7" cy="378.4" r="2.9"/>
	<circle class="chapterCircle0" cx="523.7" cy="403.9" r="2.9"/>
	<circle class="chapterCircle0" cx="523.7" cy="412.4" r="2.9"/>
	<circle class="chapterCircle0" cx="523.7" cy="420.9" r="2.9"/>
	<circle class="chapterCircle0" cx="523.7" cy="429.4" r="2.9"/>
	<circle class="chapterCircle0" cx="523.7" cy="437.9" r="2.9"/>
	<circle class="chapterCircle0" cx="523.7" cy="446.5" r="2.9"/>
	<circle class="chapterCircle0" cx="523.7" cy="506" r="2.9"/>
	<circle class="chapterCircle0" cx="523.7" cy="514.5" r="2.9"/>
	<circle class="chapterCircle0" cx="515.2" cy="216.9" r="2.9"/>
	<circle class="chapterCircle0" cx="515.2" cy="225.4" r="2.9"/>
	<circle class="chapterCircle0" cx="515.2" cy="242.4" r="2.9"/>
	<circle class="chapterCircle0" cx="515.2" cy="250.9" r="2.9"/>
	<circle class="chapterCircle0" cx="515.2" cy="259.4" r="2.9"/>
	<circle class="chapterCircle0" cx="515.2" cy="267.9" r="2.9"/>
	<circle class="chapterCircle0" cx="515.2" cy="276.4" r="2.9"/>
	<circle class="chapterCircle0" cx="515.2" cy="284.9" r="2.9"/>
	<circle class="chapterCircle0" cx="515.2" cy="293.4" r="2.9"/>
	<circle class="chapterCircle0" cx="515.2" cy="301.9" r="2.9"/>
	<circle class="chapterCircle0" cx="515.2" cy="310.4" r="2.9"/>
	<circle class="chapterCircle0" cx="515.2" cy="318.9" r="2.9"/>
	<circle class="chapterCircle0" cx="515.2" cy="327.4" r="2.9"/>
	<circle class="chapterCircle0" cx="515.2" cy="335.9" r="2.9"/>
	<circle class="chapterCircle0" cx="515.2" cy="344.4" r="2.9"/>
	<circle class="chapterCircle0" cx="515.2" cy="352.9" r="2.9"/>
	<circle class="chapterCircle0" cx="515.2" cy="361.4" r="2.9"/>
	<circle class="chapterCircle0" cx="515.2" cy="369.9" r="2.9"/>
	<circle class="chapterCircle0" cx="515.2" cy="378.4" r="2.9"/>
	<circle class="chapterCircle0" cx="515.2" cy="386.9" r="2.9"/>
	<circle class="chapterCircle0" cx="515.2" cy="395.4" r="2.9"/>
	<circle class="chapterCircle0" cx="515.2" cy="403.9" r="2.9"/>
	<circle class="chapterCircle0" cx="515.2" cy="412.4" r="2.9"/>
	<circle class="chapterCircle0" cx="515.2" cy="420.9" r="2.9"/>
	<circle class="chapterCircle0" cx="515.2" cy="429.4" r="2.9"/>
	<circle class="chapterCircle0" cx="515.2" cy="437.9" r="2.9"/>
	<circle class="chapterCircle0" cx="515.2" cy="446.5" r="2.9"/>
	<circle class="chapterCircle0" cx="515.2" cy="455" r="2.9"/>
	<circle class="chapterCircle0" cx="515.2" cy="463.5" r="2.9"/>
	<circle class="chapterCircle0" cx="515.2" cy="472" r="2.9"/>
	<circle class="chapterCircle0" cx="515.2" cy="480.5" r="2.9"/>
	<circle class="chapterCircle0" cx="515.2" cy="489" r="2.9"/>
	<circle class="chapterCircle0" cx="515.2" cy="497.5" r="2.9"/>
	<circle class="chapterCircle0" cx="515.2" cy="506" r="2.9"/>
	<circle class="chapterCircle0" cx="515.2" cy="514.5" r="2.9"/>
	<circle class="chapterCircle0" cx="506.7" cy="216.9" r="2.9"/>
	<circle class="chapterCircle0" cx="506.7" cy="225.4" r="2.9"/>
	<circle class="chapterCircle0" cx="506.7" cy="242.4" r="2.9"/>
	<circle class="chapterCircle0" cx="506.7" cy="250.9" r="2.9"/>
	<circle class="chapterCircle0" cx="506.7" cy="259.4" r="2.9"/>
	<circle class="chapterCircle0" cx="506.7" cy="267.9" r="2.9"/>
	<circle class="chapterCircle0" cx="506.7" cy="276.4" r="2.9"/>
	<circle class="chapterCircle0" cx="506.7" cy="284.9" r="2.9"/>
	<circle class="chapterCircle0" cx="506.7" cy="293.4" r="2.9"/>
	<circle class="chapterCircle0" cx="506.7" cy="301.9" r="2.9"/>
	<circle class="chapterCircle0" cx="506.7" cy="310.4" r="2.9"/>
	<circle class="chapterCircle0" cx="506.7" cy="318.9" r="2.9"/>
	<circle class="chapterCircle0" cx="506.7" cy="327.4" r="2.9"/>
	<circle class="chapterCircle0" cx="506.7" cy="335.9" r="2.9"/>
	<circle class="chapterCircle0" cx="506.7" cy="344.4" r="2.9"/>
	<circle class="chapterCircle0" cx="506.7" cy="352.9" r="2.9"/>
	<circle class="chapterCircle0" cx="506.7" cy="361.4" r="2.9"/>
	<circle class="chapterCircle0" cx="506.7" cy="369.9" r="2.9"/>
	<circle class="chapterCircle0" cx="506.7" cy="378.4" r="2.9"/>
	<circle class="chapterCircle0" cx="506.7" cy="386.9" r="2.9"/>
	<circle class="chapterCircle0" cx="506.7" cy="395.4" r="2.9"/>
	<circle class="chapterCircle0" cx="506.7" cy="403.9" r="2.9"/>
	<circle class="chapterCircle0" cx="506.7" cy="412.4" r="2.9"/>
	<circle class="chapterCircle0" cx="506.7" cy="420.9" r="2.9"/>
	<circle class="chapterCircle0" cx="506.7" cy="429.4" r="2.9"/>
	<circle class="chapterCircle0" cx="506.7" cy="437.9" r="2.9"/>
	<circle class="chapterCircle0" cx="506.7" cy="446.5" r="2.9"/>
	<circle class="chapterCircle0" cx="506.7" cy="455" r="2.9"/>
	<circle class="chapterCircle0" cx="506.7" cy="463.5" r="2.9"/>
	<circle class="chapterCircle0" cx="506.7" cy="472" r="2.9"/>
	<circle class="chapterCircle0" cx="506.7" cy="480.5" r="2.9"/>
	<circle class="chapterCircle0" cx="506.7" cy="489" r="2.9"/>
	<circle class="chapterCircle0" cx="506.7" cy="497.5" r="2.9"/>
	<circle class="chapterCircle0" cx="506.7" cy="506" r="2.9"/>
	<circle class="chapterCircle0" cx="506.7" cy="514.5" r="2.9"/>
	<circle class="chapterCircle0" cx="506.7" cy="523" r="2.9"/>
	<circle class="chapterCircle0" cx="506.7" cy="531.5" r="2.9"/>
	<circle class="chapterCircle0" cx="506.7" cy="540" r="2.9"/>
	<circle class="chapterCircle0" cx="498.2" cy="233.9" r="2.9"/>
	<circle class="chapterCircle0" cx="498.2" cy="242.4" r="2.9"/>
	<circle class="chapterCircle0" cx="498.2" cy="250.9" r="2.9"/>
	<circle class="chapterCircle0" cx="498.2" cy="259.4" r="2.9"/>
	<circle class="chapterCircle0" cx="498.2" cy="267.9" r="2.9"/>
	<circle class="chapterCircle0" cx="498.2" cy="276.4" r="2.9"/>
	<circle class="chapterCircle0" cx="498.2" cy="284.9" r="2.9"/>
	<circle class="chapterCircle0" cx="498.2" cy="293.4" r="2.9"/>
	<circle class="chapterCircle0" cx="498.2" cy="301.9" r="2.9"/>
	<circle class="chapterCircle0" cx="498.2" cy="310.4" r="2.9"/>
	<circle class="chapterCircle0" cx="498.2" cy="318.9" r="2.9"/>
	<circle class="chapterCircle0" cx="498.2" cy="327.4" r="2.9"/>
	<circle class="chapterCircle0" cx="498.2" cy="335.9" r="2.9"/>
	<circle class="chapterCircle0" cx="498.2" cy="344.4" r="2.9"/>
	<circle class="chapterCircle0" cx="498.2" cy="352.9" r="2.9"/>
	<circle class="chapterCircle0" cx="498.2" cy="361.4" r="2.9"/>
	<circle class="chapterCircle0" cx="498.2" cy="369.9" r="2.9"/>
	<circle class="chapterCircle0" cx="498.2" cy="378.4" r="2.9"/>
	<circle class="chapterCircle0" cx="498.2" cy="386.9" r="2.9"/>
	<circle class="chapterCircle0" cx="498.2" cy="395.4" r="2.9"/>
	<circle class="chapterCircle0" cx="498.2" cy="403.9" r="2.9"/>
	<circle class="chapterCircle0" cx="498.2" cy="412.4" r="2.9"/>
	<circle class="chapterCircle0" cx="498.2" cy="420.9" r="2.9"/>
	<circle class="chapterCircle0" cx="498.2" cy="429.4" r="2.9"/>
	<circle class="chapterCircle0" cx="498.2" cy="437.9" r="2.9"/>
	<circle class="chapterCircle0" cx="498.2" cy="446.5" r="2.9"/>
	<circle class="chapterCircle0" cx="498.2" cy="455" r="2.9"/>
	<circle class="chapterCircle0" cx="498.2" cy="463.5" r="2.9"/>
	<circle class="chapterCircle0" cx="498.2" cy="472" r="2.9"/>
	<circle class="chapterCircle0" cx="498.2" cy="480.5" r="2.9"/>
	<circle class="chapterCircle0" cx="498.2" cy="489" r="2.9"/>
	<circle class="chapterCircle0" cx="498.2" cy="497.5" r="2.9"/>
	<circle class="chapterCircle0" cx="498.2" cy="506" r="2.9"/>
	<circle class="chapterCircle0" cx="498.2" cy="514.5" r="2.9"/>
	<circle class="chapterCircle0" cx="498.2" cy="523" r="2.9"/>
	<circle class="chapterCircle0" cx="498.2" cy="531.5" r="2.9"/>
	<circle class="chapterCircle0" cx="498.2" cy="540" r="2.9"/>
	<circle class="chapterCircle0" cx="489.7" cy="208.3" r="2.9"/>
	<circle class="chapterCircle0" cx="489.7" cy="233.9" r="2.9"/>
	<circle class="chapterCircle0" cx="489.7" cy="242.4" r="2.9"/>
	<circle class="chapterCircle0" cx="489.7" cy="250.9" r="2.9"/>
	<circle class="chapterCircle0" cx="489.7" cy="259.4" r="2.9"/>
	<circle class="chapterCircle0" cx="489.7" cy="267.9" r="2.9"/>
	<circle class="chapterCircle0" cx="489.7" cy="276.4" r="2.9"/>
	<circle class="chapterCircle0" cx="489.7" cy="284.9" r="2.9"/>
	<circle class="chapterCircle0" cx="489.7" cy="293.4" r="2.9"/>
	<circle class="chapterCircle0" cx="489.7" cy="301.9" r="2.9"/>
	<circle class="chapterCircle0" cx="489.7" cy="310.4" r="2.9"/>
	<circle class="chapterCircle0" cx="489.7" cy="318.9" r="2.9"/>
	<circle class="chapterCircle0" cx="489.7" cy="327.4" r="2.9"/>
	<circle class="chapterCircle0" cx="489.7" cy="335.9" r="2.9"/>
	<circle class="chapterCircle0" cx="489.7" cy="344.4" r="2.9"/>
	<circle class="chapterCircle0" cx="489.7" cy="352.9" r="2.9"/>
	<circle class="chapterCircle0" cx="489.7" cy="361.4" r="2.9"/>
	<circle class="chapterCircle0" cx="489.7" cy="369.9" r="2.9"/>
	<circle class="chapterCircle0" cx="489.7" cy="378.4" r="2.9"/>
	<circle class="chapterCircle0" cx="489.7" cy="386.9" r="2.9"/>
	<circle class="chapterCircle0" cx="489.7" cy="395.4" r="2.9"/>
	<circle class="chapterCircle0" cx="489.7" cy="403.9" r="2.9"/>
	<circle class="chapterCircle0" cx="489.7" cy="412.4" r="2.9"/>
	<circle class="chapterCircle0" cx="489.7" cy="420.9" r="2.9"/>
	<circle class="chapterCircle0" cx="489.7" cy="429.4" r="2.9"/>
	<circle class="chapterCircle0" cx="489.7" cy="437.9" r="2.9"/>
	<circle class="chapterCircle0" cx="489.7" cy="446.5" r="2.9"/>
	<circle class="chapterCircle0" cx="489.7" cy="455" r="2.9"/>
	<circle class="chapterCircle0" cx="489.7" cy="463.5" r="2.9"/>
	<circle class="chapterCircle0" cx="489.7" cy="472" r="2.9"/>
	<circle class="chapterCircle0" cx="489.7" cy="480.5" r="2.9"/>
	<circle class="chapterCircle0" cx="489.7" cy="489" r="2.9"/>
	<circle class="chapterCircle0" cx="489.7" cy="497.5" r="2.9"/>
	<circle class="chapterCircle0" cx="489.7" cy="506" r="2.9"/>
	<circle class="chapterCircle0" cx="489.7" cy="514.5" r="2.9"/>
	<circle class="chapterCircle0" cx="489.7" cy="531.5" r="2.9"/>
	<circle class="chapterCircle0" cx="489.7" cy="540" r="2.9"/>
	<circle class="chapterCircle0" cx="489.7" cy="548.5" r="2.9"/>
	<circle class="chapterCircle0" cx="481.2" cy="208.3" r="2.9"/>
	<circle class="chapterCircle0" cx="481.2" cy="216.9" r="2.9"/>
	<circle class="chapterCircle0" cx="481.2" cy="250.9" r="2.9"/>
	<circle class="chapterCircle0" cx="481.2" cy="259.4" r="2.9"/>
	<circle class="chapterCircle0" cx="481.2" cy="267.9" r="2.9"/>
	<circle class="chapterCircle0" cx="481.2" cy="276.4" r="2.9"/>
	<circle class="chapterCircle0" cx="481.2" cy="284.9" r="2.9"/>
	<circle class="chapterCircle0" cx="481.2" cy="293.4" r="2.9"/>
	<circle class="chapterCircle0" cx="481.2" cy="301.9" r="2.9"/>
	<circle class="chapterCircle0" cx="481.2" cy="310.4" r="2.9"/>
	<circle class="chapterCircle0" cx="481.2" cy="318.9" r="2.9"/>
	<circle class="chapterCircle0" cx="481.2" cy="327.4" r="2.9"/>
	<circle class="chapterCircle0" cx="481.2" cy="335.9" r="2.9"/>
	<circle class="chapterCircle0" cx="481.2" cy="344.4" r="2.9"/>
	<circle class="chapterCircle0" cx="481.2" cy="352.9" r="2.9"/>
	<circle class="chapterCircle0" cx="481.2" cy="361.4" r="2.9"/>
	<circle class="chapterCircle0" cx="481.2" cy="369.9" r="2.9"/>
	<circle class="chapterCircle0" cx="481.2" cy="378.4" r="2.9"/>
	<circle class="chapterCircle0" cx="481.2" cy="386.9" r="2.9"/>
	<circle class="chapterCircle0" cx="481.2" cy="395.4" r="2.9"/>
	<circle class="chapterCircle0" cx="481.2" cy="403.9" r="2.9"/>
	<circle class="chapterCircle0" cx="481.2" cy="412.4" r="2.9"/>
	<circle class="chapterCircle0" cx="481.2" cy="420.9" r="2.9"/>
	<circle class="chapterCircle0" cx="481.2" cy="429.4" r="2.9"/>
	<circle class="chapterCircle0" cx="481.2" cy="437.9" r="2.9"/>
	<circle class="chapterCircle0" cx="481.2" cy="446.5" r="2.9"/>
	<circle class="chapterCircle0" cx="481.2" cy="455" r="2.9"/>
	<circle class="chapterCircle0" cx="481.2" cy="463.5" r="2.9"/>
	<circle class="chapterCircle0" cx="481.2" cy="472" r="2.9"/>
	<circle class="chapterCircle0" cx="481.2" cy="480.5" r="2.9"/>
	<circle class="chapterCircle0" cx="481.2" cy="489" r="2.9"/>
	<circle class="chapterCircle0" cx="481.2" cy="497.5" r="2.9"/>
	<circle class="chapterCircle0" cx="481.2" cy="506" r="2.9"/>
	<circle class="chapterCircle0" cx="481.2" cy="514.5" r="2.9"/>
	<circle class="chapterCircle0" cx="472.7" cy="208.3" r="2.9"/>
	<circle class="chapterCircle0" cx="472.7" cy="216.9" r="2.9"/>
	<circle class="chapterCircle0" cx="472.7" cy="259.4" r="2.9"/>
	<circle class="chapterCircle0" cx="472.7" cy="293.4" r="2.9"/>
	<circle class="chapterCircle0" cx="472.7" cy="352.9" r="2.9"/>
	<circle class="chapterCircle0" cx="472.7" cy="361.4" r="2.9"/>
	<circle class="chapterCircle0" cx="472.7" cy="369.9" r="2.9"/>
	<circle class="chapterCircle0" cx="472.7" cy="378.4" r="2.9"/>
	<circle class="chapterCircle0" cx="472.7" cy="386.9" r="2.9"/>
	<circle class="chapterCircle0" cx="472.7" cy="395.4" r="2.9"/>
	<circle class="chapterCircle0" cx="472.7" cy="403.9" r="2.9"/>
	<circle class="chapterCircle0" cx="472.7" cy="412.4" r="2.9"/>
	<circle class="chapterCircle0" cx="472.7" cy="420.9" r="2.9"/>
	<circle class="chapterCircle0" cx="472.7" cy="429.4" r="2.9"/>
	<circle class="chapterCircle0" cx="472.7" cy="437.9" r="2.9"/>
	<circle class="chapterCircle0" cx="472.7" cy="446.5" r="2.9"/>
	<circle class="chapterCircle0" cx="472.7" cy="455" r="2.9"/>
	<circle class="chapterCircle0" cx="472.7" cy="463.5" r="2.9"/>
	<circle class="chapterCircle0" cx="472.7" cy="472" r="2.9"/>
	<circle class="chapterCircle0" cx="472.7" cy="480.5" r="2.9"/>
	<circle class="chapterCircle0" cx="472.7" cy="489" r="2.9"/>
	<circle class="chapterCircle0" cx="472.7" cy="497.5" r="2.9"/>
	<circle class="chapterCircle0" cx="472.7" cy="506" r="2.9"/>
	<circle class="chapterCircle0" cx="472.7" cy="514.5" r="2.9"/>
	<circle class="chapterCircle0" cx="472.7" cy="523" r="2.9"/>
	<circle class="chapterCircle0" cx="472.7" cy="531.5" r="2.9"/>
	<circle class="chapterCircle0" cx="472.7" cy="540" r="2.9"/>
	<circle class="chapterCircle0" cx="464.2" cy="369.9" r="2.9"/>
	<circle class="chapterCircle0" cx="464.2" cy="378.4" r="2.9"/>
	<circle class="chapterCircle0" cx="464.2" cy="386.9" r="2.9"/>
	<circle class="chapterCircle0" cx="464.2" cy="395.4" r="2.9"/>
	<circle class="chapterCircle0" cx="464.2" cy="403.9" r="2.9"/>
	<circle class="chapterCircle0" cx="464.2" cy="412.4" r="2.9"/>
	<circle class="chapterCircle0" cx="464.2" cy="420.9" r="2.9"/>
	<circle class="chapterCircle0" cx="464.2" cy="429.4" r="2.9"/>
	<circle class="chapterCircle0" cx="464.2" cy="437.9" r="2.9"/>
	<circle class="chapterCircle0" cx="464.2" cy="446.5" r="2.9"/>
	<circle class="chapterCircle0" cx="464.2" cy="455" r="2.9"/>
	<circle class="chapterCircle0" cx="464.2" cy="463.5" r="2.9"/>
	<circle class="chapterCircle0" cx="464.2" cy="472" r="2.9"/>
	<circle class="chapterCircle0" cx="464.2" cy="480.5" r="2.9"/>
	<circle class="chapterCircle0" cx="464.2" cy="489" r="2.9"/>
	<circle class="chapterCircle0" cx="464.2" cy="497.5" r="2.9"/>
	<circle class="chapterCircle0" cx="464.2" cy="506" r="2.9"/>
	<circle class="chapterCircle0" cx="464.2" cy="514.5" r="2.9"/>
	<circle class="chapterCircle0" cx="464.2" cy="523" r="2.9"/>
	<circle class="chapterCircle0" cx="464.2" cy="531.5" r="2.9"/>
	<circle class="chapterCircle0" cx="455.7" cy="395.4" r="2.9"/>
	<circle class="chapterCircle0" cx="455.7" cy="403.9" r="2.9"/>
	<circle class="chapterCircle0" cx="455.7" cy="412.4" r="2.9"/>
	<circle class="chapterCircle0" cx="455.7" cy="420.9" r="2.9"/>
	<circle class="chapterCircle0" cx="455.7" cy="429.4" r="2.9"/>
	<circle class="chapterCircle0" cx="455.7" cy="437.9" r="2.9"/>
	<circle class="chapterCircle0" cx="455.7" cy="446.5" r="2.9"/>
	<circle class="chapterCircle0" cx="455.7" cy="455" r="2.9"/>
	<circle class="chapterCircle0" cx="455.7" cy="463.5" r="2.9"/>
	<circle class="chapterCircle0" cx="455.7" cy="472" r="2.9"/>
	<circle class="chapterCircle0" cx="455.7" cy="480.5" r="2.9"/>
	<circle class="chapterCircle0" cx="455.7" cy="489" r="2.9"/>
	<circle class="chapterCircle0" cx="455.7" cy="497.5" r="2.9"/>
	<circle class="chapterCircle0" cx="455.7" cy="506" r="2.9"/>
	<circle class="chapterCircle0" cx="455.7" cy="514.5" r="2.9"/>
	<circle class="chapterCircle0" cx="455.7" cy="523" r="2.9"/>
	<circle class="chapterCircle0" cx="455.7" cy="531.5" r="2.9"/>
	<circle class="chapterCircle0" cx="455.7" cy="540" r="2.9"/>
	<circle class="chapterCircle0" cx="447.2" cy="403.9" r="2.9"/>
	<circle class="chapterCircle0" cx="447.2" cy="412.4" r="2.9"/>
	<circle class="chapterCircle0" cx="447.2" cy="420.9" r="2.9"/>
	<circle class="chapterCircle0" cx="447.2" cy="429.4" r="2.9"/>
	<circle class="chapterCircle0" cx="447.2" cy="437.9" r="2.9"/>
	<circle class="chapterCircle0" cx="447.2" cy="446.5" r="2.9"/>
	<circle class="chapterCircle0" cx="447.2" cy="455" r="2.9"/>
	<circle class="chapterCircle0" cx="447.2" cy="463.5" r="2.9"/>
	<circle class="chapterCircle0" cx="447.2" cy="472" r="2.9"/>
	<circle class="chapterCircle0" cx="447.2" cy="480.5" r="2.9"/>
	<circle class="chapterCircle0" cx="447.2" cy="489" r="2.9"/>
	<circle class="chapterCircle0" cx="447.2" cy="497.5" r="2.9"/>
	<circle class="chapterCircle0" cx="447.2" cy="506" r="2.9"/>
	<circle class="chapterCircle0" cx="447.2" cy="514.5" r="2.9"/>
	<circle class="chapterCircle0" cx="447.2" cy="523" r="2.9"/>
	<circle class="chapterCircle0" cx="447.2" cy="531.5" r="2.9"/>
	<circle class="chapterCircle0" cx="447.2" cy="540" r="2.9"/>
	<circle class="chapterCircle0" cx="447.2" cy="548.5" r="2.9"/>
	<circle class="chapterCircle0" cx="447.2" cy="557" r="2.9"/>
	<circle class="chapterCircle0" cx="447.2" cy="565.5" r="2.9"/>
	<circle class="chapterCircle0" cx="438.7" cy="403.9" r="2.9"/>
	<circle class="chapterCircle0" cx="438.7" cy="412.4" r="2.9"/>
	<circle class="chapterCircle0" cx="438.7" cy="420.9" r="2.9"/>
	<circle class="chapterCircle0" cx="438.7" cy="429.4" r="2.9"/>
	<circle class="chapterCircle0" cx="438.7" cy="437.9" r="2.9"/>
	<circle class="chapterCircle0" cx="438.7" cy="446.5" r="2.9"/>
	<circle class="chapterCircle0" cx="438.7" cy="455" r="2.9"/>
	<circle class="chapterCircle0" cx="438.7" cy="463.5" r="2.9"/>
	<circle class="chapterCircle0" cx="438.7" cy="472" r="2.9"/>
	<circle class="chapterCircle0" cx="438.7" cy="480.5" r="2.9"/>
	<circle class="chapterCircle0" cx="438.7" cy="489" r="2.9"/>
	<circle class="chapterCircle0" cx="438.7" cy="497.5" r="2.9"/>
	<circle class="chapterCircle0" cx="438.7" cy="506" r="2.9"/>
	<circle class="chapterCircle0" cx="438.7" cy="514.5" r="2.9"/>
	<circle class="chapterCircle0" cx="438.7" cy="523" r="2.9"/>
	<circle class="chapterCircle0" cx="438.7" cy="531.5" r="2.9"/>
	<circle class="chapterCircle0" cx="438.7" cy="540" r="2.9"/>
	<circle class="chapterCircle0" cx="438.7" cy="548.5" r="2.9"/>
	<circle class="chapterCircle0" cx="438.7" cy="557" r="2.9"/>
	<circle class="chapterCircle0" cx="438.7" cy="565.5" r="2.9"/>
	<circle class="chapterCircle0" cx="430.2" cy="429.4" r="2.9"/>
	<circle class="chapterCircle0" cx="430.2" cy="437.9" r="2.9"/>
	<circle class="chapterCircle0" cx="430.2" cy="446.5" r="2.9"/>
	<circle class="chapterCircle0" cx="430.2" cy="455" r="2.9"/>
	<circle class="chapterCircle0" cx="430.2" cy="463.5" r="2.9"/>
	<circle class="chapterCircle0" cx="430.2" cy="472" r="2.9"/>
	<circle class="chapterCircle0" cx="430.2" cy="480.5" r="2.9"/>
	<circle class="chapterCircle0" cx="430.2" cy="489" r="2.9"/>
	<circle class="chapterCircle0" cx="430.2" cy="497.5" r="2.9"/>
	<circle class="chapterCircle0" cx="430.2" cy="506" r="2.9"/>
	<circle class="chapterCircle0" cx="430.2" cy="514.5" r="2.9"/>
	<circle class="chapterCircle0" cx="430.2" cy="523" r="2.9"/>
	<circle class="chapterCircle0" cx="430.2" cy="531.5" r="2.9"/>
	<circle class="chapterCircle0" cx="430.2" cy="540" r="2.9"/>
	<circle class="chapterCircle0" cx="430.2" cy="548.5" r="2.9"/>
	<circle class="chapterCircle0" cx="421.7" cy="386.9" r="2.9"/>
	<circle class="chapterCircle0" cx="421.7" cy="395.4" r="2.9"/>
	<circle class="chapterCircle0" cx="421.7" cy="437.9" r="2.9"/>
	<circle class="chapterCircle0" cx="421.7" cy="446.5" r="2.9"/>
	<circle class="chapterCircle0" cx="421.7" cy="455" r="2.9"/>
	<circle class="chapterCircle0" cx="421.7" cy="463.5" r="2.9"/>
	<circle class="chapterCircle0" cx="421.7" cy="472" r="2.9"/>
	<circle class="chapterCircle0" cx="421.7" cy="480.5" r="2.9"/>
	<circle class="chapterCircle0" cx="421.7" cy="489" r="2.9"/>
	<circle class="chapterCircle0" cx="421.7" cy="497.5" r="2.9"/>
	<circle class="chapterCircle0" cx="421.7" cy="506" r="2.9"/>
	<circle class="chapterCircle0" cx="421.7" cy="514.5" r="2.9"/>
	<circle class="chapterCircle0" cx="421.7" cy="523" r="2.9"/>
	<circle class="chapterCircle0" cx="421.7" cy="531.5" r="2.9"/>
	<circle class="chapterCircle0" cx="421.7" cy="540" r="2.9"/>
	<circle class="chapterCircle0" cx="421.7" cy="548.5" r="2.9"/>
	<circle class="chapterCircle0" cx="421.7" cy="557" r="2.9"/>
	<circle class="chapterCircle0" cx="413.2" cy="395.4" r="2.9"/>
	<circle class="chapterCircle0" cx="413.2" cy="403.9" r="2.9"/>
	<circle class="chapterCircle0" cx="413.2" cy="437.9" r="2.9"/>
	<circle class="chapterCircle0" cx="413.2" cy="446.5" r="2.9"/>
	<circle class="chapterCircle0" cx="413.2" cy="455" r="2.9"/>
	<circle class="chapterCircle0" cx="413.2" cy="463.5" r="2.9"/>
	<circle class="chapterCircle0" cx="413.2" cy="472" r="2.9"/>
	<circle class="chapterCircle0" cx="413.2" cy="480.5" r="2.9"/>
	<circle class="chapterCircle0" cx="413.2" cy="489" r="2.9"/>
	<circle class="chapterCircle0" cx="413.2" cy="497.5" r="2.9"/>
	<circle class="chapterCircle0" cx="413.2" cy="506" r="2.9"/>
	<circle class="chapterCircle0" cx="413.2" cy="514.5" r="2.9"/>
	<circle class="chapterCircle0" cx="413.2" cy="523" r="2.9"/>
	<circle class="chapterCircle0" cx="413.2" cy="531.5" r="2.9"/>
	<circle class="chapterCircle0" cx="413.2" cy="540" r="2.9"/>
	<circle class="chapterCircle0" cx="413.2" cy="548.5" r="2.9"/>
	<circle class="chapterCircle0" cx="413.2" cy="557" r="2.9"/>
	<circle class="chapterCircle0" cx="413.2" cy="565.5" r="2.9"/>
	<circle class="chapterCircle0" cx="413.2" cy="574" r="2.9"/>
	<circle class="chapterCircle0" cx="404.7" cy="446.5" r="2.9"/>
	<circle class="chapterCircle0" cx="404.7" cy="455" r="2.9"/>
	<circle class="chapterCircle0" cx="404.7" cy="463.5" r="2.9"/>
	<circle class="chapterCircle0" cx="404.7" cy="472" r="2.9"/>
	<circle class="chapterCircle0" cx="404.7" cy="480.5" r="2.9"/>
	<circle class="chapterCircle0" cx="404.7" cy="489" r="2.9"/>
	<circle class="chapterCircle0" cx="404.7" cy="497.5" r="2.9"/>
	<circle class="chapterCircle0" cx="404.7" cy="506" r="2.9"/>
	<circle class="chapterCircle0" cx="404.7" cy="514.5" r="2.9"/>
	<circle class="chapterCircle0" cx="404.7" cy="523" r="2.9"/>
	<circle class="chapterCircle0" cx="404.7" cy="531.5" r="2.9"/>
	<circle class="chapterCircle0" cx="404.7" cy="540" r="2.9"/>
	<circle class="chapterCircle0" cx="404.7" cy="548.5" r="2.9"/>
	<circle class="chapterCircle0" cx="404.7" cy="557" r="2.9"/>
	<circle class="chapterCircle0" cx="404.7" cy="565.5" r="2.9"/>
	<circle class="chapterCircle0" cx="396.2" cy="455" r="2.9"/>
	<circle class="chapterCircle0" cx="396.2" cy="463.5" r="2.9"/>
	<circle class="chapterCircle0" cx="396.2" cy="472" r="2.9"/>
	<circle class="chapterCircle0" cx="396.2" cy="480.5" r="2.9"/>
	<circle class="chapterCircle0" cx="396.2" cy="489" r="2.9"/>
	<circle class="chapterCircle0" cx="396.2" cy="497.5" r="2.9"/>
	<circle class="chapterCircle0" cx="396.2" cy="506" r="2.9"/>
	<circle class="chapterCircle0" cx="396.2" cy="514.5" r="2.9"/>
	<circle class="chapterCircle0" cx="396.2" cy="523" r="2.9"/>
	<circle class="chapterCircle0" cx="396.2" cy="531.5" r="2.9"/>
	<circle class="chapterCircle0" cx="396.2" cy="540" r="2.9"/>
	<circle class="chapterCircle0" cx="396.2" cy="548.5" r="2.9"/>
	<circle class="chapterCircle0" cx="396.2" cy="557" r="2.9"/>
	<circle class="chapterCircle0" cx="396.2" cy="565.5" r="2.9"/>
	<circle class="chapterCircle0" cx="387.7" cy="455" r="2.9"/>
	<circle class="chapterCircle0" cx="387.7" cy="463.5" r="2.9"/>
	<circle class="chapterCircle0" cx="387.7" cy="472" r="2.9"/>
	<circle class="chapterCircle0" cx="387.7" cy="480.5" r="2.9"/>
	<circle class="chapterCircle0" cx="387.7" cy="489" r="2.9"/>
	<circle class="chapterCircle0" cx="387.7" cy="497.5" r="2.9"/>
	<circle class="chapterCircle0" cx="387.7" cy="506" r="2.9"/>
	<circle class="chapterCircle0" cx="387.7" cy="514.5" r="2.9"/>
	<circle class="chapterCircle0" cx="387.7" cy="523" r="2.9"/>
	<circle class="chapterCircle0" cx="387.7" cy="531.5" r="2.9"/>
	<circle class="chapterCircle0" cx="387.7" cy="540" r="2.9"/>
	<circle class="chapterCircle0" cx="387.7" cy="548.5" r="2.9"/>
	<circle class="chapterCircle0" cx="387.7" cy="557" r="2.9"/>
	<circle class="chapterCircle0" cx="387.7" cy="565.5" r="2.9"/>
	<circle class="chapterCircle0" cx="379.1" cy="455" r="2.9"/>
	<circle class="chapterCircle0" cx="379.1" cy="463.5" r="2.9"/>
	<circle class="chapterCircle0" cx="379.1" cy="472" r="2.9"/>
	<circle class="chapterCircle0" cx="379.1" cy="480.5" r="2.9"/>
	<circle class="chapterCircle0" cx="379.1" cy="489" r="2.9"/>
	<circle class="chapterCircle0" cx="379.1" cy="497.5" r="2.9"/>
	<circle class="chapterCircle0" cx="379.1" cy="506" r="2.9"/>
	<circle class="chapterCircle0" cx="379.1" cy="514.5" r="2.9"/>
	<circle class="chapterCircle0" cx="379.1" cy="523" r="2.9"/>
	<circle class="chapterCircle0" cx="379.1" cy="531.5" r="2.9"/>
	<circle class="chapterCircle0" cx="379.1" cy="540" r="2.9"/>
	<circle class="chapterCircle0" cx="379.1" cy="548.5" r="2.9"/>
	<circle class="chapterCircle0" cx="379.1" cy="557" r="2.9"/>
	<circle class="chapterCircle0" cx="379.1" cy="565.5" r="2.9"/>
	<circle class="chapterCircle0" cx="370.6" cy="429.4" r="2.9"/>
	<circle class="chapterCircle0" cx="370.6" cy="463.5" r="2.9"/>
	<circle class="chapterCircle0" cx="370.6" cy="472" r="2.9"/>
	<circle class="chapterCircle0" cx="370.6" cy="480.5" r="2.9"/>
	<circle class="chapterCircle0" cx="370.6" cy="489" r="2.9"/>
	<circle class="chapterCircle0" cx="370.6" cy="497.5" r="2.9"/>
	<circle class="chapterCircle0" cx="370.6" cy="506" r="2.9"/>
	<circle class="chapterCircle0" cx="370.6" cy="514.5" r="2.9"/>
	<circle class="chapterCircle0" cx="370.6" cy="523" r="2.9"/>
	<circle class="chapterCircle0" cx="370.6" cy="531.5" r="2.9"/>
	<circle class="chapterCircle0" cx="370.6" cy="540" r="2.9"/>
	<circle class="chapterCircle0" cx="370.6" cy="548.5" r="2.9"/>
	<circle class="chapterCircle0" cx="370.6" cy="557" r="2.9"/>
	<circle class="chapterCircle0" cx="370.6" cy="565.5" r="2.9"/>
	<circle class="chapterCircle0" cx="370.6" cy="574" r="2.9"/>
	<circle class="chapterCircle0" cx="362.1" cy="429.4" r="2.9"/>
	<circle class="chapterCircle0" cx="362.1" cy="437.9" r="2.9"/>
	<circle class="chapterCircle0" cx="362.1" cy="446.5" r="2.9"/>
	<circle class="chapterCircle0" cx="362.1" cy="455" r="2.9"/>
	<circle class="chapterCircle0" cx="362.1" cy="463.5" r="2.9"/>
	<circle class="chapterCircle0" cx="362.1" cy="472" r="2.9"/>
	<circle class="chapterCircle0" cx="362.1" cy="480.5" r="2.9"/>
	<circle class="chapterCircle0" cx="362.1" cy="489" r="2.9"/>
	<circle class="chapterCircle0" cx="362.1" cy="497.5" r="2.9"/>
	<circle class="chapterCircle0" cx="362.1" cy="506" r="2.9"/>
	<circle class="chapterCircle0" cx="362.1" cy="514.5" r="2.9"/>
	<circle class="chapterCircle0" cx="362.1" cy="523" r="2.9"/>
	<circle class="chapterCircle0" cx="362.1" cy="531.5" r="2.9"/>
	<circle class="chapterCircle0" cx="362.1" cy="540" r="2.9"/>
	<circle class="chapterCircle0" cx="362.1" cy="548.5" r="2.9"/>
	<circle class="chapterCircle0" cx="362.1" cy="557" r="2.9"/>
	<circle class="chapterCircle0" cx="362.1" cy="565.5" r="2.9"/>
	<circle class="chapterCircle0" cx="353.6" cy="429.4" r="2.9"/>
	<circle class="chapterCircle0" cx="353.6" cy="437.9" r="2.9"/>
	<circle class="chapterCircle0" cx="353.6" cy="446.5" r="2.9"/>
	<circle class="chapterCircle0" cx="353.6" cy="455" r="2.9"/>
	<circle class="chapterCircle0" cx="353.6" cy="463.5" r="2.9"/>
	<circle class="chapterCircle0" cx="353.6" cy="472" r="2.9"/>
	<circle class="chapterCircle0" cx="353.6" cy="480.5" r="2.9"/>
	<circle class="chapterCircle0" cx="353.6" cy="489" r="2.9"/>
	<circle class="chapterCircle0" cx="353.6" cy="497.5" r="2.9"/>
	<circle class="chapterCircle0" cx="353.6" cy="506" r="2.9"/>
	<circle class="chapterCircle0" cx="353.6" cy="514.5" r="2.9"/>
	<circle class="chapterCircle0" cx="353.6" cy="523" r="2.9"/>
	<circle class="chapterCircle0" cx="353.6" cy="531.5" r="2.9"/>
	<circle class="chapterCircle0" cx="353.6" cy="540" r="2.9"/>
	<circle class="chapterCircle0" cx="353.6" cy="548.5" r="2.9"/>
	<circle class="chapterCircle0" cx="353.6" cy="582.5" r="2.9"/>
	<circle class="chapterCircle0" cx="353.6" cy="591" r="2.9"/>
	<circle class="chapterCircle0" cx="345.1" cy="480.5" r="2.9"/>
	<circle class="chapterCircle0" cx="345.1" cy="489" r="2.9"/>
	<circle class="chapterCircle0" cx="345.1" cy="497.5" r="2.9"/>
	<circle class="chapterCircle0" cx="345.1" cy="506" r="2.9"/>
	<circle class="chapterCircle0" cx="345.1" cy="514.5" r="2.9"/>
	<circle class="chapterCircle0" cx="345.1" cy="523" r="2.9"/>
	<circle class="chapterCircle0" cx="345.1" cy="531.5" r="2.9"/>
	<circle class="chapterCircle0" cx="345.1" cy="540" r="2.9"/>
	<circle class="chapterCircle0" cx="345.1" cy="548.5" r="2.9"/>
	<circle class="chapterCircle0" cx="345.1" cy="557" r="2.9"/>
	<circle class="chapterCircle0" cx="345.1" cy="565.5" r="2.9"/>
	<circle class="chapterCircle0" cx="345.1" cy="574" r="2.9"/>
	<circle class="chapterCircle0" cx="345.1" cy="582.5" r="2.9"/>
	<circle class="chapterCircle0" cx="345.1" cy="591" r="2.9"/>
	<circle class="chapterCircle0" cx="336.6" cy="480.5" r="2.9"/>
	<circle class="chapterCircle0" cx="336.6" cy="489" r="2.9"/>
	<circle class="chapterCircle0" cx="336.6" cy="497.5" r="2.9"/>
	<circle class="chapterCircle0" cx="336.6" cy="506" r="2.9"/>
	<circle class="chapterCircle0" cx="336.6" cy="514.5" r="2.9"/>
	<circle class="chapterCircle0" cx="336.6" cy="523" r="2.9"/>
	<circle class="chapterCircle0" cx="336.6" cy="531.5" r="2.9"/>
	<circle class="chapterCircle0" cx="336.6" cy="540" r="2.9"/>
	<circle class="chapterCircle0" cx="336.6" cy="548.5" r="2.9"/>
	<circle class="chapterCircle0" cx="336.6" cy="557" r="2.9"/>
	<circle class="chapterCircle0" cx="336.6" cy="565.5" r="2.9"/>
	<circle class="chapterCircle0" cx="336.6" cy="574" r="2.9"/>
	<circle class="chapterCircle0" cx="336.6" cy="582.5" r="2.9"/>
	<circle class="chapterCircle0" cx="336.6" cy="591" r="2.9"/>
	<circle class="chapterCircle0" cx="336.6" cy="599.5" r="2.9"/>
	<circle class="chapterCircle0" cx="328.1" cy="489" r="2.9"/>
	<circle class="chapterCircle0" cx="328.1" cy="497.5" r="2.9"/>
	<circle class="chapterCircle0" cx="328.1" cy="506" r="2.9"/>
	<circle class="chapterCircle0" cx="328.1" cy="514.5" r="2.9"/>
	<circle class="chapterCircle0" cx="328.1" cy="523" r="2.9"/>
	<circle class="chapterCircle0" cx="328.1" cy="531.5" r="2.9"/>
	<circle class="chapterCircle0" cx="328.1" cy="540" r="2.9"/>
	<circle class="chapterCircle0" cx="328.1" cy="548.5" r="2.9"/>
	<circle class="chapterCircle0" cx="328.1" cy="557" r="2.9"/>
	<circle class="chapterCircle0" cx="328.1" cy="565.5" r="2.9"/>
	<circle class="chapterCircle0" cx="328.1" cy="574" r="2.9"/>
	<circle class="chapterCircle0" cx="328.1" cy="582.5" r="2.9"/>
	<circle class="chapterCircle0" cx="328.1" cy="591" r="2.9"/>
	<circle class="chapterCircle0" cx="328.1" cy="599.5" r="2.9"/>
	<circle class="chapterCircle0" cx="328.1" cy="608" r="2.9"/>
	<circle class="chapterCircle0" cx="319.6" cy="497.5" r="2.9"/>
	<circle class="chapterCircle0" cx="319.6" cy="506" r="2.9"/>
	<circle class="chapterCircle0" cx="319.6" cy="523" r="2.9"/>
	<circle class="chapterCircle0" cx="319.6" cy="531.5" r="2.9"/>
	<circle class="chapterCircle0" cx="319.6" cy="540" r="2.9"/>
	<circle class="chapterCircle0" cx="319.6" cy="548.5" r="2.9"/>
	<circle class="chapterCircle0" cx="319.6" cy="557" r="2.9"/>
	<circle class="chapterCircle0" cx="319.6" cy="565.5" r="2.9"/>
	<circle class="chapterCircle0" cx="319.6" cy="574" r="2.9"/>
	<circle class="chapterCircle0" cx="319.6" cy="582.5" r="2.9"/>
	<circle class="chapterCircle0" cx="319.6" cy="591" r="2.9"/>
	<circle class="chapterCircle0" cx="319.6" cy="599.5" r="2.9"/>
	<circle class="chapterCircle0" cx="319.6" cy="608" r="2.9"/>
	<circle class="chapterCircle0" cx="319.6" cy="616.5" r="2.9"/>
	<circle class="chapterCircle0" cx="319.6" cy="625" r="2.9"/>
	<circle class="chapterCircle0" cx="311.1" cy="531.5" r="2.9"/>
	<circle class="chapterCircle0" cx="311.1" cy="540" r="2.9"/>
	<circle class="chapterCircle0" cx="311.1" cy="548.5" r="2.9"/>
	<circle class="chapterCircle0" cx="311.1" cy="557" r="2.9"/>
	<circle class="chapterCircle0" cx="311.1" cy="565.5" r="2.9"/>
	<circle class="chapterCircle0" cx="311.1" cy="574" r="2.9"/>
	<circle class="chapterCircle0" cx="311.1" cy="582.5" r="2.9"/>
	<circle class="chapterCircle0" cx="311.1" cy="591" r="2.9"/>
	<circle class="chapterCircle0" cx="311.1" cy="599.5" r="2.9"/>
	<circle class="chapterCircle0" cx="311.1" cy="608" r="2.9"/>
	<circle class="chapterCircle0" cx="311.1" cy="616.5" r="2.9"/>
	<circle class="chapterCircle0" cx="311.1" cy="625" r="2.9"/>
	<circle class="chapterCircle0" cx="311.1" cy="633.5" r="2.9"/>
	<circle class="chapterCircle0" cx="302.6" cy="531.5" r="2.9"/>
	<circle class="chapterCircle0" cx="302.6" cy="540" r="2.9"/>
	<circle class="chapterCircle0" cx="302.6" cy="548.5" r="2.9"/>
	<circle class="chapterCircle0" cx="302.6" cy="557" r="2.9"/>
	<circle class="chapterCircle0" cx="302.6" cy="565.5" r="2.9"/>
	<circle class="chapterCircle0" cx="302.6" cy="574" r="2.9"/>
	<circle class="chapterCircle0" cx="302.6" cy="582.5" r="2.9"/>
	<circle class="chapterCircle0" cx="302.6" cy="591" r="2.9"/>
	<circle class="chapterCircle0" cx="302.6" cy="599.5" r="2.9"/>
	<circle class="chapterCircle0" cx="302.6" cy="608" r="2.9"/>
	<circle class="chapterCircle0" cx="302.6" cy="616.5" r="2.9"/>
	<circle class="chapterCircle0" cx="302.6" cy="625" r="2.9"/>
	<circle class="chapterCircle0" cx="294.1" cy="531.5" r="2.9"/>
	<circle class="chapterCircle0" cx="294.1" cy="540" r="2.9"/>
	<circle class="chapterCircle0" cx="294.1" cy="548.5" r="2.9"/>
	<circle class="chapterCircle0" cx="294.1" cy="557" r="2.9"/>
	<circle class="chapterCircle0" cx="294.1" cy="565.5" r="2.9"/>
	<circle class="chapterCircle0" cx="294.1" cy="582.5" r="2.9"/>
	<circle class="chapterCircle0" cx="294.1" cy="591" r="2.9"/>
	<circle class="chapterCircle0" cx="294.1" cy="599.5" r="2.9"/>
	<circle class="chapterCircle0" cx="294.1" cy="608" r="2.9"/>
	<circle class="chapterCircle0" cx="294.1" cy="616.5" r="2.9"/>
	<circle class="chapterCircle0" cx="294.1" cy="625" r="2.9"/>
	<circle class="chapterCircle0" cx="200.6" cy="523" r="2.9"/>
	<circle class="chapterCircle0" cx="285.6" cy="523" r="2.9"/>
	<circle class="chapterCircle0" cx="285.6" cy="531.5" r="2.9"/>
	<circle class="chapterCircle0" cx="285.6" cy="540" r="2.9"/>
	<circle class="chapterCircle0" cx="285.6" cy="548.5" r="2.9"/>
	<circle class="chapterCircle0" cx="285.6" cy="557" r="2.9"/>
	<circle class="chapterCircle0" cx="285.6" cy="565.5" r="2.9"/>
	<circle class="chapterCircle0" cx="285.6" cy="591" r="2.9"/>
	<circle class="chapterCircle0" cx="285.6" cy="599.5" r="2.9"/>
	<circle class="chapterCircle0" cx="285.6" cy="608" r="2.9"/>
	<circle class="chapterCircle0" cx="285.6" cy="616.5" r="2.9"/>
	<circle class="chapterCircle0" cx="277.1" cy="523" r="2.9"/>
	<circle class="chapterCircle0" cx="277.1" cy="531.5" r="2.9"/>
	<circle class="chapterCircle0" cx="277.1" cy="540" r="2.9"/>
	<circle class="chapterCircle0" cx="277.1" cy="548.5" r="2.9"/>
	<circle class="chapterCircle0" cx="277.1" cy="557" r="2.9"/>
	<circle class="chapterCircle0" cx="277.1" cy="565.5" r="2.9"/>
	<circle class="chapterCircle0" cx="277.1" cy="574" r="2.9"/>
	<circle class="chapterCircle0" cx="277.1" cy="582.5" r="2.9"/>
	<circle class="chapterCircle0" cx="268.6" cy="523" r="2.9"/>
	<circle class="chapterCircle0" cx="268.6" cy="531.5" r="2.9"/>
	<circle class="chapterCircle0" cx="268.6" cy="540" r="2.9"/>
	<circle class="chapterCircle0" cx="268.6" cy="548.5" r="2.9"/>
	<circle class="chapterCircle0" cx="268.6" cy="557" r="2.9"/>
	<circle class="chapterCircle0" cx="268.6" cy="565.5" r="2.9"/>
	<circle class="chapterCircle0" cx="268.6" cy="582.5" r="2.9"/>
	<circle class="chapterCircle0" cx="268.6" cy="591" r="2.9"/>
	<circle class="chapterCircle0" cx="260.1" cy="523" r="2.9"/>
	<circle class="chapterCircle0" cx="260.1" cy="531.5" r="2.9"/>
	<circle class="chapterCircle0" cx="260.1" cy="540" r="2.9"/>
	<circle class="chapterCircle0" cx="260.1" cy="548.5" r="2.9"/>
	<circle class="chapterCircle0" cx="260.1" cy="557" r="2.9"/>
	<circle class="chapterCircle0" cx="260.1" cy="565.5" r="2.9"/>
	<circle class="chapterCircle0" cx="260.1" cy="599.5" r="2.9"/>
	<circle class="chapterCircle0" cx="260.1" cy="608" r="2.9"/>
	<circle class="chapterCircle0" cx="260.1" cy="616.5" r="2.9"/>
	<circle class="chapterCircle0" cx="251.6" cy="523" r="2.9"/>
	<circle class="chapterCircle0" cx="251.6" cy="531.5" r="2.9"/>
	<circle class="chapterCircle0" cx="251.6" cy="540" r="2.9"/>
	<circle class="chapterCircle0" cx="251.6" cy="548.5" r="2.9"/>
	<circle class="chapterCircle0" cx="251.6" cy="557" r="2.9"/>
	<circle class="chapterCircle0" cx="251.6" cy="565.5" r="2.9"/>
	<circle class="chapterCircle0" cx="251.6" cy="582.5" r="2.9"/>
	<circle class="chapterCircle0" cx="251.6" cy="599.5" r="2.9"/>
	<circle class="chapterCircle0" cx="251.6" cy="608" r="2.9"/>
	<circle class="chapterCircle0" cx="251.6" cy="616.5" r="2.9"/>
	<circle class="chapterCircle0" cx="251.6" cy="625" r="2.9"/>
	<circle class="chapterCircle0" cx="243.1" cy="531.5" r="2.9"/>
	<circle class="chapterCircle0" cx="243.1" cy="540" r="2.9"/>
	<circle class="chapterCircle0" cx="243.1" cy="548.5" r="2.9"/>
	<circle class="chapterCircle0" cx="243.1" cy="557" r="2.9"/>
	<circle class="chapterCircle0" cx="243.1" cy="565.5" r="2.9"/>
	<circle class="chapterCircle0" cx="243.1" cy="574" r="2.9"/>
	<circle class="chapterCircle0" cx="243.1" cy="591" r="2.9"/>
	<circle class="chapterCircle0" cx="243.1" cy="599.5" r="2.9"/>
	<circle class="chapterCircle0" cx="243.1" cy="608" r="2.9"/>
	<circle class="chapterCircle0" cx="243.1" cy="616.5" r="2.9"/>
	<circle class="chapterCircle0" cx="243.1" cy="625" r="2.9"/>
	<circle class="chapterCircle0" cx="243.1" cy="633.5" r="2.9"/>
	<circle class="chapterCircle0" cx="243.1" cy="642" r="2.9"/>
	<circle class="chapterCircle0" cx="234.6" cy="531.5" r="2.9"/>
	<circle class="chapterCircle0" cx="234.6" cy="540" r="2.9"/>
	<circle class="chapterCircle0" cx="234.6" cy="548.5" r="2.9"/>
	<circle class="chapterCircle0" cx="234.6" cy="557" r="2.9"/>
	<circle class="chapterCircle0" cx="234.6" cy="565.5" r="2.9"/>
	<circle class="chapterCircle0" cx="234.6" cy="574" r="2.9"/>
	<circle class="chapterCircle0" cx="234.6" cy="591" r="2.9"/>
	<circle class="chapterCircle0" cx="234.6" cy="599.5" r="2.9"/>
	<circle class="chapterCircle0" cx="234.6" cy="608" r="2.9"/>
	<circle class="chapterCircle0" cx="234.6" cy="616.5" r="2.9"/>
	<circle class="chapterCircle0" cx="234.6" cy="625" r="2.9"/>
	<circle class="chapterCircle0" cx="234.6" cy="633.5" r="2.9"/>
	<circle class="chapterCircle0" cx="226.1" cy="531.5" r="2.9"/>
	<circle class="chapterCircle0" cx="226.1" cy="540" r="2.9"/>
	<circle class="chapterCircle0" cx="226.1" cy="548.5" r="2.9"/>
	<circle class="chapterCircle0" cx="226.1" cy="557" r="2.9"/>
	<circle class="chapterCircle0" cx="226.1" cy="565.5" r="2.9"/>
	<circle class="chapterCircle0" cx="226.1" cy="574" r="2.9"/>
	<circle class="chapterCircle0" cx="226.1" cy="591" r="2.9"/>
	<circle class="chapterCircle0" cx="226.1" cy="599.5" r="2.9"/>
	<circle class="chapterCircle0" cx="226.1" cy="608" r="2.9"/>
	<circle class="chapterCircle0" cx="226.1" cy="616.5" r="2.9"/>
	<circle class="chapterCircle0" cx="226.1" cy="625" r="2.9"/>
	<circle class="chapterCircle0" cx="217.6" cy="531.5" r="2.9"/>
	<circle class="chapterCircle0" cx="217.6" cy="540" r="2.9"/>
	<circle class="chapterCircle0" cx="217.6" cy="548.5" r="2.9"/>
	<circle class="chapterCircle0" cx="217.6" cy="557" r="2.9"/>
	<circle class="chapterCircle0" cx="217.6" cy="565.5" r="2.9"/>
	<circle class="chapterCircle0" cx="217.6" cy="574" r="2.9"/>
	<circle class="chapterCircle0" cx="217.6" cy="608" r="2.9"/>
	<circle class="chapterCircle0" cx="217.6" cy="616.5" r="2.9"/>
	<circle class="chapterCircle0" cx="217.6" cy="625" r="2.9"/>
	<circle class="chapterCircle0" cx="209.1" cy="531.5" r="2.9"/>
	<circle class="chapterCircle0" cx="209.1" cy="540" r="2.9"/>
	<circle class="chapterCircle0" cx="209.1" cy="548.5" r="2.9"/>
	<circle class="chapterCircle0" cx="209.1" cy="557" r="2.9"/>
	<circle class="chapterCircle0" cx="209.1" cy="565.5" r="2.9"/>
	<circle class="chapterCircle0" cx="209.1" cy="574" r="2.9"/>
	<circle class="chapterCircle0" cx="209.1" cy="582.5" r="2.9"/>
	<circle class="chapterCircle0" cx="209.1" cy="608" r="2.9"/>
	<circle class="chapterCircle0" cx="209.1" cy="616.5" r="2.9"/>
	<circle class="chapterCircle0" cx="209.1" cy="625" r="2.9"/>
	<circle class="chapterCircle0" cx="209.1" cy="633.5" r="2.9"/>
	<circle class="chapterCircle0" cx="200.6" cy="531.5" r="2.9"/>
	<circle class="chapterCircle0" cx="200.6" cy="540" r="2.9"/>
	<circle class="chapterCircle0" cx="200.6" cy="548.5" r="2.9"/>
	<circle class="chapterCircle0" cx="200.6" cy="557" r="2.9"/>
	<circle class="chapterCircle0" cx="200.6" cy="565.5" r="2.9"/>
	<circle class="chapterCircle0" cx="200.6" cy="574" r="2.9"/>
	<circle class="chapterCircle0" cx="200.6" cy="582.5" r="2.9"/>
	<circle class="chapterCircle0" cx="200.6" cy="608" r="2.9"/>
	<circle class="chapterCircle0" cx="200.6" cy="616.5" r="2.9"/>
	<circle class="chapterCircle0" cx="200.6" cy="625" r="2.9"/>
	<circle class="chapterCircle0" cx="200.6" cy="633.5" r="2.9"/>
	<circle class="chapterCircle0" cx="200.6" cy="642" r="2.9"/>
	<circle class="chapterCircle0" cx="192.1" cy="531.5" r="2.9"/>
	<circle class="chapterCircle0" cx="192.1" cy="540" r="2.9"/>
	<circle class="chapterCircle0" cx="192.1" cy="548.5" r="2.9"/>
	<circle class="chapterCircle0" cx="192.1" cy="557" r="2.9"/>
	<circle class="chapterCircle0" cx="192.1" cy="565.5" r="2.9"/>
	<circle class="chapterCircle0" cx="192.1" cy="574" r="2.9"/>
	<circle class="chapterCircle0" cx="192.1" cy="582.5" r="2.9"/>
	<circle class="chapterCircle0" cx="192.1" cy="608" r="2.9"/>
	<circle class="chapterCircle0" cx="192.1" cy="616.5" r="2.9"/>
	<circle class="chapterCircle0" cx="192.1" cy="625" r="2.9"/>
	<circle class="chapterCircle0" cx="192.1" cy="633.5" r="2.9"/>
	<circle class="chapterCircle0" cx="192.1" cy="642" r="2.9"/>
	<circle class="chapterCircle0" cx="192.1" cy="650.5" r="2.9"/>
	<circle class="chapterCircle0" cx="192.1" cy="659" r="2.9"/>
	<circle class="chapterCircle0" cx="183.6" cy="531.5" r="2.9"/>
	<circle class="chapterCircle0" cx="183.6" cy="540" r="2.9"/>
	<circle class="chapterCircle0" cx="183.6" cy="548.5" r="2.9"/>
	<circle class="chapterCircle0" cx="183.6" cy="557" r="2.9"/>
	<circle class="chapterCircle0" cx="183.6" cy="565.5" r="2.9"/>
	<circle class="chapterCircle0" cx="183.6" cy="574" r="2.9"/>
	<circle class="chapterCircle0" cx="183.6" cy="582.5" r="2.9"/>
	<circle class="chapterCircle0" cx="183.6" cy="591" r="2.9"/>
	<circle class="chapterCircle0" cx="183.6" cy="608" r="2.9"/>
	<circle class="chapterCircle0" cx="183.6" cy="616.5" r="2.9"/>
	<circle class="chapterCircle0" cx="183.6" cy="625" r="2.9"/>
	<circle class="chapterCircle0" cx="183.6" cy="633.5" r="2.9"/>
	<circle class="chapterCircle0" cx="183.6" cy="642" r="2.9"/>
	<circle class="chapterCircle0" cx="183.6" cy="650.5" r="2.9"/>
	<circle class="chapterCircle0" cx="183.6" cy="659" r="2.9"/>
	<circle class="chapterCircle0" cx="183.6" cy="667.5" r="2.9"/>
	<circle class="chapterCircle0" cx="175.1" cy="540" r="2.9"/>
	<circle class="chapterCircle0" cx="175.1" cy="548.5" r="2.9"/>
	<circle class="chapterCircle0" cx="175.1" cy="557" r="2.9"/>
	<circle class="chapterCircle0" cx="175.1" cy="565.5" r="2.9"/>
	<circle class="chapterCircle0" cx="175.1" cy="574" r="2.9"/>
	<circle class="chapterCircle0" cx="175.1" cy="582.5" r="2.9"/>
	<circle class="chapterCircle0" cx="175.1" cy="591" r="2.9"/>
	<circle class="chapterCircle0" cx="175.1" cy="625" r="2.9"/>
	<circle class="chapterCircle0" cx="175.1" cy="633.5" r="2.9"/>
	<circle class="chapterCircle0" cx="175.1" cy="642" r="2.9"/>
	<circle class="chapterCircle0" cx="175.1" cy="650.5" r="2.9"/>
	<circle class="chapterCircle0" cx="175.1" cy="659" r="2.9"/>
	<circle class="chapterCircle0" cx="175.1" cy="667.5" r="2.9"/>
	<circle class="chapterCircle0" cx="166.6" cy="548.5" r="2.9"/>
	<circle class="chapterCircle0" cx="166.6" cy="557" r="2.9"/>
	<circle class="chapterCircle0" cx="166.6" cy="565.5" r="2.9"/>
	<circle class="chapterCircle0" cx="166.6" cy="574" r="2.9"/>
	<circle class="chapterCircle0" cx="166.6" cy="582.5" r="2.9"/>
	<circle class="chapterCircle0" cx="166.6" cy="591" r="2.9"/>
	<circle class="chapterCircle0" cx="166.6" cy="608" r="2.9"/>
	<circle class="chapterCircle0" cx="166.6" cy="633.5" r="2.9"/>
	<circle class="chapterCircle0" cx="166.6" cy="642" r="2.9"/>
	<circle class="chapterCircle0" cx="166.6" cy="650.5" r="2.9"/>
	<circle class="chapterCircle0" cx="158.1" cy="557" r="2.9"/>
	<circle class="chapterCircle0" cx="158.1" cy="565.5" r="2.9"/>
	<circle class="chapterCircle0" cx="158.1" cy="574" r="2.9"/>
	<circle class="chapterCircle0" cx="158.1" cy="582.5" r="2.9"/>
	<circle class="chapterCircle0" cx="158.1" cy="591" r="2.9"/>
	<circle class="chapterCircle0" cx="158.1" cy="599.5" r="2.9"/>
	<circle class="chapterCircle0" cx="158.1" cy="608" r="2.9"/>
	<circle class="chapterCircle0" cx="158.1" cy="633.5" r="2.9"/>
	<circle class="chapterCircle0" cx="149.6" cy="565.5" r="2.9"/>
	<circle class="chapterCircle0" cx="149.6" cy="574" r="2.9"/>
	<circle class="chapterCircle0" cx="149.6" cy="582.5" r="2.9"/>
	<circle class="chapterCircle0" cx="149.6" cy="591" r="2.9"/>
	<circle class="chapterCircle0" cx="149.6" cy="599.5" r="2.9"/>
	<circle class="chapterCircle0" cx="149.6" cy="608" r="2.9"/>
	<circle class="chapterCircle0" cx="141.1" cy="574" r="2.9"/>
	<circle class="chapterCircle0" cx="141.1" cy="582.5" r="2.9"/>
	<circle class="chapterCircle0" cx="141.1" cy="591" r="2.9"/>
	<circle class="chapterCircle0" cx="141.1" cy="599.5" r="2.9"/>
	<circle class="chapterCircle0" cx="141.1" cy="642" r="2.9"/>
	<circle class="chapterCircle0" cx="141.1" cy="650.5" r="2.9"/>
	<circle class="chapterCircle0" cx="141.1" cy="659" r="2.9"/>
	<circle class="chapterCircle0" cx="141.1" cy="667.5" r="2.9"/>
	<circle class="chapterCircle0" cx="132.5" cy="574" r="2.9"/>
	<circle class="chapterCircle0" cx="132.5" cy="582.5" r="2.9"/>
	<circle class="chapterCircle0" cx="132.5" cy="591" r="2.9"/>
	<circle class="chapterCircle0" cx="132.5" cy="599.5" r="2.9"/>
	<circle class="chapterCircle0" cx="132.5" cy="625" r="2.9"/>
	<circle class="chapterCircle0" cx="132.5" cy="633.5" r="2.9"/>
	<circle class="chapterCircle0" cx="132.5" cy="642" r="2.9"/>
	<circle class="chapterCircle0" cx="132.5" cy="650.5" r="2.9"/>
	<circle class="chapterCircle0" cx="132.5" cy="659" r="2.9"/>
	<circle class="chapterCircle0" cx="132.5" cy="667.5" r="2.9"/>
	<circle class="chapterCircle0" cx="132.5" cy="676" r="2.9"/>
	<circle class="chapterCircle0" cx="132.5" cy="684.5" r="2.9"/>
	<circle class="chapterCircle0" cx="124" cy="582.5" r="2.9"/>
	<circle class="chapterCircle0" cx="124" cy="591" r="2.9"/>
	<circle class="chapterCircle0" cx="124" cy="599.5" r="2.9"/>
	<circle class="chapterCircle0" cx="124" cy="625" r="2.9"/>
	<circle class="chapterCircle0" cx="124" cy="633.5" r="2.9"/>
	<circle class="chapterCircle0" cx="124" cy="642" r="2.9"/>
	<circle class="chapterCircle0" cx="124" cy="650.5" r="2.9"/>
	<circle class="chapterCircle0" cx="124" cy="659" r="2.9"/>
	<circle class="chapterCircle0" cx="124" cy="667.5" r="2.9"/>
	<circle class="chapterCircle0" cx="124" cy="676" r="2.9"/>
	<circle class="chapterCircle0" cx="124" cy="684.5" r="2.9"/>
	<circle class="chapterCircle0" cx="124" cy="693.1" r="2.9"/>
	<circle class="chapterCircle0" cx="124" cy="701.6" r="2.9"/>
	<circle class="chapterCircle0" cx="115.5" cy="582.5" r="2.9"/>
	<circle class="chapterCircle0" cx="115.5" cy="591" r="2.9"/>
	<circle class="chapterCircle0" cx="115.5" cy="599.5" r="2.9"/>
	<circle class="chapterCircle0" cx="115.5" cy="625" r="2.9"/>
	<circle class="chapterCircle0" cx="115.5" cy="633.5" r="2.9"/>
	<circle class="chapterCircle0" cx="115.5" cy="642" r="2.9"/>
	<circle class="chapterCircle0" cx="115.5" cy="650.5" r="2.9"/>
	<circle class="chapterCircle0" cx="115.5" cy="659" r="2.9"/>
	<circle class="chapterCircle0" cx="115.5" cy="667.5" r="2.9"/>
	<circle class="chapterCircle0" cx="115.5" cy="676" r="2.9"/>
	<circle class="chapterCircle0" cx="115.5" cy="684.5" r="2.9"/>
	<circle class="chapterCircle0" cx="115.5" cy="693.1" r="2.9"/>
	<circle class="chapterCircle0" cx="115.5" cy="701.6" r="2.9"/>
	<circle class="chapterCircle0" cx="115.5" cy="710.1" r="2.9"/>
	<circle class="chapterCircle0" cx="115.5" cy="718.6" r="2.9"/>
	<circle class="chapterCircle0" cx="115.5" cy="727.1" r="2.9"/>
	<circle class="chapterCircle0" cx="115.5" cy="735.6" r="2.9"/>
	<circle class="chapterCircle0" cx="107" cy="582.5" r="2.9"/>
	<circle class="chapterCircle0" cx="107" cy="591" r="2.9"/>
	<circle class="chapterCircle0" cx="107" cy="599.5" r="2.9"/>
	<circle class="chapterCircle0" cx="107" cy="608" r="2.9"/>
	<circle class="chapterCircle0" cx="107" cy="616.5" r="2.9"/>
	<circle class="chapterCircle0" cx="107" cy="625" r="2.9"/>
	<circle class="chapterCircle0" cx="107" cy="633.5" r="2.9"/>
	<circle class="chapterCircle0" cx="107" cy="642" r="2.9"/>
	<circle class="chapterCircle0" cx="107" cy="650.5" r="2.9"/>
	<circle class="chapterCircle0" cx="107" cy="659" r="2.9"/>
	<circle class="chapterCircle0" cx="107" cy="667.5" r="2.9"/>
	<circle class="chapterCircle0" cx="107" cy="676" r="2.9"/>
	<circle class="chapterCircle0" cx="107" cy="684.5" r="2.9"/>
	<circle class="chapterCircle0" cx="107" cy="693.1" r="2.9"/>
	<circle class="chapterCircle0" cx="107" cy="701.6" r="2.9"/>
	<circle class="chapterCircle0" cx="107" cy="710.1" r="2.9"/>
	<circle class="chapterCircle0" cx="107" cy="718.6" r="2.9"/>
	<circle class="chapterCircle0" cx="107" cy="727.1" r="2.9"/>
	<circle class="chapterCircle0" cx="107" cy="735.6" r="2.9"/>
	<circle class="chapterCircle0" cx="98.5" cy="608" r="2.9"/>
	<circle class="chapterCircle0" cx="98.5" cy="616.5" r="2.9"/>
	<circle class="chapterCircle0" cx="98.5" cy="625" r="2.9"/>
	<circle class="chapterCircle0" cx="98.5" cy="633.5" r="2.9"/>
	<circle class="chapterCircle0" cx="98.5" cy="642" r="2.9"/>
	<circle class="chapterCircle0" cx="98.5" cy="650.5" r="2.9"/>
	<circle class="chapterCircle0" cx="98.5" cy="659" r="2.9"/>
	<circle class="chapterCircle0" cx="98.5" cy="667.5" r="2.9"/>
	<circle class="chapterCircle0" cx="98.5" cy="676" r="2.9"/>
	<circle class="chapterCircle0" cx="98.5" cy="684.5" r="2.9"/>
	<circle class="chapterCircle0" cx="98.5" cy="693.1" r="2.9"/>
	<circle class="chapterCircle0" cx="98.5" cy="701.6" r="2.9"/>
	<circle class="chapterCircle0" cx="98.5" cy="710.1" r="2.9"/>
	<circle class="chapterCircle0" cx="98.5" cy="718.6" r="2.9"/>
	<circle class="chapterCircle0" cx="98.5" cy="727.1" r="2.9"/>
	<circle class="chapterCircle0" cx="98.5" cy="735.6" r="2.9"/>
	<circle class="chapterCircle0" cx="98.5" cy="744.1" r="2.9"/>
	<circle class="chapterCircle0" cx="90" cy="608" r="2.9"/>
	<circle class="chapterCircle0" cx="90" cy="616.5" r="2.9"/>
	<circle class="chapterCircle0" cx="90" cy="625" r="2.9"/>
	<circle class="chapterCircle0" cx="90" cy="633.5" r="2.9"/>
	<circle class="chapterCircle0" cx="90" cy="642" r="2.9"/>
	<circle class="chapterCircle0" cx="90" cy="650.5" r="2.9"/>
	<circle class="chapterCircle0" cx="90" cy="659" r="2.9"/>
	<circle class="chapterCircle0" cx="90" cy="667.5" r="2.9"/>
	<circle class="chapterCircle0" cx="90" cy="676" r="2.9"/>
	<circle class="chapterCircle0" cx="90" cy="684.5" r="2.9"/>
	<circle class="chapterCircle0" cx="90" cy="693.1" r="2.9"/>
	<circle class="chapterCircle0" cx="90" cy="701.6" r="2.9"/>
	<circle class="chapterCircle0" cx="90" cy="710.1" r="2.9"/>
	<circle class="chapterCircle0" cx="90" cy="718.6" r="2.9"/>
	<circle class="chapterCircle0" cx="90" cy="727.1" r="2.9"/>
	<circle class="chapterCircle0" cx="90" cy="735.6" r="2.9"/>
	<circle class="chapterCircle0" cx="90" cy="744.1" r="2.9"/>
	<circle class="chapterCircle0" cx="90" cy="752.6" r="2.9"/>
	<circle class="chapterCircle0" cx="81.5" cy="616.5" r="2.9"/>
	<circle class="chapterCircle0" cx="81.5" cy="625" r="2.9"/>
	<circle class="chapterCircle0" cx="81.5" cy="633.5" r="2.9"/>
	<circle class="chapterCircle0" cx="81.5" cy="642" r="2.9"/>
	<circle class="chapterCircle0" cx="81.5" cy="650.5" r="2.9"/>
	<circle class="chapterCircle0" cx="81.5" cy="684.5" r="2.9"/>
	<circle class="chapterCircle0" cx="81.5" cy="693.1" r="2.9"/>
	<circle class="chapterCircle0" cx="81.5" cy="701.6" r="2.9"/>
	<circle class="chapterCircle0" cx="81.5" cy="710.1" r="2.9"/>
	<circle class="chapterCircle0" cx="81.5" cy="718.6" r="2.9"/>
	<circle class="chapterCircle0" cx="81.5" cy="727.1" r="2.9"/>
	<circle class="chapterCircle0" cx="81.5" cy="735.6" r="2.9"/>
	<circle class="chapterCircle0" cx="81.5" cy="744.1" r="2.9"/>
	<circle class="chapterCircle0" cx="73" cy="625" r="2.9"/>
	<circle class="chapterCircle0" cx="73" cy="633.5" r="2.9"/>
	<circle class="chapterCircle0" cx="73" cy="642" r="2.9"/>
	<circle class="chapterCircle0" cx="73" cy="667.5" r="2.9"/>
	<circle class="chapterCircle0" cx="73" cy="684.5" r="2.9"/>
	<circle class="chapterCircle0" cx="73" cy="701.6" r="2.9"/>
	<circle class="chapterCircle0" cx="73" cy="710.1" r="2.9"/>
	<circle class="chapterCircle0" cx="73" cy="718.6" r="2.9"/>
	<circle class="chapterCircle0" cx="73" cy="727.1" r="2.9"/>
	<circle class="chapterCircle0" cx="73" cy="735.6" r="2.9"/>
	<circle class="chapterCircle0" cx="64.5" cy="625" r="2.9"/>
	<circle class="chapterCircle0" cx="64.5" cy="633.5" r="2.9"/>
	<circle class="chapterCircle0" cx="64.5" cy="642" r="2.9"/>
	<circle class="chapterCircle0" cx="64.5" cy="650.5" r="2.9"/>
	<circle class="chapterCircle0" cx="64.5" cy="659" r="2.9"/>
	<circle class="chapterCircle0" cx="64.5" cy="684.5" r="2.9"/>
	<circle class="chapterCircle0" cx="64.5" cy="693.1" r="2.9"/>
	<circle class="chapterCircle0" cx="64.5" cy="735.6" r="2.9"/>
	<circle class="chapterCircle0" cx="56" cy="625" r="2.9"/>
	<circle class="chapterCircle0" cx="56" cy="633.5" r="2.9"/>
	<circle class="chapterCircle0" cx="56" cy="642" r="2.9"/>
	<circle class="chapterCircle0" cx="56" cy="650.5" r="2.9"/>
	<circle class="chapterCircle0" cx="56" cy="659" r="2.9"/>
	<circle class="chapterCircle0" cx="56" cy="667.5" r="2.9"/>
	<circle class="chapterCircle0" cx="47.5" cy="608" r="2.9"/>
	<circle class="chapterCircle0" cx="47.5" cy="633.5" r="2.9"/>
	<circle class="chapterCircle0" cx="47.5" cy="642" r="2.9"/>
	<circle class="chapterCircle0" cx="47.5" cy="650.5" r="2.9"/>
	<circle class="chapterCircle0" cx="47.5" cy="659" r="2.9"/>
	<circle class="chapterCircle0" cx="47.5" cy="718.6" r="2.9"/>
	<circle class="chapterCircle0" cx="39" cy="565.5" r="2.9"/>
	<circle class="chapterCircle0" cx="39" cy="574" r="2.9"/>
	<circle class="chapterCircle0" cx="39" cy="633.5" r="2.9"/>
	<circle class="chapterCircle0" cx="39" cy="642" r="2.9"/>
	<circle class="chapterCircle0" cx="685.3" cy="97.8" r="2.9"/>
	<circle class="chapterCircle0" cx="668.3" cy="106.3" r="2.9"/>
	<circle class="chapterCircle0" cx="659.8" cy="55.3" r="2.9"/>
	<circle class="chapterCircle0" cx="659.8" cy="63.8" r="2.9"/>
	<circle class="chapterCircle0" cx="659.8" cy="72.3" r="2.9"/>
	<circle class="chapterCircle0" cx="659.8" cy="80.8" r="2.9"/>
	<circle class="chapterCircle0" cx="659.8" cy="89.3" r="2.9"/>
	<circle class="chapterCircle0" cx="659.8" cy="97.8" r="2.9"/>
	<circle class="chapterCircle0" cx="659.8" cy="106.3" r="2.9"/>
	<circle class="chapterCircle0" cx="659.8" cy="114.8" r="2.9"/>
	<circle class="chapterCircle0" cx="651.3" cy="72.3" r="2.9"/>
	<circle class="chapterCircle0" cx="651.3" cy="80.8" r="2.9"/>
	<circle class="chapterCircle0" cx="651.3" cy="89.3" r="2.9"/>
	<circle class="chapterCircle0" cx="651.3" cy="97.8" r="2.9"/>
	<circle class="chapterCircle0" cx="651.3" cy="106.3" r="2.9"/>
	<circle class="chapterCircle0" cx="651.3" cy="114.8" r="2.9"/>
	<circle class="chapterCircle0" cx="642.8" cy="80.8" r="2.9"/>
	<circle class="chapterCircle0" cx="642.8" cy="89.3" r="2.9"/>
	<circle class="chapterCircle0" cx="642.8" cy="97.8" r="2.9"/>
	<circle class="chapterCircle0" cx="642.8" cy="106.3" r="2.9"/>
	<circle class="chapterCircle0" cx="642.8" cy="114.8" r="2.9"/>
	<circle class="chapterCircle0" cx="642.8" cy="123.3" r="2.9"/>
	<circle class="chapterCircle0" cx="634.3" cy="80.8" r="2.9"/>
	<circle class="chapterCircle0" cx="634.3" cy="89.3" r="2.9"/>
	<circle class="chapterCircle0" cx="634.3" cy="97.8" r="2.9"/>
	<circle class="chapterCircle0" cx="634.3" cy="106.3" r="2.9"/>
	<circle class="chapterCircle0" cx="634.3" cy="114.8" r="2.9"/>
	<circle class="chapterCircle0" cx="634.3" cy="123.3" r="2.9"/>
	<circle class="chapterCircle0" cx="625.8" cy="72.3" r="2.9"/>
	<circle class="chapterCircle0" cx="625.8" cy="80.8" r="2.9"/>
	<circle class="chapterCircle0" cx="625.8" cy="89.3" r="2.9"/>
	<circle class="chapterCircle0" cx="625.8" cy="97.8" r="2.9"/>
	<circle class="chapterCircle0" cx="625.8" cy="106.3" r="2.9"/>
	<circle class="chapterCircle0" cx="625.8" cy="114.8" r="2.9"/>
	<circle class="chapterCircle0" cx="625.8" cy="123.3" r="2.9"/>
	<circle class="chapterCircle0" cx="617.3" cy="72.3" r="2.9"/>
	<circle class="chapterCircle0" cx="617.3" cy="80.8" r="2.9"/>
	<circle class="chapterCircle0" cx="617.3" cy="89.3" r="2.9"/>
	<circle class="chapterCircle0" cx="617.3" cy="97.8" r="2.9"/>
	<circle class="chapterCircle0" cx="617.3" cy="106.3" r="2.9"/>
	<circle class="chapterCircle0" cx="617.3" cy="114.8" r="2.9"/>
	<circle class="chapterCircle0" cx="617.3" cy="123.3" r="2.9"/>
	<circle class="chapterCircle0" cx="617.3" cy="131.8" r="2.9"/>
	<circle class="chapterCircle0" cx="608.8" cy="72.3" r="2.9"/>
	<circle class="chapterCircle0" cx="608.8" cy="80.8" r="2.9"/>
	<circle class="chapterCircle0" cx="608.8" cy="89.3" r="2.9"/>
	<circle class="chapterCircle0" cx="608.8" cy="97.8" r="2.9"/>
	<circle class="chapterCircle0" cx="608.8" cy="106.3" r="2.9"/>
	<circle class="chapterCircle0" cx="608.8" cy="114.8" r="2.9"/>
	<circle class="chapterCircle0" cx="608.8" cy="123.3" r="2.9"/>
	<circle class="chapterCircle0" cx="608.8" cy="131.8" r="2.9"/>
	<circle class="chapterCircle0" cx="608.8" cy="140.3" r="2.9"/>
	<circle class="chapterCircle0" cx="600.2" cy="63.8" r="2.9"/>
	<circle class="chapterCircle0" cx="600.2" cy="72.3" r="2.9"/>
	<circle class="chapterCircle0" cx="600.2" cy="80.8" r="2.9"/>
	<circle class="chapterCircle0" cx="600.2" cy="89.3" r="2.9"/>
	<circle class="chapterCircle0" cx="600.2" cy="97.8" r="2.9"/>
	<circle class="chapterCircle0" cx="600.2" cy="106.3" r="2.9"/>
	<circle class="chapterCircle0" cx="600.2" cy="114.8" r="2.9"/>
	<circle class="chapterCircle0" cx="600.2" cy="123.3" r="2.9"/>
	<circle class="chapterCircle0" cx="600.2" cy="131.8" r="2.9"/>
	<circle class="chapterCircle0" cx="600.2" cy="140.3" r="2.9"/>
	<circle class="chapterCircle0" cx="600.2" cy="148.8" r="2.9"/>
	<circle class="chapterCircle0" cx="600.2" cy="157.3" r="2.9"/>
	<circle class="chapterCircle0" cx="600.2" cy="165.8" r="2.9"/>
	<circle class="chapterCircle0" cx="600.2" cy="174.3" r="2.9"/>
	<circle class="chapterCircle0" cx="591.8" cy="63.8" r="2.9"/>
	<circle class="chapterCircle0" cx="591.8" cy="72.3" r="2.9"/>
	<circle class="chapterCircle0" cx="591.8" cy="80.8" r="2.9"/>
	<circle class="chapterCircle0" cx="591.8" cy="89.3" r="2.9"/>
	<circle class="chapterCircle0" cx="591.8" cy="97.8" r="2.9"/>
	<circle class="chapterCircle0" cx="591.8" cy="106.3" r="2.9"/>
	<circle class="chapterCircle0" cx="591.8" cy="114.8" r="2.9"/>
	<circle class="chapterCircle0" cx="591.8" cy="123.3" r="2.9"/>
	<circle class="chapterCircle0" cx="591.8" cy="131.8" r="2.9"/>
	<circle class="chapterCircle0" cx="591.8" cy="140.3" r="2.9"/>
	<circle class="chapterCircle0" cx="591.8" cy="148.8" r="2.9"/>
	<circle class="chapterCircle0" cx="591.8" cy="157.3" r="2.9"/>
	<circle class="chapterCircle0" cx="591.8" cy="165.8" r="2.9"/>
	<circle class="chapterCircle0" cx="591.8" cy="174.3" r="2.9"/>
	<circle class="chapterCircle0" cx="583.2" cy="55.3" r="2.9"/>
	<circle class="chapterCircle0" cx="583.2" cy="63.8" r="2.9"/>
	<circle class="chapterCircle0" cx="583.2" cy="72.3" r="2.9"/>
	<circle class="chapterCircle0" cx="583.2" cy="80.8" r="2.9"/>
	<circle class="chapterCircle0" cx="583.2" cy="89.3" r="2.9"/>
	<circle class="chapterCircle0" cx="583.2" cy="97.8" r="2.9"/>
	<circle class="chapterCircle0" cx="583.2" cy="106.3" r="2.9"/>
	<circle class="chapterCircle0" cx="583.2" cy="114.8" r="2.9"/>
	<circle class="chapterCircle0" cx="583.2" cy="123.3" r="2.9"/>
	<circle class="chapterCircle0" cx="583.2" cy="131.8" r="2.9"/>
	<circle class="chapterCircle0" cx="583.2" cy="140.3" r="2.9"/>
	<circle class="chapterCircle0" cx="583.2" cy="148.8" r="2.9"/>
	<circle class="chapterCircle0" cx="583.2" cy="157.3" r="2.9"/>
	<circle class="chapterCircle0" cx="583.2" cy="165.8" r="2.9"/>
	<circle class="chapterCircle0" cx="583.2" cy="174.3" r="2.9"/>
	<circle class="chapterCircle0" cx="574.7" cy="46.8" r="2.9"/>
	<circle class="chapterCircle0" cx="574.7" cy="55.3" r="2.9"/>
	<circle class="chapterCircle0" cx="574.7" cy="63.8" r="2.9"/>
	<circle class="chapterCircle0" cx="574.7" cy="72.3" r="2.9"/>
	<circle class="chapterCircle0" cx="574.7" cy="80.8" r="2.9"/>
	<circle class="chapterCircle0" cx="574.7" cy="89.3" r="2.9"/>
	<circle class="chapterCircle0" cx="574.7" cy="97.8" r="2.9"/>
	<circle class="chapterCircle0" cx="574.7" cy="106.3" r="2.9"/>
	<circle class="chapterCircle0" cx="574.7" cy="114.8" r="2.9"/>
	<circle class="chapterCircle0" cx="574.7" cy="123.3" r="2.9"/>
	<circle class="chapterCircle0" cx="574.7" cy="131.8" r="2.9"/>
	<circle class="chapterCircle0" cx="574.7" cy="140.3" r="2.9"/>
	<circle class="chapterCircle0" cx="574.7" cy="148.8" r="2.9"/>
	<circle class="chapterCircle0" cx="574.7" cy="157.3" r="2.9"/>
	<circle class="chapterCircle0" cx="574.7" cy="165.8" r="2.9"/>
	<circle class="chapterCircle0" cx="566.2" cy="38.3" r="2.9"/>
	<circle class="chapterCircle0" cx="566.2" cy="46.8" r="2.9"/>
	<circle class="chapterCircle0" cx="566.2" cy="55.3" r="2.9"/>
	<circle class="chapterCircle0" cx="566.2" cy="63.8" r="2.9"/>
	<circle class="chapterCircle0" cx="566.2" cy="72.3" r="2.9"/>
	<circle class="chapterCircle0" cx="566.2" cy="80.8" r="2.9"/>
	<circle class="chapterCircle0" cx="566.2" cy="89.3" r="2.9"/>
	<circle class="chapterCircle0" cx="566.2" cy="97.8" r="2.9"/>
	<circle class="chapterCircle0" cx="566.2" cy="106.3" r="2.9"/>
	<circle class="chapterCircle0" cx="566.2" cy="114.8" r="2.9"/>
	<circle class="chapterCircle0" cx="566.2" cy="123.3" r="2.9"/>
	<circle class="chapterCircle0" cx="566.2" cy="131.8" r="2.9"/>
	<circle class="chapterCircle0" cx="566.2" cy="140.3" r="2.9"/>
	<circle class="chapterCircle0" cx="566.2" cy="148.8" r="2.9"/>
	<circle class="chapterCircle0" cx="566.2" cy="157.3" r="2.9"/>
	<circle class="chapterCircle0" cx="566.2" cy="165.8" r="2.9"/>
	<circle class="chapterCircle0" cx="557.7" cy="29.8" r="2.9"/>
	<circle class="chapterCircle0" cx="557.7" cy="38.3" r="2.9"/>
	<circle class="chapterCircle0" cx="557.7" cy="46.8" r="2.9"/>
	<circle class="chapterCircle0" cx="557.7" cy="55.3" r="2.9"/>
	<circle class="chapterCircle0" cx="557.7" cy="63.8" r="2.9"/>
	<circle class="chapterCircle0" cx="557.7" cy="72.3" r="2.9"/>
	<circle class="chapterCircle0" cx="557.7" cy="80.8" r="2.9"/>
	<circle class="chapterCircle0" cx="557.7" cy="89.3" r="2.9"/>
	<circle class="chapterCircle0" cx="557.7" cy="97.8" r="2.9"/>
	<circle class="chapterCircle0" cx="557.7" cy="106.3" r="2.9"/>
	<circle class="chapterCircle0" cx="557.7" cy="114.8" r="2.9"/>
	<circle class="chapterCircle0" cx="557.7" cy="123.3" r="2.9"/>
	<circle class="chapterCircle0" cx="557.7" cy="131.8" r="2.9"/>
	<circle class="chapterCircle0" cx="557.7" cy="140.3" r="2.9"/>
	<circle class="chapterCircle0" cx="557.7" cy="148.8" r="2.9"/>
	<circle class="chapterCircle0" cx="557.7" cy="157.3" r="2.9"/>
	<circle class="chapterCircle0" cx="549.2" cy="21.3" r="2.9"/>
	<circle class="chapterCircle0" cx="549.2" cy="29.8" r="2.9"/>
	<circle class="chapterCircle0" cx="549.2" cy="38.3" r="2.9"/>
	<circle class="chapterCircle0" cx="549.2" cy="46.8" r="2.9"/>
	<circle class="chapterCircle0" cx="549.2" cy="55.3" r="2.9"/>
	<circle class="chapterCircle0" cx="549.2" cy="63.8" r="2.9"/>
	<circle class="chapterCircle0" cx="549.2" cy="72.3" r="2.9"/>
	<circle class="chapterCircle0" cx="549.2" cy="80.8" r="2.9"/>
	<circle class="chapterCircle0" cx="549.2" cy="89.3" r="2.9"/>
	<circle class="chapterCircle0" cx="549.2" cy="97.8" r="2.9"/>
	<circle class="chapterCircle0" cx="549.2" cy="106.3" r="2.9"/>
	<circle class="chapterCircle0" cx="549.2" cy="114.8" r="2.9"/>
	<circle class="chapterCircle0" cx="549.2" cy="123.3" r="2.9"/>
	<circle class="chapterCircle0" cx="549.2" cy="131.8" r="2.9"/>
	<circle class="chapterCircle0" cx="549.2" cy="140.3" r="2.9"/>
	<circle class="chapterCircle0" cx="549.2" cy="148.8" r="2.9"/>
	<circle class="chapterCircle0" cx="540.7" cy="12.8" r="2.9"/>
	<circle class="chapterCircle0" cx="540.7" cy="21.3" r="2.9"/>
	<circle class="chapterCircle0" cx="540.7" cy="29.8" r="2.9"/>
	<circle class="chapterCircle0" cx="540.7" cy="38.3" r="2.9"/>
	<circle class="chapterCircle0" cx="540.7" cy="46.8" r="2.9"/>
	<circle class="chapterCircle0" cx="540.7" cy="55.3" r="2.9"/>
	<circle class="chapterCircle0" cx="540.7" cy="63.8" r="2.9"/>
	<circle class="chapterCircle0" cx="540.7" cy="72.3" r="2.9"/>
	<circle class="chapterCircle0" cx="540.7" cy="80.8" r="2.9"/>
	<circle class="chapterCircle0" cx="540.7" cy="89.3" r="2.9"/>
	<circle class="chapterCircle0" cx="540.7" cy="97.8" r="2.9"/>
	<circle class="chapterCircle0" cx="540.7" cy="106.3" r="2.9"/>
	<circle class="chapterCircle0" cx="540.7" cy="114.8" r="2.9"/>
	<circle class="chapterCircle0" cx="540.7" cy="123.3" r="2.9"/>
	<circle class="chapterCircle0" cx="540.7" cy="131.8" r="2.9"/>
	<circle class="chapterCircle0" cx="540.7" cy="140.3" r="2.9"/>
	<circle class="chapterCircle0" cx="540.7" cy="148.8" r="2.9"/>
	<circle class="chapterCircle0" cx="532.2" cy="4.2" r="2.9"/>
	<circle class="chapterCircle0" cx="532.2" cy="12.8" r="2.9"/>
	<circle class="chapterCircle0" cx="532.2" cy="21.3" r="2.9"/>
	<circle class="chapterCircle0" cx="532.2" cy="29.8" r="2.9"/>
	<circle class="chapterCircle0" cx="532.2" cy="38.3" r="2.9"/>
	<circle class="chapterCircle0" cx="532.2" cy="46.8" r="2.9"/>
	<circle class="chapterCircle0" cx="532.2" cy="55.3" r="2.9"/>
	<circle class="chapterCircle0" cx="532.2" cy="63.8" r="2.9"/>
	<circle class="chapterCircle0" cx="532.2" cy="72.3" r="2.9"/>
	<circle class="chapterCircle0" cx="532.2" cy="80.8" r="2.9"/>
	<circle class="chapterCircle0" cx="532.2" cy="89.3" r="2.9"/>
	<circle class="chapterCircle0" cx="532.2" cy="97.8" r="2.9"/>
	<circle class="chapterCircle0" cx="532.2" cy="106.3" r="2.9"/>
	<circle class="chapterCircle0" cx="532.2" cy="114.8" r="2.9"/>
	<circle class="chapterCircle0" cx="532.2" cy="123.3" r="2.9"/>
	<circle class="chapterCircle0" cx="532.2" cy="131.8" r="2.9"/>
	<circle class="chapterCircle0" cx="532.2" cy="140.3" r="2.9"/>
	<circle class="chapterCircle0" cx="532.2" cy="148.8" r="2.9"/>
	<circle class="chapterCircle0" cx="523.7" cy="12.8" r="2.9"/>
	<circle class="chapterCircle0" cx="523.7" cy="21.3" r="2.9"/>
	<circle class="chapterCircle0" cx="523.7" cy="89.3" r="2.9"/>
	<circle class="chapterCircle0" cx="523.7" cy="97.8" r="2.9"/>
	<circle class="chapterCircle0" cx="523.7" cy="106.3" r="2.9"/>
	<circle class="chapterCircle0" cx="523.7" cy="114.8" r="2.9"/>
	<circle class="chapterCircle0" cx="523.7" cy="123.3" r="2.9"/>
	<circle class="chapterCircle0" cx="523.7" cy="131.8" r="2.9"/>
	<circle class="chapterCircle0" cx="523.7" cy="140.3" r="2.9"/>
	<circle class="chapterCircle0" cx="523.7" cy="148.8" r="2.9"/>
	<circle class="chapterCircle0" cx="523.7" cy="157.3" r="2.9"/>
	<circle class="chapterCircle0" cx="523.7" cy="216.9" r="2.9"/>
	<circle class="chapterCircle0" cx="515.2" cy="123.3" r="2.9"/>
	<circle class="chapterCircle0" cx="515.2" cy="131.8" r="2.9"/>
	<circle class="chapterCircle0" cx="515.2" cy="140.3" r="2.9"/>
	<circle class="chapterCircle0" cx="515.2" cy="148.8" r="2.9"/>
	<circle class="chapterCircle0" cx="515.2" cy="157.3" r="2.9"/>
	<circle class="chapterCircle0" cx="515.2" cy="165.8" r="2.9"/>
	<circle class="chapterCircle0" cx="515.2" cy="199.8" r="2.9"/>
	<circle class="chapterCircle0" cx="515.2" cy="216.9" r="2.9"/>
	<circle class="chapterCircle0" cx="506.7" cy="21.3" r="2.9"/>
	<circle class="chapterCircle0" cx="506.7" cy="123.3" r="2.9"/>
	<circle class="chapterCircle0" cx="506.7" cy="131.8" r="2.9"/>
	<circle class="chapterCircle0" cx="506.7" cy="140.3" r="2.9"/>
	<circle class="chapterCircle0" cx="506.7" cy="148.8" r="2.9"/>
	<circle class="chapterCircle0" cx="506.7" cy="157.3" r="2.9"/>
	<circle class="chapterCircle0" cx="506.7" cy="165.8" r="2.9"/>
	<circle class="chapterCircle0" cx="506.7" cy="191.3" r="2.9"/>
	<circle class="chapterCircle0" cx="506.7" cy="199.8" r="2.9"/>
	<circle class="chapterCircle0" cx="506.7" cy="216.9" r="2.9"/>
	<circle class="chapterCircle0" cx="498.2" cy="4.2" r="2.9"/>
	<circle class="chapterCircle0" cx="498.2" cy="12.8" r="2.9"/>
	<circle class="chapterCircle0" cx="498.2" cy="123.3" r="2.9"/>
	<circle class="chapterCircle0" cx="498.2" cy="131.8" r="2.9"/>
	<circle class="chapterCircle0" cx="498.2" cy="140.3" r="2.9"/>
	<circle class="chapterCircle0" cx="498.2" cy="148.8" r="2.9"/>
	<circle class="chapterCircle0" cx="498.2" cy="157.3" r="2.9"/>
	<circle class="chapterCircle0" cx="498.2" cy="182.8" r="2.9"/>
	<circle class="chapterCircle0" cx="498.2" cy="191.3" r="2.9"/>
	<circle class="chapterCircle0" cx="498.2" cy="199.8" r="2.9"/>
	<circle class="chapterCircle0" cx="489.7" cy="123.3" r="2.9"/>
	<circle class="chapterCircle0" cx="489.7" cy="131.8" r="2.9"/>
	<circle class="chapterCircle0" cx="489.7" cy="140.3" r="2.9"/>
	<circle class="chapterCircle0" cx="489.7" cy="148.8" r="2.9"/>
	<circle class="chapterCircle0" cx="489.7" cy="157.3" r="2.9"/>
	<circle class="chapterCircle0" cx="489.7" cy="182.8" r="2.9"/>
	<circle class="chapterCircle0" cx="489.7" cy="191.3" r="2.9"/>
	<circle class="chapterCircle0" cx="489.7" cy="199.8" r="2.9"/>
	<circle class="chapterCircle0" cx="489.7" cy="208.3" r="2.9"/>
	<circle class="chapterCircle0" cx="481.2" cy="123.3" r="2.9"/>
	<circle class="chapterCircle0" cx="481.2" cy="148.8" r="2.9"/>
	<circle class="chapterCircle0" cx="481.2" cy="157.3" r="2.9"/>
	<circle class="chapterCircle0" cx="481.2" cy="165.8" r="2.9"/>
	<circle class="chapterCircle0" cx="481.2" cy="174.3" r="2.9"/>
	<circle class="chapterCircle0" cx="481.2" cy="182.8" r="2.9"/>
	<circle class="chapterCircle0" cx="481.2" cy="191.3" r="2.9"/>
	<circle class="chapterCircle0" cx="481.2" cy="199.8" r="2.9"/>
	<circle class="chapterCircle0" cx="481.2" cy="208.3" r="2.9"/>
	<circle class="chapterCircle0" cx="481.2" cy="216.9" r="2.9"/>
	<circle class="chapterCircle0" cx="472.7" cy="157.3" r="2.9"/>
	<circle class="chapterCircle0" cx="472.7" cy="165.8" r="2.9"/>
	<circle class="chapterCircle0" cx="472.7" cy="174.3" r="2.9"/>
	<circle class="chapterCircle0" cx="472.7" cy="182.8" r="2.9"/>
	<circle class="chapterCircle0" cx="472.7" cy="208.3" r="2.9"/>
	<circle class="chapterCircle0" cx="472.7" cy="216.9" r="2.9"/>
	<circle class="chapterCircle0" cx="464.2" cy="157.3" r="2.9"/>
	<circle class="chapterCircle0" cx="464.2" cy="165.8" r="2.9"/>
	<circle class="chapterCircle0" cx="464.2" cy="174.3" r="2.9"/>
	<circle class="chapterCircle0" cx="268.6" cy="582.5" r="2.9"/>
	<circle class="chapterCircle0" cx="268.6" cy="591" r="2.9"/>
	<circle class="chapterCircle0" cx="260.1" cy="599.5" r="2.9"/>
	<circle class="chapterCircle0" cx="260.1" cy="608" r="2.9"/>
	<circle class="chapterCircle0" cx="260.1" cy="616.5" r="2.9"/>
	<circle class="chapterCircle0" cx="251.6" cy="582.5" r="2.9"/>
	<circle class="chapterCircle0" cx="251.6" cy="599.5" r="2.9"/>
	<circle class="chapterCircle0" cx="251.6" cy="608" r="2.9"/>
	<circle class="chapterCircle0" cx="251.6" cy="616.5" r="2.9"/>
	<circle class="chapterCircle0" cx="251.6" cy="625" r="2.9"/>
	<circle class="chapterCircle0" cx="243.1" cy="591" r="2.9"/>
	<circle class="chapterCircle0" cx="243.1" cy="599.5" r="2.9"/>
	<circle class="chapterCircle0" cx="243.1" cy="608" r="2.9"/>
	<circle class="chapterCircle0" cx="243.1" cy="616.5" r="2.9"/>
	<circle class="chapterCircle0" cx="243.1" cy="625" r="2.9"/>
	<circle class="chapterCircle0" cx="243.1" cy="633.5" r="2.9"/>
	<circle class="chapterCircle0" cx="243.1" cy="642" r="2.9"/>
	<circle class="chapterCircle0" cx="234.6" cy="591" r="2.9"/>
	<circle class="chapterCircle0" cx="234.6" cy="599.5" r="2.9"/>
	<circle class="chapterCircle0" cx="234.6" cy="608" r="2.9"/>
	<circle class="chapterCircle0" cx="234.6" cy="616.5" r="2.9"/>
	<circle class="chapterCircle0" cx="234.6" cy="625" r="2.9"/>
	<circle class="chapterCircle0" cx="234.6" cy="633.5" r="2.9"/>
	<circle class="chapterCircle0" cx="226.1" cy="591" r="2.9"/>
	<circle class="chapterCircle0" cx="226.1" cy="599.5" r="2.9"/>
	<circle class="chapterCircle0" cx="226.1" cy="608" r="2.9"/>
	<circle class="chapterCircle0" cx="226.1" cy="616.5" r="2.9"/>
	<circle class="chapterCircle0" cx="226.1" cy="625" r="2.9"/>
	<circle class="chapterCircle0" cx="217.6" cy="608" r="2.9"/>
	<circle class="chapterCircle0" cx="217.6" cy="616.5" r="2.9"/>
	<circle class="chapterCircle0" cx="217.6" cy="625" r="2.9"/>
	<circle class="chapterCircle0" cx="209.1" cy="582.5" r="2.9"/>
	<circle class="chapterCircle0" cx="209.1" cy="608" r="2.9"/>
	<circle class="chapterCircle0" cx="209.1" cy="616.5" r="2.9"/>
	<circle class="chapterCircle0" cx="209.1" cy="625" r="2.9"/>
	<circle class="chapterCircle0" cx="209.1" cy="633.5" r="2.9"/>
	<circle class="chapterCircle0" cx="200.6" cy="582.5" r="2.9"/>
	<circle class="chapterCircle0" cx="200.6" cy="608" r="2.9"/>
	<circle class="chapterCircle0" cx="200.6" cy="616.5" r="2.9"/>
	<circle class="chapterCircle0" cx="200.6" cy="625" r="2.9"/>
	<circle class="chapterCircle0" cx="200.6" cy="633.5" r="2.9"/>
	<circle class="chapterCircle0" cx="200.6" cy="642" r="2.9"/>
	<circle class="chapterCircle0" cx="192.1" cy="582.5" r="2.9"/>
	<circle class="chapterCircle0" cx="192.1" cy="608" r="2.9"/>
	<circle class="chapterCircle0" cx="192.1" cy="616.5" r="2.9"/>
	<circle class="chapterCircle0" cx="192.1" cy="625" r="2.9"/>
	<circle class="chapterCircle0" cx="192.1" cy="633.5" r="2.9"/>
	<circle class="chapterCircle0" cx="192.1" cy="642" r="2.9"/>
	<circle class="chapterCircle0" cx="192.1" cy="650.5" r="2.9"/>
	<circle class="chapterCircle0" cx="192.1" cy="659" r="2.9"/>
	<circle class="chapterCircle0" cx="183.6" cy="582.5" r="2.9"/>
	<circle class="chapterCircle0" cx="183.6" cy="591" r="2.9"/>
	<circle class="chapterCircle0" cx="183.6" cy="608" r="2.9"/>
	<circle class="chapterCircle0" cx="183.6" cy="616.5" r="2.9"/>
	<circle class="chapterCircle0" cx="183.6" cy="625" r="2.9"/>
	<circle class="chapterCircle0" cx="183.6" cy="633.5" r="2.9"/>
	<circle class="chapterCircle0" cx="183.6" cy="642" r="2.9"/>
	<circle class="chapterCircle0" cx="183.6" cy="650.5" r="2.9"/>
	<circle class="chapterCircle0" cx="183.6" cy="659" r="2.9"/>
	<circle class="chapterCircle0" cx="183.6" cy="667.5" r="2.9"/>
	<circle class="chapterCircle0" cx="175.1" cy="582.5" r="2.9"/>
	<circle class="chapterCircle0" cx="175.1" cy="591" r="2.9"/>
	<circle class="chapterCircle0" cx="175.1" cy="625" r="2.9"/>
	<circle class="chapterCircle0" cx="175.1" cy="633.5" r="2.9"/>
	<circle class="chapterCircle0" cx="175.1" cy="642" r="2.9"/>
	<circle class="chapterCircle0" cx="175.1" cy="650.5" r="2.9"/>
	<circle class="chapterCircle0" cx="175.1" cy="659" r="2.9"/>
	<circle class="chapterCircle0" cx="175.1" cy="667.5" r="2.9"/>
	<circle class="chapterCircle0" cx="166.6" cy="582.5" r="2.9"/>
	<circle class="chapterCircle0" cx="166.6" cy="591" r="2.9"/>
	<circle class="chapterCircle0" cx="166.6" cy="608" r="2.9"/>
	<circle class="chapterCircle0" cx="166.6" cy="633.5" r="2.9"/>
	<circle class="chapterCircle0" cx="166.6" cy="642" r="2.9"/>
	<circle class="chapterCircle0" cx="166.6" cy="650.5" r="2.9"/>
	<circle class="chapterCircle0" cx="158.1" cy="582.5" r="2.9"/>
	<circle class="chapterCircle0" cx="158.1" cy="591" r="2.9"/>
	<circle class="chapterCircle0" cx="158.1" cy="599.5" r="2.9"/>
	<circle class="chapterCircle0" cx="158.1" cy="608" r="2.9"/>
	<circle class="chapterCircle0" cx="158.1" cy="633.5" r="2.9"/>
	<circle class="chapterCircle0" cx="149.6" cy="582.5" r="2.9"/>
	<circle class="chapterCircle0" cx="149.6" cy="591" r="2.9"/>
	<circle class="chapterCircle0" cx="149.6" cy="599.5" r="2.9"/>
	<circle class="chapterCircle0" cx="149.6" cy="608" r="2.9"/>
	<circle class="chapterCircle0" cx="421.7" cy="386.9" r="2.9"/>
	<circle class="chapterCircle0" cx="421.7" cy="395.4" r="2.9"/>
	<circle class="chapterCircle0" cx="413.2" cy="395.4" r="2.9"/>
	<circle class="chapterCircle0" cx="413.2" cy="403.9" r="2.9"/>
	<circle class="chapterCircle0" cx="64.5" cy="684.5" r="2.9"/>
	<circle class="chapterCircle0" cx="64.5" cy="693.1" r="2.9"/>
	<circle class="chapterCircle0" cx="277.1" cy="574" r="2.9"/>
	<circle class="chapterCircle0" cx="277.1" cy="582.5" r="2.9"/>
	<circle class="chapterCircle0" cx="268.6" cy="582.5" r="2.9"/>
	<circle class="chapterCircle0" cx="268.6" cy="591" r="2.9"/>
	<circle class="chapterCircle0" cx="39" cy="565.5" r="2.9"/>
	<circle class="chapterCircle0" cx="39" cy="574" r="2.9"/>
	<circle class="chapterCircle0" cx="98.5" cy="769.6" r="2.9"/>
	<circle class="chapterCircle0" cx="98.5" cy="778.1" r="2.9"/>
	<circle class="chapterCircle0" cx="98.5" cy="786.6" r="2.9"/>
	<circle class="chapterCircle0" cx="5" cy="667.5" r="2.9"/>
	
		<ellipse transform="matrix(0.9999 -1.020253e-02 1.020253e-02 0.9999 -6.0281 0.3419)" class="chapterCircle0" cx="30.5" cy="591" rx="2.9" ry="2.9"/>
	<circle class="chapterCircle0" cx="506.7" cy="21.3" r="2.9"/>
	<circle class="chapterCircle0" cx="81.5" cy="684.5" r="2.9"/>
	<circle class="chapterCircle0" cx="73" cy="684.5" r="2.9"/>
	<circle class="chapterCircle0" cx="39" cy="633.5" r="2.9"/>
	<circle class="chapterCircle0" cx="39" cy="642" r="2.9"/>
	<circle class="chapterCircle0" cx="251.6" cy="582.5" r="2.9"/>
	<circle class="chapterCircle0" cx="243.1" cy="574" r="2.9"/>
	<circle class="chapterCircle0" cx="22" cy="650.5" r="2.9"/>
	<circle class="chapterCircle0" cx="166.6" cy="608" r="2.9"/>
	<circle class="chapterCircle0" cx="158.1" cy="608" r="2.9"/>
	<circle class="chapterCircle0" cx="47.5" cy="608" r="2.9"/>
	<circle class="chapterCircle0" cx="455.7" cy="174.3" r="2.9"/>
	<circle class="chapterCircle0" cx="455.7" cy="182.8" r="2.9"/>
	<circle class="chapterCircle0" cx="498.2" cy="4.2" r="2.9"/>
	<circle class="chapterCircle0" cx="498.2" cy="12.8" r="2.9"/>
	<circle class="chapterCircle0" cx="47.5" cy="718.6" r="2.9"/>
</g>
<g>
	<g id="tokio">
		<ellipse class="chapterCircle1" cx="476" cy="513.9" rx="40" ry="40"/>
		<ellipse class="chapterCircle0" cx="476" cy="513.9" rx="26.5" ry="26.5"/>
	</g>
</g>
</svg>
