<?xml version="1.0" encoding="utf-8"?>
<!-- Generator: Adobe Illustrator 24.1.2, SVG Export Plug-In . SVG Version: 6.00 Build 0)  -->
<svg version="1.1" id="portogallo" xmlns="http://www.w3.org/2000/svg" xmlns:xlink="http://www.w3.org/1999/xlink" x="0px" y="0px"
	 viewBox="0 0 155.9 278.2" style="enable-background:new 0 0 155.9 278.2;" xml:space="preserve">
<style type="text/css">
	.chapterCircle0{fill:#FFFFFF;}
	.chapterCircle1{opacity:0.5;fill:#FFFFFF;enable-background:new;}
</style>
<g id="map">
	<circle class="chapterCircle0" cx="152.3" cy="33" r="2.5"/>
	<circle class="chapterCircle0" cx="145" cy="33" r="2.5"/>
	<circle class="chapterCircle0" cx="145" cy="40.3" r="2.5"/>
	<circle class="chapterCircle0" cx="145" cy="47.6" r="2.5"/>
	<circle class="chapterCircle0" cx="137.6" cy="18.3" r="2.5"/>
	<circle class="chapterCircle0" cx="137.6" cy="25.6" r="2.5"/>
	<circle class="chapterCircle0" cx="137.6" cy="33" r="2.5"/>
	<circle class="chapterCircle0" cx="137.6" cy="40.3" r="2.5"/>
	<circle class="chapterCircle0" cx="137.6" cy="47.6" r="2.5"/>
	<circle class="chapterCircle0" cx="130.3" cy="18.3" r="2.5"/>
	<circle class="chapterCircle0" cx="130.3" cy="25.6" r="2.5"/>
	<circle class="chapterCircle0" cx="130.3" cy="33" r="2.5"/>
	<circle class="chapterCircle0" cx="130.3" cy="40.3" r="2.5"/>
	<circle class="chapterCircle0" cx="130.3" cy="47.6" r="2.5"/>
	<circle class="chapterCircle0" cx="130.3" cy="54.9" r="2.5"/>
	<circle class="chapterCircle0" cx="130.3" cy="62.2" r="2.5"/>
	<circle class="chapterCircle0" cx="123" cy="18.3" r="2.5"/>
	<circle class="chapterCircle0" cx="123" cy="25.6" r="2.5"/>
	<circle class="chapterCircle0" cx="123" cy="33" r="2.5"/>
	<circle class="chapterCircle0" cx="123" cy="40.3" r="2.5"/>
	<circle class="chapterCircle0" cx="123" cy="47.6" r="2.5"/>
	<circle class="chapterCircle0" cx="123" cy="54.9" r="2.5"/>
	<circle class="chapterCircle0" cx="123" cy="62.2" r="2.5"/>
	<circle class="chapterCircle0" cx="123" cy="69.6" r="2.5"/>
	<circle class="chapterCircle0" cx="123" cy="76.9" r="2.5"/>
	<circle class="chapterCircle0" cx="123" cy="84.2" r="2.5"/>
	<circle class="chapterCircle0" cx="123" cy="91.5" r="2.5"/>
	<circle class="chapterCircle0" cx="123" cy="98.8" r="2.5"/>
	<circle class="chapterCircle0" cx="123" cy="120.8" r="2.5"/>
	<circle class="chapterCircle0" cx="115.7" cy="18.3" r="2.5"/>
	<circle class="chapterCircle0" cx="115.7" cy="25.6" r="2.5"/>
	<circle class="chapterCircle0" cx="115.7" cy="33" r="2.5"/>
	<circle class="chapterCircle0" cx="115.7" cy="40.3" r="2.5"/>
	<circle class="chapterCircle0" cx="115.7" cy="47.6" r="2.5"/>
	<circle class="chapterCircle0" cx="115.7" cy="54.9" r="2.5"/>
	<circle class="chapterCircle0" cx="115.7" cy="62.2" r="2.5"/>
	<circle class="chapterCircle0" cx="115.7" cy="69.6" r="2.5"/>
	<circle class="chapterCircle0" cx="115.7" cy="76.9" r="2.5"/>
	<circle class="chapterCircle0" cx="115.7" cy="84.2" r="2.5"/>
	<circle class="chapterCircle0" cx="115.7" cy="91.5" r="2.5"/>
	<circle class="chapterCircle0" cx="115.7" cy="98.8" r="2.5"/>
	<circle class="chapterCircle0" cx="115.7" cy="106.2" r="2.5"/>
	<circle class="chapterCircle0" cx="115.7" cy="113.5" r="2.5"/>
	<circle class="chapterCircle0" cx="115.7" cy="120.8" r="2.5"/>
	<circle class="chapterCircle0" cx="115.7" cy="128.1" r="2.5"/>
	<circle class="chapterCircle0" cx="115.7" cy="135.5" r="2.5"/>
	<circle class="chapterCircle0" cx="115.7" cy="172.1" r="2.5"/>
	<circle class="chapterCircle0" cx="115.7" cy="179.4" r="2.5"/>
	<circle class="chapterCircle0" cx="115.7" cy="216" r="2.5"/>
	<circle class="chapterCircle0" cx="115.7" cy="223.3" r="2.5"/>
	<circle class="chapterCircle0" cx="108.3" cy="18.3" r="2.5"/>
	<circle class="chapterCircle0" cx="108.3" cy="25.6" r="2.5"/>
	<circle class="chapterCircle0" cx="108.3" cy="33" r="2.5"/>
	<circle class="chapterCircle0" cx="108.3" cy="40.3" r="2.5"/>
	<circle class="chapterCircle0" cx="108.3" cy="47.6" r="2.5"/>
	<circle class="chapterCircle0" cx="108.3" cy="54.9" r="2.5"/>
	<circle class="chapterCircle0" cx="108.3" cy="62.2" r="2.5"/>
	<circle class="chapterCircle0" cx="108.3" cy="69.6" r="2.5"/>
	<circle class="chapterCircle0" cx="108.3" cy="76.9" r="2.5"/>
	<circle class="chapterCircle0" cx="108.3" cy="84.2" r="2.5"/>
	<circle class="chapterCircle0" cx="108.3" cy="91.5" r="2.5"/>
	<circle class="chapterCircle0" cx="108.3" cy="98.8" r="2.5"/>
	<circle class="chapterCircle0" cx="108.3" cy="106.2" r="2.5"/>
	<circle class="chapterCircle0" cx="108.3" cy="113.5" r="2.5"/>
	<circle class="chapterCircle0" cx="108.3" cy="120.8" r="2.5"/>
	<circle class="chapterCircle0" cx="108.3" cy="128.1" r="2.5"/>
	<circle class="chapterCircle0" cx="108.3" cy="135.5" r="2.5"/>
	<circle class="chapterCircle0" cx="108.3" cy="157.4" r="2.5"/>
	<circle class="chapterCircle0" cx="108.3" cy="164.8" r="2.5"/>
	<circle class="chapterCircle0" cx="108.3" cy="172.1" r="2.5"/>
	<circle class="chapterCircle0" cx="108.3" cy="179.4" r="2.5"/>
	<circle class="chapterCircle0" cx="108.3" cy="186.7" r="2.5"/>
	<circle class="chapterCircle0" cx="108.3" cy="194.1" r="2.5"/>
	<circle class="chapterCircle0" cx="108.3" cy="201.4" r="2.5"/>
	<circle class="chapterCircle0" cx="108.3" cy="208.7" r="2.5"/>
	<circle class="chapterCircle0" cx="108.3" cy="216" r="2.5"/>
	<circle class="chapterCircle0" cx="108.3" cy="223.3" r="2.5"/>
	<circle class="chapterCircle0" cx="108.3" cy="230.7" r="2.5"/>
	<circle class="chapterCircle0" cx="101" cy="18.3" r="2.5"/>
	<circle class="chapterCircle0" cx="101" cy="25.6" r="2.5"/>
	<circle class="chapterCircle0" cx="101" cy="33" r="2.5"/>
	<circle class="chapterCircle0" cx="101" cy="40.3" r="2.5"/>
	<circle class="chapterCircle0" cx="101" cy="47.6" r="2.5"/>
	<circle class="chapterCircle0" cx="101" cy="54.9" r="2.5"/>
	<circle class="chapterCircle0" cx="101" cy="62.2" r="2.5"/>
	<circle class="chapterCircle0" cx="101" cy="69.6" r="2.5"/>
	<circle class="chapterCircle0" cx="101" cy="76.9" r="2.5"/>
	<circle class="chapterCircle0" cx="101" cy="84.2" r="2.5"/>
	<circle class="chapterCircle0" cx="101" cy="91.5" r="2.5"/>
	<circle class="chapterCircle0" cx="101" cy="98.8" r="2.5"/>
	<circle class="chapterCircle0" cx="101" cy="106.2" r="2.5"/>
	<circle class="chapterCircle0" cx="101" cy="113.5" r="2.5"/>
	<circle class="chapterCircle0" cx="101" cy="120.8" r="2.5"/>
	<circle class="chapterCircle0" cx="101" cy="128.1" r="2.5"/>
	<circle class="chapterCircle0" cx="101" cy="135.5" r="2.5"/>
	<circle class="chapterCircle0" cx="101" cy="150.1" r="2.5"/>
	<circle class="chapterCircle0" cx="101" cy="157.4" r="2.5"/>
	<circle class="chapterCircle0" cx="101" cy="164.8" r="2.5"/>
	<circle class="chapterCircle0" cx="101" cy="172.1" r="2.5"/>
	<circle class="chapterCircle0" cx="101" cy="179.4" r="2.5"/>
	<circle class="chapterCircle0" cx="101" cy="186.7" r="2.5"/>
	<circle class="chapterCircle0" cx="101" cy="194.1" r="2.5"/>
	<circle class="chapterCircle0" cx="101" cy="201.4" r="2.5"/>
	<circle class="chapterCircle0" cx="101" cy="208.7" r="2.5"/>
	<circle class="chapterCircle0" cx="101" cy="216" r="2.5"/>
	<circle class="chapterCircle0" cx="101" cy="223.3" r="2.5"/>
	<circle class="chapterCircle0" cx="101" cy="230.7" r="2.5"/>
	<circle class="chapterCircle0" cx="101" cy="238" r="2.5"/>
	<circle class="chapterCircle0" cx="101" cy="245.3" r="2.5"/>
	<circle class="chapterCircle0" cx="101" cy="267.3" r="2.5"/>
	<circle class="chapterCircle0" cx="93.7" cy="18.3" r="2.5"/>
	<circle class="chapterCircle0" cx="93.7" cy="25.6" r="2.5"/>
	<circle class="chapterCircle0" cx="93.7" cy="33" r="2.5"/>
	<circle class="chapterCircle0" cx="93.7" cy="40.3" r="2.5"/>
	<circle class="chapterCircle0" cx="93.7" cy="47.6" r="2.5"/>
	<circle class="chapterCircle0" cx="93.7" cy="54.9" r="2.5"/>
	<circle class="chapterCircle0" cx="93.7" cy="62.2" r="2.5"/>
	<circle class="chapterCircle0" cx="93.7" cy="69.6" r="2.5"/>
	<circle class="chapterCircle0" cx="93.7" cy="76.9" r="2.5"/>
	<circle class="chapterCircle0" cx="93.7" cy="84.2" r="2.5"/>
	<circle class="chapterCircle0" cx="93.7" cy="91.5" r="2.5"/>
	<circle class="chapterCircle0" cx="93.7" cy="98.8" r="2.5"/>
	<circle class="chapterCircle0" cx="93.7" cy="106.2" r="2.5"/>
	<circle class="chapterCircle0" cx="93.7" cy="113.5" r="2.5"/>
	<circle class="chapterCircle0" cx="93.7" cy="120.8" r="2.5"/>
	<circle class="chapterCircle0" cx="93.7" cy="128.1" r="2.5"/>
	<circle class="chapterCircle0" cx="93.7" cy="135.5" r="2.5"/>
	<circle class="chapterCircle0" cx="93.7" cy="142.8" r="2.5"/>
	<circle class="chapterCircle0" cx="93.7" cy="150.1" r="2.5"/>
	<circle class="chapterCircle0" cx="93.7" cy="157.4" r="2.5"/>
	<circle class="chapterCircle0" cx="93.7" cy="164.8" r="2.5"/>
	<circle class="chapterCircle0" cx="93.7" cy="172.1" r="2.5"/>
	<circle class="chapterCircle0" cx="93.7" cy="179.4" r="2.5"/>
	<circle class="chapterCircle0" cx="93.7" cy="186.7" r="2.5"/>
	<circle class="chapterCircle0" cx="93.7" cy="194.1" r="2.5"/>
	<circle class="chapterCircle0" cx="93.7" cy="201.4" r="2.5"/>
	<circle class="chapterCircle0" cx="93.7" cy="208.7" r="2.5"/>
	<circle class="chapterCircle0" cx="93.7" cy="216" r="2.5"/>
	<circle class="chapterCircle0" cx="93.7" cy="223.3" r="2.5"/>
	<circle class="chapterCircle0" cx="93.7" cy="230.7" r="2.5"/>
	<circle class="chapterCircle0" cx="93.7" cy="238" r="2.5"/>
	<circle class="chapterCircle0" cx="93.7" cy="245.3" r="2.5"/>
	<circle class="chapterCircle0" cx="93.7" cy="252.6" r="2.5"/>
	<circle class="chapterCircle0" cx="93.7" cy="260" r="2.5"/>
	<circle class="chapterCircle0" cx="93.7" cy="267.3" r="2.5"/>
	<circle class="chapterCircle0" cx="93.7" cy="274.6" r="2.5"/>
	<circle class="chapterCircle0" cx="86.4" cy="18.3" r="2.5"/>
	<circle class="chapterCircle0" cx="86.4" cy="25.6" r="2.5"/>
	<circle class="chapterCircle0" cx="86.4" cy="33" r="2.5"/>
	<circle class="chapterCircle0" cx="86.4" cy="40.3" r="2.5"/>
	<circle class="chapterCircle0" cx="86.4" cy="47.6" r="2.5"/>
	<circle class="chapterCircle0" cx="86.4" cy="54.9" r="2.5"/>
	<circle class="chapterCircle0" cx="86.4" cy="62.2" r="2.5"/>
	<circle class="chapterCircle0" cx="86.4" cy="69.6" r="2.5"/>
	<circle class="chapterCircle0" cx="86.4" cy="76.9" r="2.5"/>
	<circle class="chapterCircle0" cx="86.4" cy="84.2" r="2.5"/>
	<circle class="chapterCircle0" cx="86.4" cy="91.5" r="2.5"/>
	<circle class="chapterCircle0" cx="86.4" cy="98.8" r="2.5"/>
	<circle class="chapterCircle0" cx="86.4" cy="106.2" r="2.5"/>
	<circle class="chapterCircle0" cx="86.4" cy="113.5" r="2.5"/>
	<circle class="chapterCircle0" cx="86.4" cy="120.8" r="2.5"/>
	<circle class="chapterCircle0" cx="86.4" cy="128.1" r="2.5"/>
	<circle class="chapterCircle0" cx="86.4" cy="135.5" r="2.5"/>
	<circle class="chapterCircle0" cx="86.4" cy="142.8" r="2.5"/>
	<circle class="chapterCircle0" cx="86.4" cy="150.1" r="2.5"/>
	<circle class="chapterCircle0" cx="86.4" cy="157.4" r="2.5"/>
	<circle class="chapterCircle0" cx="86.4" cy="164.8" r="2.5"/>
	<circle class="chapterCircle0" cx="86.4" cy="172.1" r="2.5"/>
	<circle class="chapterCircle0" cx="86.4" cy="179.4" r="2.5"/>
	<circle class="chapterCircle0" cx="86.4" cy="186.7" r="2.5"/>
	<circle class="chapterCircle0" cx="86.4" cy="194.1" r="2.5"/>
	<circle class="chapterCircle0" cx="86.4" cy="201.4" r="2.5"/>
	<circle class="chapterCircle0" cx="86.4" cy="208.7" r="2.5"/>
	<circle class="chapterCircle0" cx="86.4" cy="216" r="2.5"/>
	<circle class="chapterCircle0" cx="86.4" cy="223.3" r="2.5"/>
	<circle class="chapterCircle0" cx="86.4" cy="230.7" r="2.5"/>
	<circle class="chapterCircle0" cx="86.4" cy="238" r="2.5"/>
	<circle class="chapterCircle0" cx="86.4" cy="245.3" r="2.5"/>
	<circle class="chapterCircle0" cx="86.4" cy="252.6" r="2.5"/>
	<circle class="chapterCircle0" cx="86.4" cy="260" r="2.5"/>
	<circle class="chapterCircle0" cx="86.4" cy="267.3" r="2.5"/>
	<circle class="chapterCircle0" cx="86.4" cy="274.6" r="2.5"/>
	<circle class="chapterCircle0" cx="79.1" cy="18.3" r="2.5"/>
	<circle class="chapterCircle0" cx="79.1" cy="25.6" r="2.5"/>
	<circle class="chapterCircle0" cx="79.1" cy="33" r="2.5"/>
	<circle class="chapterCircle0" cx="79.1" cy="40.3" r="2.5"/>
	<circle class="chapterCircle0" cx="79.1" cy="47.6" r="2.5"/>
	<circle class="chapterCircle0" cx="79.1" cy="54.9" r="2.5"/>
	<circle class="chapterCircle0" cx="79.1" cy="62.2" r="2.5"/>
	<circle class="chapterCircle0" cx="79.1" cy="69.6" r="2.5"/>
	<circle class="chapterCircle0" cx="79.1" cy="76.9" r="2.5"/>
	<circle class="chapterCircle0" cx="79.1" cy="84.2" r="2.5"/>
	<circle class="chapterCircle0" cx="79.1" cy="91.5" r="2.5"/>
	<circle class="chapterCircle0" cx="79.1" cy="98.8" r="2.5"/>
	<circle class="chapterCircle0" cx="79.1" cy="106.2" r="2.5"/>
	<circle class="chapterCircle0" cx="79.1" cy="113.5" r="2.5"/>
	<circle class="chapterCircle0" cx="79.1" cy="120.8" r="2.5"/>
	<circle class="chapterCircle0" cx="79.1" cy="128.1" r="2.5"/>
	<circle class="chapterCircle0" cx="79.1" cy="135.5" r="2.5"/>
	<circle class="chapterCircle0" cx="79.1" cy="142.8" r="2.5"/>
	<circle class="chapterCircle0" cx="79.1" cy="150.1" r="2.5"/>
	<circle class="chapterCircle0" cx="79.1" cy="157.4" r="2.5"/>
	<circle class="chapterCircle0" cx="79.1" cy="164.8" r="2.5"/>
	<circle class="chapterCircle0" cx="79.1" cy="172.1" r="2.5"/>
	<circle class="chapterCircle0" cx="79.1" cy="179.4" r="2.5"/>
	<circle class="chapterCircle0" cx="79.1" cy="186.7" r="2.5"/>
	<circle class="chapterCircle0" cx="79.1" cy="194.1" r="2.5"/>
	<circle class="chapterCircle0" cx="79.1" cy="201.4" r="2.5"/>
	<circle class="chapterCircle0" cx="79.1" cy="208.7" r="2.5"/>
	<circle class="chapterCircle0" cx="79.1" cy="216" r="2.5"/>
	<circle class="chapterCircle0" cx="79.1" cy="223.3" r="2.5"/>
	<circle class="chapterCircle0" cx="79.1" cy="230.7" r="2.5"/>
	<circle class="chapterCircle0" cx="79.1" cy="238" r="2.5"/>
	<circle class="chapterCircle0" cx="79.1" cy="245.3" r="2.5"/>
	<circle class="chapterCircle0" cx="79.1" cy="252.6" r="2.5"/>
	<circle class="chapterCircle0" cx="79.1" cy="260" r="2.5"/>
	<circle class="chapterCircle0" cx="79.1" cy="267.3" r="2.5"/>
	<circle class="chapterCircle0" cx="79.1" cy="274.6" r="2.5"/>
	<circle class="chapterCircle0" cx="71.7" cy="3.7" r="2.5"/>
	<circle class="chapterCircle0" cx="71.7" cy="11" r="2.5"/>
	<circle class="chapterCircle0" cx="71.7" cy="18.3" r="2.5"/>
	<circle class="chapterCircle0" cx="71.7" cy="25.6" r="2.5"/>
	<circle class="chapterCircle0" cx="71.7" cy="33" r="2.5"/>
	<circle class="chapterCircle0" cx="71.7" cy="40.3" r="2.5"/>
	<circle class="chapterCircle0" cx="71.7" cy="47.6" r="2.5"/>
	<circle class="chapterCircle0" cx="71.7" cy="54.9" r="2.5"/>
	<circle class="chapterCircle0" cx="71.7" cy="62.2" r="2.5"/>
	<circle class="chapterCircle0" cx="71.7" cy="69.6" r="2.5"/>
	<circle class="chapterCircle0" cx="71.7" cy="76.9" r="2.5"/>
	<circle class="chapterCircle0" cx="71.7" cy="84.2" r="2.5"/>
	<circle class="chapterCircle0" cx="71.7" cy="91.5" r="2.5"/>
	<circle class="chapterCircle0" cx="71.7" cy="98.8" r="2.5"/>
	<circle class="chapterCircle0" cx="71.7" cy="106.2" r="2.5"/>
	<circle class="chapterCircle0" cx="71.7" cy="113.5" r="2.5"/>
	<circle class="chapterCircle0" cx="71.7" cy="120.8" r="2.5"/>
	<circle class="chapterCircle0" cx="71.7" cy="128.1" r="2.5"/>
	<circle class="chapterCircle0" cx="71.7" cy="135.5" r="2.5"/>
	<circle class="chapterCircle0" cx="71.7" cy="142.8" r="2.5"/>
	<circle class="chapterCircle0" cx="71.7" cy="150.1" r="2.5"/>
	<circle class="chapterCircle0" cx="71.7" cy="157.4" r="2.5"/>
	<circle class="chapterCircle0" cx="71.7" cy="164.8" r="2.5"/>
	<circle class="chapterCircle0" cx="71.7" cy="172.1" r="2.5"/>
	<circle class="chapterCircle0" cx="71.7" cy="179.4" r="2.5"/>
	<circle class="chapterCircle0" cx="71.7" cy="186.7" r="2.5"/>
	<circle class="chapterCircle0" cx="71.7" cy="194.1" r="2.5"/>
	<circle class="chapterCircle0" cx="71.7" cy="201.4" r="2.5"/>
	<circle class="chapterCircle0" cx="71.7" cy="208.7" r="2.5"/>
	<circle class="chapterCircle0" cx="71.7" cy="216" r="2.5"/>
	<circle class="chapterCircle0" cx="71.7" cy="223.3" r="2.5"/>
	<circle class="chapterCircle0" cx="71.7" cy="230.7" r="2.5"/>
	<circle class="chapterCircle0" cx="71.7" cy="238" r="2.5"/>
	<circle class="chapterCircle0" cx="71.7" cy="245.3" r="2.5"/>
	<circle class="chapterCircle0" cx="71.7" cy="252.6" r="2.5"/>
	<circle class="chapterCircle0" cx="71.7" cy="260" r="2.5"/>
	<circle class="chapterCircle0" cx="71.7" cy="267.3" r="2.5"/>
	<circle class="chapterCircle0" cx="71.7" cy="274.6" r="2.5"/>
	<circle class="chapterCircle0" cx="64.4" cy="3.7" r="2.5"/>
	<circle class="chapterCircle0" cx="64.4" cy="11" r="2.5"/>
	<circle class="chapterCircle0" cx="64.4" cy="18.3" r="2.5"/>
	<circle class="chapterCircle0" cx="64.4" cy="25.6" r="2.5"/>
	<circle class="chapterCircle0" cx="64.4" cy="33" r="2.5"/>
	<circle class="chapterCircle0" cx="64.4" cy="40.3" r="2.5"/>
	<circle class="chapterCircle0" cx="64.4" cy="47.6" r="2.5"/>
	<circle class="chapterCircle0" cx="64.4" cy="54.9" r="2.5"/>
	<circle class="chapterCircle0" cx="64.4" cy="62.2" r="2.5"/>
	<circle class="chapterCircle0" cx="64.4" cy="69.6" r="2.5"/>
	<circle class="chapterCircle0" cx="64.4" cy="76.9" r="2.5"/>
	<circle class="chapterCircle0" cx="64.4" cy="84.2" r="2.5"/>
	<circle class="chapterCircle0" cx="64.4" cy="91.5" r="2.5"/>
	<circle class="chapterCircle0" cx="64.4" cy="98.8" r="2.5"/>
	<circle class="chapterCircle0" cx="64.4" cy="106.2" r="2.5"/>
	<circle class="chapterCircle0" cx="64.4" cy="113.5" r="2.5"/>
	<circle class="chapterCircle0" cx="64.4" cy="120.8" r="2.5"/>
	<circle class="chapterCircle0" cx="64.4" cy="128.1" r="2.5"/>
	<circle class="chapterCircle0" cx="64.4" cy="135.5" r="2.5"/>
	<circle class="chapterCircle0" cx="64.4" cy="142.8" r="2.5"/>
	<circle class="chapterCircle0" cx="64.4" cy="150.1" r="2.5"/>
	<circle class="chapterCircle0" cx="64.4" cy="157.4" r="2.5"/>
	<circle class="chapterCircle0" cx="64.4" cy="164.8" r="2.5"/>
	<circle class="chapterCircle0" cx="64.4" cy="172.1" r="2.5"/>
	<circle class="chapterCircle0" cx="64.4" cy="179.4" r="2.5"/>
	<circle class="chapterCircle0" cx="64.4" cy="186.7" r="2.5"/>
	<circle class="chapterCircle0" cx="64.4" cy="194.1" r="2.5"/>
	<circle class="chapterCircle0" cx="64.4" cy="201.4" r="2.5"/>
	<circle class="chapterCircle0" cx="64.4" cy="208.7" r="2.5"/>
	<circle class="chapterCircle0" cx="64.4" cy="216" r="2.5"/>
	<circle class="chapterCircle0" cx="64.4" cy="223.3" r="2.5"/>
	<circle class="chapterCircle0" cx="64.4" cy="230.7" r="2.5"/>
	<circle class="chapterCircle0" cx="64.4" cy="238" r="2.5"/>
	<circle class="chapterCircle0" cx="64.4" cy="245.3" r="2.5"/>
	<circle class="chapterCircle0" cx="64.4" cy="252.6" r="2.5"/>
	<circle class="chapterCircle0" cx="64.4" cy="260" r="2.5"/>
	<circle class="chapterCircle0" cx="64.4" cy="267.3" r="2.5"/>
	<circle class="chapterCircle0" cx="57.1" cy="11" r="2.5"/>
	<circle class="chapterCircle0" cx="57.1" cy="18.3" r="2.5"/>
	<circle class="chapterCircle0" cx="57.1" cy="25.6" r="2.5"/>
	<circle class="chapterCircle0" cx="57.1" cy="33" r="2.5"/>
	<circle class="chapterCircle0" cx="57.1" cy="40.3" r="2.5"/>
	<circle class="chapterCircle0" cx="57.1" cy="47.6" r="2.5"/>
	<circle class="chapterCircle0" cx="57.1" cy="54.9" r="2.5"/>
	<circle class="chapterCircle0" cx="57.1" cy="62.2" r="2.5"/>
	<circle class="chapterCircle0" cx="57.1" cy="69.6" r="2.5"/>
	<circle class="chapterCircle0" cx="57.1" cy="76.9" r="2.5"/>
	<circle class="chapterCircle0" cx="57.1" cy="84.2" r="2.5"/>
	<circle class="chapterCircle0" cx="57.1" cy="91.5" r="2.5"/>
	<circle class="chapterCircle0" cx="57.1" cy="98.8" r="2.5"/>
	<circle class="chapterCircle0" cx="57.1" cy="106.2" r="2.5"/>
	<circle class="chapterCircle0" cx="57.1" cy="113.5" r="2.5"/>
	<circle class="chapterCircle0" cx="57.1" cy="120.8" r="2.5"/>
	<circle class="chapterCircle0" cx="57.1" cy="128.1" r="2.5"/>
	<circle class="chapterCircle0" cx="57.1" cy="135.5" r="2.5"/>
	<circle class="chapterCircle0" cx="57.1" cy="142.8" r="2.5"/>
	<circle class="chapterCircle0" cx="57.1" cy="150.1" r="2.5"/>
	<circle class="chapterCircle0" cx="57.1" cy="157.4" r="2.5"/>
	<circle class="chapterCircle0" cx="57.1" cy="164.8" r="2.5"/>
	<circle class="chapterCircle0" cx="57.1" cy="172.1" r="2.5"/>
	<circle class="chapterCircle0" cx="57.1" cy="179.4" r="2.5"/>
	<circle class="chapterCircle0" cx="57.1" cy="186.7" r="2.5"/>
	<circle class="chapterCircle0" cx="57.1" cy="194.1" r="2.5"/>
	<circle class="chapterCircle0" cx="57.1" cy="201.4" r="2.5"/>
	<circle class="chapterCircle0" cx="57.1" cy="208.7" r="2.5"/>
	<circle class="chapterCircle0" cx="57.1" cy="216" r="2.5"/>
	<circle class="chapterCircle0" cx="57.1" cy="223.3" r="2.5"/>
	<circle class="chapterCircle0" cx="57.1" cy="230.7" r="2.5"/>
	<circle class="chapterCircle0" cx="57.1" cy="238" r="2.5"/>
	<circle class="chapterCircle0" cx="57.1" cy="245.3" r="2.5"/>
	<circle class="chapterCircle0" cx="57.1" cy="252.6" r="2.5"/>
	<circle class="chapterCircle0" cx="57.1" cy="260" r="2.5"/>
	<circle class="chapterCircle0" cx="57.1" cy="267.3" r="2.5"/>
	<circle class="chapterCircle0" cx="49.8" cy="11" r="2.5"/>
	<circle class="chapterCircle0" cx="49.8" cy="18.3" r="2.5"/>
	<circle class="chapterCircle0" cx="49.8" cy="25.6" r="2.5"/>
	<circle class="chapterCircle0" cx="49.8" cy="33" r="2.5"/>
	<circle class="chapterCircle0" cx="49.8" cy="40.3" r="2.5"/>
	<circle class="chapterCircle0" cx="49.8" cy="47.6" r="2.5"/>
	<circle class="chapterCircle0" cx="49.8" cy="76.9" r="2.5"/>
	<circle class="chapterCircle0" cx="49.8" cy="84.2" r="2.5"/>
	<circle class="chapterCircle0" cx="49.8" cy="91.5" r="2.5"/>
	<circle class="chapterCircle0" cx="49.8" cy="98.8" r="2.5"/>
	<circle class="chapterCircle0" cx="49.8" cy="106.2" r="2.5"/>
	<circle class="chapterCircle0" cx="49.8" cy="113.5" r="2.5"/>
	<circle class="chapterCircle0" cx="49.8" cy="120.8" r="2.5"/>
	<circle class="chapterCircle0" cx="49.8" cy="128.1" r="2.5"/>
	<circle class="chapterCircle0" cx="49.8" cy="135.5" r="2.5"/>
	<circle class="chapterCircle0" cx="49.8" cy="142.8" r="2.5"/>
	<circle class="chapterCircle0" cx="49.8" cy="150.1" r="2.5"/>
	<circle class="chapterCircle0" cx="49.8" cy="157.4" r="2.5"/>
	<circle class="chapterCircle0" cx="49.8" cy="164.8" r="2.5"/>
	<circle class="chapterCircle0" cx="49.8" cy="172.1" r="2.5"/>
	<circle class="chapterCircle0" cx="49.8" cy="179.4" r="2.5"/>
	<circle class="chapterCircle0" cx="49.8" cy="186.7" r="2.5"/>
	<circle class="chapterCircle0" cx="49.8" cy="194.1" r="2.5"/>
	<circle class="chapterCircle0" cx="49.8" cy="201.4" r="2.5"/>
	<circle class="chapterCircle0" cx="49.8" cy="208.7" r="2.5"/>
	<circle class="chapterCircle0" cx="49.8" cy="216" r="2.5"/>
	<circle class="chapterCircle0" cx="49.8" cy="223.3" r="2.5"/>
	<circle class="chapterCircle0" cx="49.8" cy="230.7" r="2.5"/>
	<circle class="chapterCircle0" cx="49.8" cy="238" r="2.5"/>
	<circle class="chapterCircle0" cx="49.8" cy="245.3" r="2.5"/>
	<circle class="chapterCircle0" cx="49.8" cy="252.6" r="2.5"/>
	<circle class="chapterCircle0" cx="49.8" cy="260" r="2.5"/>
	<circle class="chapterCircle0" cx="49.8" cy="267.3" r="2.5"/>
	<circle class="chapterCircle0" cx="42.4" cy="106.2" r="2.5"/>
	<circle class="chapterCircle0" cx="42.4" cy="113.5" r="2.5"/>
	<circle class="chapterCircle0" cx="42.4" cy="120.8" r="2.5"/>
	<circle class="chapterCircle0" cx="42.4" cy="128.1" r="2.5"/>
	<circle class="chapterCircle0" cx="42.4" cy="135.5" r="2.5"/>
	<circle class="chapterCircle0" cx="42.4" cy="142.8" r="2.5"/>
	<circle class="chapterCircle0" cx="42.4" cy="150.1" r="2.5"/>
	<circle class="chapterCircle0" cx="42.4" cy="157.4" r="2.5"/>
	<circle class="chapterCircle0" cx="42.4" cy="164.8" r="2.5"/>
	<circle class="chapterCircle0" cx="42.4" cy="172.1" r="2.5"/>
	<circle class="chapterCircle0" cx="42.4" cy="179.4" r="2.5"/>
	<circle class="chapterCircle0" cx="42.4" cy="186.7" r="2.5"/>
	<circle class="chapterCircle0" cx="42.4" cy="194.1" r="2.5"/>
	<circle class="chapterCircle0" cx="42.4" cy="201.4" r="2.5"/>
	<circle class="chapterCircle0" cx="42.4" cy="267.3" r="2.5"/>
	<circle class="chapterCircle0" cx="42.4" cy="274.6" r="2.5"/>
	<circle class="chapterCircle0" cx="35.1" cy="135.5" r="2.5"/>
	<circle class="chapterCircle0" cx="35.1" cy="142.8" r="2.5"/>
	<circle class="chapterCircle0" cx="35.1" cy="150.1" r="2.5"/>
	<circle class="chapterCircle0" cx="35.1" cy="157.4" r="2.5"/>
	<circle class="chapterCircle0" cx="35.1" cy="164.8" r="2.5"/>
	<circle class="chapterCircle0" cx="35.1" cy="172.1" r="2.5"/>
	<circle class="chapterCircle0" cx="35.1" cy="179.4" r="2.5"/>
	<circle class="chapterCircle0" cx="35.1" cy="186.7" r="2.5"/>
	<circle class="chapterCircle0" cx="35.1" cy="194.1" r="2.5"/>
	<circle class="chapterCircle0" cx="35.1" cy="201.4" r="2.5"/>
	<circle class="chapterCircle0" cx="27.8" cy="150.1" r="2.5"/>
	<circle class="chapterCircle0" cx="27.8" cy="157.4" r="2.5"/>
	<circle class="chapterCircle0" cx="27.8" cy="164.8" r="2.5"/>
	<circle class="chapterCircle0" cx="27.8" cy="172.1" r="2.5"/>
	<circle class="chapterCircle0" cx="27.8" cy="179.4" r="2.5"/>
	<circle class="chapterCircle0" cx="27.8" cy="186.7" r="2.5"/>
	<circle class="chapterCircle0" cx="20.5" cy="164.8" r="2.5"/>
	<circle class="chapterCircle0" cx="20.5" cy="172.1" r="2.5"/>
	<circle class="chapterCircle0" cx="20.5" cy="179.4" r="2.5"/>
	<circle class="chapterCircle0" cx="20.5" cy="186.7" r="2.5"/>
</g>
<g>
	<g id="lisbona">
		<ellipse class="chapterCircle1" cx="30" cy="173" rx="25" ry="25"/>
		<ellipse class="chapterCircle0" cx="30" cy="173" rx="16.6" ry="16.6"/>
	</g>
</g>
</svg>
