<?xml version="1.0" encoding="utf-8"?>
<!-- Generator: Adobe Illustrator 24.1.2, SVG Export Plug-In . SVG Version: 6.00 Build 0)  -->
<svg version="1.1" id="rep_ceca" xmlns="http://www.w3.org/2000/svg" xmlns:xlink="http://www.w3.org/1999/xlink" x="0px" y="0px"
	 viewBox="0 0 1034.3 583.3" style="enable-background:new 0 0 1034.3 583.3;" xml:space="preserve">
<style type="text/css">
	.chapterCircle0{fill:#FFFFFF;}
</style>
<ellipse transform="matrix(0.3827 -0.9239 0.9239 0.3827 335.8997 1141.0093)" class="chapterCircle0" cx="1021.8" cy="319.1" rx="8.7" ry="8.7"/>
<ellipse transform="matrix(0.3827 -0.9239 0.9239 0.3827 312.6549 1156.541)" class="chapterCircle0" cx="1021.8" cy="344.3" rx="8.7" ry="8.7"/>
<circle class="chapterCircle0" cx="996.6" cy="319.1" r="8.7"/>
<circle class="chapterCircle0" cx="996.6" cy="344.3" r="8.7"/>
<circle class="chapterCircle0" cx="971.5" cy="268.8" r="8.7"/>
<circle class="chapterCircle0" cx="971.5" cy="294" r="8.7"/>
<circle class="chapterCircle0" cx="971.5" cy="319.1" r="8.7"/>
<circle class="chapterCircle0" cx="971.5" cy="344.3" r="8.7"/>
<circle class="chapterCircle0" cx="971.5" cy="369.5" r="8.7"/>
<circle class="chapterCircle0" cx="971.5" cy="394.6" r="8.7"/>
<circle class="chapterCircle0" cx="946.3" cy="268.8" r="8.7"/>
<circle class="chapterCircle0" cx="946.3" cy="294" r="8.7"/>
<circle class="chapterCircle0" cx="946.3" cy="319.1" r="8.7"/>
<circle class="chapterCircle0" cx="946.3" cy="344.3" r="8.7"/>
<circle class="chapterCircle0" cx="946.3" cy="369.5" r="8.7"/>
<circle class="chapterCircle0" cx="946.3" cy="394.6" r="8.7"/>
<circle class="chapterCircle0" cx="921.1" cy="243.7" r="8.7"/>
<circle class="chapterCircle0" cx="921.1" cy="268.8" r="8.7"/>
<circle class="chapterCircle0" cx="921.1" cy="294" r="8.7"/>
<circle class="chapterCircle0" cx="921.1" cy="319.1" r="8.7"/>
<circle class="chapterCircle0" cx="921.1" cy="344.3" r="8.7"/>
<circle class="chapterCircle0" cx="921.1" cy="369.5" r="8.7"/>
<circle class="chapterCircle0" cx="921.1" cy="394.6" r="8.7"/>
<circle class="chapterCircle0" cx="921.1" cy="419.8" r="8.7"/>
<circle class="chapterCircle0" cx="921.1" cy="445" r="8.7"/>
<circle class="chapterCircle0" cx="896" cy="243.7" r="8.7"/>
<circle class="chapterCircle0" cx="896" cy="268.8" r="8.7"/>
<circle class="chapterCircle0" cx="896" cy="294" r="8.7"/>
<circle class="chapterCircle0" cx="896" cy="319.1" r="8.7"/>
<circle class="chapterCircle0" cx="896" cy="344.3" r="8.7"/>
<circle class="chapterCircle0" cx="896" cy="369.5" r="8.7"/>
<circle class="chapterCircle0" cx="896" cy="394.6" r="8.7"/>
<circle class="chapterCircle0" cx="896" cy="419.8" r="8.7"/>
<circle class="chapterCircle0" cx="896" cy="445" r="8.7"/>
<circle class="chapterCircle0" cx="896" cy="470.1" r="8.7"/>
<circle class="chapterCircle0" cx="870.8" cy="243.7" r="8.7"/>
<circle class="chapterCircle0" cx="870.8" cy="268.8" r="8.7"/>
<circle class="chapterCircle0" cx="870.8" cy="294" r="8.7"/>
<circle class="chapterCircle0" cx="870.8" cy="319.1" r="8.7"/>
<circle class="chapterCircle0" cx="870.8" cy="344.3" r="8.7"/>
<circle class="chapterCircle0" cx="870.8" cy="369.5" r="8.7"/>
<circle class="chapterCircle0" cx="870.8" cy="394.6" r="8.7"/>
<circle class="chapterCircle0" cx="870.8" cy="419.8" r="8.7"/>
<circle class="chapterCircle0" cx="870.8" cy="445" r="8.7"/>
<circle class="chapterCircle0" cx="870.8" cy="470.1" r="8.7"/>
<circle class="chapterCircle0" cx="870.8" cy="495.3" r="8.7"/>
<circle class="chapterCircle0" cx="845.6" cy="168.2" r="8.7"/>
<circle class="chapterCircle0" cx="845.6" cy="193.3" r="8.7"/>
<circle class="chapterCircle0" cx="845.6" cy="218.5" r="8.7"/>
<circle class="chapterCircle0" cx="845.6" cy="243.7" r="8.7"/>
<circle class="chapterCircle0" cx="845.6" cy="268.8" r="8.7"/>
<circle class="chapterCircle0" cx="845.6" cy="294" r="8.7"/>
<circle class="chapterCircle0" cx="845.6" cy="319.1" r="8.7"/>
<circle class="chapterCircle0" cx="845.6" cy="344.3" r="8.7"/>
<circle class="chapterCircle0" cx="845.6" cy="369.5" r="8.7"/>
<circle class="chapterCircle0" cx="845.6" cy="394.6" r="8.7"/>
<circle class="chapterCircle0" cx="845.6" cy="419.8" r="8.7"/>
<circle class="chapterCircle0" cx="845.6" cy="445" r="8.7"/>
<circle class="chapterCircle0" cx="845.6" cy="470.1" r="8.7"/>
<circle class="chapterCircle0" cx="845.6" cy="495.3" r="8.7"/>
<circle class="chapterCircle0" cx="820.5" cy="193.3" r="8.7"/>
<circle class="chapterCircle0" cx="820.5" cy="218.5" r="8.7"/>
<circle class="chapterCircle0" cx="820.5" cy="243.7" r="8.7"/>
<circle class="chapterCircle0" cx="820.5" cy="268.8" r="8.7"/>
<circle class="chapterCircle0" cx="820.5" cy="294" r="8.7"/>
<circle class="chapterCircle0" cx="820.5" cy="319.1" r="8.7"/>
<circle class="chapterCircle0" cx="820.5" cy="344.3" r="8.7"/>
<circle class="chapterCircle0" cx="820.5" cy="369.5" r="8.7"/>
<circle class="chapterCircle0" cx="820.5" cy="394.6" r="8.7"/>
<circle class="chapterCircle0" cx="820.5" cy="419.8" r="8.7"/>
<circle class="chapterCircle0" cx="820.5" cy="445" r="8.7"/>
<circle class="chapterCircle0" cx="820.5" cy="470.1" r="8.7"/>
<circle class="chapterCircle0" cx="820.5" cy="495.3" r="8.7"/>
<circle class="chapterCircle0" cx="795.3" cy="168.2" r="8.7"/>
<circle class="chapterCircle0" cx="795.3" cy="193.3" r="8.7"/>
<circle class="chapterCircle0" cx="795.3" cy="218.5" r="8.7"/>
<circle class="chapterCircle0" cx="795.3" cy="243.7" r="8.7"/>
<circle class="chapterCircle0" cx="795.3" cy="268.8" r="8.7"/>
<circle class="chapterCircle0" cx="795.3" cy="294" r="8.7"/>
<circle class="chapterCircle0" cx="795.3" cy="319.1" r="8.7"/>
<circle class="chapterCircle0" cx="795.3" cy="344.3" r="8.7"/>
<circle class="chapterCircle0" cx="795.3" cy="369.5" r="8.7"/>
<circle class="chapterCircle0" cx="795.3" cy="394.6" r="8.7"/>
<circle class="chapterCircle0" cx="795.3" cy="419.8" r="8.7"/>
<circle class="chapterCircle0" cx="795.3" cy="445" r="8.7"/>
<circle class="chapterCircle0" cx="795.3" cy="470.1" r="8.7"/>
<circle class="chapterCircle0" cx="795.3" cy="495.3" r="8.7"/>
<circle class="chapterCircle0" cx="770.2" cy="168.2" r="8.7"/>
<circle class="chapterCircle0" cx="770.2" cy="193.3" r="8.7"/>
<circle class="chapterCircle0" cx="770.2" cy="218.5" r="8.7"/>
<circle class="chapterCircle0" cx="770.2" cy="243.7" r="8.7"/>
<circle class="chapterCircle0" cx="770.2" cy="268.8" r="8.7"/>
<circle class="chapterCircle0" cx="770.2" cy="294" r="8.7"/>
<circle class="chapterCircle0" cx="770.2" cy="319.1" r="8.7"/>
<circle class="chapterCircle0" cx="770.2" cy="344.3" r="8.7"/>
<circle class="chapterCircle0" cx="770.2" cy="369.5" r="8.7"/>
<circle class="chapterCircle0" cx="770.2" cy="394.6" r="8.7"/>
<circle class="chapterCircle0" cx="770.2" cy="419.8" r="8.7"/>
<circle class="chapterCircle0" cx="770.2" cy="445" r="8.7"/>
<circle class="chapterCircle0" cx="770.2" cy="470.1" r="8.7"/>
<circle class="chapterCircle0" cx="770.2" cy="495.3" r="8.7"/>
<circle class="chapterCircle0" cx="745" cy="143" r="8.7"/>
<circle class="chapterCircle0" cx="745" cy="168.2" r="8.7"/>
<circle class="chapterCircle0" cx="745" cy="193.3" r="8.7"/>
<circle class="chapterCircle0" cx="745" cy="218.5" r="8.7"/>
<circle class="chapterCircle0" cx="745" cy="243.7" r="8.7"/>
<circle class="chapterCircle0" cx="745" cy="268.8" r="8.7"/>
<circle class="chapterCircle0" cx="745" cy="294" r="8.7"/>
<circle class="chapterCircle0" cx="745" cy="319.1" r="8.7"/>
<circle class="chapterCircle0" cx="745" cy="344.3" r="8.7"/>
<circle class="chapterCircle0" cx="745" cy="369.5" r="8.7"/>
<circle class="chapterCircle0" cx="745" cy="394.6" r="8.7"/>
<circle class="chapterCircle0" cx="745" cy="419.8" r="8.7"/>
<circle class="chapterCircle0" cx="745" cy="445" r="8.7"/>
<circle class="chapterCircle0" cx="745" cy="470.1" r="8.7"/>
<circle class="chapterCircle0" cx="745" cy="495.3" r="8.7"/>
<circle class="chapterCircle0" cx="745" cy="520.4" r="8.7"/>
<circle class="chapterCircle0" cx="745" cy="545.6" r="8.7"/>
<circle class="chapterCircle0" cx="719.8" cy="218.5" r="8.7"/>
<circle class="chapterCircle0" cx="719.8" cy="243.7" r="8.7"/>
<circle class="chapterCircle0" cx="719.8" cy="268.8" r="8.7"/>
<circle class="chapterCircle0" cx="719.8" cy="294" r="8.7"/>
<circle class="chapterCircle0" cx="719.8" cy="319.1" r="8.7"/>
<circle class="chapterCircle0" cx="719.8" cy="344.3" r="8.7"/>
<circle class="chapterCircle0" cx="719.8" cy="369.5" r="8.7"/>
<circle class="chapterCircle0" cx="719.8" cy="394.6" r="8.7"/>
<circle class="chapterCircle0" cx="719.8" cy="419.8" r="8.7"/>
<circle class="chapterCircle0" cx="719.8" cy="445" r="8.7"/>
<circle class="chapterCircle0" cx="719.8" cy="470.1" r="8.7"/>
<circle class="chapterCircle0" cx="719.8" cy="495.3" r="8.7"/>
<circle class="chapterCircle0" cx="719.8" cy="520.4" r="8.7"/>
<circle class="chapterCircle0" cx="694.7" cy="218.5" r="8.7"/>
<circle class="chapterCircle0" cx="694.7" cy="243.7" r="8.7"/>
<circle class="chapterCircle0" cx="694.7" cy="268.8" r="8.7"/>
<circle class="chapterCircle0" cx="694.7" cy="294" r="8.7"/>
<circle class="chapterCircle0" cx="694.7" cy="319.1" r="8.7"/>
<circle class="chapterCircle0" cx="694.7" cy="344.3" r="8.7"/>
<circle class="chapterCircle0" cx="694.7" cy="369.5" r="8.7"/>
<circle class="chapterCircle0" cx="694.7" cy="394.6" r="8.7"/>
<circle class="chapterCircle0" cx="694.7" cy="419.8" r="8.7"/>
<circle class="chapterCircle0" cx="694.7" cy="445" r="8.7"/>
<circle class="chapterCircle0" cx="694.7" cy="470.1" r="8.7"/>
<circle class="chapterCircle0" cx="694.7" cy="495.3" r="8.7"/>
<circle class="chapterCircle0" cx="694.7" cy="520.4" r="8.7"/>
<circle class="chapterCircle0" cx="669.5" cy="193.3" r="8.7"/>
<circle class="chapterCircle0" cx="669.5" cy="218.5" r="8.7"/>
<circle class="chapterCircle0" cx="669.5" cy="243.7" r="8.7"/>
<circle class="chapterCircle0" cx="669.5" cy="268.8" r="8.7"/>
<circle class="chapterCircle0" cx="669.5" cy="294" r="8.7"/>
<circle class="chapterCircle0" cx="669.5" cy="319.1" r="8.7"/>
<circle class="chapterCircle0" cx="669.5" cy="344.3" r="8.7"/>
<circle class="chapterCircle0" cx="669.5" cy="369.5" r="8.7"/>
<circle class="chapterCircle0" cx="669.5" cy="394.6" r="8.7"/>
<circle class="chapterCircle0" cx="669.5" cy="419.8" r="8.7"/>
<circle class="chapterCircle0" cx="669.5" cy="445" r="8.7"/>
<circle class="chapterCircle0" cx="669.5" cy="470.1" r="8.7"/>
<circle class="chapterCircle0" cx="669.5" cy="495.3" r="8.7"/>
<circle class="chapterCircle0" cx="669.5" cy="520.4" r="8.7"/>
<circle class="chapterCircle0" cx="644.3" cy="92.7" r="8.7"/>
<circle class="chapterCircle0" cx="644.3" cy="117.8" r="8.7"/>
<circle class="chapterCircle0" cx="644.3" cy="168.2" r="8.7"/>
<circle class="chapterCircle0" cx="644.3" cy="193.3" r="8.7"/>
<circle class="chapterCircle0" cx="644.3" cy="218.5" r="8.7"/>
<circle class="chapterCircle0" cx="644.3" cy="243.7" r="8.7"/>
<circle class="chapterCircle0" cx="644.3" cy="268.8" r="8.7"/>
<circle class="chapterCircle0" cx="644.3" cy="294" r="8.7"/>
<circle class="chapterCircle0" cx="644.3" cy="319.1" r="8.7"/>
<circle class="chapterCircle0" cx="644.3" cy="344.3" r="8.7"/>
<circle class="chapterCircle0" cx="644.3" cy="369.5" r="8.7"/>
<circle class="chapterCircle0" cx="644.3" cy="394.6" r="8.7"/>
<circle class="chapterCircle0" cx="644.3" cy="419.8" r="8.7"/>
<circle class="chapterCircle0" cx="644.3" cy="445" r="8.7"/>
<circle class="chapterCircle0" cx="644.3" cy="470.1" r="8.7"/>
<circle class="chapterCircle0" cx="644.3" cy="495.3" r="8.7"/>
<circle class="chapterCircle0" cx="644.3" cy="520.4" r="8.7"/>
<circle class="chapterCircle0" cx="619.2" cy="92.7" r="8.7"/>
<circle class="chapterCircle0" cx="619.2" cy="117.8" r="8.7"/>
<circle class="chapterCircle0" cx="619.2" cy="143" r="8.7"/>
<circle class="chapterCircle0" cx="619.2" cy="168.2" r="8.7"/>
<circle class="chapterCircle0" cx="619.2" cy="193.3" r="8.7"/>
<circle class="chapterCircle0" cx="619.2" cy="218.5" r="8.7"/>
<circle class="chapterCircle0" cx="619.2" cy="243.7" r="8.7"/>
<circle class="chapterCircle0" cx="619.2" cy="268.8" r="8.7"/>
<circle class="chapterCircle0" cx="619.2" cy="294" r="8.7"/>
<circle class="chapterCircle0" cx="619.2" cy="319.1" r="8.7"/>
<circle class="chapterCircle0" cx="619.2" cy="344.3" r="8.7"/>
<circle class="chapterCircle0" cx="619.2" cy="369.5" r="8.7"/>
<circle class="chapterCircle0" cx="619.2" cy="394.6" r="8.7"/>
<circle class="chapterCircle0" cx="619.2" cy="419.8" r="8.7"/>
<circle class="chapterCircle0" cx="619.2" cy="445" r="8.7"/>
<circle class="chapterCircle0" cx="619.2" cy="470.1" r="8.7"/>
<circle class="chapterCircle0" cx="619.2" cy="495.3" r="8.7"/>
<circle class="chapterCircle0" cx="619.2" cy="520.4" r="8.7"/>
<circle class="chapterCircle0" cx="594" cy="92.7" r="8.7"/>
<circle class="chapterCircle0" cx="594" cy="117.8" r="8.7"/>
<circle class="chapterCircle0" cx="594" cy="143" r="8.7"/>
<circle class="chapterCircle0" cx="594" cy="168.2" r="8.7"/>
<circle class="chapterCircle0" cx="594" cy="193.3" r="8.7"/>
<circle class="chapterCircle0" cx="594" cy="218.5" r="8.7"/>
<circle class="chapterCircle0" cx="594" cy="243.7" r="8.7"/>
<circle class="chapterCircle0" cx="594" cy="268.8" r="8.7"/>
<circle class="chapterCircle0" cx="594" cy="294" r="8.7"/>
<circle class="chapterCircle0" cx="594" cy="319.1" r="8.7"/>
<circle class="chapterCircle0" cx="594" cy="344.3" r="8.7"/>
<circle class="chapterCircle0" cx="594" cy="369.5" r="8.7"/>
<circle class="chapterCircle0" cx="594" cy="394.6" r="8.7"/>
<circle class="chapterCircle0" cx="594" cy="419.8" r="8.7"/>
<circle class="chapterCircle0" cx="594" cy="445" r="8.7"/>
<circle class="chapterCircle0" cx="594" cy="470.1" r="8.7"/>
<circle class="chapterCircle0" cx="594" cy="495.3" r="8.7"/>
<circle class="chapterCircle0" cx="594" cy="520.4" r="8.7"/>
<circle class="chapterCircle0" cx="568.9" cy="67.5" r="8.7"/>
<circle class="chapterCircle0" cx="568.9" cy="92.7" r="8.7"/>
<circle class="chapterCircle0" cx="568.9" cy="117.8" r="8.7"/>
<circle class="chapterCircle0" cx="568.9" cy="143" r="8.7"/>
<circle class="chapterCircle0" cx="568.9" cy="168.2" r="8.7"/>
<circle class="chapterCircle0" cx="568.9" cy="193.3" r="8.7"/>
<circle class="chapterCircle0" cx="568.9" cy="218.5" r="8.7"/>
<circle class="chapterCircle0" cx="568.9" cy="243.7" r="8.7"/>
<circle class="chapterCircle0" cx="568.9" cy="268.8" r="8.7"/>
<circle class="chapterCircle0" cx="568.9" cy="294" r="8.7"/>
<circle class="chapterCircle0" cx="568.9" cy="319.1" r="8.7"/>
<circle class="chapterCircle0" cx="568.9" cy="344.3" r="8.7"/>
<circle class="chapterCircle0" cx="568.9" cy="369.5" r="8.7"/>
<circle class="chapterCircle0" cx="568.9" cy="394.6" r="8.7"/>
<circle class="chapterCircle0" cx="568.9" cy="419.8" r="8.7"/>
<circle class="chapterCircle0" cx="568.9" cy="445" r="8.7"/>
<circle class="chapterCircle0" cx="568.9" cy="470.1" r="8.7"/>
<circle class="chapterCircle0" cx="568.9" cy="495.3" r="8.7"/>
<circle class="chapterCircle0" cx="543.7" cy="67.5" r="8.7"/>
<circle class="chapterCircle0" cx="543.7" cy="92.7" r="8.7"/>
<circle class="chapterCircle0" cx="543.7" cy="117.8" r="8.7"/>
<circle class="chapterCircle0" cx="543.7" cy="143" r="8.7"/>
<circle class="chapterCircle0" cx="543.7" cy="168.2" r="8.7"/>
<circle class="chapterCircle0" cx="543.7" cy="193.3" r="8.7"/>
<circle class="chapterCircle0" cx="543.7" cy="218.5" r="8.7"/>
<circle class="chapterCircle0" cx="543.7" cy="243.7" r="8.7"/>
<circle class="chapterCircle0" cx="543.7" cy="268.8" r="8.7"/>
<circle class="chapterCircle0" cx="543.7" cy="294" r="8.7"/>
<circle class="chapterCircle0" cx="543.7" cy="319.1" r="8.7"/>
<circle class="chapterCircle0" cx="543.7" cy="344.3" r="8.7"/>
<circle class="chapterCircle0" cx="543.7" cy="369.5" r="8.7"/>
<circle class="chapterCircle0" cx="543.7" cy="394.6" r="8.7"/>
<circle class="chapterCircle0" cx="543.7" cy="419.8" r="8.7"/>
<circle class="chapterCircle0" cx="543.7" cy="445" r="8.7"/>
<circle class="chapterCircle0" cx="543.7" cy="470.1" r="8.7"/>
<circle class="chapterCircle0" cx="543.7" cy="495.3" r="8.7"/>
<ellipse transform="matrix(0.2298 -0.9732 0.9732 0.2298 333.6804 556.6833)" class="chapterCircle0" cx="518.5" cy="67.5" rx="8.7" ry="8.7"/>
<ellipse transform="matrix(0.2298 -0.9732 0.9732 0.2298 309.1935 576.0627)" class="chapterCircle0" cx="518.5" cy="92.7" rx="8.7" ry="8.7"/>
<ellipse transform="matrix(0.2298 -0.9732 0.9732 0.2298 284.7065 595.4421)" class="chapterCircle0" cx="518.5" cy="117.8" rx="8.7" ry="8.7"/>
<ellipse transform="matrix(0.3827 -0.9239 0.9239 0.3827 187.97 567.3571)" class="chapterCircle0" cx="518.5" cy="143" rx="8.7" ry="8.7"/>
<ellipse transform="matrix(0.3827 -0.9239 0.9239 0.3827 164.7252 582.8887)" class="chapterCircle0" cx="518.5" cy="168.2" rx="8.7" ry="8.7"/>
<ellipse transform="matrix(0.3827 -0.9239 0.9239 0.3827 141.4804 598.4204)" class="chapterCircle0" cx="518.5" cy="193.3" rx="8.7" ry="8.7"/>
<ellipse transform="matrix(0.3827 -0.9239 0.9239 0.3827 118.2356 613.9521)" class="chapterCircle0" cx="518.5" cy="218.5" rx="8.7" ry="8.7"/>
<ellipse transform="matrix(0.3827 -0.9239 0.9239 0.3827 94.9908 629.4838)" class="chapterCircle0" cx="518.5" cy="243.7" rx="8.7" ry="8.7"/>
<ellipse transform="matrix(0.1602 -0.9871 0.9871 0.1602 170.1303 737.6042)" class="chapterCircle0" cx="518.5" cy="268.8" rx="8.7" ry="8.7"/>
<ellipse transform="matrix(0.1602 -0.9871 0.9871 0.1602 145.2952 758.734)" class="chapterCircle0" cx="518.5" cy="294" rx="8.7" ry="8.7"/>
<ellipse transform="matrix(0.1602 -0.9871 0.9871 0.1602 120.4502 779.8722)" class="chapterCircle0" cx="518.5" cy="319.1" rx="8.7" ry="8.7"/>
<ellipse transform="matrix(0.1602 -0.9871 0.9871 0.1602 95.6151 801.002)" class="chapterCircle0" cx="518.5" cy="344.3" rx="8.7" ry="8.7"/>
<ellipse transform="matrix(0.1602 -0.9871 0.9871 0.1602 70.7799 822.1318)" class="chapterCircle0" cx="518.5" cy="369.5" rx="8.7" ry="8.7"/>
<ellipse transform="matrix(0.1602 -0.9871 0.9871 0.1602 45.9448 843.2617)" class="chapterCircle0" cx="518.5" cy="394.6" rx="8.7" ry="8.7"/>
<ellipse transform="matrix(0.1602 -0.9871 0.9871 0.1602 21.1097 864.3915)" class="chapterCircle0" cx="518.5" cy="419.8" rx="8.7" ry="8.7"/>
<ellipse transform="matrix(0.1602 -0.9871 0.9871 0.1602 -3.7254 885.5213)" class="chapterCircle0" cx="518.5" cy="445" rx="8.7" ry="8.7"/>
<ellipse transform="matrix(0.1602 -0.9871 0.9871 0.1602 -28.5704 906.6595)" class="chapterCircle0" cx="518.5" cy="470.1" rx="8.7" ry="8.7"/>
<circle class="chapterCircle0" cx="493.4" cy="67.5" r="8.7"/>
<circle class="chapterCircle0" cx="493.4" cy="92.7" r="8.7"/>
<circle class="chapterCircle0" cx="493.4" cy="117.8" r="8.7"/>
<circle class="chapterCircle0" cx="493.4" cy="143" r="8.7"/>
<circle class="chapterCircle0" cx="493.4" cy="168.2" r="8.7"/>
<circle class="chapterCircle0" cx="493.4" cy="193.3" r="8.7"/>
<circle class="chapterCircle0" cx="493.4" cy="218.5" r="8.7"/>
<circle class="chapterCircle0" cx="493.4" cy="243.7" r="8.7"/>
<circle class="chapterCircle0" cx="493.4" cy="268.8" r="8.7"/>
<circle class="chapterCircle0" cx="493.4" cy="294" r="8.7"/>
<circle class="chapterCircle0" cx="493.4" cy="319.1" r="8.7"/>
<circle class="chapterCircle0" cx="493.4" cy="344.3" r="8.7"/>
<circle class="chapterCircle0" cx="493.4" cy="369.5" r="8.7"/>
<circle class="chapterCircle0" cx="493.4" cy="394.6" r="8.7"/>
<circle class="chapterCircle0" cx="493.4" cy="419.8" r="8.7"/>
<circle class="chapterCircle0" cx="493.4" cy="445" r="8.7"/>
<circle class="chapterCircle0" cx="493.4" cy="470.1" r="8.7"/>
<circle class="chapterCircle0" cx="468.2" cy="17.2" r="8.7"/>
<circle class="chapterCircle0" cx="468.2" cy="42.4" r="8.7"/>
<circle class="chapterCircle0" cx="468.2" cy="67.5" r="8.7"/>
<circle class="chapterCircle0" cx="468.2" cy="92.7" r="8.7"/>
<circle class="chapterCircle0" cx="468.2" cy="117.8" r="8.7"/>
<circle class="chapterCircle0" cx="468.2" cy="143" r="8.7"/>
<circle class="chapterCircle0" cx="468.2" cy="168.2" r="8.7"/>
<circle class="chapterCircle0" cx="468.2" cy="193.3" r="8.7"/>
<circle class="chapterCircle0" cx="468.2" cy="218.5" r="8.7"/>
<circle class="chapterCircle0" cx="468.2" cy="243.7" r="8.7"/>
<circle class="chapterCircle0" cx="468.2" cy="268.8" r="8.7"/>
<circle class="chapterCircle0" cx="468.2" cy="294" r="8.7"/>
<circle class="chapterCircle0" cx="468.2" cy="319.1" r="8.7"/>
<circle class="chapterCircle0" cx="468.2" cy="344.3" r="8.7"/>
<circle class="chapterCircle0" cx="468.2" cy="369.5" r="8.7"/>
<circle class="chapterCircle0" cx="468.2" cy="394.6" r="8.7"/>
<circle class="chapterCircle0" cx="468.2" cy="419.8" r="8.7"/>
<circle class="chapterCircle0" cx="468.2" cy="445" r="8.7"/>
<circle class="chapterCircle0" cx="468.2" cy="470.1" r="8.7"/>
<circle class="chapterCircle0" cx="443" cy="17.2" r="8.7"/>
<circle class="chapterCircle0" cx="443" cy="42.4" r="8.7"/>
<circle class="chapterCircle0" cx="443" cy="67.5" r="8.7"/>
<circle class="chapterCircle0" cx="443" cy="92.7" r="8.7"/>
<circle class="chapterCircle0" cx="443" cy="117.8" r="8.7"/>
<circle class="chapterCircle0" cx="443" cy="143" r="8.7"/>
<circle class="chapterCircle0" cx="443" cy="168.2" r="8.7"/>
<circle class="chapterCircle0" cx="443" cy="193.3" r="8.7"/>
<circle class="chapterCircle0" cx="443" cy="218.5" r="8.7"/>
<circle class="chapterCircle0" cx="443" cy="243.7" r="8.7"/>
<circle class="chapterCircle0" cx="443" cy="268.8" r="8.7"/>
<circle class="chapterCircle0" cx="443" cy="294" r="8.7"/>
<circle class="chapterCircle0" cx="443" cy="319.1" r="8.7"/>
<circle class="chapterCircle0" cx="443" cy="344.3" r="8.7"/>
<circle class="chapterCircle0" cx="443" cy="369.5" r="8.7"/>
<circle class="chapterCircle0" cx="443" cy="394.6" r="8.7"/>
<circle class="chapterCircle0" cx="443" cy="419.8" r="8.7"/>
<circle class="chapterCircle0" cx="443" cy="445" r="8.7"/>
<circle class="chapterCircle0" cx="443" cy="470.1" r="8.7"/>
<circle class="chapterCircle0" cx="443" cy="495.3" r="8.7"/>
<circle class="chapterCircle0" cx="443" cy="520.4" r="8.7"/>
<circle class="chapterCircle0" cx="417.9" cy="42.4" r="8.7"/>
<circle class="chapterCircle0" cx="417.9" cy="67.5" r="8.7"/>
<circle class="chapterCircle0" cx="417.9" cy="92.7" r="8.7"/>
<circle class="chapterCircle0" cx="417.9" cy="117.8" r="8.7"/>
<circle class="chapterCircle0" cx="417.9" cy="143" r="8.7"/>
<circle class="chapterCircle0" cx="417.9" cy="168.2" r="8.7"/>
<circle class="chapterCircle0" cx="417.9" cy="193.3" r="8.7"/>
<circle class="chapterCircle0" cx="417.9" cy="218.5" r="8.7"/>
<circle class="chapterCircle0" cx="417.9" cy="243.7" r="8.7"/>
<circle class="chapterCircle0" cx="417.9" cy="268.8" r="8.7"/>
<circle class="chapterCircle0" cx="417.9" cy="294" r="8.7"/>
<circle class="chapterCircle0" cx="417.9" cy="319.1" r="8.7"/>
<circle class="chapterCircle0" cx="417.9" cy="344.3" r="8.7"/>
<circle class="chapterCircle0" cx="417.9" cy="369.5" r="8.7"/>
<circle class="chapterCircle0" cx="417.9" cy="394.6" r="8.7"/>
<circle class="chapterCircle0" cx="417.9" cy="419.8" r="8.7"/>
<circle class="chapterCircle0" cx="417.9" cy="445" r="8.7"/>
<circle class="chapterCircle0" cx="417.9" cy="470.1" r="8.7"/>
<circle class="chapterCircle0" cx="417.9" cy="495.3" r="8.7"/>
<circle class="chapterCircle0" cx="417.9" cy="520.4" r="8.7"/>
<circle class="chapterCircle0" cx="392.7" cy="42.4" r="8.7"/>
<circle class="chapterCircle0" cx="392.7" cy="67.5" r="8.7"/>
<circle class="chapterCircle0" cx="392.7" cy="92.7" r="8.7"/>
<circle class="chapterCircle0" cx="392.7" cy="117.8" r="8.7"/>
<circle class="chapterCircle0" cx="392.7" cy="143" r="8.7"/>
<circle class="chapterCircle0" cx="392.7" cy="168.2" r="8.7"/>
<circle class="chapterCircle0" cx="392.7" cy="193.3" r="8.7"/>
<circle class="chapterCircle0" cx="392.7" cy="218.5" r="8.7"/>
<circle class="chapterCircle0" cx="392.7" cy="243.7" r="8.7"/>
<circle class="chapterCircle0" cx="392.7" cy="268.8" r="8.7"/>
<circle class="chapterCircle0" cx="392.7" cy="294" r="8.7"/>
<circle class="chapterCircle0" cx="392.7" cy="319.1" r="8.7"/>
<circle class="chapterCircle0" cx="392.7" cy="344.3" r="8.7"/>
<circle class="chapterCircle0" cx="392.7" cy="369.5" r="8.7"/>
<circle class="chapterCircle0" cx="392.7" cy="394.6" r="8.7"/>
<circle class="chapterCircle0" cx="392.7" cy="419.8" r="8.7"/>
<circle class="chapterCircle0" cx="392.7" cy="445" r="8.7"/>
<circle class="chapterCircle0" cx="392.7" cy="470.1" r="8.7"/>
<circle class="chapterCircle0" cx="392.7" cy="495.3" r="8.7"/>
<circle class="chapterCircle0" cx="392.7" cy="520.4" r="8.7"/>
<circle class="chapterCircle0" cx="392.7" cy="545.6" r="8.7"/>
<circle class="chapterCircle0" cx="367.6" cy="17.2" r="8.7"/>
<circle class="chapterCircle0" cx="367.6" cy="42.4" r="8.7"/>
<circle class="chapterCircle0" cx="367.6" cy="67.5" r="8.7"/>
<circle class="chapterCircle0" cx="367.6" cy="92.7" r="8.7"/>
<circle class="chapterCircle0" cx="367.6" cy="117.8" r="8.7"/>
<circle class="chapterCircle0" cx="367.6" cy="143" r="8.7"/>
<circle class="chapterCircle0" cx="367.6" cy="168.2" r="8.7"/>
<circle class="chapterCircle0" cx="367.6" cy="193.3" r="8.7"/>
<circle class="chapterCircle0" cx="367.6" cy="218.5" r="8.7"/>
<circle class="chapterCircle0" cx="367.6" cy="243.7" r="8.7"/>
<circle class="chapterCircle0" cx="367.6" cy="268.8" r="8.7"/>
<circle class="chapterCircle0" cx="367.6" cy="294" r="8.7"/>
<circle class="chapterCircle0" cx="367.6" cy="319.1" r="8.7"/>
<circle class="chapterCircle0" cx="367.6" cy="344.3" r="8.7"/>
<circle class="chapterCircle0" cx="367.6" cy="369.5" r="8.7"/>
<circle class="chapterCircle0" cx="367.6" cy="394.6" r="8.7"/>
<circle class="chapterCircle0" cx="367.6" cy="419.8" r="8.7"/>
<circle class="chapterCircle0" cx="367.6" cy="445" r="8.7"/>
<circle class="chapterCircle0" cx="367.6" cy="470.1" r="8.7"/>
<circle class="chapterCircle0" cx="367.6" cy="495.3" r="8.7"/>
<circle class="chapterCircle0" cx="367.6" cy="520.4" r="8.7"/>
<circle class="chapterCircle0" cx="367.6" cy="545.6" r="8.7"/>
<circle class="chapterCircle0" cx="342.4" cy="17.2" r="8.7"/>
<circle class="chapterCircle0" cx="342.4" cy="42.4" r="8.7"/>
<circle class="chapterCircle0" cx="342.4" cy="67.5" r="8.7"/>
<circle class="chapterCircle0" cx="342.4" cy="92.7" r="8.7"/>
<circle class="chapterCircle0" cx="342.4" cy="117.8" r="8.7"/>
<circle class="chapterCircle0" cx="342.4" cy="143" r="8.7"/>
<circle class="chapterCircle0" cx="342.4" cy="168.2" r="8.7"/>
<circle class="chapterCircle0" cx="342.4" cy="193.3" r="8.7"/>
<circle class="chapterCircle0" cx="342.4" cy="218.5" r="8.7"/>
<circle class="chapterCircle0" cx="342.4" cy="243.7" r="8.7"/>
<circle class="chapterCircle0" cx="342.4" cy="268.8" r="8.7"/>
<circle class="chapterCircle0" cx="342.4" cy="294" r="8.7"/>
<circle class="chapterCircle0" cx="342.4" cy="319.1" r="8.7"/>
<circle class="chapterCircle0" cx="342.4" cy="344.3" r="8.7"/>
<circle class="chapterCircle0" cx="342.4" cy="369.5" r="8.7"/>
<circle class="chapterCircle0" cx="342.4" cy="394.6" r="8.7"/>
<circle class="chapterCircle0" cx="342.4" cy="419.8" r="8.7"/>
<circle class="chapterCircle0" cx="342.4" cy="445" r="8.7"/>
<circle class="chapterCircle0" cx="342.4" cy="470.1" r="8.7"/>
<circle class="chapterCircle0" cx="342.4" cy="495.3" r="8.7"/>
<circle class="chapterCircle0" cx="342.4" cy="520.4" r="8.7"/>
<circle class="chapterCircle0" cx="342.4" cy="545.6" r="8.7"/>
<circle class="chapterCircle0" cx="342.4" cy="570.8" r="8.7"/>
<circle class="chapterCircle0" cx="317.2" cy="67.5" r="8.7"/>
<circle class="chapterCircle0" cx="317.2" cy="92.7" r="8.7"/>
<circle class="chapterCircle0" cx="317.2" cy="117.8" r="8.7"/>
<circle class="chapterCircle0" cx="317.2" cy="143" r="8.7"/>
<circle class="chapterCircle0" cx="317.2" cy="168.2" r="8.7"/>
<circle class="chapterCircle0" cx="317.2" cy="193.3" r="8.7"/>
<circle class="chapterCircle0" cx="317.2" cy="218.5" r="8.7"/>
<circle class="chapterCircle0" cx="317.2" cy="243.7" r="8.7"/>
<circle class="chapterCircle0" cx="317.2" cy="268.8" r="8.7"/>
<circle class="chapterCircle0" cx="317.2" cy="294" r="8.7"/>
<circle class="chapterCircle0" cx="317.2" cy="319.1" r="8.7"/>
<circle class="chapterCircle0" cx="317.2" cy="344.3" r="8.7"/>
<circle class="chapterCircle0" cx="317.2" cy="369.5" r="8.7"/>
<circle class="chapterCircle0" cx="317.2" cy="394.6" r="8.7"/>
<circle class="chapterCircle0" cx="317.2" cy="419.8" r="8.7"/>
<circle class="chapterCircle0" cx="317.2" cy="445" r="8.7"/>
<circle class="chapterCircle0" cx="317.2" cy="470.1" r="8.7"/>
<circle class="chapterCircle0" cx="317.2" cy="495.3" r="8.7"/>
<circle class="chapterCircle0" cx="317.2" cy="520.4" r="8.7"/>
<circle class="chapterCircle0" cx="317.2" cy="545.6" r="8.7"/>
<circle class="chapterCircle0" cx="292.1" cy="67.5" r="8.7"/>
<circle class="chapterCircle0" cx="292.1" cy="92.7" r="8.7"/>
<circle class="chapterCircle0" cx="292.1" cy="117.8" r="8.7"/>
<circle class="chapterCircle0" cx="292.1" cy="143" r="8.7"/>
<circle class="chapterCircle0" cx="292.1" cy="168.2" r="8.7"/>
<circle class="chapterCircle0" cx="292.1" cy="193.3" r="8.7"/>
<circle class="chapterCircle0" cx="292.1" cy="218.5" r="8.7"/>
<circle class="chapterCircle0" cx="292.1" cy="243.7" r="8.7"/>
<circle class="chapterCircle0" cx="292.1" cy="268.8" r="8.7"/>
<circle class="chapterCircle0" cx="292.1" cy="294" r="8.7"/>
<circle class="chapterCircle0" cx="292.1" cy="319.1" r="8.7"/>
<circle class="chapterCircle0" cx="292.1" cy="344.3" r="8.7"/>
<circle class="chapterCircle0" cx="292.1" cy="369.5" r="8.7"/>
<circle class="chapterCircle0" cx="292.1" cy="394.6" r="8.7"/>
<circle class="chapterCircle0" cx="292.1" cy="419.8" r="8.7"/>
<circle class="chapterCircle0" cx="292.1" cy="445" r="8.7"/>
<circle class="chapterCircle0" cx="292.1" cy="470.1" r="8.7"/>
<circle class="chapterCircle0" cx="292.1" cy="495.3" r="8.7"/>
<circle class="chapterCircle0" cx="292.1" cy="520.4" r="8.7"/>
<circle class="chapterCircle0" cx="292.1" cy="545.6" r="8.7"/>
<circle class="chapterCircle0" cx="266.9" cy="67.5" r="8.7"/>
<circle class="chapterCircle0" cx="266.9" cy="92.7" r="8.7"/>
<circle class="chapterCircle0" cx="266.9" cy="117.8" r="8.7"/>
<circle class="chapterCircle0" cx="266.9" cy="143" r="8.7"/>
<circle class="chapterCircle0" cx="266.9" cy="168.2" r="8.7"/>
<circle class="chapterCircle0" cx="266.9" cy="193.3" r="8.7"/>
<circle class="chapterCircle0" cx="266.9" cy="218.5" r="8.7"/>
<circle class="chapterCircle0" cx="266.9" cy="243.7" r="8.7"/>
<circle class="chapterCircle0" cx="266.9" cy="268.8" r="8.7"/>
<circle class="chapterCircle0" cx="266.9" cy="294" r="8.7"/>
<circle class="chapterCircle0" cx="266.9" cy="319.1" r="8.7"/>
<circle class="chapterCircle0" cx="266.9" cy="344.3" r="8.7"/>
<circle class="chapterCircle0" cx="266.9" cy="369.5" r="8.7"/>
<circle class="chapterCircle0" cx="266.9" cy="394.6" r="8.7"/>
<circle class="chapterCircle0" cx="266.9" cy="419.8" r="8.7"/>
<circle class="chapterCircle0" cx="266.9" cy="445" r="8.7"/>
<circle class="chapterCircle0" cx="266.9" cy="470.1" r="8.7"/>
<circle class="chapterCircle0" cx="266.9" cy="495.3" r="8.7"/>
<circle class="chapterCircle0" cx="266.9" cy="520.4" r="8.7"/>
<circle class="chapterCircle0" cx="241.8" cy="92.7" r="8.7"/>
<circle class="chapterCircle0" cx="241.8" cy="117.8" r="8.7"/>
<circle class="chapterCircle0" cx="241.8" cy="143" r="8.7"/>
<circle class="chapterCircle0" cx="241.8" cy="168.2" r="8.7"/>
<circle class="chapterCircle0" cx="241.8" cy="193.3" r="8.7"/>
<circle class="chapterCircle0" cx="241.8" cy="218.5" r="8.7"/>
<circle class="chapterCircle0" cx="241.8" cy="243.7" r="8.7"/>
<circle class="chapterCircle0" cx="241.8" cy="268.8" r="8.7"/>
<circle class="chapterCircle0" cx="241.8" cy="294" r="8.7"/>
<circle class="chapterCircle0" cx="241.8" cy="319.1" r="8.7"/>
<circle class="chapterCircle0" cx="241.8" cy="344.3" r="8.7"/>
<circle class="chapterCircle0" cx="241.8" cy="369.5" r="8.7"/>
<circle class="chapterCircle0" cx="241.8" cy="394.6" r="8.7"/>
<circle class="chapterCircle0" cx="241.8" cy="419.8" r="8.7"/>
<circle class="chapterCircle0" cx="241.8" cy="445" r="8.7"/>
<circle class="chapterCircle0" cx="241.8" cy="470.1" r="8.7"/>
<circle class="chapterCircle0" cx="241.8" cy="495.3" r="8.7"/>
<circle class="chapterCircle0" cx="216.6" cy="92.7" r="8.7"/>
<circle class="chapterCircle0" cx="216.6" cy="117.8" r="8.7"/>
<circle class="chapterCircle0" cx="216.6" cy="143" r="8.7"/>
<circle class="chapterCircle0" cx="216.6" cy="168.2" r="8.7"/>
<circle class="chapterCircle0" cx="216.6" cy="193.3" r="8.7"/>
<circle class="chapterCircle0" cx="216.6" cy="218.5" r="8.7"/>
<circle class="chapterCircle0" cx="216.6" cy="243.7" r="8.7"/>
<circle class="chapterCircle0" cx="216.6" cy="268.8" r="8.7"/>
<circle class="chapterCircle0" cx="216.6" cy="294" r="8.7"/>
<circle class="chapterCircle0" cx="216.6" cy="319.1" r="8.7"/>
<circle class="chapterCircle0" cx="216.6" cy="344.3" r="8.7"/>
<circle class="chapterCircle0" cx="216.6" cy="369.5" r="8.7"/>
<circle class="chapterCircle0" cx="216.6" cy="394.6" r="8.7"/>
<circle class="chapterCircle0" cx="216.6" cy="419.8" r="8.7"/>
<circle class="chapterCircle0" cx="216.6" cy="445" r="8.7"/>
<circle class="chapterCircle0" cx="216.6" cy="470.1" r="8.7"/>
<circle class="chapterCircle0" cx="191.4" cy="117.8" r="8.7"/>
<circle class="chapterCircle0" cx="191.4" cy="143" r="8.7"/>
<circle class="chapterCircle0" cx="191.4" cy="168.2" r="8.7"/>
<circle class="chapterCircle0" cx="191.4" cy="193.3" r="8.7"/>
<circle class="chapterCircle0" cx="191.4" cy="218.5" r="8.7"/>
<circle class="chapterCircle0" cx="191.4" cy="243.7" r="8.7"/>
<circle class="chapterCircle0" cx="191.4" cy="268.8" r="8.7"/>
<circle class="chapterCircle0" cx="191.4" cy="294" r="8.7"/>
<circle class="chapterCircle0" cx="191.4" cy="319.1" r="8.7"/>
<circle class="chapterCircle0" cx="191.4" cy="344.3" r="8.7"/>
<circle class="chapterCircle0" cx="191.4" cy="369.5" r="8.7"/>
<circle class="chapterCircle0" cx="191.4" cy="394.6" r="8.7"/>
<circle class="chapterCircle0" cx="191.4" cy="419.8" r="8.7"/>
<circle class="chapterCircle0" cx="191.4" cy="445" r="8.7"/>
<circle class="chapterCircle0" cx="166.3" cy="117.8" r="8.7"/>
<circle class="chapterCircle0" cx="166.3" cy="143" r="8.7"/>
<circle class="chapterCircle0" cx="166.3" cy="168.2" r="8.7"/>
<circle class="chapterCircle0" cx="166.3" cy="193.3" r="8.7"/>
<circle class="chapterCircle0" cx="166.3" cy="218.5" r="8.7"/>
<circle class="chapterCircle0" cx="166.3" cy="243.7" r="8.7"/>
<circle class="chapterCircle0" cx="166.3" cy="268.8" r="8.7"/>
<circle class="chapterCircle0" cx="166.3" cy="294" r="8.7"/>
<circle class="chapterCircle0" cx="166.3" cy="319.1" r="8.7"/>
<circle class="chapterCircle0" cx="166.3" cy="344.3" r="8.7"/>
<circle class="chapterCircle0" cx="166.3" cy="369.5" r="8.7"/>
<circle class="chapterCircle0" cx="166.3" cy="394.6" r="8.7"/>
<circle class="chapterCircle0" cx="166.3" cy="419.8" r="8.7"/>
<circle class="chapterCircle0" cx="166.3" cy="445" r="8.7"/>
<circle class="chapterCircle0" cx="141.1" cy="143" r="8.7"/>
<circle class="chapterCircle0" cx="141.1" cy="168.2" r="8.7"/>
<circle class="chapterCircle0" cx="141.1" cy="193.3" r="8.7"/>
<circle class="chapterCircle0" cx="141.1" cy="218.5" r="8.7"/>
<circle class="chapterCircle0" cx="141.1" cy="243.7" r="8.7"/>
<circle class="chapterCircle0" cx="141.1" cy="268.8" r="8.7"/>
<circle class="chapterCircle0" cx="141.1" cy="294" r="8.7"/>
<circle class="chapterCircle0" cx="141.1" cy="319.1" r="8.7"/>
<circle class="chapterCircle0" cx="141.1" cy="344.3" r="8.7"/>
<circle class="chapterCircle0" cx="141.1" cy="369.5" r="8.7"/>
<circle class="chapterCircle0" cx="141.1" cy="394.6" r="8.7"/>
<circle class="chapterCircle0" cx="115.9" cy="143" r="8.7"/>
<circle class="chapterCircle0" cx="115.9" cy="168.2" r="8.7"/>
<circle class="chapterCircle0" cx="115.9" cy="193.3" r="8.7"/>
<circle class="chapterCircle0" cx="115.9" cy="218.5" r="8.7"/>
<circle class="chapterCircle0" cx="115.9" cy="243.7" r="8.7"/>
<circle class="chapterCircle0" cx="115.9" cy="268.8" r="8.7"/>
<circle class="chapterCircle0" cx="115.9" cy="294" r="8.7"/>
<circle class="chapterCircle0" cx="115.9" cy="319.1" r="8.7"/>
<circle class="chapterCircle0" cx="115.9" cy="344.3" r="8.7"/>
<circle class="chapterCircle0" cx="115.9" cy="369.5" r="8.7"/>
<circle class="chapterCircle0" cx="115.9" cy="394.6" r="8.7"/>
<circle class="chapterCircle0" cx="90.8" cy="143" r="8.7"/>
<circle class="chapterCircle0" cx="90.8" cy="168.2" r="8.7"/>
<circle class="chapterCircle0" cx="90.8" cy="193.3" r="8.7"/>
<circle class="chapterCircle0" cx="90.8" cy="218.5" r="8.7"/>
<circle class="chapterCircle0" cx="90.8" cy="243.7" r="8.7"/>
<circle class="chapterCircle0" cx="90.8" cy="268.8" r="8.7"/>
<circle class="chapterCircle0" cx="90.8" cy="294" r="8.7"/>
<circle class="chapterCircle0" cx="90.8" cy="319.1" r="8.7"/>
<circle class="chapterCircle0" cx="90.8" cy="344.3" r="8.7"/>
<circle class="chapterCircle0" cx="90.8" cy="369.5" r="8.7"/>
<circle class="chapterCircle0" cx="65.6" cy="168.2" r="8.7"/>
<circle class="chapterCircle0" cx="65.6" cy="193.3" r="8.7"/>
<circle class="chapterCircle0" cx="65.6" cy="218.5" r="8.7"/>
<circle class="chapterCircle0" cx="65.6" cy="243.7" r="8.7"/>
<circle class="chapterCircle0" cx="65.6" cy="268.8" r="8.7"/>
<circle class="chapterCircle0" cx="65.6" cy="294" r="8.7"/>
<circle class="chapterCircle0" cx="65.6" cy="319.1" r="8.7"/>
<circle class="chapterCircle0" cx="40.5" cy="193.3" r="8.7"/>
<circle class="chapterCircle0" cx="40.5" cy="218.5" r="8.7"/>
<circle class="chapterCircle0" cx="15.3" cy="168.2" r="8.7"/>
<circle class="chapterCircle0" cx="15.3" cy="193.3" r="8.7"/>
<ellipse transform="matrix(0.3827 -0.9239 0.9239 0.3827 335.8997 1141.0093)" class="chapterCircle0" cx="1021.8" cy="319.1" rx="8.7" ry="8.7"/>
<ellipse transform="matrix(0.3827 -0.9239 0.9239 0.3827 312.6549 1156.541)" class="chapterCircle0" cx="1021.8" cy="344.3" rx="8.7" ry="8.7"/>
<circle class="chapterCircle0" cx="996.6" cy="319.1" r="8.7"/>
<circle class="chapterCircle0" cx="996.6" cy="344.3" r="8.7"/>
<circle class="chapterCircle0" cx="971.5" cy="268.8" r="8.7"/>
<circle class="chapterCircle0" cx="971.5" cy="294" r="8.7"/>
<circle class="chapterCircle0" cx="971.5" cy="319.1" r="8.7"/>
<circle class="chapterCircle0" cx="971.5" cy="344.3" r="8.7"/>
<circle class="chapterCircle0" cx="971.5" cy="369.5" r="8.7"/>
<circle class="chapterCircle0" cx="971.5" cy="394.6" r="8.7"/>
<circle class="chapterCircle0" cx="946.3" cy="268.8" r="8.7"/>
<circle class="chapterCircle0" cx="946.3" cy="294" r="8.7"/>
<circle class="chapterCircle0" cx="946.3" cy="319.1" r="8.7"/>
<circle class="chapterCircle0" cx="946.3" cy="344.3" r="8.7"/>
<circle class="chapterCircle0" cx="946.3" cy="369.5" r="8.7"/>
<circle class="chapterCircle0" cx="946.3" cy="394.6" r="8.7"/>
<circle class="chapterCircle0" cx="921.1" cy="243.7" r="8.7"/>
<circle class="chapterCircle0" cx="921.1" cy="268.8" r="8.7"/>
<circle class="chapterCircle0" cx="921.1" cy="294" r="8.7"/>
<circle class="chapterCircle0" cx="921.1" cy="319.1" r="8.7"/>
<circle class="chapterCircle0" cx="921.1" cy="344.3" r="8.7"/>
<circle class="chapterCircle0" cx="921.1" cy="369.5" r="8.7"/>
<circle class="chapterCircle0" cx="921.1" cy="394.6" r="8.7"/>
<circle class="chapterCircle0" cx="921.1" cy="419.8" r="8.7"/>
<circle class="chapterCircle0" cx="921.1" cy="445" r="8.7"/>
<circle class="chapterCircle0" cx="896" cy="243.7" r="8.7"/>
<circle class="chapterCircle0" cx="896" cy="268.8" r="8.7"/>
<circle class="chapterCircle0" cx="896" cy="294" r="8.7"/>
<circle class="chapterCircle0" cx="896" cy="319.1" r="8.7"/>
<circle class="chapterCircle0" cx="896" cy="344.3" r="8.7"/>
<circle class="chapterCircle0" cx="896" cy="369.5" r="8.7"/>
<circle class="chapterCircle0" cx="896" cy="394.6" r="8.7"/>
<circle class="chapterCircle0" cx="896" cy="419.8" r="8.7"/>
<circle class="chapterCircle0" cx="896" cy="445" r="8.7"/>
<circle class="chapterCircle0" cx="896" cy="470.1" r="8.7"/>
<circle class="chapterCircle0" cx="870.8" cy="243.7" r="8.7"/>
<circle class="chapterCircle0" cx="870.8" cy="268.8" r="8.7"/>
<circle class="chapterCircle0" cx="870.8" cy="294" r="8.7"/>
<circle class="chapterCircle0" cx="870.8" cy="319.1" r="8.7"/>
<circle class="chapterCircle0" cx="870.8" cy="344.3" r="8.7"/>
<circle class="chapterCircle0" cx="870.8" cy="369.5" r="8.7"/>
<circle class="chapterCircle0" cx="870.8" cy="394.6" r="8.7"/>
<circle class="chapterCircle0" cx="870.8" cy="419.8" r="8.7"/>
<circle class="chapterCircle0" cx="870.8" cy="445" r="8.7"/>
<circle class="chapterCircle0" cx="870.8" cy="470.1" r="8.7"/>
<circle class="chapterCircle0" cx="870.8" cy="495.3" r="8.7"/>
<circle class="chapterCircle0" cx="845.6" cy="168.2" r="8.7"/>
<circle class="chapterCircle0" cx="845.6" cy="193.3" r="8.7"/>
<circle class="chapterCircle0" cx="845.6" cy="218.5" r="8.7"/>
<circle class="chapterCircle0" cx="845.6" cy="243.7" r="8.7"/>
<circle class="chapterCircle0" cx="845.6" cy="268.8" r="8.7"/>
<circle class="chapterCircle0" cx="845.6" cy="294" r="8.7"/>
<circle class="chapterCircle0" cx="845.6" cy="319.1" r="8.7"/>
<circle class="chapterCircle0" cx="845.6" cy="344.3" r="8.7"/>
<circle class="chapterCircle0" cx="845.6" cy="369.5" r="8.7"/>
<circle class="chapterCircle0" cx="845.6" cy="394.6" r="8.7"/>
<circle class="chapterCircle0" cx="845.6" cy="419.8" r="8.7"/>
<circle class="chapterCircle0" cx="845.6" cy="445" r="8.7"/>
<circle class="chapterCircle0" cx="845.6" cy="470.1" r="8.7"/>
<circle class="chapterCircle0" cx="845.6" cy="495.3" r="8.7"/>
<circle class="chapterCircle0" cx="820.5" cy="193.3" r="8.7"/>
<circle class="chapterCircle0" cx="820.5" cy="218.5" r="8.7"/>
<circle class="chapterCircle0" cx="820.5" cy="243.7" r="8.7"/>
<circle class="chapterCircle0" cx="820.5" cy="268.8" r="8.7"/>
<circle class="chapterCircle0" cx="820.5" cy="294" r="8.7"/>
<circle class="chapterCircle0" cx="820.5" cy="319.1" r="8.7"/>
<circle class="chapterCircle0" cx="820.5" cy="344.3" r="8.7"/>
<circle class="chapterCircle0" cx="820.5" cy="369.5" r="8.7"/>
<circle class="chapterCircle0" cx="820.5" cy="394.6" r="8.7"/>
<circle class="chapterCircle0" cx="820.5" cy="419.8" r="8.7"/>
<circle class="chapterCircle0" cx="820.5" cy="445" r="8.7"/>
<circle class="chapterCircle0" cx="820.5" cy="470.1" r="8.7"/>
<circle class="chapterCircle0" cx="820.5" cy="495.3" r="8.7"/>
<circle class="chapterCircle0" cx="795.3" cy="168.2" r="8.7"/>
<circle class="chapterCircle0" cx="795.3" cy="193.3" r="8.7"/>
<circle class="chapterCircle0" cx="795.3" cy="218.5" r="8.7"/>
<circle class="chapterCircle0" cx="795.3" cy="243.7" r="8.7"/>
<circle class="chapterCircle0" cx="795.3" cy="268.8" r="8.7"/>
<circle class="chapterCircle0" cx="795.3" cy="294" r="8.7"/>
<circle class="chapterCircle0" cx="795.3" cy="319.1" r="8.7"/>
<circle class="chapterCircle0" cx="795.3" cy="344.3" r="8.7"/>
<circle class="chapterCircle0" cx="795.3" cy="369.5" r="8.7"/>
<circle class="chapterCircle0" cx="795.3" cy="394.6" r="8.7"/>
<circle class="chapterCircle0" cx="795.3" cy="419.8" r="8.7"/>
<circle class="chapterCircle0" cx="795.3" cy="445" r="8.7"/>
<circle class="chapterCircle0" cx="795.3" cy="470.1" r="8.7"/>
<circle class="chapterCircle0" cx="795.3" cy="495.3" r="8.7"/>
<circle class="chapterCircle0" cx="770.2" cy="168.2" r="8.7"/>
<circle class="chapterCircle0" cx="770.2" cy="193.3" r="8.7"/>
<circle class="chapterCircle0" cx="770.2" cy="218.5" r="8.7"/>
<circle class="chapterCircle0" cx="770.2" cy="243.7" r="8.7"/>
<circle class="chapterCircle0" cx="770.2" cy="268.8" r="8.7"/>
<circle class="chapterCircle0" cx="770.2" cy="294" r="8.7"/>
<circle class="chapterCircle0" cx="770.2" cy="319.1" r="8.7"/>
<circle class="chapterCircle0" cx="770.2" cy="344.3" r="8.7"/>
<circle class="chapterCircle0" cx="770.2" cy="369.5" r="8.7"/>
<circle class="chapterCircle0" cx="770.2" cy="394.6" r="8.7"/>
<circle class="chapterCircle0" cx="770.2" cy="419.8" r="8.7"/>
<circle class="chapterCircle0" cx="770.2" cy="445" r="8.7"/>
<circle class="chapterCircle0" cx="770.2" cy="470.1" r="8.7"/>
<circle class="chapterCircle0" cx="770.2" cy="495.3" r="8.7"/>
<circle class="chapterCircle0" cx="745" cy="143" r="8.7"/>
<circle class="chapterCircle0" cx="745" cy="168.2" r="8.7"/>
<circle class="chapterCircle0" cx="745" cy="193.3" r="8.7"/>
<circle class="chapterCircle0" cx="745" cy="218.5" r="8.7"/>
<circle class="chapterCircle0" cx="745" cy="243.7" r="8.7"/>
<circle class="chapterCircle0" cx="745" cy="268.8" r="8.7"/>
<circle class="chapterCircle0" cx="745" cy="294" r="8.7"/>
<circle class="chapterCircle0" cx="745" cy="319.1" r="8.7"/>
<circle class="chapterCircle0" cx="745" cy="344.3" r="8.7"/>
<circle class="chapterCircle0" cx="745" cy="369.5" r="8.7"/>
<circle class="chapterCircle0" cx="745" cy="394.6" r="8.7"/>
<circle class="chapterCircle0" cx="745" cy="419.8" r="8.7"/>
<circle class="chapterCircle0" cx="745" cy="445" r="8.7"/>
<circle class="chapterCircle0" cx="745" cy="470.1" r="8.7"/>
<circle class="chapterCircle0" cx="745" cy="495.3" r="8.7"/>
<circle class="chapterCircle0" cx="745" cy="520.4" r="8.7"/>
<circle class="chapterCircle0" cx="745" cy="545.6" r="8.7"/>
<circle class="chapterCircle0" cx="719.8" cy="218.5" r="8.7"/>
<circle class="chapterCircle0" cx="719.8" cy="243.7" r="8.7"/>
<circle class="chapterCircle0" cx="719.8" cy="268.8" r="8.7"/>
<circle class="chapterCircle0" cx="719.8" cy="294" r="8.7"/>
<circle class="chapterCircle0" cx="719.8" cy="319.1" r="8.7"/>
<circle class="chapterCircle0" cx="719.8" cy="344.3" r="8.7"/>
<circle class="chapterCircle0" cx="719.8" cy="369.5" r="8.7"/>
<circle class="chapterCircle0" cx="719.8" cy="394.6" r="8.7"/>
<circle class="chapterCircle0" cx="719.8" cy="419.8" r="8.7"/>
<circle class="chapterCircle0" cx="719.8" cy="445" r="8.7"/>
<circle class="chapterCircle0" cx="719.8" cy="470.1" r="8.7"/>
<circle class="chapterCircle0" cx="719.8" cy="495.3" r="8.7"/>
<circle class="chapterCircle0" cx="719.8" cy="520.4" r="8.7"/>
<circle class="chapterCircle0" cx="694.7" cy="218.5" r="8.7"/>
<circle class="chapterCircle0" cx="694.7" cy="243.7" r="8.7"/>
<circle class="chapterCircle0" cx="694.7" cy="268.8" r="8.7"/>
<circle class="chapterCircle0" cx="694.7" cy="294" r="8.7"/>
<circle class="chapterCircle0" cx="694.7" cy="319.1" r="8.7"/>
<circle class="chapterCircle0" cx="694.7" cy="344.3" r="8.7"/>
<circle class="chapterCircle0" cx="694.7" cy="369.5" r="8.7"/>
<circle class="chapterCircle0" cx="694.7" cy="394.6" r="8.7"/>
<circle class="chapterCircle0" cx="694.7" cy="419.8" r="8.7"/>
<circle class="chapterCircle0" cx="694.7" cy="445" r="8.7"/>
<circle class="chapterCircle0" cx="694.7" cy="470.1" r="8.7"/>
<circle class="chapterCircle0" cx="694.7" cy="495.3" r="8.7"/>
<circle class="chapterCircle0" cx="694.7" cy="520.4" r="8.7"/>
<circle class="chapterCircle0" cx="669.5" cy="193.3" r="8.7"/>
<circle class="chapterCircle0" cx="669.5" cy="218.5" r="8.7"/>
<circle class="chapterCircle0" cx="669.5" cy="243.7" r="8.7"/>
<circle class="chapterCircle0" cx="669.5" cy="268.8" r="8.7"/>
<circle class="chapterCircle0" cx="669.5" cy="294" r="8.7"/>
<circle class="chapterCircle0" cx="669.5" cy="319.1" r="8.7"/>
<circle class="chapterCircle0" cx="669.5" cy="344.3" r="8.7"/>
<circle class="chapterCircle0" cx="669.5" cy="369.5" r="8.7"/>
<circle class="chapterCircle0" cx="669.5" cy="394.6" r="8.7"/>
<circle class="chapterCircle0" cx="669.5" cy="419.8" r="8.7"/>
<circle class="chapterCircle0" cx="669.5" cy="470.1" r="8.7"/>
<circle class="chapterCircle0" cx="669.5" cy="495.3" r="8.7"/>
<circle class="chapterCircle0" cx="669.5" cy="520.4" r="8.7"/>
<circle class="chapterCircle0" cx="644.3" cy="92.7" r="8.7"/>
<circle class="chapterCircle0" cx="644.3" cy="117.8" r="8.7"/>
<circle class="chapterCircle0" cx="644.3" cy="168.2" r="8.7"/>
<circle class="chapterCircle0" cx="644.3" cy="193.3" r="8.7"/>
<circle class="chapterCircle0" cx="644.3" cy="218.5" r="8.7"/>
<circle class="chapterCircle0" cx="644.3" cy="243.7" r="8.7"/>
<circle class="chapterCircle0" cx="644.3" cy="268.8" r="8.7"/>
<circle class="chapterCircle0" cx="644.3" cy="294" r="8.7"/>
<circle class="chapterCircle0" cx="644.3" cy="319.1" r="8.7"/>
<circle class="chapterCircle0" cx="644.3" cy="344.3" r="8.7"/>
<circle class="chapterCircle0" cx="644.3" cy="369.5" r="8.7"/>
<circle class="chapterCircle0" cx="644.3" cy="394.6" r="8.7"/>
<circle class="chapterCircle0" cx="644.3" cy="419.8" r="8.7"/>
<circle class="chapterCircle0" cx="644.3" cy="445" r="8.7"/>
<circle class="chapterCircle0" cx="644.3" cy="470.1" r="8.7"/>
<circle class="chapterCircle0" cx="644.3" cy="495.3" r="8.7"/>
<circle class="chapterCircle0" cx="644.3" cy="520.4" r="8.7"/>
<circle class="chapterCircle0" cx="619.2" cy="92.7" r="8.7"/>
<circle class="chapterCircle0" cx="619.2" cy="117.8" r="8.7"/>
<circle class="chapterCircle0" cx="619.2" cy="143" r="8.7"/>
<circle class="chapterCircle0" cx="619.2" cy="168.2" r="8.7"/>
<circle class="chapterCircle0" cx="619.2" cy="193.3" r="8.7"/>
<circle class="chapterCircle0" cx="619.2" cy="218.5" r="8.7"/>
<circle class="chapterCircle0" cx="619.2" cy="243.7" r="8.7"/>
<circle class="chapterCircle0" cx="619.2" cy="268.8" r="8.7"/>
<circle class="chapterCircle0" cx="619.2" cy="294" r="8.7"/>
<circle class="chapterCircle0" cx="619.2" cy="319.1" r="8.7"/>
<circle class="chapterCircle0" cx="619.2" cy="344.3" r="8.7"/>
<circle class="chapterCircle0" cx="619.2" cy="369.5" r="8.7"/>
<circle class="chapterCircle0" cx="619.2" cy="394.6" r="8.7"/>
<circle class="chapterCircle0" cx="619.2" cy="419.8" r="8.7"/>
<circle class="chapterCircle0" cx="619.2" cy="445" r="8.7"/>
<circle class="chapterCircle0" cx="619.2" cy="470.1" r="8.7"/>
<circle class="chapterCircle0" cx="619.2" cy="495.3" r="8.7"/>
<circle class="chapterCircle0" cx="619.2" cy="520.4" r="8.7"/>
<circle class="chapterCircle0" cx="594" cy="92.7" r="8.7"/>
<circle class="chapterCircle0" cx="594" cy="117.8" r="8.7"/>
<circle class="chapterCircle0" cx="594" cy="143" r="8.7"/>
<circle class="chapterCircle0" cx="594" cy="168.2" r="8.7"/>
<circle class="chapterCircle0" cx="594" cy="193.3" r="8.7"/>
<circle class="chapterCircle0" cx="594" cy="218.5" r="8.7"/>
<circle class="chapterCircle0" cx="594" cy="243.7" r="8.7"/>
<circle class="chapterCircle0" cx="594" cy="268.8" r="8.7"/>
<circle class="chapterCircle0" cx="594" cy="294" r="8.7"/>
<circle class="chapterCircle0" cx="594" cy="319.1" r="8.7"/>
<circle class="chapterCircle0" cx="594" cy="344.3" r="8.7"/>
<circle class="chapterCircle0" cx="594" cy="369.5" r="8.7"/>
<circle class="chapterCircle0" cx="594" cy="394.6" r="8.7"/>
<circle class="chapterCircle0" cx="594" cy="419.8" r="8.7"/>
<circle class="chapterCircle0" cx="594" cy="445" r="8.7"/>
<circle class="chapterCircle0" cx="594" cy="470.1" r="8.7"/>
<circle class="chapterCircle0" cx="594" cy="495.3" r="8.7"/>
<circle class="chapterCircle0" cx="594" cy="520.4" r="8.7"/>
<circle class="chapterCircle0" cx="568.9" cy="67.5" r="8.7"/>
<circle class="chapterCircle0" cx="568.9" cy="92.7" r="8.7"/>
<circle class="chapterCircle0" cx="568.9" cy="117.8" r="8.7"/>
<circle class="chapterCircle0" cx="568.9" cy="143" r="8.7"/>
<circle class="chapterCircle0" cx="568.9" cy="168.2" r="8.7"/>
<circle class="chapterCircle0" cx="568.9" cy="193.3" r="8.7"/>
<circle class="chapterCircle0" cx="568.9" cy="218.5" r="8.7"/>
<circle class="chapterCircle0" cx="568.9" cy="243.7" r="8.7"/>
<circle class="chapterCircle0" cx="568.9" cy="268.8" r="8.7"/>
<circle class="chapterCircle0" cx="568.9" cy="294" r="8.7"/>
<circle class="chapterCircle0" cx="568.9" cy="319.1" r="8.7"/>
<circle class="chapterCircle0" cx="568.9" cy="344.3" r="8.7"/>
<circle class="chapterCircle0" cx="568.9" cy="369.5" r="8.7"/>
<circle class="chapterCircle0" cx="568.9" cy="394.6" r="8.7"/>
<circle class="chapterCircle0" cx="568.9" cy="419.8" r="8.7"/>
<circle class="chapterCircle0" cx="568.9" cy="445" r="8.7"/>
<circle class="chapterCircle0" cx="568.9" cy="470.1" r="8.7"/>
<circle class="chapterCircle0" cx="568.9" cy="495.3" r="8.7"/>
<circle class="chapterCircle0" cx="543.7" cy="67.5" r="8.7"/>
<circle class="chapterCircle0" cx="543.7" cy="92.7" r="8.7"/>
<circle class="chapterCircle0" cx="543.7" cy="117.8" r="8.7"/>
<circle class="chapterCircle0" cx="543.7" cy="143" r="8.7"/>
<circle class="chapterCircle0" cx="543.7" cy="168.2" r="8.7"/>
<circle class="chapterCircle0" cx="543.7" cy="193.3" r="8.7"/>
<circle class="chapterCircle0" cx="543.7" cy="218.5" r="8.7"/>
<circle class="chapterCircle0" cx="543.7" cy="243.7" r="8.7"/>
<circle class="chapterCircle0" cx="543.7" cy="268.8" r="8.7"/>
<circle class="chapterCircle0" cx="543.7" cy="294" r="8.7"/>
<circle class="chapterCircle0" cx="543.7" cy="319.1" r="8.7"/>
<circle class="chapterCircle0" cx="543.7" cy="344.3" r="8.7"/>
<circle class="chapterCircle0" cx="543.7" cy="369.5" r="8.7"/>
<circle class="chapterCircle0" cx="543.7" cy="394.6" r="8.7"/>
<circle class="chapterCircle0" cx="543.7" cy="419.8" r="8.7"/>
<circle class="chapterCircle0" cx="543.7" cy="445" r="8.7"/>
<circle class="chapterCircle0" cx="543.7" cy="470.1" r="8.7"/>
<circle class="chapterCircle0" cx="543.7" cy="495.3" r="8.7"/>
<ellipse transform="matrix(0.2298 -0.9732 0.9732 0.2298 333.6804 556.6833)" class="chapterCircle0" cx="518.5" cy="67.5" rx="8.7" ry="8.7"/>
<ellipse transform="matrix(0.2298 -0.9732 0.9732 0.2298 309.1935 576.0627)" class="chapterCircle0" cx="518.5" cy="92.7" rx="8.7" ry="8.7"/>
<ellipse transform="matrix(0.2298 -0.9732 0.9732 0.2298 284.7065 595.4421)" class="chapterCircle0" cx="518.5" cy="117.8" rx="8.7" ry="8.7"/>
<ellipse transform="matrix(0.3827 -0.9239 0.9239 0.3827 187.97 567.3571)" class="chapterCircle0" cx="518.5" cy="143" rx="8.7" ry="8.7"/>
<ellipse transform="matrix(0.3827 -0.9239 0.9239 0.3827 164.7252 582.8887)" class="chapterCircle0" cx="518.5" cy="168.2" rx="8.7" ry="8.7"/>
<ellipse transform="matrix(0.3827 -0.9239 0.9239 0.3827 141.4804 598.4204)" class="chapterCircle0" cx="518.5" cy="193.3" rx="8.7" ry="8.7"/>
<ellipse transform="matrix(0.3827 -0.9239 0.9239 0.3827 118.2356 613.9521)" class="chapterCircle0" cx="518.5" cy="218.5" rx="8.7" ry="8.7"/>
<ellipse transform="matrix(0.3827 -0.9239 0.9239 0.3827 94.9908 629.4838)" class="chapterCircle0" cx="518.5" cy="243.7" rx="8.7" ry="8.7"/>
<ellipse transform="matrix(0.1602 -0.9871 0.9871 0.1602 170.1303 737.6042)" class="chapterCircle0" cx="518.5" cy="268.8" rx="8.7" ry="8.7"/>
<ellipse transform="matrix(0.1602 -0.9871 0.9871 0.1602 145.2952 758.734)" class="chapterCircle0" cx="518.5" cy="294" rx="8.7" ry="8.7"/>
<ellipse transform="matrix(0.1602 -0.9871 0.9871 0.1602 120.4502 779.8722)" class="chapterCircle0" cx="518.5" cy="319.1" rx="8.7" ry="8.7"/>
<ellipse transform="matrix(0.1602 -0.9871 0.9871 0.1602 95.6151 801.002)" class="chapterCircle0" cx="518.5" cy="344.3" rx="8.7" ry="8.7"/>
<ellipse transform="matrix(0.1602 -0.9871 0.9871 0.1602 70.7799 822.1318)" class="chapterCircle0" cx="518.5" cy="369.5" rx="8.7" ry="8.7"/>
<ellipse transform="matrix(0.1602 -0.9871 0.9871 0.1602 45.9448 843.2617)" class="chapterCircle0" cx="518.5" cy="394.6" rx="8.7" ry="8.7"/>
<ellipse transform="matrix(0.1602 -0.9871 0.9871 0.1602 21.1097 864.3915)" class="chapterCircle0" cx="518.5" cy="419.8" rx="8.7" ry="8.7"/>
<ellipse transform="matrix(0.1602 -0.9871 0.9871 0.1602 -3.7254 885.5213)" class="chapterCircle0" cx="518.5" cy="445" rx="8.7" ry="8.7"/>
<ellipse transform="matrix(0.1602 -0.9871 0.9871 0.1602 -28.5704 906.6595)" class="chapterCircle0" cx="518.5" cy="470.1" rx="8.7" ry="8.7"/>
<circle class="chapterCircle0" cx="493.4" cy="67.5" r="8.7"/>
<circle class="chapterCircle0" cx="493.4" cy="92.7" r="8.7"/>
<circle class="chapterCircle0" cx="493.4" cy="117.8" r="8.7"/>
<circle class="chapterCircle0" cx="493.4" cy="143" r="8.7"/>
<circle class="chapterCircle0" cx="493.4" cy="168.2" r="8.7"/>
<circle class="chapterCircle0" cx="493.4" cy="193.3" r="8.7"/>
<circle class="chapterCircle0" cx="493.4" cy="218.5" r="8.7"/>
<circle class="chapterCircle0" cx="493.4" cy="243.7" r="8.7"/>
<circle class="chapterCircle0" cx="493.4" cy="268.8" r="8.7"/>
<circle class="chapterCircle0" cx="493.4" cy="294" r="8.7"/>
<circle class="chapterCircle0" cx="493.4" cy="319.1" r="8.7"/>
<circle class="chapterCircle0" cx="493.4" cy="344.3" r="8.7"/>
<circle class="chapterCircle0" cx="493.4" cy="369.5" r="8.7"/>
<circle class="chapterCircle0" cx="493.4" cy="394.6" r="8.7"/>
<circle class="chapterCircle0" cx="493.4" cy="419.8" r="8.7"/>
<circle class="chapterCircle0" cx="493.4" cy="445" r="8.7"/>
<circle class="chapterCircle0" cx="493.4" cy="470.1" r="8.7"/>
<circle class="chapterCircle0" cx="468.2" cy="17.2" r="8.7"/>
<circle class="chapterCircle0" cx="468.2" cy="42.4" r="8.7"/>
<circle class="chapterCircle0" cx="468.2" cy="67.5" r="8.7"/>
<circle class="chapterCircle0" cx="468.2" cy="92.7" r="8.7"/>
<circle class="chapterCircle0" cx="468.2" cy="117.8" r="8.7"/>
<circle class="chapterCircle0" cx="468.2" cy="143" r="8.7"/>
<circle class="chapterCircle0" cx="468.2" cy="168.2" r="8.7"/>
<circle class="chapterCircle0" cx="468.2" cy="193.3" r="8.7"/>
<circle class="chapterCircle0" cx="468.2" cy="218.5" r="8.7"/>
<circle class="chapterCircle0" cx="468.2" cy="243.7" r="8.7"/>
<circle class="chapterCircle0" cx="468.2" cy="268.8" r="8.7"/>
<circle class="chapterCircle0" cx="468.2" cy="294" r="8.7"/>
<circle class="chapterCircle0" cx="468.2" cy="319.1" r="8.7"/>
<circle class="chapterCircle0" cx="468.2" cy="344.3" r="8.7"/>
<circle class="chapterCircle0" cx="468.2" cy="369.5" r="8.7"/>
<circle class="chapterCircle0" cx="468.2" cy="394.6" r="8.7"/>
<circle class="chapterCircle0" cx="468.2" cy="419.8" r="8.7"/>
<circle class="chapterCircle0" cx="468.2" cy="445" r="8.7"/>
<circle class="chapterCircle0" cx="468.2" cy="470.1" r="8.7"/>
<circle class="chapterCircle0" cx="443" cy="17.2" r="8.7"/>
<circle class="chapterCircle0" cx="443" cy="42.4" r="8.7"/>
<circle class="chapterCircle0" cx="443" cy="67.5" r="8.7"/>
<circle class="chapterCircle0" cx="443" cy="92.7" r="8.7"/>
<circle class="chapterCircle0" cx="443" cy="117.8" r="8.7"/>
<circle class="chapterCircle0" cx="443" cy="143" r="8.7"/>
<circle class="chapterCircle0" cx="443" cy="168.2" r="8.7"/>
<circle class="chapterCircle0" cx="443" cy="193.3" r="8.7"/>
<circle class="chapterCircle0" cx="443" cy="218.5" r="8.7"/>
<circle class="chapterCircle0" cx="443" cy="243.7" r="8.7"/>
<circle class="chapterCircle0" cx="443" cy="268.8" r="8.7"/>
<circle class="chapterCircle0" cx="443" cy="294" r="8.7"/>
<circle class="chapterCircle0" cx="443" cy="319.1" r="8.7"/>
<circle class="chapterCircle0" cx="443" cy="344.3" r="8.7"/>
<circle class="chapterCircle0" cx="443" cy="369.5" r="8.7"/>
<circle class="chapterCircle0" cx="443" cy="394.6" r="8.7"/>
<circle class="chapterCircle0" cx="443" cy="419.8" r="8.7"/>
<circle class="chapterCircle0" cx="443" cy="445" r="8.7"/>
<circle class="chapterCircle0" cx="443" cy="470.1" r="8.7"/>
<circle class="chapterCircle0" cx="443" cy="495.3" r="8.7"/>
<circle class="chapterCircle0" cx="443" cy="520.4" r="8.7"/>
<circle class="chapterCircle0" cx="417.9" cy="42.4" r="8.7"/>
<circle class="chapterCircle0" cx="417.9" cy="67.5" r="8.7"/>
<circle class="chapterCircle0" cx="417.9" cy="92.7" r="8.7"/>
<circle class="chapterCircle0" cx="417.9" cy="117.8" r="8.7"/>
<circle class="chapterCircle0" cx="417.9" cy="143" r="8.7"/>
<circle class="chapterCircle0" cx="417.9" cy="168.2" r="8.7"/>
<circle class="chapterCircle0" cx="417.9" cy="193.3" r="8.7"/>
<circle class="chapterCircle0" cx="417.9" cy="218.5" r="8.7"/>
<circle class="chapterCircle0" cx="417.9" cy="243.7" r="8.7"/>
<circle class="chapterCircle0" cx="417.9" cy="268.8" r="8.7"/>
<circle class="chapterCircle0" cx="417.9" cy="294" r="8.7"/>
<circle class="chapterCircle0" cx="417.9" cy="319.1" r="8.7"/>
<circle class="chapterCircle0" cx="417.9" cy="344.3" r="8.7"/>
<circle class="chapterCircle0" cx="417.9" cy="369.5" r="8.7"/>
<circle class="chapterCircle0" cx="417.9" cy="394.6" r="8.7"/>
<circle class="chapterCircle0" cx="417.9" cy="419.8" r="8.7"/>
<circle class="chapterCircle0" cx="417.9" cy="445" r="8.7"/>
<circle class="chapterCircle0" cx="417.9" cy="470.1" r="8.7"/>
<circle class="chapterCircle0" cx="417.9" cy="495.3" r="8.7"/>
<circle class="chapterCircle0" cx="417.9" cy="520.4" r="8.7"/>
<circle class="chapterCircle0" cx="392.7" cy="42.4" r="8.7"/>
<circle class="chapterCircle0" cx="392.7" cy="67.5" r="8.7"/>
<circle class="chapterCircle0" cx="392.7" cy="92.7" r="8.7"/>
<circle class="chapterCircle0" cx="392.7" cy="117.8" r="8.7"/>
<circle class="chapterCircle0" cx="392.7" cy="143" r="8.7"/>
<circle class="chapterCircle0" cx="392.7" cy="168.2" r="8.7"/>
<circle class="chapterCircle0" cx="392.7" cy="193.3" r="8.7"/>
<circle class="chapterCircle0" cx="392.7" cy="218.5" r="8.7"/>
<circle class="chapterCircle0" cx="392.7" cy="243.7" r="8.7"/>
<circle class="chapterCircle0" cx="392.7" cy="268.8" r="8.7"/>
<circle class="chapterCircle0" cx="392.7" cy="294" r="8.7"/>
<circle class="chapterCircle0" cx="392.7" cy="319.1" r="8.7"/>
<circle class="chapterCircle0" cx="392.7" cy="344.3" r="8.7"/>
<circle class="chapterCircle0" cx="392.7" cy="369.5" r="8.7"/>
<circle class="chapterCircle0" cx="392.7" cy="394.6" r="8.7"/>
<circle class="chapterCircle0" cx="392.7" cy="419.8" r="8.7"/>
<circle class="chapterCircle0" cx="392.7" cy="445" r="8.7"/>
<circle class="chapterCircle0" cx="392.7" cy="470.1" r="8.7"/>
<circle class="chapterCircle0" cx="392.7" cy="495.3" r="8.7"/>
<circle class="chapterCircle0" cx="392.7" cy="520.4" r="8.7"/>
<circle class="chapterCircle0" cx="392.7" cy="545.6" r="8.7"/>
<circle class="chapterCircle0" cx="367.6" cy="17.2" r="8.7"/>
<circle class="chapterCircle0" cx="367.6" cy="42.4" r="8.7"/>
<circle class="chapterCircle0" cx="367.6" cy="67.5" r="8.7"/>
<circle class="chapterCircle0" cx="367.6" cy="92.7" r="8.7"/>
<circle class="chapterCircle0" cx="367.6" cy="117.8" r="8.7"/>
<circle class="chapterCircle0" cx="367.6" cy="143" r="8.7"/>
<circle class="chapterCircle0" cx="367.6" cy="168.2" r="8.7"/>
<circle class="chapterCircle0" cx="367.6" cy="193.3" r="8.7"/>
<circle class="chapterCircle0" cx="367.6" cy="218.5" r="8.7"/>
<circle class="chapterCircle0" cx="367.6" cy="243.7" r="8.7"/>
<circle class="chapterCircle0" cx="367.6" cy="268.8" r="8.7"/>
<circle class="chapterCircle0" cx="367.6" cy="294" r="8.7"/>
<circle class="chapterCircle0" cx="367.6" cy="319.1" r="8.7"/>
<circle class="chapterCircle0" cx="367.6" cy="344.3" r="8.7"/>
<circle class="chapterCircle0" cx="367.6" cy="369.5" r="8.7"/>
<circle class="chapterCircle0" cx="367.6" cy="394.6" r="8.7"/>
<circle class="chapterCircle0" cx="367.6" cy="419.8" r="8.7"/>
<circle class="chapterCircle0" cx="367.6" cy="445" r="8.7"/>
<circle class="chapterCircle0" cx="367.6" cy="470.1" r="8.7"/>
<circle class="chapterCircle0" cx="367.6" cy="495.3" r="8.7"/>
<circle class="chapterCircle0" cx="367.6" cy="520.4" r="8.7"/>
<circle class="chapterCircle0" cx="367.6" cy="545.6" r="8.7"/>
<circle class="chapterCircle0" cx="342.4" cy="17.2" r="8.7"/>
<circle class="chapterCircle0" cx="342.4" cy="42.4" r="8.7"/>
<circle class="chapterCircle0" cx="342.4" cy="67.5" r="8.7"/>
<circle class="chapterCircle0" cx="342.4" cy="92.7" r="8.7"/>
<circle class="chapterCircle0" cx="342.4" cy="117.8" r="8.7"/>
<circle class="chapterCircle0" cx="342.4" cy="143" r="8.7"/>
<circle class="chapterCircle0" cx="342.4" cy="168.2" r="8.7"/>
<circle class="chapterCircle0" cx="342.4" cy="193.3" r="8.7"/>
<circle class="chapterCircle0" cx="342.4" cy="218.5" r="8.7"/>
<circle class="chapterCircle0" cx="342.4" cy="243.7" r="8.7"/>
<circle class="chapterCircle0" cx="342.4" cy="268.8" r="8.7"/>
<circle class="chapterCircle0" cx="342.4" cy="294" r="8.7"/>
<circle class="chapterCircle0" cx="342.4" cy="319.1" r="8.7"/>
<circle class="chapterCircle0" cx="342.4" cy="344.3" r="8.7"/>
<circle class="chapterCircle0" cx="342.4" cy="369.5" r="8.7"/>
<circle class="chapterCircle0" cx="342.4" cy="394.6" r="8.7"/>
<circle class="chapterCircle0" cx="342.4" cy="419.8" r="8.7"/>
<circle class="chapterCircle0" cx="342.4" cy="445" r="8.7"/>
<circle class="chapterCircle0" cx="342.4" cy="470.1" r="8.7"/>
<circle class="chapterCircle0" cx="342.4" cy="495.3" r="8.7"/>
<circle class="chapterCircle0" cx="342.4" cy="520.4" r="8.7"/>
<circle class="chapterCircle0" cx="342.4" cy="545.6" r="8.7"/>
<circle class="chapterCircle0" cx="342.4" cy="570.8" r="8.7"/>
<circle class="chapterCircle0" cx="317.2" cy="67.5" r="8.7"/>
<circle class="chapterCircle0" cx="317.2" cy="92.7" r="8.7"/>
<circle class="chapterCircle0" cx="317.2" cy="117.8" r="8.7"/>
<circle class="chapterCircle0" cx="317.2" cy="143" r="8.7"/>
<circle class="chapterCircle0" cx="317.2" cy="168.2" r="8.7"/>
<circle class="chapterCircle0" cx="317.2" cy="193.3" r="8.7"/>
<circle class="chapterCircle0" cx="317.2" cy="218.5" r="8.7"/>
<circle class="chapterCircle0" cx="317.2" cy="243.7" r="8.7"/>
<circle class="chapterCircle0" cx="317.2" cy="268.8" r="8.7"/>
<circle class="chapterCircle0" cx="317.2" cy="294" r="8.7"/>
<circle class="chapterCircle0" cx="317.2" cy="319.1" r="8.7"/>
<circle class="chapterCircle0" cx="317.2" cy="344.3" r="8.7"/>
<circle class="chapterCircle0" cx="317.2" cy="369.5" r="8.7"/>
<circle class="chapterCircle0" cx="317.2" cy="394.6" r="8.7"/>
<circle class="chapterCircle0" cx="317.2" cy="419.8" r="8.7"/>
<circle class="chapterCircle0" cx="317.2" cy="445" r="8.7"/>
<circle class="chapterCircle0" cx="317.2" cy="470.1" r="8.7"/>
<circle class="chapterCircle0" cx="317.2" cy="495.3" r="8.7"/>
<circle class="chapterCircle0" cx="317.2" cy="520.4" r="8.7"/>
<circle class="chapterCircle0" cx="317.2" cy="545.6" r="8.7"/>
<circle class="chapterCircle0" cx="292.1" cy="67.5" r="8.7"/>
<circle class="chapterCircle0" cx="292.1" cy="92.7" r="8.7"/>
<circle class="chapterCircle0" cx="292.1" cy="117.8" r="8.7"/>
<circle class="chapterCircle0" cx="292.1" cy="143" r="8.7"/>
<circle class="chapterCircle0" cx="292.1" cy="168.2" r="8.7"/>
<circle class="chapterCircle0" cx="292.1" cy="193.3" r="8.7"/>
<circle class="chapterCircle0" cx="292.1" cy="218.5" r="8.7"/>
<circle class="chapterCircle0" cx="292.1" cy="243.7" r="8.7"/>
<circle class="chapterCircle0" cx="292.1" cy="268.8" r="8.7"/>
<circle class="chapterCircle0" cx="292.1" cy="294" r="8.7"/>
<circle class="chapterCircle0" cx="292.1" cy="319.1" r="8.7"/>
<circle class="chapterCircle0" cx="292.1" cy="344.3" r="8.7"/>
<circle class="chapterCircle0" cx="292.1" cy="369.5" r="8.7"/>
<circle class="chapterCircle0" cx="292.1" cy="394.6" r="8.7"/>
<circle class="chapterCircle0" cx="292.1" cy="419.8" r="8.7"/>
<circle class="chapterCircle0" cx="292.1" cy="445" r="8.7"/>
<circle class="chapterCircle0" cx="292.1" cy="470.1" r="8.7"/>
<circle class="chapterCircle0" cx="292.1" cy="495.3" r="8.7"/>
<circle class="chapterCircle0" cx="292.1" cy="520.4" r="8.7"/>
<circle class="chapterCircle0" cx="292.1" cy="545.6" r="8.7"/>
<circle class="chapterCircle0" cx="266.9" cy="67.5" r="8.7"/>
<circle class="chapterCircle0" cx="266.9" cy="92.7" r="8.7"/>
<circle class="chapterCircle0" cx="266.9" cy="117.8" r="8.7"/>
<circle class="chapterCircle0" cx="266.9" cy="143" r="8.7"/>
<circle class="chapterCircle0" cx="266.9" cy="168.2" r="8.7"/>
<circle class="chapterCircle0" cx="266.9" cy="193.3" r="8.7"/>
<circle class="chapterCircle0" cx="266.9" cy="218.5" r="8.7"/>
<circle class="chapterCircle0" cx="266.9" cy="243.7" r="8.7"/>
<circle class="chapterCircle0" cx="266.9" cy="268.8" r="8.7"/>
<circle class="chapterCircle0" cx="266.9" cy="294" r="8.7"/>
<circle class="chapterCircle0" cx="266.9" cy="319.1" r="8.7"/>
<circle class="chapterCircle0" cx="266.9" cy="344.3" r="8.7"/>
<circle class="chapterCircle0" cx="266.9" cy="369.5" r="8.7"/>
<circle class="chapterCircle0" cx="266.9" cy="394.6" r="8.7"/>
<circle class="chapterCircle0" cx="266.9" cy="419.8" r="8.7"/>
<circle class="chapterCircle0" cx="266.9" cy="445" r="8.7"/>
<circle class="chapterCircle0" cx="266.9" cy="470.1" r="8.7"/>
<circle class="chapterCircle0" cx="266.9" cy="495.3" r="8.7"/>
<circle class="chapterCircle0" cx="266.9" cy="520.4" r="8.7"/>
<circle class="chapterCircle0" cx="241.8" cy="92.7" r="8.7"/>
<circle class="chapterCircle0" cx="241.8" cy="117.8" r="8.7"/>
<circle class="chapterCircle0" cx="241.8" cy="143" r="8.7"/>
<circle class="chapterCircle0" cx="241.8" cy="168.2" r="8.7"/>
<circle class="chapterCircle0" cx="241.8" cy="193.3" r="8.7"/>
<circle class="chapterCircle0" cx="241.8" cy="218.5" r="8.7"/>
<circle class="chapterCircle0" cx="241.8" cy="243.7" r="8.7"/>
<circle class="chapterCircle0" cx="241.8" cy="268.8" r="8.7"/>
<circle class="chapterCircle0" cx="241.8" cy="294" r="8.7"/>
<circle class="chapterCircle0" cx="241.8" cy="319.1" r="8.7"/>
<circle class="chapterCircle0" cx="241.8" cy="344.3" r="8.7"/>
<circle class="chapterCircle0" cx="241.8" cy="369.5" r="8.7"/>
<circle class="chapterCircle0" cx="241.8" cy="394.6" r="8.7"/>
<circle class="chapterCircle0" cx="241.8" cy="419.8" r="8.7"/>
<circle class="chapterCircle0" cx="241.8" cy="445" r="8.7"/>
<circle class="chapterCircle0" cx="241.8" cy="470.1" r="8.7"/>
<circle class="chapterCircle0" cx="241.8" cy="495.3" r="8.7"/>
<circle class="chapterCircle0" cx="216.6" cy="92.7" r="8.7"/>
<circle class="chapterCircle0" cx="216.6" cy="117.8" r="8.7"/>
<circle class="chapterCircle0" cx="216.6" cy="143" r="8.7"/>
<circle class="chapterCircle0" cx="216.6" cy="168.2" r="8.7"/>
<circle class="chapterCircle0" cx="216.6" cy="193.3" r="8.7"/>
<circle class="chapterCircle0" cx="216.6" cy="218.5" r="8.7"/>
<circle class="chapterCircle0" cx="216.6" cy="243.7" r="8.7"/>
<circle class="chapterCircle0" cx="216.6" cy="268.8" r="8.7"/>
<circle class="chapterCircle0" cx="216.6" cy="294" r="8.7"/>
<circle class="chapterCircle0" cx="216.6" cy="319.1" r="8.7"/>
<circle class="chapterCircle0" cx="216.6" cy="344.3" r="8.7"/>
<circle class="chapterCircle0" cx="216.6" cy="369.5" r="8.7"/>
<circle class="chapterCircle0" cx="216.6" cy="394.6" r="8.7"/>
<circle class="chapterCircle0" cx="216.6" cy="419.8" r="8.7"/>
<circle class="chapterCircle0" cx="216.6" cy="445" r="8.7"/>
<circle class="chapterCircle0" cx="216.6" cy="470.1" r="8.7"/>
<circle class="chapterCircle0" cx="191.4" cy="117.8" r="8.7"/>
<circle class="chapterCircle0" cx="191.4" cy="143" r="8.7"/>
<circle class="chapterCircle0" cx="191.4" cy="168.2" r="8.7"/>
<circle class="chapterCircle0" cx="191.4" cy="193.3" r="8.7"/>
<circle class="chapterCircle0" cx="191.4" cy="218.5" r="8.7"/>
<circle class="chapterCircle0" cx="191.4" cy="243.7" r="8.7"/>
<circle class="chapterCircle0" cx="191.4" cy="268.8" r="8.7"/>
<circle class="chapterCircle0" cx="191.4" cy="294" r="8.7"/>
<circle class="chapterCircle0" cx="191.4" cy="319.1" r="8.7"/>
<circle class="chapterCircle0" cx="191.4" cy="344.3" r="8.7"/>
<circle class="chapterCircle0" cx="191.4" cy="369.5" r="8.7"/>
<circle class="chapterCircle0" cx="191.4" cy="394.6" r="8.7"/>
<circle class="chapterCircle0" cx="191.4" cy="419.8" r="8.7"/>
<circle class="chapterCircle0" cx="191.4" cy="445" r="8.7"/>
<circle class="chapterCircle0" cx="166.3" cy="117.8" r="8.7"/>
<circle class="chapterCircle0" cx="166.3" cy="143" r="8.7"/>
<circle class="chapterCircle0" cx="166.3" cy="168.2" r="8.7"/>
<circle class="chapterCircle0" cx="166.3" cy="193.3" r="8.7"/>
<circle class="chapterCircle0" cx="166.3" cy="218.5" r="8.7"/>
<circle class="chapterCircle0" cx="166.3" cy="243.7" r="8.7"/>
<circle class="chapterCircle0" cx="166.3" cy="268.8" r="8.7"/>
<circle class="chapterCircle0" cx="166.3" cy="294" r="8.7"/>
<circle class="chapterCircle0" cx="166.3" cy="319.1" r="8.7"/>
<circle class="chapterCircle0" cx="166.3" cy="344.3" r="8.7"/>
<circle class="chapterCircle0" cx="166.3" cy="369.5" r="8.7"/>
<circle class="chapterCircle0" cx="166.3" cy="394.6" r="8.7"/>
<circle class="chapterCircle0" cx="166.3" cy="419.8" r="8.7"/>
<circle class="chapterCircle0" cx="166.3" cy="445" r="8.7"/>
<circle class="chapterCircle0" cx="141.1" cy="143" r="8.7"/>
<circle class="chapterCircle0" cx="141.1" cy="168.2" r="8.7"/>
<circle class="chapterCircle0" cx="141.1" cy="193.3" r="8.7"/>
<circle class="chapterCircle0" cx="141.1" cy="218.5" r="8.7"/>
<circle class="chapterCircle0" cx="141.1" cy="243.7" r="8.7"/>
<circle class="chapterCircle0" cx="141.1" cy="268.8" r="8.7"/>
<circle class="chapterCircle0" cx="141.1" cy="294" r="8.7"/>
<circle class="chapterCircle0" cx="141.1" cy="319.1" r="8.7"/>
<circle class="chapterCircle0" cx="141.1" cy="344.3" r="8.7"/>
<circle class="chapterCircle0" cx="141.1" cy="369.5" r="8.7"/>
<circle class="chapterCircle0" cx="141.1" cy="394.6" r="8.7"/>
<circle class="chapterCircle0" cx="115.9" cy="143" r="8.7"/>
<circle class="chapterCircle0" cx="115.9" cy="168.2" r="8.7"/>
<circle class="chapterCircle0" cx="115.9" cy="193.3" r="8.7"/>
<circle class="chapterCircle0" cx="115.9" cy="218.5" r="8.7"/>
<circle class="chapterCircle0" cx="115.9" cy="243.7" r="8.7"/>
<circle class="chapterCircle0" cx="115.9" cy="268.8" r="8.7"/>
<circle class="chapterCircle0" cx="115.9" cy="294" r="8.7"/>
<circle class="chapterCircle0" cx="115.9" cy="319.1" r="8.7"/>
<circle class="chapterCircle0" cx="115.9" cy="344.3" r="8.7"/>
<circle class="chapterCircle0" cx="115.9" cy="369.5" r="8.7"/>
<circle class="chapterCircle0" cx="115.9" cy="394.6" r="8.7"/>
<circle class="chapterCircle0" cx="90.8" cy="143" r="8.7"/>
<circle class="chapterCircle0" cx="90.8" cy="168.2" r="8.7"/>
<circle class="chapterCircle0" cx="90.8" cy="193.3" r="8.7"/>
<circle class="chapterCircle0" cx="90.8" cy="218.5" r="8.7"/>
<circle class="chapterCircle0" cx="90.8" cy="243.7" r="8.7"/>
<circle class="chapterCircle0" cx="90.8" cy="268.8" r="8.7"/>
<circle class="chapterCircle0" cx="90.8" cy="294" r="8.7"/>
<circle class="chapterCircle0" cx="90.8" cy="319.1" r="8.7"/>
<circle class="chapterCircle0" cx="90.8" cy="344.3" r="8.7"/>
<circle class="chapterCircle0" cx="90.8" cy="369.5" r="8.7"/>
<circle class="chapterCircle0" cx="65.6" cy="168.2" r="8.7"/>
<circle class="chapterCircle0" cx="65.6" cy="193.3" r="8.7"/>
<circle class="chapterCircle0" cx="65.6" cy="218.5" r="8.7"/>
<circle class="chapterCircle0" cx="65.6" cy="243.7" r="8.7"/>
<circle class="chapterCircle0" cx="65.6" cy="268.8" r="8.7"/>
<circle class="chapterCircle0" cx="65.6" cy="294" r="8.7"/>
<circle class="chapterCircle0" cx="65.6" cy="319.1" r="8.7"/>
<circle class="chapterCircle0" cx="40.5" cy="193.3" r="8.7"/>
<circle class="chapterCircle0" cx="40.5" cy="218.5" r="8.7"/>
<circle class="chapterCircle0" cx="15.3" cy="168.2" r="8.7"/>
<circle class="chapterCircle0" cx="15.3" cy="193.3" r="8.7"/>
</svg>
