<?xml version="1.0" encoding="utf-8"?>
<!-- Generator: Adobe Illustrator 24.1.2, SVG Export Plug-In . SVG Version: 6.00 Build 0)  -->
<svg version="1.1" id="russia" xmlns="http://www.w3.org/2000/svg" xmlns:xlink="http://www.w3.org/1999/xlink" x="0px" y="0px"
	 viewBox="0 0 536 293.1" style="enable-background:new 0 0 536 293.1;" xml:space="preserve">
<style type="text/css">
	.chapterCircle0{fill:none;}
	.chapterCircle1{fill:#FFFFFF;}
	.chapterCircle2{fill:url(#SVGID);}
	.chapterCircle3{opacity:0.5;fill:#FFFFFF;enable-background:new    ;}
</style>
<pattern  y="293.1" width="6.5" height="6.5" patternUnits="userSpaceOnUse" id="SVGID" viewBox="0 -6.5 6.5 6.5" style="overflow:visible;">
	<g>
		<rect y="-6.5" class="chapterCircle0" width="6.5" height="6.5"/>
		<g>
			<rect y="-6.5" class="chapterCircle0" width="6.5" height="6.5"/>
			<rect y="-6.5" class="chapterCircle0" width="6.5" height="6.5"/>
			<circle class="chapterCircle1" cx="3.2" cy="-3.3" r="2.2"/>
		</g>
	</g>
</pattern>
<g id="map">
	<circle class="chapterCircle1" cx="531.9" cy="154.9" r="2.9"/>
	<circle class="chapterCircle1" cx="531.9" cy="171.7" r="2.9"/>
	<circle class="chapterCircle1" cx="531.9" cy="222" r="2.9"/>
	<circle class="chapterCircle1" cx="531.9" cy="230.3" r="2.9"/>
	<circle class="chapterCircle1" cx="531.9" cy="238.7" r="2.9"/>
	<circle class="chapterCircle1" cx="523.5" cy="129.8" r="2.9"/>
	<circle class="chapterCircle1" cx="523.5" cy="138.2" r="2.9"/>
	<circle class="chapterCircle1" cx="523.5" cy="146.6" r="2.9"/>
	<circle class="chapterCircle1" cx="523.5" cy="154.9" r="2.9"/>
	<circle class="chapterCircle1" cx="515.1" cy="113.1" r="2.9"/>
	<circle class="chapterCircle1" cx="515.1" cy="121.4" r="2.9"/>
	<circle class="chapterCircle1" cx="515.1" cy="129.8" r="2.9"/>
	<circle class="chapterCircle1" cx="515.1" cy="138.2" r="2.9"/>
	<circle class="chapterCircle1" cx="515.1" cy="146.6" r="2.9"/>
	<circle class="chapterCircle1" cx="515.1" cy="238.7" r="2.9"/>
	<circle class="chapterCircle1" cx="506.7" cy="12.6" r="2.9"/>
	<circle class="chapterCircle1" cx="506.7" cy="46.1" r="2.9"/>
	<circle class="chapterCircle1" cx="506.7" cy="54.4" r="2.9"/>
	<circle class="chapterCircle1" cx="506.7" cy="62.8" r="2.9"/>
	<circle class="chapterCircle1" cx="506.7" cy="71.2" r="2.9"/>
	<circle class="chapterCircle1" cx="506.7" cy="79.6" r="2.9"/>
	<circle class="chapterCircle1" cx="506.7" cy="113.1" r="2.9"/>
	<circle class="chapterCircle1" cx="506.7" cy="121.4" r="2.9"/>
	<circle class="chapterCircle1" cx="506.7" cy="129.8" r="2.9"/>
	<circle class="chapterCircle1" cx="506.7" cy="138.2" r="2.9"/>
	<circle class="chapterCircle1" cx="506.7" cy="238.7" r="2.9"/>
	<circle class="chapterCircle1" cx="506.7" cy="247.1" r="2.9"/>
	<circle class="chapterCircle1" cx="498.4" cy="4.2" r="2.9"/>
	<circle class="chapterCircle1" cx="498.4" cy="12.6" r="2.9"/>
	<circle class="chapterCircle1" cx="498.4" cy="46.1" r="2.9"/>
	<circle class="chapterCircle1" cx="498.4" cy="54.4" r="2.9"/>
	<circle class="chapterCircle1" cx="498.4" cy="62.8" r="2.9"/>
	<circle class="chapterCircle1" cx="498.4" cy="71.2" r="2.9"/>
	<circle class="chapterCircle1" cx="498.4" cy="79.6" r="2.9"/>
	<circle class="chapterCircle1" cx="498.4" cy="87.9" r="2.9"/>
	<circle class="chapterCircle1" cx="498.4" cy="96.3" r="2.9"/>
	<circle class="chapterCircle1" cx="498.4" cy="104.7" r="2.9"/>
	<circle class="chapterCircle1" cx="498.4" cy="113.1" r="2.9"/>
	<circle class="chapterCircle1" cx="498.4" cy="121.4" r="2.9"/>
	<circle class="chapterCircle1" cx="498.4" cy="129.8" r="2.9"/>
	<circle class="chapterCircle1" cx="498.4" cy="213.6" r="2.9"/>
	<circle class="chapterCircle1" cx="498.4" cy="222" r="2.9"/>
	<circle class="chapterCircle1" cx="498.4" cy="230.3" r="2.9"/>
	<circle class="chapterCircle1" cx="490" cy="4.2" r="2.9"/>
	<circle class="chapterCircle1" cx="490" cy="12.6" r="2.9"/>
	<circle class="chapterCircle1" cx="490" cy="20.9" r="2.9"/>
	<circle class="chapterCircle1" cx="490" cy="29.3" r="2.9"/>
	<circle class="chapterCircle1" cx="490" cy="37.7" r="2.9"/>
	<circle class="chapterCircle1" cx="490" cy="46.1" r="2.9"/>
	<circle class="chapterCircle1" cx="490" cy="54.4" r="2.9"/>
	<circle class="chapterCircle1" cx="490" cy="62.8" r="2.9"/>
	<circle class="chapterCircle1" cx="490" cy="71.2" r="2.9"/>
	<circle class="chapterCircle1" cx="490" cy="79.6" r="2.9"/>
	<circle class="chapterCircle1" cx="490" cy="87.9" r="2.9"/>
	<circle class="chapterCircle1" cx="490" cy="205.2" r="2.9"/>
	<circle class="chapterCircle1" cx="490" cy="213.6" r="2.9"/>
	<circle class="chapterCircle1" cx="481.6" cy="12.6" r="2.9"/>
	<circle class="chapterCircle1" cx="481.6" cy="20.9" r="2.9"/>
	<circle class="chapterCircle1" cx="481.6" cy="29.3" r="2.9"/>
	<circle class="chapterCircle1" cx="481.6" cy="37.7" r="2.9"/>
	<circle class="chapterCircle1" cx="481.6" cy="46.1" r="2.9"/>
	<circle class="chapterCircle1" cx="481.6" cy="54.4" r="2.9"/>
	<circle class="chapterCircle1" cx="481.6" cy="62.8" r="2.9"/>
	<circle class="chapterCircle1" cx="481.6" cy="71.2" r="2.9"/>
	<circle class="chapterCircle1" cx="481.6" cy="79.6" r="2.9"/>
	<circle class="chapterCircle1" cx="481.6" cy="87.9" r="2.9"/>
	<circle class="chapterCircle1" cx="481.6" cy="96.3" r="2.9"/>
	<circle class="chapterCircle1" cx="481.6" cy="129.8" r="2.9"/>
	<circle class="chapterCircle1" cx="481.6" cy="196.8" r="2.9"/>
	<circle class="chapterCircle1" cx="481.6" cy="205.2" r="2.9"/>
	<circle class="chapterCircle1" cx="481.6" cy="230.3" r="2.9"/>
	<circle class="chapterCircle1" cx="481.6" cy="238.7" r="2.9"/>
	<circle class="chapterCircle1" cx="481.6" cy="247.1" r="2.9"/>
	<circle class="chapterCircle1" cx="481.6" cy="255.5" r="2.9"/>
	<circle class="chapterCircle1" cx="481.6" cy="263.8" r="2.9"/>
	<circle class="chapterCircle1" cx="481.6" cy="272.2" r="2.9"/>
	<circle class="chapterCircle1" cx="473.2" cy="20.9" r="2.9"/>
	<circle class="chapterCircle1" cx="473.2" cy="29.3" r="2.9"/>
	<circle class="chapterCircle1" cx="473.2" cy="37.7" r="2.9"/>
	<circle class="chapterCircle1" cx="473.2" cy="46.1" r="2.9"/>
	<circle class="chapterCircle1" cx="473.2" cy="54.4" r="2.9"/>
	<circle class="chapterCircle1" cx="473.2" cy="62.8" r="2.9"/>
	<circle class="chapterCircle1" cx="473.2" cy="71.2" r="2.9"/>
	<circle class="chapterCircle1" cx="473.2" cy="79.6" r="2.9"/>
	<circle class="chapterCircle1" cx="473.2" cy="87.9" r="2.9"/>
	<circle class="chapterCircle1" cx="473.2" cy="96.3" r="2.9"/>
	<circle class="chapterCircle1" cx="473.2" cy="104.7" r="2.9"/>
	<circle class="chapterCircle1" cx="473.2" cy="113.1" r="2.9"/>
	<circle class="chapterCircle1" cx="473.2" cy="121.4" r="2.9"/>
	<circle class="chapterCircle1" cx="473.2" cy="129.8" r="2.9"/>
	<circle class="chapterCircle1" cx="473.2" cy="188.4" r="2.9"/>
	<circle class="chapterCircle1" cx="473.2" cy="196.8" r="2.9"/>
	<circle class="chapterCircle1" cx="473.2" cy="205.2" r="2.9"/>
	<circle class="chapterCircle1" cx="473.2" cy="213.6" r="2.9"/>
	<circle class="chapterCircle1" cx="473.2" cy="222" r="2.9"/>
	<circle class="chapterCircle1" cx="473.2" cy="230.3" r="2.9"/>
	<circle class="chapterCircle1" cx="473.2" cy="238.7" r="2.9"/>
	<circle class="chapterCircle1" cx="473.2" cy="247.1" r="2.9"/>
	<circle class="chapterCircle1" cx="473.2" cy="255.5" r="2.9"/>
	<circle class="chapterCircle1" cx="473.2" cy="263.8" r="2.9"/>
	<circle class="chapterCircle1" cx="473.2" cy="272.2" r="2.9"/>
	<circle class="chapterCircle1" cx="473.2" cy="280.6" r="2.9"/>
	<circle class="chapterCircle1" cx="464.9" cy="29.3" r="2.9"/>
	<circle class="chapterCircle1" cx="464.9" cy="37.7" r="2.9"/>
	<circle class="chapterCircle1" cx="464.9" cy="46.1" r="2.9"/>
	<circle class="chapterCircle1" cx="464.9" cy="54.4" r="2.9"/>
	<circle class="chapterCircle1" cx="464.9" cy="62.8" r="2.9"/>
	<circle class="chapterCircle1" cx="464.9" cy="71.2" r="2.9"/>
	<circle class="chapterCircle1" cx="464.9" cy="79.6" r="2.9"/>
	<circle class="chapterCircle1" cx="464.9" cy="87.9" r="2.9"/>
	<circle class="chapterCircle1" cx="464.9" cy="96.3" r="2.9"/>
	<circle class="chapterCircle1" cx="464.9" cy="104.7" r="2.9"/>
	<circle class="chapterCircle1" cx="464.9" cy="113.1" r="2.9"/>
	<circle class="chapterCircle1" cx="464.9" cy="121.4" r="2.9"/>
	<circle class="chapterCircle1" cx="464.9" cy="129.8" r="2.9"/>
	<circle class="chapterCircle1" cx="464.9" cy="138.2" r="2.9"/>
	<circle class="chapterCircle1" cx="464.9" cy="196.8" r="2.9"/>
	<circle class="chapterCircle1" cx="464.9" cy="205.2" r="2.9"/>
	<circle class="chapterCircle1" cx="464.9" cy="213.6" r="2.9"/>
	<circle class="chapterCircle1" cx="464.9" cy="222" r="2.9"/>
	<circle class="chapterCircle1" cx="464.9" cy="230.3" r="2.9"/>
	<circle class="chapterCircle1" cx="464.9" cy="238.7" r="2.9"/>
	<circle class="chapterCircle1" cx="464.9" cy="247.1" r="2.9"/>
	<circle class="chapterCircle1" cx="464.9" cy="272.2" r="2.9"/>
	<circle class="chapterCircle1" cx="464.9" cy="280.6" r="2.9"/>
	<circle class="chapterCircle1" cx="464.9" cy="289" r="2.9"/>
	<circle class="chapterCircle1" cx="456.5" cy="29.3" r="2.9"/>
	<circle class="chapterCircle1" cx="456.5" cy="37.7" r="2.9"/>
	<circle class="chapterCircle1" cx="456.5" cy="46.1" r="2.9"/>
	<circle class="chapterCircle1" cx="456.5" cy="54.4" r="2.9"/>
	<circle class="chapterCircle1" cx="456.5" cy="62.8" r="2.9"/>
	<circle class="chapterCircle1" cx="456.5" cy="71.2" r="2.9"/>
	<circle class="chapterCircle1" cx="456.5" cy="79.6" r="2.9"/>
	<circle class="chapterCircle1" cx="456.5" cy="87.9" r="2.9"/>
	<circle class="chapterCircle1" cx="456.5" cy="96.3" r="2.9"/>
	<circle class="chapterCircle1" cx="456.5" cy="104.7" r="2.9"/>
	<circle class="chapterCircle1" cx="456.5" cy="113.1" r="2.9"/>
	<circle class="chapterCircle1" cx="456.5" cy="121.4" r="2.9"/>
	<circle class="chapterCircle1" cx="456.5" cy="129.8" r="2.9"/>
	<circle class="chapterCircle1" cx="456.5" cy="138.2" r="2.9"/>
	<circle class="chapterCircle1" cx="456.5" cy="146.6" r="2.9"/>
	<circle class="chapterCircle1" cx="456.5" cy="196.8" r="2.9"/>
	<circle class="chapterCircle1" cx="456.5" cy="205.2" r="2.9"/>
	<circle class="chapterCircle1" cx="456.5" cy="213.6" r="2.9"/>
	<circle class="chapterCircle1" cx="456.5" cy="222" r="2.9"/>
	<circle class="chapterCircle1" cx="456.5" cy="230.3" r="2.9"/>
	<circle class="chapterCircle1" cx="456.5" cy="238.7" r="2.9"/>
	<circle class="chapterCircle1" cx="456.5" cy="247.1" r="2.9"/>
	<circle class="chapterCircle1" cx="448.1" cy="12.6" r="2.9"/>
	<circle class="chapterCircle1" cx="448.1" cy="54.4" r="2.9"/>
	<circle class="chapterCircle1" cx="448.1" cy="62.8" r="2.9"/>
	<circle class="chapterCircle1" cx="448.1" cy="71.2" r="2.9"/>
	<circle class="chapterCircle1" cx="448.1" cy="79.6" r="2.9"/>
	<circle class="chapterCircle1" cx="448.1" cy="87.9" r="2.9"/>
	<circle class="chapterCircle1" cx="448.1" cy="96.3" r="2.9"/>
	<circle class="chapterCircle1" cx="448.1" cy="104.7" r="2.9"/>
	<circle class="chapterCircle1" cx="448.1" cy="113.1" r="2.9"/>
	<circle class="chapterCircle1" cx="448.1" cy="121.4" r="2.9"/>
	<circle class="chapterCircle1" cx="448.1" cy="129.8" r="2.9"/>
	<circle class="chapterCircle1" cx="448.1" cy="138.2" r="2.9"/>
	<circle class="chapterCircle1" cx="448.1" cy="146.6" r="2.9"/>
	<circle class="chapterCircle1" cx="448.1" cy="154.9" r="2.9"/>
	<circle class="chapterCircle1" cx="448.1" cy="163.3" r="2.9"/>
	<circle class="chapterCircle1" cx="448.1" cy="205.2" r="2.9"/>
	<circle class="chapterCircle1" cx="448.1" cy="213.6" r="2.9"/>
	<circle class="chapterCircle1" cx="448.1" cy="222" r="2.9"/>
	<circle class="chapterCircle1" cx="448.1" cy="230.3" r="2.9"/>
	<circle class="chapterCircle1" cx="448.1" cy="238.7" r="2.9"/>
	<circle class="chapterCircle1" cx="448.1" cy="247.1" r="2.9"/>
	<circle class="chapterCircle1" cx="439.7" cy="62.8" r="2.9"/>
	<circle class="chapterCircle1" cx="439.7" cy="71.2" r="2.9"/>
	<circle class="chapterCircle1" cx="439.7" cy="79.6" r="2.9"/>
	<circle class="chapterCircle1" cx="439.7" cy="87.9" r="2.9"/>
	<circle class="chapterCircle1" cx="439.7" cy="96.3" r="2.9"/>
	<circle class="chapterCircle1" cx="439.7" cy="104.7" r="2.9"/>
	<circle class="chapterCircle1" cx="439.7" cy="113.1" r="2.9"/>
	<circle class="chapterCircle1" cx="439.7" cy="121.4" r="2.9"/>
	<circle class="chapterCircle1" cx="439.7" cy="129.8" r="2.9"/>
	<circle class="chapterCircle1" cx="439.7" cy="138.2" r="2.9"/>
	<circle class="chapterCircle1" cx="439.7" cy="146.6" r="2.9"/>
	<circle class="chapterCircle1" cx="439.7" cy="154.9" r="2.9"/>
	<circle class="chapterCircle1" cx="439.7" cy="163.3" r="2.9"/>
	<circle class="chapterCircle1" cx="439.7" cy="171.7" r="2.9"/>
	<circle class="chapterCircle1" cx="439.7" cy="180.1" r="2.9"/>
	<circle class="chapterCircle1" cx="439.7" cy="188.4" r="2.9"/>
	<circle class="chapterCircle1" cx="439.7" cy="196.8" r="2.9"/>
	<circle class="chapterCircle1" cx="439.7" cy="205.2" r="2.9"/>
	<circle class="chapterCircle1" cx="439.7" cy="213.6" r="2.9"/>
	<circle class="chapterCircle1" cx="439.7" cy="222" r="2.9"/>
	<circle class="chapterCircle1" cx="439.7" cy="230.3" r="2.9"/>
	<circle class="chapterCircle1" cx="439.7" cy="238.7" r="2.9"/>
	<circle class="chapterCircle1" cx="439.7" cy="247.1" r="2.9"/>
	<circle class="chapterCircle1" cx="431.4" cy="62.8" r="2.9"/>
	<circle class="chapterCircle1" cx="431.4" cy="71.2" r="2.9"/>
	<circle class="chapterCircle1" cx="431.4" cy="79.6" r="2.9"/>
	<circle class="chapterCircle1" cx="431.4" cy="87.9" r="2.9"/>
	<circle class="chapterCircle1" cx="431.4" cy="96.3" r="2.9"/>
	<circle class="chapterCircle1" cx="431.4" cy="104.7" r="2.9"/>
	<circle class="chapterCircle1" cx="431.4" cy="113.1" r="2.9"/>
	<circle class="chapterCircle1" cx="431.4" cy="121.4" r="2.9"/>
	<circle class="chapterCircle1" cx="431.4" cy="129.8" r="2.9"/>
	<circle class="chapterCircle1" cx="431.4" cy="138.2" r="2.9"/>
	<circle class="chapterCircle1" cx="431.4" cy="146.6" r="2.9"/>
	<circle class="chapterCircle1" cx="431.4" cy="154.9" r="2.9"/>
	<circle class="chapterCircle1" cx="431.4" cy="163.3" r="2.9"/>
	<circle class="chapterCircle1" cx="431.4" cy="171.7" r="2.9"/>
	<circle class="chapterCircle1" cx="431.4" cy="180.1" r="2.9"/>
	<circle class="chapterCircle1" cx="431.4" cy="188.4" r="2.9"/>
	<circle class="chapterCircle1" cx="431.4" cy="196.8" r="2.9"/>
	<circle class="chapterCircle1" cx="431.4" cy="205.2" r="2.9"/>
	<circle class="chapterCircle1" cx="431.4" cy="213.6" r="2.9"/>
	<circle class="chapterCircle1" cx="431.4" cy="222" r="2.9"/>
	<circle class="chapterCircle1" cx="431.4" cy="230.3" r="2.9"/>
	<circle class="chapterCircle1" cx="431.4" cy="238.7" r="2.9"/>
	<circle class="chapterCircle1" cx="431.4" cy="247.1" r="2.9"/>
	<circle class="chapterCircle1" cx="423" cy="62.8" r="2.9"/>
	<circle class="chapterCircle1" cx="423" cy="71.2" r="2.9"/>
	<circle class="chapterCircle1" cx="423" cy="79.6" r="2.9"/>
	<circle class="chapterCircle1" cx="423" cy="87.9" r="2.9"/>
	<circle class="chapterCircle1" cx="423" cy="96.3" r="2.9"/>
	<circle class="chapterCircle1" cx="423" cy="104.7" r="2.9"/>
	<circle class="chapterCircle1" cx="423" cy="113.1" r="2.9"/>
	<circle class="chapterCircle1" cx="423" cy="121.4" r="2.9"/>
	<circle class="chapterCircle1" cx="423" cy="129.8" r="2.9"/>
	<circle class="chapterCircle1" cx="423" cy="138.2" r="2.9"/>
	<circle class="chapterCircle1" cx="423" cy="146.6" r="2.9"/>
	<circle class="chapterCircle1" cx="423" cy="154.9" r="2.9"/>
	<circle class="chapterCircle1" cx="423" cy="163.3" r="2.9"/>
	<circle class="chapterCircle1" cx="423" cy="171.7" r="2.9"/>
	<circle class="chapterCircle1" cx="423" cy="180.1" r="2.9"/>
	<circle class="chapterCircle1" cx="423" cy="188.4" r="2.9"/>
	<circle class="chapterCircle1" cx="423" cy="196.8" r="2.9"/>
	<circle class="chapterCircle1" cx="423" cy="205.2" r="2.9"/>
	<circle class="chapterCircle1" cx="423" cy="213.6" r="2.9"/>
	<circle class="chapterCircle1" cx="423" cy="222" r="2.9"/>
	<circle class="chapterCircle1" cx="423" cy="230.3" r="2.9"/>
	<circle class="chapterCircle1" cx="423" cy="238.7" r="2.9"/>
	<circle class="chapterCircle1" cx="423" cy="247.1" r="2.9"/>
	<circle class="chapterCircle1" cx="414.6" cy="71.2" r="2.9"/>
	<circle class="chapterCircle1" cx="414.6" cy="79.6" r="2.9"/>
	<circle class="chapterCircle1" cx="414.6" cy="87.9" r="2.9"/>
	<circle class="chapterCircle1" cx="414.6" cy="96.3" r="2.9"/>
	<circle class="chapterCircle1" cx="414.6" cy="104.7" r="2.9"/>
	<circle class="chapterCircle1" cx="414.6" cy="113.1" r="2.9"/>
	<circle class="chapterCircle1" cx="414.6" cy="121.4" r="2.9"/>
	<circle class="chapterCircle1" cx="414.6" cy="129.8" r="2.9"/>
	<circle class="chapterCircle1" cx="414.6" cy="138.2" r="2.9"/>
	<circle class="chapterCircle1" cx="414.6" cy="146.6" r="2.9"/>
	<circle class="chapterCircle1" cx="414.6" cy="154.9" r="2.9"/>
	<circle class="chapterCircle1" cx="414.6" cy="163.3" r="2.9"/>
	<circle class="chapterCircle1" cx="414.6" cy="171.7" r="2.9"/>
	<circle class="chapterCircle1" cx="414.6" cy="180.1" r="2.9"/>
	<circle class="chapterCircle1" cx="414.6" cy="188.4" r="2.9"/>
	<circle class="chapterCircle1" cx="414.6" cy="196.8" r="2.9"/>
	<circle class="chapterCircle1" cx="414.6" cy="205.2" r="2.9"/>
	<circle class="chapterCircle1" cx="414.6" cy="213.6" r="2.9"/>
	<circle class="chapterCircle1" cx="414.6" cy="222" r="2.9"/>
	<circle class="chapterCircle1" cx="414.6" cy="230.3" r="2.9"/>
	<circle class="chapterCircle1" cx="406.2" cy="71.2" r="2.9"/>
	<circle class="chapterCircle1" cx="406.2" cy="79.6" r="2.9"/>
	<circle class="chapterCircle1" cx="406.2" cy="87.9" r="2.9"/>
	<circle class="chapterCircle1" cx="406.2" cy="96.3" r="2.9"/>
	<circle class="chapterCircle1" cx="406.2" cy="104.7" r="2.9"/>
	<circle class="chapterCircle1" cx="406.2" cy="113.1" r="2.9"/>
	<circle class="chapterCircle1" cx="406.2" cy="121.4" r="2.9"/>
	<circle class="chapterCircle1" cx="406.2" cy="129.8" r="2.9"/>
	<circle class="chapterCircle1" cx="406.2" cy="138.2" r="2.9"/>
	<circle class="chapterCircle1" cx="406.2" cy="146.6" r="2.9"/>
	<circle class="chapterCircle1" cx="406.2" cy="154.9" r="2.9"/>
	<circle class="chapterCircle1" cx="406.2" cy="163.3" r="2.9"/>
	<circle class="chapterCircle1" cx="406.2" cy="171.7" r="2.9"/>
	<circle class="chapterCircle1" cx="406.2" cy="180.1" r="2.9"/>
	<circle class="chapterCircle1" cx="406.2" cy="188.4" r="2.9"/>
	<circle class="chapterCircle1" cx="406.2" cy="196.8" r="2.9"/>
	<circle class="chapterCircle1" cx="406.2" cy="205.2" r="2.9"/>
	<circle class="chapterCircle1" cx="406.2" cy="213.6" r="2.9"/>
	<circle class="chapterCircle1" cx="406.2" cy="222" r="2.9"/>
	<circle class="chapterCircle1" cx="406.2" cy="230.3" r="2.9"/>
	<circle class="chapterCircle1" cx="397.9" cy="79.6" r="2.9"/>
	<circle class="chapterCircle1" cx="397.9" cy="87.9" r="2.9"/>
	<circle class="chapterCircle1" cx="397.9" cy="96.3" r="2.9"/>
	<circle class="chapterCircle1" cx="397.9" cy="104.7" r="2.9"/>
	<circle class="chapterCircle1" cx="397.9" cy="113.1" r="2.9"/>
	<circle class="chapterCircle1" cx="397.9" cy="121.4" r="2.9"/>
	<circle class="chapterCircle1" cx="397.9" cy="129.8" r="2.9"/>
	<circle class="chapterCircle1" cx="397.9" cy="138.2" r="2.9"/>
	<circle class="chapterCircle1" cx="397.9" cy="146.6" r="2.9"/>
	<circle class="chapterCircle1" cx="397.9" cy="154.9" r="2.9"/>
	<circle class="chapterCircle1" cx="397.9" cy="163.3" r="2.9"/>
	<circle class="chapterCircle1" cx="397.9" cy="171.7" r="2.9"/>
	<circle class="chapterCircle1" cx="397.9" cy="180.1" r="2.9"/>
	<circle class="chapterCircle1" cx="397.9" cy="188.4" r="2.9"/>
	<circle class="chapterCircle1" cx="397.9" cy="196.8" r="2.9"/>
	<circle class="chapterCircle1" cx="397.9" cy="205.2" r="2.9"/>
	<circle class="chapterCircle1" cx="397.9" cy="213.6" r="2.9"/>
	<circle class="chapterCircle1" cx="397.9" cy="222" r="2.9"/>
	<circle class="chapterCircle1" cx="397.9" cy="230.3" r="2.9"/>
	<circle class="chapterCircle1" cx="389.5" cy="54.4" r="2.9"/>
	<circle class="chapterCircle1" cx="389.5" cy="79.6" r="2.9"/>
	<circle class="chapterCircle1" cx="389.5" cy="87.9" r="2.9"/>
	<circle class="chapterCircle1" cx="389.5" cy="96.3" r="2.9"/>
	<circle class="chapterCircle1" cx="389.5" cy="104.7" r="2.9"/>
	<circle class="chapterCircle1" cx="389.5" cy="113.1" r="2.9"/>
	<circle class="chapterCircle1" cx="389.5" cy="121.4" r="2.9"/>
	<circle class="chapterCircle1" cx="389.5" cy="129.8" r="2.9"/>
	<circle class="chapterCircle1" cx="389.5" cy="138.2" r="2.9"/>
	<circle class="chapterCircle1" cx="389.5" cy="146.6" r="2.9"/>
	<circle class="chapterCircle1" cx="389.5" cy="154.9" r="2.9"/>
	<circle class="chapterCircle1" cx="389.5" cy="163.3" r="2.9"/>
	<circle class="chapterCircle1" cx="389.5" cy="171.7" r="2.9"/>
	<circle class="chapterCircle1" cx="389.5" cy="180.1" r="2.9"/>
	<circle class="chapterCircle1" cx="389.5" cy="188.4" r="2.9"/>
	<circle class="chapterCircle1" cx="389.5" cy="196.8" r="2.9"/>
	<circle class="chapterCircle1" cx="389.5" cy="205.2" r="2.9"/>
	<circle class="chapterCircle1" cx="389.5" cy="213.6" r="2.9"/>
	<circle class="chapterCircle1" cx="389.5" cy="222" r="2.9"/>
	<circle class="chapterCircle1" cx="389.5" cy="230.3" r="2.9"/>
	<circle class="chapterCircle1" cx="389.5" cy="238.7" r="2.9"/>
	<circle class="chapterCircle1" cx="389.5" cy="247.1" r="2.9"/>
	<circle class="chapterCircle1" cx="381.1" cy="71.2" r="2.9"/>
	<circle class="chapterCircle1" cx="381.1" cy="96.3" r="2.9"/>
	<circle class="chapterCircle1" cx="381.1" cy="104.7" r="2.9"/>
	<circle class="chapterCircle1" cx="381.1" cy="113.1" r="2.9"/>
	<circle class="chapterCircle1" cx="381.1" cy="121.4" r="2.9"/>
	<circle class="chapterCircle1" cx="381.1" cy="129.8" r="2.9"/>
	<circle class="chapterCircle1" cx="381.1" cy="138.2" r="2.9"/>
	<circle class="chapterCircle1" cx="381.1" cy="146.6" r="2.9"/>
	<circle class="chapterCircle1" cx="381.1" cy="154.9" r="2.9"/>
	<circle class="chapterCircle1" cx="381.1" cy="163.3" r="2.9"/>
	<circle class="chapterCircle1" cx="381.1" cy="171.7" r="2.9"/>
	<circle class="chapterCircle1" cx="381.1" cy="180.1" r="2.9"/>
	<circle class="chapterCircle1" cx="381.1" cy="188.4" r="2.9"/>
	<circle class="chapterCircle1" cx="381.1" cy="196.8" r="2.9"/>
	<circle class="chapterCircle1" cx="381.1" cy="205.2" r="2.9"/>
	<circle class="chapterCircle1" cx="381.1" cy="213.6" r="2.9"/>
	<circle class="chapterCircle1" cx="381.1" cy="222" r="2.9"/>
	<circle class="chapterCircle1" cx="381.1" cy="230.3" r="2.9"/>
	<circle class="chapterCircle1" cx="381.1" cy="238.7" r="2.9"/>
	<circle class="chapterCircle1" cx="381.1" cy="247.1" r="2.9"/>
	<circle class="chapterCircle1" cx="381.1" cy="255.5" r="2.9"/>
	<circle class="chapterCircle1" cx="381.1" cy="263.8" r="2.9"/>
	<circle class="chapterCircle1" cx="372.7" cy="62.8" r="2.9"/>
	<circle class="chapterCircle1" cx="372.7" cy="96.3" r="2.9"/>
	<circle class="chapterCircle1" cx="372.7" cy="104.7" r="2.9"/>
	<circle class="chapterCircle1" cx="372.7" cy="113.1" r="2.9"/>
	<circle class="chapterCircle1" cx="372.7" cy="121.4" r="2.9"/>
	<circle class="chapterCircle1" cx="372.7" cy="129.8" r="2.9"/>
	<circle class="chapterCircle1" cx="372.7" cy="138.2" r="2.9"/>
	<circle class="chapterCircle1" cx="372.7" cy="146.6" r="2.9"/>
	<circle class="chapterCircle1" cx="372.7" cy="154.9" r="2.9"/>
	<circle class="chapterCircle1" cx="372.7" cy="163.3" r="2.9"/>
	<circle class="chapterCircle1" cx="372.7" cy="171.7" r="2.9"/>
	<circle class="chapterCircle1" cx="372.7" cy="180.1" r="2.9"/>
	<circle class="chapterCircle1" cx="372.7" cy="188.4" r="2.9"/>
	<circle class="chapterCircle1" cx="372.7" cy="196.8" r="2.9"/>
	<circle class="chapterCircle1" cx="372.7" cy="205.2" r="2.9"/>
	<circle class="chapterCircle1" cx="372.7" cy="213.6" r="2.9"/>
	<circle class="chapterCircle1" cx="372.7" cy="222" r="2.9"/>
	<circle class="chapterCircle1" cx="372.7" cy="230.3" r="2.9"/>
	<circle class="chapterCircle1" cx="372.7" cy="238.7" r="2.9"/>
	<circle class="chapterCircle1" cx="372.7" cy="247.1" r="2.9"/>
	<circle class="chapterCircle1" cx="372.7" cy="255.5" r="2.9"/>
	<circle class="chapterCircle1" cx="372.7" cy="263.8" r="2.9"/>
	<circle class="chapterCircle1" cx="364.3" cy="104.7" r="2.9"/>
	<circle class="chapterCircle1" cx="364.3" cy="113.1" r="2.9"/>
	<circle class="chapterCircle1" cx="364.3" cy="121.4" r="2.9"/>
	<circle class="chapterCircle1" cx="364.3" cy="129.8" r="2.9"/>
	<circle class="chapterCircle1" cx="364.3" cy="138.2" r="2.9"/>
	<circle class="chapterCircle1" cx="364.3" cy="146.6" r="2.9"/>
	<circle class="chapterCircle1" cx="364.3" cy="154.9" r="2.9"/>
	<circle class="chapterCircle1" cx="364.3" cy="163.3" r="2.9"/>
	<circle class="chapterCircle1" cx="364.3" cy="171.7" r="2.9"/>
	<circle class="chapterCircle1" cx="364.3" cy="180.1" r="2.9"/>
	<circle class="chapterCircle1" cx="364.3" cy="188.4" r="2.9"/>
	<circle class="chapterCircle1" cx="364.3" cy="196.8" r="2.9"/>
	<circle class="chapterCircle1" cx="364.3" cy="205.2" r="2.9"/>
	<circle class="chapterCircle1" cx="364.3" cy="213.6" r="2.9"/>
	<circle class="chapterCircle1" cx="364.3" cy="222" r="2.9"/>
	<circle class="chapterCircle1" cx="364.3" cy="230.3" r="2.9"/>
	<circle class="chapterCircle1" cx="364.3" cy="238.7" r="2.9"/>
	<circle class="chapterCircle1" cx="364.3" cy="247.1" r="2.9"/>
	<circle class="chapterCircle1" cx="364.3" cy="255.5" r="2.9"/>
	<circle class="chapterCircle1" cx="364.3" cy="263.8" r="2.9"/>
	<circle class="chapterCircle1" cx="356" cy="87.9" r="2.9"/>
	<circle class="chapterCircle1" cx="356" cy="96.3" r="2.9"/>
	<circle class="chapterCircle1" cx="356" cy="104.7" r="2.9"/>
	<circle class="chapterCircle1" cx="356" cy="113.1" r="2.9"/>
	<circle class="chapterCircle1" cx="356" cy="121.4" r="2.9"/>
	<circle class="chapterCircle1" cx="356" cy="129.8" r="2.9"/>
	<circle class="chapterCircle1" cx="356" cy="138.2" r="2.9"/>
	<circle class="chapterCircle1" cx="356" cy="146.6" r="2.9"/>
	<circle class="chapterCircle1" cx="356" cy="154.9" r="2.9"/>
	<circle class="chapterCircle1" cx="356" cy="163.3" r="2.9"/>
	<circle class="chapterCircle1" cx="356" cy="171.7" r="2.9"/>
	<circle class="chapterCircle1" cx="356" cy="180.1" r="2.9"/>
	<circle class="chapterCircle1" cx="356" cy="188.4" r="2.9"/>
	<circle class="chapterCircle1" cx="356" cy="196.8" r="2.9"/>
	<circle class="chapterCircle1" cx="356" cy="205.2" r="2.9"/>
	<circle class="chapterCircle1" cx="356" cy="213.6" r="2.9"/>
	<circle class="chapterCircle1" cx="356" cy="222" r="2.9"/>
	<circle class="chapterCircle1" cx="356" cy="230.3" r="2.9"/>
	<circle class="chapterCircle1" cx="356" cy="238.7" r="2.9"/>
	<circle class="chapterCircle1" cx="356" cy="247.1" r="2.9"/>
	<circle class="chapterCircle1" cx="356" cy="255.5" r="2.9"/>
	<circle class="chapterCircle1" cx="356" cy="263.8" r="2.9"/>
	<circle class="chapterCircle1" cx="356" cy="272.2" r="2.9"/>
	<circle class="chapterCircle1" cx="347.6" cy="96.3" r="2.9"/>
	<circle class="chapterCircle1" cx="347.6" cy="104.7" r="2.9"/>
	<circle class="chapterCircle1" cx="347.6" cy="113.1" r="2.9"/>
	<circle class="chapterCircle1" cx="347.6" cy="121.4" r="2.9"/>
	<circle class="chapterCircle1" cx="347.6" cy="129.8" r="2.9"/>
	<circle class="chapterCircle1" cx="347.6" cy="138.2" r="2.9"/>
	<circle class="chapterCircle1" cx="347.6" cy="146.6" r="2.9"/>
	<circle class="chapterCircle1" cx="347.6" cy="154.9" r="2.9"/>
	<circle class="chapterCircle1" cx="347.6" cy="163.3" r="2.9"/>
	<circle class="chapterCircle1" cx="347.6" cy="171.7" r="2.9"/>
	<circle class="chapterCircle1" cx="347.6" cy="180.1" r="2.9"/>
	<circle class="chapterCircle1" cx="347.6" cy="188.4" r="2.9"/>
	<circle class="chapterCircle1" cx="347.6" cy="196.8" r="2.9"/>
	<circle class="chapterCircle1" cx="347.6" cy="205.2" r="2.9"/>
	<circle class="chapterCircle1" cx="347.6" cy="213.6" r="2.9"/>
	<circle class="chapterCircle1" cx="347.6" cy="222" r="2.9"/>
	<circle class="chapterCircle1" cx="347.6" cy="230.3" r="2.9"/>
	<circle class="chapterCircle1" cx="347.6" cy="238.7" r="2.9"/>
	<circle class="chapterCircle1" cx="347.6" cy="247.1" r="2.9"/>
	<circle class="chapterCircle1" cx="347.6" cy="255.5" r="2.9"/>
	<circle class="chapterCircle1" cx="347.6" cy="263.8" r="2.9"/>
	<circle class="chapterCircle1" cx="347.6" cy="272.2" r="2.9"/>
	<circle class="chapterCircle1" cx="339.2" cy="96.3" r="2.9"/>
	<circle class="chapterCircle1" cx="339.2" cy="104.7" r="2.9"/>
	<circle class="chapterCircle1" cx="339.2" cy="113.1" r="2.9"/>
	<circle class="chapterCircle1" cx="339.2" cy="121.4" r="2.9"/>
	<circle class="chapterCircle1" cx="339.2" cy="129.8" r="2.9"/>
	<circle class="chapterCircle1" cx="339.2" cy="138.2" r="2.9"/>
	<circle class="chapterCircle1" cx="339.2" cy="146.6" r="2.9"/>
	<circle class="chapterCircle1" cx="339.2" cy="154.9" r="2.9"/>
	<circle class="chapterCircle1" cx="339.2" cy="163.3" r="2.9"/>
	<circle class="chapterCircle1" cx="339.2" cy="171.7" r="2.9"/>
	<circle class="chapterCircle1" cx="339.2" cy="180.1" r="2.9"/>
	<circle class="chapterCircle1" cx="339.2" cy="188.4" r="2.9"/>
	<circle class="chapterCircle1" cx="339.2" cy="196.8" r="2.9"/>
	<circle class="chapterCircle1" cx="339.2" cy="205.2" r="2.9"/>
	<circle class="chapterCircle1" cx="339.2" cy="213.6" r="2.9"/>
	<circle class="chapterCircle1" cx="339.2" cy="222" r="2.9"/>
	<circle class="chapterCircle1" cx="339.2" cy="230.3" r="2.9"/>
	<circle class="chapterCircle1" cx="339.2" cy="238.7" r="2.9"/>
	<circle class="chapterCircle1" cx="339.2" cy="247.1" r="2.9"/>
	<circle class="chapterCircle1" cx="339.2" cy="255.5" r="2.9"/>
	<circle class="chapterCircle1" cx="339.2" cy="263.8" r="2.9"/>
	<circle class="chapterCircle1" cx="339.2" cy="272.2" r="2.9"/>
	<circle class="chapterCircle1" cx="330.8" cy="96.3" r="2.9"/>
	<circle class="chapterCircle1" cx="330.8" cy="104.7" r="2.9"/>
	<circle class="chapterCircle1" cx="330.8" cy="113.1" r="2.9"/>
	<circle class="chapterCircle1" cx="330.8" cy="121.4" r="2.9"/>
	<circle class="chapterCircle1" cx="330.8" cy="129.8" r="2.9"/>
	<circle class="chapterCircle1" cx="330.8" cy="138.2" r="2.9"/>
	<circle class="chapterCircle1" cx="330.8" cy="146.6" r="2.9"/>
	<circle class="chapterCircle1" cx="330.8" cy="154.9" r="2.9"/>
	<circle class="chapterCircle1" cx="330.8" cy="163.3" r="2.9"/>
	<circle class="chapterCircle1" cx="330.8" cy="171.7" r="2.9"/>
	<circle class="chapterCircle1" cx="330.8" cy="180.1" r="2.9"/>
	<circle class="chapterCircle1" cx="330.8" cy="188.4" r="2.9"/>
	<circle class="chapterCircle1" cx="330.8" cy="196.8" r="2.9"/>
	<circle class="chapterCircle1" cx="330.8" cy="205.2" r="2.9"/>
	<circle class="chapterCircle1" cx="330.8" cy="213.6" r="2.9"/>
	<circle class="chapterCircle1" cx="330.8" cy="222" r="2.9"/>
	<circle class="chapterCircle1" cx="330.8" cy="230.3" r="2.9"/>
	<circle class="chapterCircle1" cx="330.8" cy="238.7" r="2.9"/>
	<circle class="chapterCircle1" cx="330.8" cy="247.1" r="2.9"/>
	<circle class="chapterCircle1" cx="330.8" cy="255.5" r="2.9"/>
	<circle class="chapterCircle1" cx="330.8" cy="263.8" r="2.9"/>
	<circle class="chapterCircle1" cx="330.8" cy="272.2" r="2.9"/>
	<circle class="chapterCircle1" cx="322.5" cy="104.7" r="2.9"/>
	<circle class="chapterCircle1" cx="322.5" cy="113.1" r="2.9"/>
	<circle class="chapterCircle1" cx="322.5" cy="121.4" r="2.9"/>
	<circle class="chapterCircle1" cx="322.5" cy="129.8" r="2.9"/>
	<circle class="chapterCircle1" cx="322.5" cy="138.2" r="2.9"/>
	<circle class="chapterCircle1" cx="322.5" cy="146.6" r="2.9"/>
	<circle class="chapterCircle1" cx="322.5" cy="154.9" r="2.9"/>
	<circle class="chapterCircle1" cx="322.5" cy="163.3" r="2.9"/>
	<circle class="chapterCircle1" cx="322.5" cy="171.7" r="2.9"/>
	<circle class="chapterCircle1" cx="322.5" cy="180.1" r="2.9"/>
	<circle class="chapterCircle1" cx="322.5" cy="188.4" r="2.9"/>
	<circle class="chapterCircle1" cx="322.5" cy="196.8" r="2.9"/>
	<circle class="chapterCircle1" cx="322.5" cy="205.2" r="2.9"/>
	<circle class="chapterCircle1" cx="322.5" cy="213.6" r="2.9"/>
	<circle class="chapterCircle1" cx="322.5" cy="222" r="2.9"/>
	<circle class="chapterCircle1" cx="322.5" cy="230.3" r="2.9"/>
	<circle class="chapterCircle1" cx="322.5" cy="238.7" r="2.9"/>
	<circle class="chapterCircle1" cx="322.5" cy="247.1" r="2.9"/>
	<circle class="chapterCircle1" cx="322.5" cy="255.5" r="2.9"/>
	<circle class="chapterCircle1" cx="322.5" cy="263.8" r="2.9"/>
	<circle class="chapterCircle1" cx="322.5" cy="272.2" r="2.9"/>
	<circle class="chapterCircle1" cx="314.1" cy="79.6" r="2.9"/>
	<circle class="chapterCircle1" cx="314.1" cy="87.9" r="2.9"/>
	<circle class="chapterCircle1" cx="314.1" cy="96.3" r="2.9"/>
	<circle class="chapterCircle1" cx="314.1" cy="104.7" r="2.9"/>
	<circle class="chapterCircle1" cx="314.1" cy="113.1" r="2.9"/>
	<circle class="chapterCircle1" cx="314.1" cy="121.4" r="2.9"/>
	<circle class="chapterCircle1" cx="314.1" cy="129.8" r="2.9"/>
	<circle class="chapterCircle1" cx="314.1" cy="138.2" r="2.9"/>
	<circle class="chapterCircle1" cx="314.1" cy="146.6" r="2.9"/>
	<circle class="chapterCircle1" cx="314.1" cy="154.9" r="2.9"/>
	<circle class="chapterCircle1" cx="314.1" cy="163.3" r="2.9"/>
	<circle class="chapterCircle1" cx="314.1" cy="171.7" r="2.9"/>
	<circle class="chapterCircle1" cx="314.1" cy="180.1" r="2.9"/>
	<circle class="chapterCircle1" cx="314.1" cy="188.4" r="2.9"/>
	<circle class="chapterCircle1" cx="314.1" cy="196.8" r="2.9"/>
	<circle class="chapterCircle1" cx="314.1" cy="205.2" r="2.9"/>
	<circle class="chapterCircle1" cx="314.1" cy="213.6" r="2.9"/>
	<circle class="chapterCircle1" cx="314.1" cy="222" r="2.9"/>
	<circle class="chapterCircle1" cx="314.1" cy="230.3" r="2.9"/>
	<circle class="chapterCircle1" cx="314.1" cy="238.7" r="2.9"/>
	<circle class="chapterCircle1" cx="314.1" cy="247.1" r="2.9"/>
	<circle class="chapterCircle1" cx="314.1" cy="255.5" r="2.9"/>
	<circle class="chapterCircle1" cx="314.1" cy="263.8" r="2.9"/>
	<circle class="chapterCircle1" cx="314.1" cy="272.2" r="2.9"/>
	<circle class="chapterCircle1" cx="305.7" cy="79.6" r="2.9"/>
	<circle class="chapterCircle1" cx="305.7" cy="87.9" r="2.9"/>
	<circle class="chapterCircle1" cx="305.7" cy="96.3" r="2.9"/>
	<circle class="chapterCircle1" cx="305.7" cy="104.7" r="2.9"/>
	<circle class="chapterCircle1" cx="305.7" cy="113.1" r="2.9"/>
	<circle class="chapterCircle1" cx="305.7" cy="121.4" r="2.9"/>
	<circle class="chapterCircle1" cx="305.7" cy="129.8" r="2.9"/>
	<circle class="chapterCircle1" cx="305.7" cy="138.2" r="2.9"/>
	<circle class="chapterCircle1" cx="305.7" cy="146.6" r="2.9"/>
	<circle class="chapterCircle1" cx="305.7" cy="154.9" r="2.9"/>
	<circle class="chapterCircle1" cx="305.7" cy="163.3" r="2.9"/>
	<circle class="chapterCircle1" cx="305.7" cy="171.7" r="2.9"/>
	<circle class="chapterCircle1" cx="305.7" cy="180.1" r="2.9"/>
	<circle class="chapterCircle1" cx="305.7" cy="188.4" r="2.9"/>
	<circle class="chapterCircle1" cx="305.7" cy="196.8" r="2.9"/>
	<circle class="chapterCircle1" cx="305.7" cy="205.2" r="2.9"/>
	<circle class="chapterCircle1" cx="305.7" cy="213.6" r="2.9"/>
	<circle class="chapterCircle1" cx="305.7" cy="222" r="2.9"/>
	<circle class="chapterCircle1" cx="305.7" cy="230.3" r="2.9"/>
	<circle class="chapterCircle1" cx="305.7" cy="238.7" r="2.9"/>
	<circle class="chapterCircle1" cx="305.7" cy="247.1" r="2.9"/>
	<circle class="chapterCircle1" cx="305.7" cy="255.5" r="2.9"/>
	<circle class="chapterCircle1" cx="305.7" cy="263.8" r="2.9"/>
	<circle class="chapterCircle1" cx="297.3" cy="62.8" r="2.9"/>
	<circle class="chapterCircle1" cx="297.3" cy="79.6" r="2.9"/>
	<circle class="chapterCircle1" cx="297.3" cy="87.9" r="2.9"/>
	<circle class="chapterCircle1" cx="297.3" cy="96.3" r="2.9"/>
	<circle class="chapterCircle1" cx="297.3" cy="104.7" r="2.9"/>
	<circle class="chapterCircle1" cx="297.3" cy="113.1" r="2.9"/>
	<circle class="chapterCircle1" cx="297.3" cy="121.4" r="2.9"/>
	<circle class="chapterCircle1" cx="297.3" cy="129.8" r="2.9"/>
	<circle class="chapterCircle1" cx="297.3" cy="138.2" r="2.9"/>
	<circle class="chapterCircle1" cx="297.3" cy="146.6" r="2.9"/>
	<circle class="chapterCircle1" cx="297.3" cy="154.9" r="2.9"/>
	<circle class="chapterCircle1" cx="297.3" cy="163.3" r="2.9"/>
	<circle class="chapterCircle1" cx="297.3" cy="171.7" r="2.9"/>
	<circle class="chapterCircle1" cx="297.3" cy="180.1" r="2.9"/>
	<circle class="chapterCircle1" cx="297.3" cy="188.4" r="2.9"/>
	<circle class="chapterCircle1" cx="297.3" cy="196.8" r="2.9"/>
	<circle class="chapterCircle1" cx="297.3" cy="205.2" r="2.9"/>
	<circle class="chapterCircle1" cx="297.3" cy="213.6" r="2.9"/>
	<circle class="chapterCircle1" cx="297.3" cy="222" r="2.9"/>
	<circle class="chapterCircle1" cx="297.3" cy="230.3" r="2.9"/>
	<circle class="chapterCircle1" cx="297.3" cy="238.7" r="2.9"/>
	<circle class="chapterCircle1" cx="297.3" cy="247.1" r="2.9"/>
	<circle class="chapterCircle1" cx="297.3" cy="255.5" r="2.9"/>
	<circle class="chapterCircle1" cx="289" cy="46.1" r="2.9"/>
	<circle class="chapterCircle1" cx="289" cy="54.4" r="2.9"/>
	<circle class="chapterCircle1" cx="289" cy="87.9" r="2.9"/>
	<circle class="chapterCircle1" cx="289" cy="96.3" r="2.9"/>
	<circle class="chapterCircle1" cx="289" cy="104.7" r="2.9"/>
	<circle class="chapterCircle1" cx="289" cy="113.1" r="2.9"/>
	<circle class="chapterCircle1" cx="289" cy="121.4" r="2.9"/>
	<circle class="chapterCircle1" cx="289" cy="129.8" r="2.9"/>
	<circle class="chapterCircle1" cx="289" cy="138.2" r="2.9"/>
	<circle class="chapterCircle1" cx="289" cy="146.6" r="2.9"/>
	<circle class="chapterCircle1" cx="289" cy="154.9" r="2.9"/>
	<circle class="chapterCircle1" cx="289" cy="163.3" r="2.9"/>
	<circle class="chapterCircle1" cx="289" cy="171.7" r="2.9"/>
	<circle class="chapterCircle1" cx="289" cy="180.1" r="2.9"/>
	<circle class="chapterCircle1" cx="289" cy="188.4" r="2.9"/>
	<circle class="chapterCircle1" cx="289" cy="196.8" r="2.9"/>
	<circle class="chapterCircle1" cx="289" cy="205.2" r="2.9"/>
	<circle class="chapterCircle1" cx="289" cy="213.6" r="2.9"/>
	<circle class="chapterCircle1" cx="289" cy="222" r="2.9"/>
	<circle class="chapterCircle1" cx="289" cy="230.3" r="2.9"/>
	<circle class="chapterCircle1" cx="289" cy="238.7" r="2.9"/>
	<circle class="chapterCircle1" cx="289" cy="247.1" r="2.9"/>
	<circle class="chapterCircle1" cx="289" cy="255.5" r="2.9"/>
	<circle class="chapterCircle1" cx="280.6" cy="87.9" r="2.9"/>
	<circle class="chapterCircle1" cx="280.6" cy="96.3" r="2.9"/>
	<circle class="chapterCircle1" cx="280.6" cy="104.7" r="2.9"/>
	<circle class="chapterCircle1" cx="280.6" cy="113.1" r="2.9"/>
	<circle class="chapterCircle1" cx="280.6" cy="121.4" r="2.9"/>
	<circle class="chapterCircle1" cx="280.6" cy="129.8" r="2.9"/>
	<circle class="chapterCircle1" cx="280.6" cy="138.2" r="2.9"/>
	<circle class="chapterCircle1" cx="280.6" cy="146.6" r="2.9"/>
	<circle class="chapterCircle1" cx="280.6" cy="154.9" r="2.9"/>
	<circle class="chapterCircle1" cx="280.6" cy="163.3" r="2.9"/>
	<circle class="chapterCircle1" cx="280.6" cy="171.7" r="2.9"/>
	<circle class="chapterCircle1" cx="280.6" cy="180.1" r="2.9"/>
	<circle class="chapterCircle1" cx="280.6" cy="188.4" r="2.9"/>
	<circle class="chapterCircle1" cx="280.6" cy="196.8" r="2.9"/>
	<circle class="chapterCircle1" cx="280.6" cy="205.2" r="2.9"/>
	<circle class="chapterCircle1" cx="280.6" cy="213.6" r="2.9"/>
	<circle class="chapterCircle1" cx="280.6" cy="222" r="2.9"/>
	<circle class="chapterCircle1" cx="280.6" cy="230.3" r="2.9"/>
	<circle class="chapterCircle1" cx="280.6" cy="238.7" r="2.9"/>
	<circle class="chapterCircle1" cx="280.6" cy="247.1" r="2.9"/>
	<circle class="chapterCircle1" cx="280.6" cy="255.5" r="2.9"/>
	<circle class="chapterCircle1" cx="280.6" cy="263.8" r="2.9"/>
	<circle class="chapterCircle1" cx="280.6" cy="272.2" r="2.9"/>
	<circle class="chapterCircle1" cx="272.2" cy="87.9" r="2.9"/>
	<circle class="chapterCircle1" cx="272.2" cy="96.3" r="2.9"/>
	<circle class="chapterCircle1" cx="272.2" cy="104.7" r="2.9"/>
	<circle class="chapterCircle1" cx="272.2" cy="113.1" r="2.9"/>
	<circle class="chapterCircle1" cx="272.2" cy="121.4" r="2.9"/>
	<circle class="chapterCircle1" cx="272.2" cy="129.8" r="2.9"/>
	<circle class="chapterCircle1" cx="272.2" cy="138.2" r="2.9"/>
	<circle class="chapterCircle1" cx="272.2" cy="146.6" r="2.9"/>
	<circle class="chapterCircle1" cx="272.2" cy="154.9" r="2.9"/>
	<circle class="chapterCircle1" cx="272.2" cy="163.3" r="2.9"/>
	<circle class="chapterCircle1" cx="272.2" cy="171.7" r="2.9"/>
	<circle class="chapterCircle1" cx="272.2" cy="180.1" r="2.9"/>
	<circle class="chapterCircle1" cx="272.2" cy="188.4" r="2.9"/>
	<circle class="chapterCircle1" cx="272.2" cy="196.8" r="2.9"/>
	<circle class="chapterCircle1" cx="272.2" cy="205.2" r="2.9"/>
	<circle class="chapterCircle1" cx="272.2" cy="213.6" r="2.9"/>
	<circle class="chapterCircle1" cx="272.2" cy="222" r="2.9"/>
	<circle class="chapterCircle1" cx="272.2" cy="230.3" r="2.9"/>
	<circle class="chapterCircle1" cx="272.2" cy="238.7" r="2.9"/>
	<circle class="chapterCircle1" cx="272.2" cy="247.1" r="2.9"/>
	<circle class="chapterCircle1" cx="272.2" cy="255.5" r="2.9"/>
	<circle class="chapterCircle1" cx="272.2" cy="263.8" r="2.9"/>
	<circle class="chapterCircle1" cx="272.2" cy="272.2" r="2.9"/>
	<circle class="chapterCircle1" cx="263.8" cy="96.3" r="2.9"/>
	<circle class="chapterCircle1" cx="263.8" cy="104.7" r="2.9"/>
	<circle class="chapterCircle1" cx="263.8" cy="113.1" r="2.9"/>
	<circle class="chapterCircle1" cx="263.8" cy="121.4" r="2.9"/>
	<circle class="chapterCircle1" cx="263.8" cy="129.8" r="2.9"/>
	<circle class="chapterCircle1" cx="263.8" cy="138.2" r="2.9"/>
	<circle class="chapterCircle1" cx="263.8" cy="146.6" r="2.9"/>
	<circle class="chapterCircle1" cx="263.8" cy="154.9" r="2.9"/>
	<circle class="chapterCircle1" cx="263.8" cy="163.3" r="2.9"/>
	<circle class="chapterCircle1" cx="263.8" cy="171.7" r="2.9"/>
	<circle class="chapterCircle1" cx="263.8" cy="180.1" r="2.9"/>
	<circle class="chapterCircle1" cx="263.8" cy="188.4" r="2.9"/>
	<circle class="chapterCircle1" cx="263.8" cy="196.8" r="2.9"/>
	<circle class="chapterCircle1" cx="263.8" cy="205.2" r="2.9"/>
	<circle class="chapterCircle1" cx="263.8" cy="213.6" r="2.9"/>
	<circle class="chapterCircle1" cx="263.8" cy="222" r="2.9"/>
	<circle class="chapterCircle1" cx="263.8" cy="230.3" r="2.9"/>
	<circle class="chapterCircle1" cx="263.8" cy="238.7" r="2.9"/>
	<circle class="chapterCircle1" cx="263.8" cy="247.1" r="2.9"/>
	<circle class="chapterCircle1" cx="263.8" cy="255.5" r="2.9"/>
	<circle class="chapterCircle1" cx="263.8" cy="263.8" r="2.9"/>
	<circle class="chapterCircle1" cx="263.8" cy="272.2" r="2.9"/>
	<circle class="chapterCircle1" cx="255.5" cy="96.3" r="2.9"/>
	<circle class="chapterCircle1" cx="255.5" cy="104.7" r="2.9"/>
	<circle class="chapterCircle1" cx="255.5" cy="113.1" r="2.9"/>
	<circle class="chapterCircle1" cx="255.5" cy="121.4" r="2.9"/>
	<ellipse class="chapterCircle1" cx="255.5" cy="129.8" rx="2.9" ry="2.9"/>
	<ellipse class="chapterCircle1" cx="255.5" cy="138.2" rx="2.9" ry="2.9"/>
	<ellipse class="chapterCircle1" cx="255.5" cy="146.5" rx="2.9" ry="2.9"/>
	<ellipse class="chapterCircle1" cx="255.4" cy="154.9" rx="2.9" ry="2.9"/>
	<ellipse class="chapterCircle1" cx="255.4" cy="163.3" rx="2.9" ry="2.9"/>
	<ellipse class="chapterCircle1" cx="255.5" cy="171.7" rx="2.9" ry="2.9"/>
	<ellipse class="chapterCircle1" cx="255.5" cy="180" rx="2.9" ry="2.9"/>
	<ellipse class="chapterCircle1" cx="255.4" cy="188.4" rx="2.9" ry="2.9"/>
	<ellipse class="chapterCircle1" cx="255.4" cy="196.8" rx="2.9" ry="2.9"/>
	<ellipse class="chapterCircle1" cx="255.5" cy="205.2" rx="2.9" ry="2.9"/>
	<ellipse class="chapterCircle1" cx="255.5" cy="213.5" rx="2.9" ry="2.9"/>
	<ellipse class="chapterCircle1" cx="255.5" cy="221.9" rx="2.9" ry="2.9"/>
	<ellipse class="chapterCircle1" cx="255.4" cy="230.3" rx="2.9" ry="2.9"/>
	<ellipse class="chapterCircle1" cx="255.5" cy="238.7" rx="2.9" ry="2.9"/>
	<ellipse class="chapterCircle1" cx="255.5" cy="247" rx="2.9" ry="2.9"/>
	<circle class="chapterCircle1" cx="255.5" cy="255.5" r="2.9"/>
	<ellipse class="chapterCircle1" cx="255.4" cy="263.8" rx="2.9" ry="2.9"/>
	<ellipse class="chapterCircle1" cx="255.5" cy="272.2" rx="2.9" ry="2.9"/>
	<circle class="chapterCircle1" cx="247.1" cy="104.7" r="2.9"/>
	<circle class="chapterCircle1" cx="247.1" cy="113.1" r="2.9"/>
	<circle class="chapterCircle1" cx="247.1" cy="121.4" r="2.9"/>
	<circle class="chapterCircle1" cx="247.1" cy="129.8" r="2.9"/>
	<circle class="chapterCircle1" cx="247.1" cy="138.2" r="2.9"/>
	<circle class="chapterCircle1" cx="247.1" cy="146.6" r="2.9"/>
	<circle class="chapterCircle1" cx="247.1" cy="154.9" r="2.9"/>
	<circle class="chapterCircle1" cx="247.1" cy="163.3" r="2.9"/>
	<circle class="chapterCircle1" cx="247.1" cy="171.7" r="2.9"/>
	<circle class="chapterCircle1" cx="247.1" cy="180.1" r="2.9"/>
	<circle class="chapterCircle1" cx="247.1" cy="188.4" r="2.9"/>
	<circle class="chapterCircle1" cx="247.1" cy="196.8" r="2.9"/>
	<circle class="chapterCircle1" cx="247.1" cy="205.2" r="2.9"/>
	<circle class="chapterCircle1" cx="247.1" cy="213.6" r="2.9"/>
	<circle class="chapterCircle1" cx="247.1" cy="222" r="2.9"/>
	<circle class="chapterCircle1" cx="247.1" cy="230.3" r="2.9"/>
	<circle class="chapterCircle1" cx="247.1" cy="238.7" r="2.9"/>
	<circle class="chapterCircle1" cx="247.1" cy="247.1" r="2.9"/>
	<circle class="chapterCircle1" cx="247.1" cy="255.5" r="2.9"/>
	<circle class="chapterCircle1" cx="247.1" cy="263.8" r="2.9"/>
	<circle class="chapterCircle1" cx="247.1" cy="272.2" r="2.9"/>
	<circle class="chapterCircle1" cx="238.7" cy="62.8" r="2.9"/>
	<circle class="chapterCircle1" cx="238.7" cy="104.7" r="2.9"/>
	<circle class="chapterCircle1" cx="238.7" cy="113.1" r="2.9"/>
	<circle class="chapterCircle1" cx="238.7" cy="121.4" r="2.9"/>
	<circle class="chapterCircle1" cx="238.7" cy="129.8" r="2.9"/>
	<circle class="chapterCircle1" cx="238.7" cy="138.2" r="2.9"/>
	<circle class="chapterCircle1" cx="238.7" cy="146.6" r="2.9"/>
	<circle class="chapterCircle1" cx="238.7" cy="154.9" r="2.9"/>
	<circle class="chapterCircle1" cx="238.7" cy="163.3" r="2.9"/>
	<circle class="chapterCircle1" cx="238.7" cy="171.7" r="2.9"/>
	<circle class="chapterCircle1" cx="238.7" cy="180.1" r="2.9"/>
	<circle class="chapterCircle1" cx="238.7" cy="188.4" r="2.9"/>
	<circle class="chapterCircle1" cx="238.7" cy="196.8" r="2.9"/>
	<circle class="chapterCircle1" cx="238.7" cy="205.2" r="2.9"/>
	<circle class="chapterCircle1" cx="238.7" cy="213.6" r="2.9"/>
	<circle class="chapterCircle1" cx="238.7" cy="222" r="2.9"/>
	<circle class="chapterCircle1" cx="238.7" cy="230.3" r="2.9"/>
	<circle class="chapterCircle1" cx="238.7" cy="238.7" r="2.9"/>
	<circle class="chapterCircle1" cx="238.7" cy="247.1" r="2.9"/>
	<circle class="chapterCircle1" cx="238.7" cy="255.5" r="2.9"/>
	<circle class="chapterCircle1" cx="238.7" cy="263.8" r="2.9"/>
	<circle class="chapterCircle1" cx="238.7" cy="272.2" r="2.9"/>
	<circle class="chapterCircle1" cx="230.3" cy="62.8" r="2.9"/>
	<circle class="chapterCircle1" cx="230.3" cy="96.3" r="2.9"/>
	<circle class="chapterCircle1" cx="230.3" cy="129.8" r="2.9"/>
	<circle class="chapterCircle1" cx="230.3" cy="138.2" r="2.9"/>
	<circle class="chapterCircle1" cx="230.3" cy="146.6" r="2.9"/>
	<circle class="chapterCircle1" cx="230.3" cy="154.9" r="2.9"/>
	<circle class="chapterCircle1" cx="230.3" cy="163.3" r="2.9"/>
	<circle class="chapterCircle1" cx="230.3" cy="171.7" r="2.9"/>
	<circle class="chapterCircle1" cx="230.3" cy="180.1" r="2.9"/>
	<circle class="chapterCircle1" cx="230.3" cy="188.4" r="2.9"/>
	<circle class="chapterCircle1" cx="230.3" cy="196.8" r="2.9"/>
	<circle class="chapterCircle1" cx="230.3" cy="205.2" r="2.9"/>
	<circle class="chapterCircle1" cx="230.3" cy="213.6" r="2.9"/>
	<circle class="chapterCircle1" cx="230.3" cy="222" r="2.9"/>
	<circle class="chapterCircle1" cx="230.3" cy="230.3" r="2.9"/>
	<circle class="chapterCircle1" cx="230.3" cy="238.7" r="2.9"/>
	<circle class="chapterCircle1" cx="230.3" cy="247.1" r="2.9"/>
	<circle class="chapterCircle1" cx="230.3" cy="255.5" r="2.9"/>
	<circle class="chapterCircle1" cx="230.3" cy="263.8" r="2.9"/>
	<circle class="chapterCircle1" cx="230.3" cy="272.2" r="2.9"/>
	<circle class="chapterCircle1" cx="222" cy="62.8" r="2.9"/>
	<circle class="chapterCircle1" cx="222" cy="96.3" r="2.9"/>
	<circle class="chapterCircle1" cx="222" cy="104.7" r="2.9"/>
	<circle class="chapterCircle1" cx="222" cy="113.1" r="2.9"/>
	<circle class="chapterCircle1" cx="222" cy="121.4" r="2.9"/>
	<circle class="chapterCircle1" cx="222" cy="138.2" r="2.9"/>
	<circle class="chapterCircle1" cx="222" cy="146.6" r="2.9"/>
	<circle class="chapterCircle1" cx="222" cy="154.9" r="2.9"/>
	<circle class="chapterCircle1" cx="222" cy="163.3" r="2.9"/>
	<circle class="chapterCircle1" cx="222" cy="171.7" r="2.9"/>
	<circle class="chapterCircle1" cx="222" cy="180.1" r="2.9"/>
	<circle class="chapterCircle1" cx="222" cy="188.4" r="2.9"/>
	<circle class="chapterCircle1" cx="222" cy="196.8" r="2.9"/>
	<circle class="chapterCircle1" cx="222" cy="205.2" r="2.9"/>
	<circle class="chapterCircle1" cx="222" cy="213.6" r="2.9"/>
	<circle class="chapterCircle1" cx="222" cy="222" r="2.9"/>
	<circle class="chapterCircle1" cx="222" cy="230.3" r="2.9"/>
	<circle class="chapterCircle1" cx="222" cy="238.7" r="2.9"/>
	<circle class="chapterCircle1" cx="222" cy="247.1" r="2.9"/>
	<circle class="chapterCircle1" cx="222" cy="255.5" r="2.9"/>
	<circle class="chapterCircle1" cx="222" cy="263.8" r="2.9"/>
	<circle class="chapterCircle1" cx="213.6" cy="62.8" r="2.9"/>
	<circle class="chapterCircle1" cx="213.6" cy="121.4" r="2.9"/>
	<circle class="chapterCircle1" cx="213.6" cy="129.8" r="2.9"/>
	<circle class="chapterCircle1" cx="213.6" cy="138.2" r="2.9"/>
	<circle class="chapterCircle1" cx="213.6" cy="146.6" r="2.9"/>
	<circle class="chapterCircle1" cx="213.6" cy="154.9" r="2.9"/>
	<circle class="chapterCircle1" cx="213.6" cy="163.3" r="2.9"/>
	<circle class="chapterCircle1" cx="213.6" cy="171.7" r="2.9"/>
	<circle class="chapterCircle1" cx="213.6" cy="180.1" r="2.9"/>
	<circle class="chapterCircle1" cx="213.6" cy="188.4" r="2.9"/>
	<circle class="chapterCircle1" cx="213.6" cy="196.8" r="2.9"/>
	<circle class="chapterCircle1" cx="213.6" cy="205.2" r="2.9"/>
	<circle class="chapterCircle1" cx="213.6" cy="213.6" r="2.9"/>
	<circle class="chapterCircle1" cx="213.6" cy="222" r="2.9"/>
	<circle class="chapterCircle1" cx="213.6" cy="230.3" r="2.9"/>
	<circle class="chapterCircle1" cx="213.6" cy="238.7" r="2.9"/>
	<circle class="chapterCircle1" cx="213.6" cy="247.1" r="2.9"/>
	<circle class="chapterCircle1" cx="213.6" cy="255.5" r="2.9"/>
	<circle class="chapterCircle1" cx="205.2" cy="113.1" r="2.9"/>
	<circle class="chapterCircle1" cx="205.2" cy="121.4" r="2.9"/>
	<circle class="chapterCircle1" cx="205.2" cy="129.8" r="2.9"/>
	<circle class="chapterCircle1" cx="205.2" cy="138.2" r="2.9"/>
	<circle class="chapterCircle1" cx="205.2" cy="146.6" r="2.9"/>
	<circle class="chapterCircle1" cx="205.2" cy="154.9" r="2.9"/>
	<circle class="chapterCircle1" cx="205.2" cy="163.3" r="2.9"/>
	<circle class="chapterCircle1" cx="205.2" cy="171.7" r="2.9"/>
	<circle class="chapterCircle1" cx="205.2" cy="180.1" r="2.9"/>
	<circle class="chapterCircle1" cx="205.2" cy="188.4" r="2.9"/>
	<circle class="chapterCircle1" cx="205.2" cy="196.8" r="2.9"/>
	<circle class="chapterCircle1" cx="205.2" cy="205.2" r="2.9"/>
	<circle class="chapterCircle1" cx="205.2" cy="213.6" r="2.9"/>
	<circle class="chapterCircle1" cx="205.2" cy="222" r="2.9"/>
	<circle class="chapterCircle1" cx="205.2" cy="230.3" r="2.9"/>
	<circle class="chapterCircle1" cx="205.2" cy="238.7" r="2.9"/>
	<circle class="chapterCircle1" cx="205.2" cy="247.1" r="2.9"/>
	<circle class="chapterCircle1" cx="205.2" cy="255.5" r="2.9"/>
	<circle class="chapterCircle1" cx="196.8" cy="71.2" r="2.9"/>
	<circle class="chapterCircle1" cx="196.8" cy="79.6" r="2.9"/>
	<circle class="chapterCircle1" cx="196.8" cy="87.9" r="2.9"/>
	<circle class="chapterCircle1" cx="196.8" cy="104.7" r="2.9"/>
	<circle class="chapterCircle1" cx="196.8" cy="113.1" r="2.9"/>
	<circle class="chapterCircle1" cx="196.8" cy="121.4" r="2.9"/>
	<circle class="chapterCircle1" cx="196.8" cy="129.8" r="2.9"/>
	<circle class="chapterCircle1" cx="196.8" cy="138.2" r="2.9"/>
	<circle class="chapterCircle1" cx="196.8" cy="146.6" r="2.9"/>
	<circle class="chapterCircle1" cx="196.8" cy="154.9" r="2.9"/>
	<circle class="chapterCircle1" cx="196.8" cy="163.3" r="2.9"/>
	<circle class="chapterCircle1" cx="196.8" cy="171.7" r="2.9"/>
	<circle class="chapterCircle1" cx="196.8" cy="180.1" r="2.9"/>
	<circle class="chapterCircle1" cx="196.8" cy="188.4" r="2.9"/>
	<circle class="chapterCircle1" cx="196.8" cy="196.8" r="2.9"/>
	<circle class="chapterCircle1" cx="196.8" cy="205.2" r="2.9"/>
	<circle class="chapterCircle1" cx="196.8" cy="213.6" r="2.9"/>
	<circle class="chapterCircle1" cx="196.8" cy="222" r="2.9"/>
	<circle class="chapterCircle1" cx="196.8" cy="230.3" r="2.9"/>
	<circle class="chapterCircle1" cx="188.4" cy="104.7" r="2.9"/>
	<circle class="chapterCircle1" cx="188.4" cy="113.1" r="2.9"/>
	<circle class="chapterCircle1" cx="188.4" cy="121.4" r="2.9"/>
	<circle class="chapterCircle1" cx="188.4" cy="129.8" r="2.9"/>
	<circle class="chapterCircle1" cx="188.4" cy="138.2" r="2.9"/>
	<circle class="chapterCircle1" cx="188.4" cy="146.6" r="2.9"/>
	<circle class="chapterCircle1" cx="188.4" cy="154.9" r="2.9"/>
	<circle class="chapterCircle1" cx="188.4" cy="163.3" r="2.9"/>
	<circle class="chapterCircle1" cx="188.4" cy="171.7" r="2.9"/>
	<circle class="chapterCircle1" cx="188.4" cy="180.1" r="2.9"/>
	<circle class="chapterCircle1" cx="188.4" cy="188.4" r="2.9"/>
	<circle class="chapterCircle1" cx="188.4" cy="196.8" r="2.9"/>
	<circle class="chapterCircle1" cx="188.4" cy="205.2" r="2.9"/>
	<circle class="chapterCircle1" cx="188.4" cy="213.6" r="2.9"/>
	<circle class="chapterCircle1" cx="188.4" cy="222" r="2.9"/>
	<circle class="chapterCircle1" cx="180.1" cy="104.7" r="2.9"/>
	<circle class="chapterCircle1" cx="180.1" cy="113.1" r="2.9"/>
	<circle class="chapterCircle1" cx="180.1" cy="121.4" r="2.9"/>
	<circle class="chapterCircle1" cx="180.1" cy="129.8" r="2.9"/>
	<circle class="chapterCircle1" cx="180.1" cy="138.2" r="2.9"/>
	<circle class="chapterCircle1" cx="180.1" cy="146.6" r="2.9"/>
	<circle class="chapterCircle1" cx="180.1" cy="154.9" r="2.9"/>
	<circle class="chapterCircle1" cx="180.1" cy="163.3" r="2.9"/>
	<circle class="chapterCircle1" cx="180.1" cy="171.7" r="2.9"/>
	<circle class="chapterCircle1" cx="180.1" cy="180.1" r="2.9"/>
	<circle class="chapterCircle1" cx="180.1" cy="188.4" r="2.9"/>
	<circle class="chapterCircle1" cx="180.1" cy="196.8" r="2.9"/>
	<circle class="chapterCircle1" cx="180.1" cy="205.2" r="2.9"/>
	<circle class="chapterCircle1" cx="180.1" cy="213.6" r="2.9"/>
	<circle class="chapterCircle1" cx="180.1" cy="222" r="2.9"/>
	<circle class="chapterCircle1" cx="171.7" cy="79.6" r="2.9"/>
	<circle class="chapterCircle1" cx="171.7" cy="96.3" r="2.9"/>
	<circle class="chapterCircle1" cx="171.7" cy="104.7" r="2.9"/>
	<circle class="chapterCircle1" cx="171.7" cy="113.1" r="2.9"/>
	<circle class="chapterCircle1" cx="171.7" cy="121.4" r="2.9"/>
	<circle class="chapterCircle1" cx="171.7" cy="129.8" r="2.9"/>
	<circle class="chapterCircle1" cx="171.7" cy="138.2" r="2.9"/>
	<circle class="chapterCircle1" cx="171.7" cy="146.6" r="2.9"/>
	<circle class="chapterCircle1" cx="171.7" cy="154.9" r="2.9"/>
	<circle class="chapterCircle1" cx="171.7" cy="163.3" r="2.9"/>
	<circle class="chapterCircle1" cx="171.7" cy="171.7" r="2.9"/>
	<circle class="chapterCircle1" cx="171.7" cy="180.1" r="2.9"/>
	<circle class="chapterCircle1" cx="171.7" cy="188.4" r="2.9"/>
	<circle class="chapterCircle1" cx="171.7" cy="196.8" r="2.9"/>
	<circle class="chapterCircle1" cx="171.7" cy="205.2" r="2.9"/>
	<circle class="chapterCircle1" cx="163.3" cy="96.3" r="2.9"/>
	<circle class="chapterCircle1" cx="163.3" cy="104.7" r="2.9"/>
	<circle class="chapterCircle1" cx="163.3" cy="113.1" r="2.9"/>
	<circle class="chapterCircle1" cx="163.3" cy="121.4" r="2.9"/>
	<circle class="chapterCircle1" cx="163.3" cy="129.8" r="2.9"/>
	<circle class="chapterCircle1" cx="163.3" cy="138.2" r="2.9"/>
	<circle class="chapterCircle1" cx="163.3" cy="146.6" r="2.9"/>
	<circle class="chapterCircle1" cx="163.3" cy="154.9" r="2.9"/>
	<circle class="chapterCircle1" cx="163.3" cy="163.3" r="2.9"/>
	<circle class="chapterCircle1" cx="163.3" cy="171.7" r="2.9"/>
	<circle class="chapterCircle1" cx="163.3" cy="180.1" r="2.9"/>
	<circle class="chapterCircle1" cx="163.3" cy="188.4" r="2.9"/>
	<circle class="chapterCircle1" cx="163.3" cy="196.8" r="2.9"/>
	<circle class="chapterCircle1" cx="163.3" cy="205.2" r="2.9"/>
	<circle class="chapterCircle1" cx="154.9" cy="96.3" r="2.9"/>
	<circle class="chapterCircle1" cx="154.9" cy="104.7" r="2.9"/>
	<circle class="chapterCircle1" cx="154.9" cy="113.1" r="2.9"/>
	<circle class="chapterCircle1" cx="154.9" cy="121.4" r="2.9"/>
	<circle class="chapterCircle1" cx="154.9" cy="129.8" r="2.9"/>
	<circle class="chapterCircle1" cx="154.9" cy="138.2" r="2.9"/>
	<circle class="chapterCircle1" cx="154.9" cy="146.6" r="2.9"/>
	<circle class="chapterCircle1" cx="154.9" cy="154.9" r="2.9"/>
	<circle class="chapterCircle1" cx="154.9" cy="163.3" r="2.9"/>
	<circle class="chapterCircle1" cx="154.9" cy="171.7" r="2.9"/>
	<circle class="chapterCircle1" cx="154.9" cy="180.1" r="2.9"/>
	<circle class="chapterCircle1" cx="154.9" cy="188.4" r="2.9"/>
	<circle class="chapterCircle1" cx="154.9" cy="196.8" r="2.9"/>
	<circle class="chapterCircle1" cx="154.9" cy="205.2" r="2.9"/>
	<circle class="chapterCircle1" cx="146.6" cy="54.4" r="2.9"/>
	<circle class="chapterCircle1" cx="146.6" cy="62.8" r="2.9"/>
	<circle class="chapterCircle1" cx="146.6" cy="71.2" r="2.9"/>
	<circle class="chapterCircle1" cx="146.6" cy="87.9" r="2.9"/>
	<circle class="chapterCircle1" cx="146.6" cy="96.3" r="2.9"/>
	<circle class="chapterCircle1" cx="146.6" cy="104.7" r="2.9"/>
	<circle class="chapterCircle1" cx="146.6" cy="113.1" r="2.9"/>
	<circle class="chapterCircle1" cx="146.6" cy="121.4" r="2.9"/>
	<circle class="chapterCircle1" cx="146.6" cy="129.8" r="2.9"/>
	<circle class="chapterCircle1" cx="146.6" cy="138.2" r="2.9"/>
	<circle class="chapterCircle1" cx="146.6" cy="146.6" r="2.9"/>
	<circle class="chapterCircle1" cx="146.6" cy="154.9" r="2.9"/>
	<circle class="chapterCircle1" cx="146.6" cy="163.3" r="2.9"/>
	<circle class="chapterCircle1" cx="146.6" cy="171.7" r="2.9"/>
	<circle class="chapterCircle1" cx="146.6" cy="180.1" r="2.9"/>
	<circle class="chapterCircle1" cx="146.6" cy="188.4" r="2.9"/>
	<circle class="chapterCircle1" cx="146.6" cy="196.8" r="2.9"/>
	<circle class="chapterCircle1" cx="138.2" cy="46.1" r="2.9"/>
	<circle class="chapterCircle1" cx="138.2" cy="54.4" r="2.9"/>
	<circle class="chapterCircle1" cx="138.2" cy="62.8" r="2.9"/>
	<circle class="chapterCircle1" cx="138.2" cy="71.2" r="2.9"/>
	<circle class="chapterCircle1" cx="138.2" cy="87.9" r="2.9"/>
	<circle class="chapterCircle1" cx="138.2" cy="96.3" r="2.9"/>
	<circle class="chapterCircle1" cx="138.2" cy="104.7" r="2.9"/>
	<circle class="chapterCircle1" cx="138.2" cy="113.1" r="2.9"/>
	<circle class="chapterCircle1" cx="138.2" cy="121.4" r="2.9"/>
	<circle class="chapterCircle1" cx="138.2" cy="129.8" r="2.9"/>
	<circle class="chapterCircle1" cx="138.2" cy="138.2" r="2.9"/>
	<circle class="chapterCircle1" cx="138.2" cy="146.6" r="2.9"/>
	<circle class="chapterCircle1" cx="138.2" cy="154.9" r="2.9"/>
	<circle class="chapterCircle1" cx="138.2" cy="163.3" r="2.9"/>
	<circle class="chapterCircle1" cx="138.2" cy="171.7" r="2.9"/>
	<circle class="chapterCircle1" cx="138.2" cy="180.1" r="2.9"/>
	<circle class="chapterCircle1" cx="138.2" cy="188.4" r="2.9"/>
	<circle class="chapterCircle1" cx="138.2" cy="196.8" r="2.9"/>
	<circle class="chapterCircle1" cx="129.8" cy="46.1" r="2.9"/>
	<circle class="chapterCircle1" cx="129.8" cy="54.4" r="2.9"/>
	<circle class="chapterCircle1" cx="129.8" cy="87.9" r="2.9"/>
	<circle class="chapterCircle1" cx="129.8" cy="96.3" r="2.9"/>
	<circle class="chapterCircle1" cx="129.8" cy="104.7" r="2.9"/>
	<circle class="chapterCircle1" cx="129.8" cy="113.1" r="2.9"/>
	<circle class="chapterCircle1" cx="129.8" cy="121.4" r="2.9"/>
	<circle class="chapterCircle1" cx="129.8" cy="129.8" r="2.9"/>
	<circle class="chapterCircle1" cx="129.8" cy="138.2" r="2.9"/>
	<circle class="chapterCircle1" cx="129.8" cy="146.6" r="2.9"/>
	<circle class="chapterCircle1" cx="129.8" cy="154.9" r="2.9"/>
	<circle class="chapterCircle1" cx="129.8" cy="163.3" r="2.9"/>
	<circle class="chapterCircle1" cx="129.8" cy="171.7" r="2.9"/>
	<circle class="chapterCircle1" cx="129.8" cy="180.1" r="2.9"/>
	<circle class="chapterCircle1" cx="129.8" cy="188.4" r="2.9"/>
	<circle class="chapterCircle1" cx="129.8" cy="196.8" r="2.9"/>
	<circle class="chapterCircle1" cx="129.8" cy="205.2" r="2.9"/>
	<circle class="chapterCircle1" cx="121.4" cy="54.4" r="2.9"/>
	<circle class="chapterCircle1" cx="121.4" cy="62.8" r="2.9"/>
	<circle class="chapterCircle1" cx="121.4" cy="87.9" r="2.9"/>
	<circle class="chapterCircle1" cx="121.4" cy="96.3" r="2.9"/>
	<circle class="chapterCircle1" cx="121.4" cy="104.7" r="2.9"/>
	<circle class="chapterCircle1" cx="121.4" cy="113.1" r="2.9"/>
	<circle class="chapterCircle1" cx="121.4" cy="121.4" r="2.9"/>
	<circle class="chapterCircle1" cx="121.4" cy="129.8" r="2.9"/>
	<circle class="chapterCircle1" cx="121.4" cy="138.2" r="2.9"/>
	<circle class="chapterCircle1" cx="121.4" cy="146.6" r="2.9"/>
	<circle class="chapterCircle1" cx="121.4" cy="154.9" r="2.9"/>
	<circle class="chapterCircle1" cx="121.4" cy="163.3" r="2.9"/>
	<circle class="chapterCircle1" cx="121.4" cy="171.7" r="2.9"/>
	<circle class="chapterCircle1" cx="121.4" cy="180.1" r="2.9"/>
	<circle class="chapterCircle1" cx="121.4" cy="188.4" r="2.9"/>
	<circle class="chapterCircle1" cx="121.4" cy="196.8" r="2.9"/>
	<circle class="chapterCircle1" cx="121.4" cy="205.2" r="2.9"/>
	<circle class="chapterCircle1" cx="121.4" cy="213.6" r="2.9"/>
	<circle class="chapterCircle1" cx="113.1" cy="62.8" r="2.9"/>
	<circle class="chapterCircle1" cx="113.1" cy="71.2" r="2.9"/>
	<circle class="chapterCircle1" cx="113.1" cy="79.6" r="2.9"/>
	<circle class="chapterCircle1" cx="113.1" cy="87.9" r="2.9"/>
	<circle class="chapterCircle1" cx="113.1" cy="96.3" r="2.9"/>
	<circle class="chapterCircle1" cx="113.1" cy="104.7" r="2.9"/>
	<circle class="chapterCircle1" cx="113.1" cy="113.1" r="2.9"/>
	<circle class="chapterCircle1" cx="113.1" cy="121.4" r="2.9"/>
	<circle class="chapterCircle1" cx="113.1" cy="129.8" r="2.9"/>
	<circle class="chapterCircle1" cx="113.1" cy="138.2" r="2.9"/>
	<circle class="chapterCircle1" cx="113.1" cy="146.6" r="2.9"/>
	<circle class="chapterCircle1" cx="113.1" cy="154.9" r="2.9"/>
	<circle class="chapterCircle1" cx="113.1" cy="163.3" r="2.9"/>
	<circle class="chapterCircle1" cx="113.1" cy="171.7" r="2.9"/>
	<circle class="chapterCircle1" cx="113.1" cy="180.1" r="2.9"/>
	<circle class="chapterCircle1" cx="113.1" cy="188.4" r="2.9"/>
	<circle class="chapterCircle1" cx="113.1" cy="196.8" r="2.9"/>
	<circle class="chapterCircle1" cx="113.1" cy="205.2" r="2.9"/>
	<circle class="chapterCircle1" cx="113.1" cy="213.6" r="2.9"/>
	<circle class="chapterCircle1" cx="104.7" cy="71.2" r="2.9"/>
	<circle class="chapterCircle1" cx="104.7" cy="79.6" r="2.9"/>
	<circle class="chapterCircle1" cx="104.7" cy="87.9" r="2.9"/>
	<circle class="chapterCircle1" cx="104.7" cy="96.3" r="2.9"/>
	<circle class="chapterCircle1" cx="104.7" cy="104.7" r="2.9"/>
	<circle class="chapterCircle1" cx="104.7" cy="113.1" r="2.9"/>
	<circle class="chapterCircle1" cx="104.7" cy="121.4" r="2.9"/>
	<circle class="chapterCircle1" cx="104.7" cy="129.8" r="2.9"/>
	<circle class="chapterCircle1" cx="104.7" cy="138.2" r="2.9"/>
	<circle class="chapterCircle1" cx="104.7" cy="146.6" r="2.9"/>
	<circle class="chapterCircle1" cx="104.7" cy="154.9" r="2.9"/>
	<circle class="chapterCircle1" cx="104.7" cy="163.3" r="2.9"/>
	<circle class="chapterCircle1" cx="104.7" cy="171.7" r="2.9"/>
	<circle class="chapterCircle1" cx="104.7" cy="180.1" r="2.9"/>
	<circle class="chapterCircle1" cx="104.7" cy="188.4" r="2.9"/>
	<circle class="chapterCircle1" cx="104.7" cy="196.8" r="2.9"/>
	<circle class="chapterCircle1" cx="104.7" cy="205.2" r="2.9"/>
	<circle class="chapterCircle1" cx="96.3" cy="71.2" r="2.9"/>
	<circle class="chapterCircle1" cx="96.3" cy="79.6" r="2.9"/>
	<circle class="chapterCircle1" cx="96.3" cy="87.9" r="2.9"/>
	<circle class="chapterCircle1" cx="96.3" cy="96.3" r="2.9"/>
	<circle class="chapterCircle1" cx="96.3" cy="104.7" r="2.9"/>
	<circle class="chapterCircle1" cx="96.3" cy="113.1" r="2.9"/>
	<circle class="chapterCircle1" cx="96.3" cy="121.4" r="2.9"/>
	<circle class="chapterCircle1" cx="96.3" cy="129.8" r="2.9"/>
	<circle class="chapterCircle1" cx="96.3" cy="138.2" r="2.9"/>
	<circle class="chapterCircle1" cx="96.3" cy="146.6" r="2.9"/>
	<circle class="chapterCircle1" cx="96.3" cy="154.9" r="2.9"/>
	<circle class="chapterCircle1" cx="96.3" cy="163.3" r="2.9"/>
	<circle class="chapterCircle1" cx="96.3" cy="171.7" r="2.9"/>
	<circle class="chapterCircle1" cx="96.3" cy="180.1" r="2.9"/>
	<circle class="chapterCircle1" cx="96.3" cy="188.4" r="2.9"/>
	<circle class="chapterCircle1" cx="96.3" cy="196.8" r="2.9"/>
	<circle class="chapterCircle1" cx="87.9" cy="71.2" r="2.9"/>
	<circle class="chapterCircle1" cx="87.9" cy="79.6" r="2.9"/>
	<circle class="chapterCircle1" cx="87.9" cy="87.9" r="2.9"/>
	<circle class="chapterCircle1" cx="87.9" cy="96.3" r="2.9"/>
	<circle class="chapterCircle1" cx="87.9" cy="104.7" r="2.9"/>
	<circle class="chapterCircle1" cx="87.9" cy="113.1" r="2.9"/>
	<circle class="chapterCircle1" cx="87.9" cy="121.4" r="2.9"/>
	<circle class="chapterCircle1" cx="87.9" cy="129.8" r="2.9"/>
	<circle class="chapterCircle1" cx="87.9" cy="138.2" r="2.9"/>
	<circle class="chapterCircle1" cx="87.9" cy="146.6" r="2.9"/>
	<circle class="chapterCircle1" cx="87.9" cy="154.9" r="2.9"/>
	<circle class="chapterCircle1" cx="87.9" cy="163.3" r="2.9"/>
	<circle class="chapterCircle1" cx="87.9" cy="171.7" r="2.9"/>
	<circle class="chapterCircle1" cx="87.9" cy="180.1" r="2.9"/>
	<circle class="chapterCircle1" cx="79.6" cy="79.6" r="2.9"/>
	<circle class="chapterCircle1" cx="79.6" cy="87.9" r="2.9"/>
	<circle class="chapterCircle1" cx="79.6" cy="96.3" r="2.9"/>
	<circle class="chapterCircle1" cx="79.6" cy="104.7" r="2.9"/>
	<circle class="chapterCircle1" cx="79.6" cy="113.1" r="2.9"/>
	<circle class="chapterCircle1" cx="79.6" cy="121.4" r="2.9"/>
	<circle class="chapterCircle1" cx="79.6" cy="129.8" r="2.9"/>
	<circle class="chapterCircle1" cx="79.6" cy="138.2" r="2.9"/>
	<circle class="chapterCircle1" cx="79.6" cy="146.6" r="2.9"/>
	<circle class="chapterCircle1" cx="79.6" cy="154.9" r="2.9"/>
	<circle class="chapterCircle1" cx="79.6" cy="163.3" r="2.9"/>
	<circle class="chapterCircle1" cx="79.6" cy="171.7" r="2.9"/>
	<circle class="chapterCircle1" cx="79.6" cy="180.1" r="2.9"/>
	<circle class="chapterCircle1" cx="71.2" cy="79.6" r="2.9"/>
	<circle class="chapterCircle1" cx="71.2" cy="87.9" r="2.9"/>
	<circle class="chapterCircle1" cx="71.2" cy="96.3" r="2.9"/>
	<circle class="chapterCircle1" cx="71.2" cy="104.7" r="2.9"/>
	<circle class="chapterCircle1" cx="71.2" cy="113.1" r="2.9"/>
	<circle class="chapterCircle1" cx="71.2" cy="121.4" r="2.9"/>
	<circle class="chapterCircle1" cx="71.2" cy="129.8" r="2.9"/>
	<circle class="chapterCircle1" cx="71.2" cy="138.2" r="2.9"/>
	<circle class="chapterCircle1" cx="71.2" cy="146.6" r="2.9"/>
	<circle class="chapterCircle1" cx="71.2" cy="154.9" r="2.9"/>
	<circle class="chapterCircle1" cx="71.2" cy="163.3" r="2.9"/>
	<circle class="chapterCircle1" cx="71.2" cy="171.7" r="2.9"/>
	<circle class="chapterCircle1" cx="71.2" cy="180.1" r="2.9"/>
	<circle class="chapterCircle1" cx="62.8" cy="79.6" r="2.9"/>
	<circle class="chapterCircle1" cx="62.8" cy="87.9" r="2.9"/>
	<circle class="chapterCircle1" cx="62.8" cy="96.3" r="2.9"/>
	<circle class="chapterCircle1" cx="62.8" cy="104.7" r="2.9"/>
	<circle class="chapterCircle1" cx="62.8" cy="113.1" r="2.9"/>
	<circle class="chapterCircle1" cx="62.8" cy="121.4" r="2.9"/>
	<circle class="chapterCircle1" cx="62.8" cy="129.8" r="2.9"/>
	<circle class="chapterCircle1" cx="62.8" cy="138.2" r="2.9"/>
	<circle class="chapterCircle1" cx="62.8" cy="146.6" r="2.9"/>
	<circle class="chapterCircle1" cx="62.8" cy="154.9" r="2.9"/>
	<circle class="chapterCircle1" cx="62.8" cy="163.3" r="2.9"/>
	<circle class="chapterCircle1" cx="62.8" cy="171.7" r="2.9"/>
	<circle class="chapterCircle1" cx="62.8" cy="180.1" r="2.9"/>
	<circle class="chapterCircle1" cx="54.4" cy="87.9" r="2.9"/>
	<circle class="chapterCircle1" cx="54.4" cy="96.3" r="2.9"/>
	<circle class="chapterCircle1" cx="54.4" cy="104.7" r="2.9"/>
	<circle class="chapterCircle1" cx="54.4" cy="113.1" r="2.9"/>
	<circle class="chapterCircle1" cx="54.4" cy="121.4" r="2.9"/>
	<circle class="chapterCircle1" cx="54.4" cy="129.8" r="2.9"/>
	<circle class="chapterCircle1" cx="54.4" cy="138.2" r="2.9"/>
	<circle class="chapterCircle1" cx="54.4" cy="146.6" r="2.9"/>
	<circle class="chapterCircle1" cx="54.4" cy="154.9" r="2.9"/>
	<circle class="chapterCircle1" cx="54.4" cy="163.3" r="2.9"/>
	<circle class="chapterCircle1" cx="54.4" cy="171.7" r="2.9"/>
	<circle class="chapterCircle1" cx="54.4" cy="180.1" r="2.9"/>
	<circle class="chapterCircle1" cx="54.4" cy="188.4" r="2.9"/>
	<circle class="chapterCircle1" cx="54.4" cy="196.8" r="2.9"/>
	<circle class="chapterCircle1" cx="54.4" cy="205.2" r="2.9"/>
	<circle class="chapterCircle1" cx="46.1" cy="113.1" r="2.9"/>
	<circle class="chapterCircle1" cx="46.1" cy="121.4" r="2.9"/>
	<circle class="chapterCircle1" cx="46.1" cy="129.8" r="2.9"/>
	<circle class="chapterCircle1" cx="46.1" cy="138.2" r="2.9"/>
	<circle class="chapterCircle1" cx="46.1" cy="146.6" r="2.9"/>
	<circle class="chapterCircle1" cx="46.1" cy="154.9" r="2.9"/>
	<circle class="chapterCircle1" cx="46.1" cy="163.3" r="2.9"/>
	<circle class="chapterCircle1" cx="46.1" cy="171.7" r="2.9"/>
	<circle class="chapterCircle1" cx="46.1" cy="180.1" r="2.9"/>
	<circle class="chapterCircle1" cx="46.1" cy="188.4" r="2.9"/>
	<circle class="chapterCircle1" cx="46.1" cy="196.8" r="2.9"/>
	<circle class="chapterCircle1" cx="46.1" cy="205.2" r="2.9"/>
	<circle class="chapterCircle1" cx="37.7" cy="113.1" r="2.9"/>
	<circle class="chapterCircle1" cx="37.7" cy="129.8" r="2.9"/>
	<circle class="chapterCircle1" cx="37.7" cy="138.2" r="2.9"/>
	<circle class="chapterCircle1" cx="37.7" cy="163.3" r="2.9"/>
	<circle class="chapterCircle1" cx="37.7" cy="171.7" r="2.9"/>
	<circle class="chapterCircle1" cx="37.7" cy="180.1" r="2.9"/>
	<circle class="chapterCircle1" cx="37.7" cy="188.4" r="2.9"/>
	<circle class="chapterCircle1" cx="37.7" cy="196.8" r="2.9"/>
	<circle class="chapterCircle1" cx="37.7" cy="205.2" r="2.9"/>
	<circle class="chapterCircle1" cx="29.3" cy="62.8" r="2.9"/>
	<circle class="chapterCircle1" cx="29.3" cy="71.2" r="2.9"/>
	<circle class="chapterCircle1" cx="29.3" cy="163.3" r="2.9"/>
	<circle class="chapterCircle1" cx="29.3" cy="171.7" r="2.9"/>
	<circle class="chapterCircle1" cx="29.3" cy="180.1" r="2.9"/>
	<circle class="chapterCircle1" cx="29.3" cy="188.4" r="2.9"/>
	<circle class="chapterCircle1" cx="29.3" cy="196.8" r="2.9"/>
	<circle class="chapterCircle1" cx="29.3" cy="205.2" r="2.9"/>
	<circle class="chapterCircle1" cx="29.3" cy="213.6" r="2.9"/>
	<circle class="chapterCircle1" cx="29.3" cy="222" r="2.9"/>
	<circle class="chapterCircle1" cx="20.9" cy="163.3" r="2.9"/>
	<circle class="chapterCircle1" cx="20.9" cy="171.7" r="2.9"/>
	<circle class="chapterCircle1" cx="20.9" cy="180.1" r="2.9"/>
	<circle class="chapterCircle1" cx="20.9" cy="188.4" r="2.9"/>
	<circle class="chapterCircle1" cx="20.9" cy="196.8" r="2.9"/>
	<circle class="chapterCircle1" cx="20.9" cy="205.2" r="2.9"/>
	<circle class="chapterCircle1" cx="20.9" cy="213.6" r="2.9"/>
	<circle class="chapterCircle1" cx="20.9" cy="222" r="2.9"/>
	<circle class="chapterCircle1" cx="12.6" cy="171.7" r="2.9"/>
	<circle class="chapterCircle1" cx="12.6" cy="180.1" r="2.9"/>
	<circle class="chapterCircle1" cx="12.6" cy="188.4" r="2.9"/>
	<circle class="chapterCircle1" cx="12.6" cy="196.8" r="2.9"/>
	<circle class="chapterCircle1" cx="4.2" cy="171.7" r="2.9"/>
	<circle class="chapterCircle1" cx="4.2" cy="180.1" r="2.9"/>
	<pattern  id="SVGID" xlink:href="#SVGID" patternTransform="matrix(1 0 0 1 -513.62 16078.8604)">
	</pattern>
	<path class="chapterCircle2" d="M291.2,42.9c1,2.3,2.5,4.9-0.6,6.7c-1.1,0.6-3,0-4.5,0c0.5-1.6,0.7-3.4,1.6-4.7
		C288.5,43.9,290,43.6,291.2,42.9z"/>
</g>
<g>
	<g id="mosca">
		<ellipse class="chapterCircle3" cx="79.6" cy="126.7" rx="40" ry="40"/>
		<ellipse class="chapterCircle1" cx="79.6" cy="126.7" rx="26.5" ry="26.5"/>
	</g>
</g>
</svg>
