<?xml version="1.0" encoding="utf-8"?>
<!-- Generator: Adobe Illustrator 24.1.2, SVG Export Plug-In . SVG Version: 6.00 Build 0)  -->
<svg version="1.1" id="vietnam" xmlns="http://www.w3.org/2000/svg" xmlns:xlink="http://www.w3.org/1999/xlink" x="0px" y="0px"
	 viewBox="0 0 351.1 737.2" style="enable-background:new 0 0 351.1 737.2;" xml:space="preserve">
<style type="text/css">
	.chapterCircle0{fill:#FFFFFF;}
	.chapterCircle1{opacity:0.5;fill:#FFFFFF;enable-background:new;}
</style>
<g id="map">
	<circle class="chapterCircle0" cx="347" cy="543" r="2.8"/>
	<circle class="chapterCircle0" cx="338.9" cy="518.5" r="2.8"/>
	<circle class="chapterCircle0" cx="338.9" cy="526.7" r="2.8"/>
	<circle class="chapterCircle0" cx="338.9" cy="534.8" r="2.8"/>
	<circle class="chapterCircle0" cx="338.9" cy="551.2" r="2.8"/>
	<circle class="chapterCircle0" cx="330.7" cy="453.2" r="2.8"/>
	<circle class="chapterCircle0" cx="330.7" cy="461.4" r="2.8"/>
	<circle class="chapterCircle0" cx="330.7" cy="469.5" r="2.8"/>
	<circle class="chapterCircle0" cx="330.7" cy="477.7" r="2.8"/>
	<circle class="chapterCircle0" cx="330.7" cy="485.9" r="2.8"/>
	<circle class="chapterCircle0" cx="330.7" cy="494" r="2.8"/>
	<circle class="chapterCircle0" cx="330.7" cy="502.2" r="2.8"/>
	<circle class="chapterCircle0" cx="330.7" cy="510.4" r="2.8"/>
	<circle class="chapterCircle0" cx="330.7" cy="518.5" r="2.8"/>
	<circle class="chapterCircle0" cx="330.7" cy="526.7" r="2.8"/>
	<circle class="chapterCircle0" cx="330.7" cy="534.8" r="2.8"/>
	<circle class="chapterCircle0" cx="330.7" cy="543" r="2.8"/>
	<circle class="chapterCircle0" cx="330.7" cy="551.2" r="2.8"/>
	<circle class="chapterCircle0" cx="330.7" cy="559.3" r="2.8"/>
	<circle class="chapterCircle0" cx="330.7" cy="567.5" r="2.8"/>
	<circle class="chapterCircle0" cx="330.7" cy="575.7" r="2.8"/>
	<circle class="chapterCircle0" cx="330.7" cy="583.8" r="2.8"/>
	<circle class="chapterCircle0" cx="322.5" cy="428.7" r="2.8"/>
	<circle class="chapterCircle0" cx="322.5" cy="436.9" r="2.8"/>
	<circle class="chapterCircle0" cx="322.5" cy="445" r="2.8"/>
	<circle class="chapterCircle0" cx="322.5" cy="453.2" r="2.8"/>
	<circle class="chapterCircle0" cx="322.5" cy="461.4" r="2.8"/>
	<circle class="chapterCircle0" cx="322.5" cy="469.5" r="2.8"/>
	<circle class="chapterCircle0" cx="322.5" cy="477.7" r="2.8"/>
	<circle class="chapterCircle0" cx="322.5" cy="485.9" r="2.8"/>
	<circle class="chapterCircle0" cx="322.5" cy="494" r="2.8"/>
	<circle class="chapterCircle0" cx="322.5" cy="502.2" r="2.8"/>
	<circle class="chapterCircle0" cx="322.5" cy="510.4" r="2.8"/>
	<circle class="chapterCircle0" cx="322.5" cy="518.5" r="2.8"/>
	<circle class="chapterCircle0" cx="322.5" cy="526.7" r="2.8"/>
	<circle class="chapterCircle0" cx="322.5" cy="534.8" r="2.8"/>
	<circle class="chapterCircle0" cx="322.5" cy="543" r="2.8"/>
	<circle class="chapterCircle0" cx="322.5" cy="551.2" r="2.8"/>
	<circle class="chapterCircle0" cx="322.5" cy="559.3" r="2.8"/>
	<circle class="chapterCircle0" cx="322.5" cy="567.5" r="2.8"/>
	<circle class="chapterCircle0" cx="322.5" cy="575.7" r="2.8"/>
	<circle class="chapterCircle0" cx="322.5" cy="583.8" r="2.8"/>
	<circle class="chapterCircle0" cx="322.5" cy="592" r="2.8"/>
	<circle class="chapterCircle0" cx="322.5" cy="600.2" r="2.8"/>
	<circle class="chapterCircle0" cx="314.4" cy="404.2" r="2.8"/>
	<circle class="chapterCircle0" cx="314.4" cy="412.4" r="2.8"/>
	<circle class="chapterCircle0" cx="314.4" cy="420.5" r="2.8"/>
	<circle class="chapterCircle0" cx="314.4" cy="428.7" r="2.8"/>
	<circle class="chapterCircle0" cx="314.4" cy="436.9" r="2.8"/>
	<circle class="chapterCircle0" cx="314.4" cy="445" r="2.8"/>
	<circle class="chapterCircle0" cx="314.4" cy="453.2" r="2.8"/>
	<circle class="chapterCircle0" cx="314.4" cy="461.4" r="2.8"/>
	<circle class="chapterCircle0" cx="314.4" cy="469.5" r="2.8"/>
	<circle class="chapterCircle0" cx="314.4" cy="477.7" r="2.8"/>
	<circle class="chapterCircle0" cx="314.4" cy="485.9" r="2.8"/>
	<circle class="chapterCircle0" cx="314.4" cy="494" r="2.8"/>
	<circle class="chapterCircle0" cx="314.4" cy="502.2" r="2.8"/>
	<circle class="chapterCircle0" cx="314.4" cy="510.4" r="2.8"/>
	<circle class="chapterCircle0" cx="314.4" cy="518.5" r="2.8"/>
	<circle class="chapterCircle0" cx="314.4" cy="526.7" r="2.8"/>
	<circle class="chapterCircle0" cx="314.4" cy="534.8" r="2.8"/>
	<circle class="chapterCircle0" cx="314.4" cy="543" r="2.8"/>
	<circle class="chapterCircle0" cx="314.4" cy="551.2" r="2.8"/>
	<circle class="chapterCircle0" cx="314.4" cy="559.3" r="2.8"/>
	<circle class="chapterCircle0" cx="314.4" cy="567.5" r="2.8"/>
	<circle class="chapterCircle0" cx="314.4" cy="575.7" r="2.8"/>
	<circle class="chapterCircle0" cx="314.4" cy="583.8" r="2.8"/>
	<circle class="chapterCircle0" cx="314.4" cy="592" r="2.8"/>
	<circle class="chapterCircle0" cx="314.4" cy="600.2" r="2.8"/>
	<circle class="chapterCircle0" cx="306.2" cy="396" r="2.8"/>
	<circle class="chapterCircle0" cx="306.2" cy="404.2" r="2.8"/>
	<circle class="chapterCircle0" cx="306.2" cy="412.4" r="2.8"/>
	<circle class="chapterCircle0" cx="306.2" cy="420.5" r="2.8"/>
	<circle class="chapterCircle0" cx="306.2" cy="428.7" r="2.8"/>
	<circle class="chapterCircle0" cx="306.2" cy="436.9" r="2.8"/>
	<circle class="chapterCircle0" cx="306.2" cy="445" r="2.8"/>
	<circle class="chapterCircle0" cx="306.2" cy="453.2" r="2.8"/>
	<circle class="chapterCircle0" cx="306.2" cy="461.4" r="2.8"/>
	<circle class="chapterCircle0" cx="306.2" cy="469.5" r="2.8"/>
	<circle class="chapterCircle0" cx="306.2" cy="477.7" r="2.8"/>
	<circle class="chapterCircle0" cx="306.2" cy="485.9" r="2.8"/>
	<circle class="chapterCircle0" cx="306.2" cy="494" r="2.8"/>
	<circle class="chapterCircle0" cx="306.2" cy="502.2" r="2.8"/>
	<circle class="chapterCircle0" cx="306.2" cy="510.4" r="2.8"/>
	<circle class="chapterCircle0" cx="306.2" cy="518.5" r="2.8"/>
	<circle class="chapterCircle0" cx="306.2" cy="526.7" r="2.8"/>
	<circle class="chapterCircle0" cx="306.2" cy="534.8" r="2.8"/>
	<circle class="chapterCircle0" cx="306.2" cy="543" r="2.8"/>
	<circle class="chapterCircle0" cx="306.2" cy="551.2" r="2.8"/>
	<circle class="chapterCircle0" cx="306.2" cy="559.3" r="2.8"/>
	<circle class="chapterCircle0" cx="306.2" cy="567.5" r="2.8"/>
	<circle class="chapterCircle0" cx="306.2" cy="575.7" r="2.8"/>
	<circle class="chapterCircle0" cx="306.2" cy="583.8" r="2.8"/>
	<circle class="chapterCircle0" cx="306.2" cy="592" r="2.8"/>
	<circle class="chapterCircle0" cx="306.2" cy="600.2" r="2.8"/>
	<circle class="chapterCircle0" cx="306.2" cy="608.3" r="2.8"/>
	<circle class="chapterCircle0" cx="298" cy="387.9" r="2.8"/>
	<circle class="chapterCircle0" cx="298" cy="396" r="2.8"/>
	<circle class="chapterCircle0" cx="298" cy="404.2" r="2.8"/>
	<circle class="chapterCircle0" cx="298" cy="412.4" r="2.8"/>
	<circle class="chapterCircle0" cx="298" cy="420.5" r="2.8"/>
	<circle class="chapterCircle0" cx="298" cy="428.7" r="2.8"/>
	<circle class="chapterCircle0" cx="298" cy="436.9" r="2.8"/>
	<circle class="chapterCircle0" cx="298" cy="445" r="2.8"/>
	<circle class="chapterCircle0" cx="298" cy="453.2" r="2.8"/>
	<circle class="chapterCircle0" cx="298" cy="461.4" r="2.8"/>
	<circle class="chapterCircle0" cx="298" cy="469.5" r="2.8"/>
	<circle class="chapterCircle0" cx="298" cy="477.7" r="2.8"/>
	<circle class="chapterCircle0" cx="298" cy="485.9" r="2.8"/>
	<circle class="chapterCircle0" cx="298" cy="494" r="2.8"/>
	<circle class="chapterCircle0" cx="298" cy="502.2" r="2.8"/>
	<circle class="chapterCircle0" cx="298" cy="510.4" r="2.8"/>
	<circle class="chapterCircle0" cx="298" cy="518.5" r="2.8"/>
	<circle class="chapterCircle0" cx="298" cy="526.7" r="2.8"/>
	<circle class="chapterCircle0" cx="298" cy="534.8" r="2.8"/>
	<circle class="chapterCircle0" cx="298" cy="543" r="2.8"/>
	<circle class="chapterCircle0" cx="298" cy="551.2" r="2.8"/>
	<circle class="chapterCircle0" cx="298" cy="559.3" r="2.8"/>
	<circle class="chapterCircle0" cx="298" cy="567.5" r="2.8"/>
	<circle class="chapterCircle0" cx="298" cy="575.7" r="2.8"/>
	<circle class="chapterCircle0" cx="298" cy="583.8" r="2.8"/>
	<circle class="chapterCircle0" cx="298" cy="592" r="2.8"/>
	<circle class="chapterCircle0" cx="298" cy="600.2" r="2.8"/>
	<circle class="chapterCircle0" cx="298" cy="608.3" r="2.8"/>
	<circle class="chapterCircle0" cx="298" cy="616.5" r="2.8"/>
	<circle class="chapterCircle0" cx="289.9" cy="371.5" r="2.8"/>
	<circle class="chapterCircle0" cx="289.9" cy="379.7" r="2.8"/>
	<circle class="chapterCircle0" cx="289.9" cy="387.9" r="2.8"/>
	<circle class="chapterCircle0" cx="289.9" cy="396" r="2.8"/>
	<circle class="chapterCircle0" cx="289.9" cy="404.2" r="2.8"/>
	<circle class="chapterCircle0" cx="289.9" cy="412.4" r="2.8"/>
	<circle class="chapterCircle0" cx="289.9" cy="420.5" r="2.8"/>
	<circle class="chapterCircle0" cx="289.9" cy="428.7" r="2.8"/>
	<circle class="chapterCircle0" cx="289.9" cy="436.9" r="2.8"/>
	<circle class="chapterCircle0" cx="289.9" cy="445" r="2.8"/>
	<circle class="chapterCircle0" cx="289.9" cy="453.2" r="2.8"/>
	<circle class="chapterCircle0" cx="289.9" cy="461.4" r="2.8"/>
	<circle class="chapterCircle0" cx="289.9" cy="469.5" r="2.8"/>
	<circle class="chapterCircle0" cx="289.9" cy="477.7" r="2.8"/>
	<circle class="chapterCircle0" cx="289.9" cy="485.9" r="2.8"/>
	<circle class="chapterCircle0" cx="289.9" cy="494" r="2.8"/>
	<circle class="chapterCircle0" cx="289.9" cy="502.2" r="2.8"/>
	<circle class="chapterCircle0" cx="289.9" cy="510.4" r="2.8"/>
	<circle class="chapterCircle0" cx="289.9" cy="518.5" r="2.8"/>
	<circle class="chapterCircle0" cx="289.9" cy="526.7" r="2.8"/>
	<circle class="chapterCircle0" cx="289.9" cy="534.8" r="2.8"/>
	<circle class="chapterCircle0" cx="289.9" cy="543" r="2.8"/>
	<circle class="chapterCircle0" cx="289.9" cy="551.2" r="2.8"/>
	<circle class="chapterCircle0" cx="289.9" cy="559.3" r="2.8"/>
	<circle class="chapterCircle0" cx="289.9" cy="567.5" r="2.8"/>
	<circle class="chapterCircle0" cx="289.9" cy="575.7" r="2.8"/>
	<circle class="chapterCircle0" cx="289.9" cy="583.8" r="2.8"/>
	<circle class="chapterCircle0" cx="289.9" cy="592" r="2.8"/>
	<circle class="chapterCircle0" cx="289.9" cy="600.2" r="2.8"/>
	<circle class="chapterCircle0" cx="289.9" cy="608.3" r="2.8"/>
	<circle class="chapterCircle0" cx="289.9" cy="616.5" r="2.8"/>
	<circle class="chapterCircle0" cx="281.7" cy="363.4" r="2.8"/>
	<circle class="chapterCircle0" cx="281.7" cy="371.5" r="2.8"/>
	<circle class="chapterCircle0" cx="281.7" cy="379.7" r="2.8"/>
	<circle class="chapterCircle0" cx="281.7" cy="387.9" r="2.8"/>
	<circle class="chapterCircle0" cx="281.7" cy="396" r="2.8"/>
	<circle class="chapterCircle0" cx="281.7" cy="404.2" r="2.8"/>
	<circle class="chapterCircle0" cx="281.7" cy="412.4" r="2.8"/>
	<circle class="chapterCircle0" cx="281.7" cy="420.5" r="2.8"/>
	<circle class="chapterCircle0" cx="281.7" cy="428.7" r="2.8"/>
	<circle class="chapterCircle0" cx="281.7" cy="436.9" r="2.8"/>
	<circle class="chapterCircle0" cx="281.7" cy="445" r="2.8"/>
	<circle class="chapterCircle0" cx="281.7" cy="453.2" r="2.8"/>
	<circle class="chapterCircle0" cx="281.7" cy="461.4" r="2.8"/>
	<circle class="chapterCircle0" cx="281.7" cy="469.5" r="2.8"/>
	<circle class="chapterCircle0" cx="281.7" cy="477.7" r="2.8"/>
	<circle class="chapterCircle0" cx="281.7" cy="485.9" r="2.8"/>
	<circle class="chapterCircle0" cx="281.7" cy="494" r="2.8"/>
	<circle class="chapterCircle0" cx="281.7" cy="502.2" r="2.8"/>
	<circle class="chapterCircle0" cx="281.7" cy="510.4" r="2.8"/>
	<circle class="chapterCircle0" cx="281.7" cy="518.5" r="2.8"/>
	<circle class="chapterCircle0" cx="281.7" cy="526.7" r="2.8"/>
	<circle class="chapterCircle0" cx="281.7" cy="534.8" r="2.8"/>
	<circle class="chapterCircle0" cx="281.7" cy="543" r="2.8"/>
	<circle class="chapterCircle0" cx="281.7" cy="551.2" r="2.8"/>
	<circle class="chapterCircle0" cx="281.7" cy="559.3" r="2.8"/>
	<circle class="chapterCircle0" cx="281.7" cy="567.5" r="2.8"/>
	<circle class="chapterCircle0" cx="281.7" cy="575.7" r="2.8"/>
	<circle class="chapterCircle0" cx="281.7" cy="583.8" r="2.8"/>
	<circle class="chapterCircle0" cx="281.7" cy="592" r="2.8"/>
	<circle class="chapterCircle0" cx="281.7" cy="600.2" r="2.8"/>
	<circle class="chapterCircle0" cx="281.7" cy="608.3" r="2.8"/>
	<circle class="chapterCircle0" cx="281.7" cy="616.5" r="2.8"/>
	<circle class="chapterCircle0" cx="281.7" cy="624.7" r="2.8"/>
	<circle class="chapterCircle0" cx="273.5" cy="93.9" r="2.8"/>
	<circle class="chapterCircle0" cx="273.5" cy="363.4" r="2.8"/>
	<circle class="chapterCircle0" cx="273.5" cy="371.5" r="2.8"/>
	<circle class="chapterCircle0" cx="273.5" cy="379.7" r="2.8"/>
	<circle class="chapterCircle0" cx="273.5" cy="387.9" r="2.8"/>
	<circle class="chapterCircle0" cx="273.5" cy="396" r="2.8"/>
	<circle class="chapterCircle0" cx="273.5" cy="404.2" r="2.8"/>
	<circle class="chapterCircle0" cx="273.5" cy="412.4" r="2.8"/>
	<circle class="chapterCircle0" cx="273.5" cy="420.5" r="2.8"/>
	<circle class="chapterCircle0" cx="273.5" cy="428.7" r="2.8"/>
	<circle class="chapterCircle0" cx="273.5" cy="436.9" r="2.8"/>
	<circle class="chapterCircle0" cx="273.5" cy="445" r="2.8"/>
	<circle class="chapterCircle0" cx="273.5" cy="453.2" r="2.8"/>
	<circle class="chapterCircle0" cx="273.5" cy="461.4" r="2.8"/>
	<circle class="chapterCircle0" cx="273.5" cy="469.5" r="2.8"/>
	<circle class="chapterCircle0" cx="273.5" cy="477.7" r="2.8"/>
	<circle class="chapterCircle0" cx="273.5" cy="485.9" r="2.8"/>
	<circle class="chapterCircle0" cx="273.5" cy="494" r="2.8"/>
	<circle class="chapterCircle0" cx="273.5" cy="502.2" r="2.8"/>
	<circle class="chapterCircle0" cx="273.5" cy="510.4" r="2.8"/>
	<circle class="chapterCircle0" cx="273.5" cy="518.5" r="2.8"/>
	<circle class="chapterCircle0" cx="273.5" cy="526.7" r="2.8"/>
	<circle class="chapterCircle0" cx="273.5" cy="534.8" r="2.8"/>
	<circle class="chapterCircle0" cx="273.5" cy="543" r="2.8"/>
	<circle class="chapterCircle0" cx="273.5" cy="551.2" r="2.8"/>
	<circle class="chapterCircle0" cx="273.5" cy="559.3" r="2.8"/>
	<circle class="chapterCircle0" cx="273.5" cy="567.5" r="2.8"/>
	<circle class="chapterCircle0" cx="273.5" cy="575.7" r="2.8"/>
	<circle class="chapterCircle0" cx="273.5" cy="583.8" r="2.8"/>
	<circle class="chapterCircle0" cx="273.5" cy="592" r="2.8"/>
	<circle class="chapterCircle0" cx="273.5" cy="600.2" r="2.8"/>
	<circle class="chapterCircle0" cx="273.5" cy="608.3" r="2.8"/>
	<circle class="chapterCircle0" cx="273.5" cy="616.5" r="2.8"/>
	<circle class="chapterCircle0" cx="273.5" cy="624.7" r="2.8"/>
	<circle class="chapterCircle0" cx="273.5" cy="632.8" r="2.8"/>
	<circle class="chapterCircle0" cx="265.4" cy="93.9" r="2.8"/>
	<circle class="chapterCircle0" cx="265.4" cy="102.1" r="2.8"/>
	<circle class="chapterCircle0" cx="265.4" cy="355.2" r="2.8"/>
	<circle class="chapterCircle0" cx="265.4" cy="363.4" r="2.8"/>
	<circle class="chapterCircle0" cx="265.4" cy="371.5" r="2.8"/>
	<circle class="chapterCircle0" cx="265.4" cy="379.7" r="2.8"/>
	<circle class="chapterCircle0" cx="265.4" cy="387.9" r="2.8"/>
	<circle class="chapterCircle0" cx="265.4" cy="396" r="2.8"/>
	<circle class="chapterCircle0" cx="265.4" cy="404.2" r="2.8"/>
	<circle class="chapterCircle0" cx="265.4" cy="412.4" r="2.8"/>
	<circle class="chapterCircle0" cx="265.4" cy="420.5" r="2.8"/>
	<circle class="chapterCircle0" cx="265.4" cy="428.7" r="2.8"/>
	<circle class="chapterCircle0" cx="265.4" cy="436.9" r="2.8"/>
	<circle class="chapterCircle0" cx="265.4" cy="445" r="2.8"/>
	<circle class="chapterCircle0" cx="265.4" cy="453.2" r="2.8"/>
	<circle class="chapterCircle0" cx="265.4" cy="461.4" r="2.8"/>
	<circle class="chapterCircle0" cx="265.4" cy="469.5" r="2.8"/>
	<circle class="chapterCircle0" cx="265.4" cy="477.7" r="2.8"/>
	<circle class="chapterCircle0" cx="265.4" cy="485.9" r="2.8"/>
	<circle class="chapterCircle0" cx="265.4" cy="494" r="2.8"/>
	<circle class="chapterCircle0" cx="265.4" cy="502.2" r="2.8"/>
	<circle class="chapterCircle0" cx="265.4" cy="510.4" r="2.8"/>
	<circle class="chapterCircle0" cx="265.4" cy="518.5" r="2.8"/>
	<circle class="chapterCircle0" cx="265.4" cy="526.7" r="2.8"/>
	<circle class="chapterCircle0" cx="265.4" cy="534.8" r="2.8"/>
	<circle class="chapterCircle0" cx="265.4" cy="543" r="2.8"/>
	<circle class="chapterCircle0" cx="265.4" cy="551.2" r="2.8"/>
	<circle class="chapterCircle0" cx="265.4" cy="559.3" r="2.8"/>
	<circle class="chapterCircle0" cx="265.4" cy="567.5" r="2.8"/>
	<circle class="chapterCircle0" cx="265.4" cy="575.7" r="2.8"/>
	<circle class="chapterCircle0" cx="265.4" cy="583.8" r="2.8"/>
	<circle class="chapterCircle0" cx="265.4" cy="592" r="2.8"/>
	<circle class="chapterCircle0" cx="265.4" cy="600.2" r="2.8"/>
	<circle class="chapterCircle0" cx="265.4" cy="608.3" r="2.8"/>
	<circle class="chapterCircle0" cx="265.4" cy="616.5" r="2.8"/>
	<circle class="chapterCircle0" cx="265.4" cy="624.7" r="2.8"/>
	<circle class="chapterCircle0" cx="265.4" cy="632.8" r="2.8"/>
	<ellipse transform="matrix(0.3162 -0.9487 0.9487 0.3162 86.7649 308.235)" class="chapterCircle0" cx="257.2" cy="93.9" rx="2.8" ry="2.8"/>
	
		<ellipse transform="matrix(0.3162 -0.9487 0.9487 0.3162 79.0446 313.8565)" class="chapterCircle0" cx="257.3" cy="102.1" rx="2.8" ry="2.8"/>
	<circle class="chapterCircle0" cx="257.2" cy="347" r="2.8"/>
	<circle class="chapterCircle0" cx="257.2" cy="355.2" r="2.8"/>
	<circle class="chapterCircle0" cx="257.2" cy="363.4" r="2.8"/>
	<circle class="chapterCircle0" cx="257.2" cy="371.5" r="2.8"/>
	<circle class="chapterCircle0" cx="257.2" cy="379.7" r="2.8"/>
	<circle class="chapterCircle0" cx="257.2" cy="387.9" r="2.8"/>
	<circle class="chapterCircle0" cx="257.2" cy="396" r="2.8"/>
	<circle class="chapterCircle0" cx="257.2" cy="404.2" r="2.8"/>
	<circle class="chapterCircle0" cx="257.2" cy="428.7" r="2.8"/>
	<circle class="chapterCircle0" cx="257.2" cy="436.9" r="2.8"/>
	<circle class="chapterCircle0" cx="257.2" cy="445" r="2.8"/>
	<circle class="chapterCircle0" cx="257.2" cy="453.2" r="2.8"/>
	<circle class="chapterCircle0" cx="257.2" cy="461.4" r="2.8"/>
	<circle class="chapterCircle0" cx="257.2" cy="469.5" r="2.8"/>
	<circle class="chapterCircle0" cx="257.2" cy="477.7" r="2.8"/>
	<circle class="chapterCircle0" cx="257.2" cy="485.9" r="2.8"/>
	
		<ellipse transform="matrix(9.853843e-02 -0.9951 0.9951 9.853843e-02 -276.0601 716.0543)" class="chapterCircle0" cx="257.2" cy="510.4" rx="2.8" ry="2.8"/>
	<ellipse class="chapterCircle0" cx="257.2" cy="518.5" rx="2.8" ry="2.8"/>
	<ellipse class="chapterCircle0" cx="257.2" cy="526.7" rx="2.8" ry="2.8"/>
	<ellipse class="chapterCircle0" cx="257.2" cy="534.9" rx="2.8" ry="2.8"/>
	<ellipse class="chapterCircle0" cx="257.2" cy="559.4" rx="2.8" ry="2.8"/>
	<ellipse class="chapterCircle0" cx="257.2" cy="567.5" rx="2.8" ry="2.8"/>
	<ellipse class="chapterCircle0" cx="257.2" cy="575.7" rx="2.8" ry="2.8"/>
	<ellipse class="chapterCircle0" cx="257.2" cy="583.9" rx="2.8" ry="2.8"/>
	<ellipse class="chapterCircle0" cx="257.2" cy="592" rx="2.8" ry="2.8"/>
	<ellipse class="chapterCircle0" cx="257.2" cy="600.2" rx="2.8" ry="2.8"/>
	<ellipse class="chapterCircle0" cx="257.2" cy="608.4" rx="2.8" ry="2.8"/>
	<ellipse class="chapterCircle0" cx="257.2" cy="616.5" rx="2.8" ry="2.8"/>
	<ellipse class="chapterCircle0" cx="257.3" cy="624.7" rx="2.8" ry="2.8"/>
	<ellipse class="chapterCircle0" cx="257.2" cy="632.9" rx="2.8" ry="2.8"/>
	<ellipse class="chapterCircle0" cx="257.2" cy="641" rx="2.8" ry="2.8"/>
	<circle class="chapterCircle0" cx="249.1" cy="93.9" r="2.8"/>
	<circle class="chapterCircle0" cx="249.1" cy="102.1" r="2.8"/>
	<circle class="chapterCircle0" cx="249.1" cy="110.2" r="2.8"/>
	<circle class="chapterCircle0" cx="249.1" cy="118.4" r="2.8"/>
	<circle class="chapterCircle0" cx="249.1" cy="338.9" r="2.8"/>
	<circle class="chapterCircle0" cx="249.1" cy="347" r="2.8"/>
	<circle class="chapterCircle0" cx="249.1" cy="355.2" r="2.8"/>
	<circle class="chapterCircle0" cx="249.1" cy="363.4" r="2.8"/>
	<circle class="chapterCircle0" cx="249.1" cy="371.5" r="2.8"/>
	<circle class="chapterCircle0" cx="249.1" cy="379.7" r="2.8"/>
	<circle class="chapterCircle0" cx="249.1" cy="387.9" r="2.8"/>
	<circle class="chapterCircle0" cx="249.1" cy="396" r="2.8"/>
	<circle class="chapterCircle0" cx="249.1" cy="461.4" r="2.8"/>
	<circle class="chapterCircle0" cx="249.1" cy="469.5" r="2.8"/>
	<circle class="chapterCircle0" cx="249.1" cy="559.3" r="2.8"/>
	<circle class="chapterCircle0" cx="249.1" cy="567.5" r="2.8"/>
	<circle class="chapterCircle0" cx="249.1" cy="575.7" r="2.8"/>
	<circle class="chapterCircle0" cx="249.1" cy="583.8" r="2.8"/>
	<circle class="chapterCircle0" cx="249.1" cy="592" r="2.8"/>
	<circle class="chapterCircle0" cx="249.1" cy="600.2" r="2.8"/>
	<circle class="chapterCircle0" cx="249.1" cy="608.3" r="2.8"/>
	<circle class="chapterCircle0" cx="249.1" cy="616.5" r="2.8"/>
	<circle class="chapterCircle0" cx="249.1" cy="624.7" r="2.8"/>
	<circle class="chapterCircle0" cx="249.1" cy="632.8" r="2.8"/>
	<circle class="chapterCircle0" cx="249.1" cy="641" r="2.8"/>
	<circle class="chapterCircle0" cx="240.9" cy="93.9" r="2.8"/>
	<circle class="chapterCircle0" cx="240.9" cy="102.1" r="2.8"/>
	<circle class="chapterCircle0" cx="240.9" cy="110.2" r="2.8"/>
	<circle class="chapterCircle0" cx="240.9" cy="118.4" r="2.8"/>
	<circle class="chapterCircle0" cx="240.9" cy="126.6" r="2.8"/>
	<circle class="chapterCircle0" cx="240.9" cy="330.7" r="2.8"/>
	<circle class="chapterCircle0" cx="240.9" cy="338.9" r="2.8"/>
	<circle class="chapterCircle0" cx="240.9" cy="347" r="2.8"/>
	<circle class="chapterCircle0" cx="240.9" cy="355.2" r="2.8"/>
	<circle class="chapterCircle0" cx="240.9" cy="363.4" r="2.8"/>
	<circle class="chapterCircle0" cx="240.9" cy="387.9" r="2.8"/>
	<circle class="chapterCircle0" cx="240.9" cy="559.3" r="2.8"/>
	<circle class="chapterCircle0" cx="240.9" cy="567.5" r="2.8"/>
	<circle class="chapterCircle0" cx="240.9" cy="575.7" r="2.8"/>
	<circle class="chapterCircle0" cx="240.9" cy="583.8" r="2.8"/>
	<circle class="chapterCircle0" cx="240.9" cy="592" r="2.8"/>
	<circle class="chapterCircle0" cx="240.9" cy="600.2" r="2.8"/>
	<circle class="chapterCircle0" cx="240.9" cy="608.3" r="2.8"/>
	<circle class="chapterCircle0" cx="240.9" cy="616.5" r="2.8"/>
	<circle class="chapterCircle0" cx="240.9" cy="624.7" r="2.8"/>
	<circle class="chapterCircle0" cx="240.9" cy="632.8" r="2.8"/>
	<circle class="chapterCircle0" cx="240.9" cy="641" r="2.8"/>
	<circle class="chapterCircle0" cx="240.9" cy="649.2" r="2.8"/>
	<circle class="chapterCircle0" cx="232.7" cy="85.7" r="2.8"/>
	<circle class="chapterCircle0" cx="232.7" cy="93.9" r="2.8"/>
	<circle class="chapterCircle0" cx="232.7" cy="102.1" r="2.8"/>
	<circle class="chapterCircle0" cx="232.7" cy="110.2" r="2.8"/>
	<circle class="chapterCircle0" cx="232.7" cy="118.4" r="2.8"/>
	<circle class="chapterCircle0" cx="232.7" cy="126.6" r="2.8"/>
	<circle class="chapterCircle0" cx="232.7" cy="322.5" r="2.8"/>
	<circle class="chapterCircle0" cx="232.7" cy="330.7" r="2.8"/>
	<circle class="chapterCircle0" cx="232.7" cy="338.9" r="2.8"/>
	<circle class="chapterCircle0" cx="232.7" cy="347" r="2.8"/>
	<circle class="chapterCircle0" cx="232.7" cy="355.2" r="2.8"/>
	<circle class="chapterCircle0" cx="232.7" cy="567.5" r="2.8"/>
	<circle class="chapterCircle0" cx="232.7" cy="575.7" r="2.8"/>
	<circle class="chapterCircle0" cx="232.7" cy="583.8" r="2.8"/>
	<circle class="chapterCircle0" cx="232.7" cy="592" r="2.8"/>
	<circle class="chapterCircle0" cx="232.7" cy="600.2" r="2.8"/>
	<circle class="chapterCircle0" cx="232.7" cy="608.3" r="2.8"/>
	<circle class="chapterCircle0" cx="232.7" cy="616.5" r="2.8"/>
	<circle class="chapterCircle0" cx="232.7" cy="624.7" r="2.8"/>
	<circle class="chapterCircle0" cx="232.7" cy="632.8" r="2.8"/>
	<circle class="chapterCircle0" cx="232.7" cy="641" r="2.8"/>
	<circle class="chapterCircle0" cx="224.6" cy="77.6" r="2.8"/>
	<circle class="chapterCircle0" cx="224.6" cy="85.7" r="2.8"/>
	<circle class="chapterCircle0" cx="224.6" cy="93.9" r="2.8"/>
	<circle class="chapterCircle0" cx="224.6" cy="102.1" r="2.8"/>
	<circle class="chapterCircle0" cx="224.6" cy="110.2" r="2.8"/>
	<circle class="chapterCircle0" cx="224.6" cy="118.4" r="2.8"/>
	<circle class="chapterCircle0" cx="224.6" cy="126.6" r="2.8"/>
	<circle class="chapterCircle0" cx="224.6" cy="314.4" r="2.8"/>
	<circle class="chapterCircle0" cx="224.6" cy="322.5" r="2.8"/>
	<circle class="chapterCircle0" cx="224.6" cy="330.7" r="2.8"/>
	<circle class="chapterCircle0" cx="224.6" cy="338.9" r="2.8"/>
	<circle class="chapterCircle0" cx="224.6" cy="347" r="2.8"/>
	<circle class="chapterCircle0" cx="224.6" cy="567.5" r="2.8"/>
	<circle class="chapterCircle0" cx="224.6" cy="575.7" r="2.8"/>
	<circle class="chapterCircle0" cx="224.6" cy="583.8" r="2.8"/>
	<circle class="chapterCircle0" cx="224.6" cy="592" r="2.8"/>
	<circle class="chapterCircle0" cx="224.6" cy="600.2" r="2.8"/>
	<circle class="chapterCircle0" cx="224.6" cy="608.3" r="2.8"/>
	<circle class="chapterCircle0" cx="224.6" cy="616.5" r="2.8"/>
	<circle class="chapterCircle0" cx="224.6" cy="624.7" r="2.8"/>
	<circle class="chapterCircle0" cx="224.6" cy="632.8" r="2.8"/>
	<circle class="chapterCircle0" cx="224.6" cy="641" r="2.8"/>
	<circle class="chapterCircle0" cx="224.6" cy="649.2" r="2.8"/>
	<circle class="chapterCircle0" cx="216.4" cy="28.6" r="2.8"/>
	<circle class="chapterCircle0" cx="216.4" cy="36.8" r="2.8"/>
	<circle class="chapterCircle0" cx="216.4" cy="69.4" r="2.8"/>
	<circle class="chapterCircle0" cx="216.4" cy="77.6" r="2.8"/>
	<circle class="chapterCircle0" cx="216.4" cy="85.7" r="2.8"/>
	<circle class="chapterCircle0" cx="216.4" cy="93.9" r="2.8"/>
	<circle class="chapterCircle0" cx="216.4" cy="102.1" r="2.8"/>
	<circle class="chapterCircle0" cx="216.4" cy="110.2" r="2.8"/>
	<circle class="chapterCircle0" cx="216.4" cy="118.4" r="2.8"/>
	<circle class="chapterCircle0" cx="216.4" cy="126.6" r="2.8"/>
	<circle class="chapterCircle0" cx="216.4" cy="134.7" r="2.8"/>
	<circle class="chapterCircle0" cx="216.4" cy="142.9" r="2.8"/>
	<circle class="chapterCircle0" cx="216.4" cy="306.2" r="2.8"/>
	<circle class="chapterCircle0" cx="216.4" cy="314.4" r="2.8"/>
	<circle class="chapterCircle0" cx="216.4" cy="322.5" r="2.8"/>
	<circle class="chapterCircle0" cx="216.4" cy="330.7" r="2.8"/>
	<circle class="chapterCircle0" cx="216.4" cy="338.9" r="2.8"/>
	<circle class="chapterCircle0" cx="216.4" cy="347" r="2.8"/>
	<circle class="chapterCircle0" cx="216.4" cy="355.2" r="2.8"/>
	<circle class="chapterCircle0" cx="216.4" cy="575.7" r="2.8"/>
	<circle class="chapterCircle0" cx="216.4" cy="583.8" r="2.8"/>
	<circle class="chapterCircle0" cx="216.4" cy="592" r="2.8"/>
	<circle class="chapterCircle0" cx="216.4" cy="600.2" r="2.8"/>
	<circle class="chapterCircle0" cx="216.4" cy="608.3" r="2.8"/>
	<circle class="chapterCircle0" cx="216.4" cy="616.5" r="2.8"/>
	<circle class="chapterCircle0" cx="216.4" cy="624.7" r="2.8"/>
	<circle class="chapterCircle0" cx="216.4" cy="632.8" r="2.8"/>
	<circle class="chapterCircle0" cx="216.4" cy="641" r="2.8"/>
	<circle class="chapterCircle0" cx="216.4" cy="649.2" r="2.8"/>
	<circle class="chapterCircle0" cx="216.4" cy="657.3" r="2.8"/>
	<circle class="chapterCircle0" cx="216.4" cy="665.5" r="2.8"/>
	<circle class="chapterCircle0" cx="216.4" cy="673.7" r="2.8"/>
	<circle class="chapterCircle0" cx="208.2" cy="28.6" r="2.8"/>
	<circle class="chapterCircle0" cx="208.2" cy="36.8" r="2.8"/>
	<circle class="chapterCircle0" cx="208.2" cy="44.9" r="2.8"/>
	<circle class="chapterCircle0" cx="208.2" cy="53.1" r="2.8"/>
	<circle class="chapterCircle0" cx="208.2" cy="61.2" r="2.8"/>
	<circle class="chapterCircle0" cx="208.2" cy="69.4" r="2.8"/>
	<circle class="chapterCircle0" cx="208.2" cy="77.6" r="2.8"/>
	<circle class="chapterCircle0" cx="208.2" cy="85.7" r="2.8"/>
	<circle class="chapterCircle0" cx="208.2" cy="93.9" r="2.8"/>
	<circle class="chapterCircle0" cx="208.2" cy="102.1" r="2.8"/>
	<circle class="chapterCircle0" cx="208.2" cy="110.2" r="2.8"/>
	<circle class="chapterCircle0" cx="208.2" cy="118.4" r="2.8"/>
	<circle class="chapterCircle0" cx="208.2" cy="126.6" r="2.8"/>
	<circle class="chapterCircle0" cx="208.2" cy="134.7" r="2.8"/>
	<circle class="chapterCircle0" cx="208.2" cy="142.9" r="2.8"/>
	<circle class="chapterCircle0" cx="208.2" cy="151.1" r="2.8"/>
	<circle class="chapterCircle0" cx="208.2" cy="159.2" r="2.8"/>
	<circle class="chapterCircle0" cx="208.2" cy="298" r="2.8"/>
	<circle class="chapterCircle0" cx="208.2" cy="306.2" r="2.8"/>
	<circle class="chapterCircle0" cx="208.2" cy="314.4" r="2.8"/>
	<circle class="chapterCircle0" cx="208.2" cy="322.5" r="2.8"/>
	<circle class="chapterCircle0" cx="208.2" cy="575.7" r="2.8"/>
	<circle class="chapterCircle0" cx="208.2" cy="583.8" r="2.8"/>
	<circle class="chapterCircle0" cx="208.2" cy="592" r="2.8"/>
	<circle class="chapterCircle0" cx="208.2" cy="600.2" r="2.8"/>
	<circle class="chapterCircle0" cx="208.2" cy="608.3" r="2.8"/>
	<circle class="chapterCircle0" cx="208.2" cy="616.5" r="2.8"/>
	<circle class="chapterCircle0" cx="208.2" cy="624.7" r="2.8"/>
	<circle class="chapterCircle0" cx="208.2" cy="632.8" r="2.8"/>
	<circle class="chapterCircle0" cx="208.2" cy="641" r="2.8"/>
	<circle class="chapterCircle0" cx="208.2" cy="649.2" r="2.8"/>
	<circle class="chapterCircle0" cx="208.2" cy="657.3" r="2.8"/>
	<circle class="chapterCircle0" cx="208.2" cy="665.5" r="2.8"/>
	<circle class="chapterCircle0" cx="208.2" cy="673.7" r="2.8"/>
	<circle class="chapterCircle0" cx="208.2" cy="681.8" r="2.8"/>
	<circle class="chapterCircle0" cx="208.2" cy="690" r="2.8"/>
	<circle class="chapterCircle0" cx="200.1" cy="28.6" r="2.8"/>
	<circle class="chapterCircle0" cx="200.1" cy="36.8" r="2.8"/>
	<circle class="chapterCircle0" cx="200.1" cy="44.9" r="2.8"/>
	<circle class="chapterCircle0" cx="200.1" cy="53.1" r="2.8"/>
	<circle class="chapterCircle0" cx="200.1" cy="61.2" r="2.8"/>
	<circle class="chapterCircle0" cx="200.1" cy="69.4" r="2.8"/>
	<circle class="chapterCircle0" cx="200.1" cy="77.6" r="2.8"/>
	<circle class="chapterCircle0" cx="200.1" cy="85.7" r="2.8"/>
	<circle class="chapterCircle0" cx="200.1" cy="93.9" r="2.8"/>
	<circle class="chapterCircle0" cx="200.1" cy="102.1" r="2.8"/>
	<circle class="chapterCircle0" cx="200.1" cy="110.2" r="2.8"/>
	<circle class="chapterCircle0" cx="200.1" cy="118.4" r="2.8"/>
	<circle class="chapterCircle0" cx="200.1" cy="126.6" r="2.8"/>
	<circle class="chapterCircle0" cx="200.1" cy="134.7" r="2.8"/>
	<circle class="chapterCircle0" cx="200.1" cy="142.9" r="2.8"/>
	<circle class="chapterCircle0" cx="200.1" cy="151.1" r="2.8"/>
	<circle class="chapterCircle0" cx="200.1" cy="159.2" r="2.8"/>
	<circle class="chapterCircle0" cx="200.1" cy="167.4" r="2.8"/>
	<circle class="chapterCircle0" cx="200.1" cy="273.5" r="2.8"/>
	<circle class="chapterCircle0" cx="200.1" cy="281.7" r="2.8"/>
	<circle class="chapterCircle0" cx="200.1" cy="289.9" r="2.8"/>
	<circle class="chapterCircle0" cx="200.1" cy="298" r="2.8"/>
	<circle class="chapterCircle0" cx="200.1" cy="306.2" r="2.8"/>
	<circle class="chapterCircle0" cx="200.1" cy="314.4" r="2.8"/>
	<circle class="chapterCircle0" cx="200.1" cy="592" r="2.8"/>
	<circle class="chapterCircle0" cx="200.1" cy="600.2" r="2.8"/>
	<circle class="chapterCircle0" cx="200.1" cy="608.3" r="2.8"/>
	<circle class="chapterCircle0" cx="200.1" cy="616.5" r="2.8"/>
	<circle class="chapterCircle0" cx="200.1" cy="624.7" r="2.8"/>
	<circle class="chapterCircle0" cx="200.1" cy="632.8" r="2.8"/>
	<circle class="chapterCircle0" cx="200.1" cy="641" r="2.8"/>
	<circle class="chapterCircle0" cx="200.1" cy="649.2" r="2.8"/>
	<circle class="chapterCircle0" cx="200.1" cy="657.3" r="2.8"/>
	<circle class="chapterCircle0" cx="200.1" cy="665.5" r="2.8"/>
	<circle class="chapterCircle0" cx="200.1" cy="673.7" r="2.8"/>
	<circle class="chapterCircle0" cx="200.1" cy="681.8" r="2.8"/>
	<circle class="chapterCircle0" cx="200.1" cy="690" r="2.8"/>
	<circle class="chapterCircle0" cx="191.9" cy="28.6" r="2.8"/>
	<circle class="chapterCircle0" cx="191.9" cy="36.8" r="2.8"/>
	<circle class="chapterCircle0" cx="191.9" cy="44.9" r="2.8"/>
	<circle class="chapterCircle0" cx="191.9" cy="53.1" r="2.8"/>
	<circle class="chapterCircle0" cx="191.9" cy="61.2" r="2.8"/>
	<circle class="chapterCircle0" cx="191.9" cy="69.4" r="2.8"/>
	<circle class="chapterCircle0" cx="191.9" cy="77.6" r="2.8"/>
	<circle class="chapterCircle0" cx="191.9" cy="85.7" r="2.8"/>
	<circle class="chapterCircle0" cx="191.9" cy="93.9" r="2.8"/>
	<circle class="chapterCircle0" cx="191.9" cy="102.1" r="2.8"/>
	<circle class="chapterCircle0" cx="191.9" cy="110.2" r="2.8"/>
	<circle class="chapterCircle0" cx="191.9" cy="118.4" r="2.8"/>
	<circle class="chapterCircle0" cx="191.9" cy="126.6" r="2.8"/>
	<circle class="chapterCircle0" cx="191.9" cy="134.7" r="2.8"/>
	<circle class="chapterCircle0" cx="191.9" cy="142.9" r="2.8"/>
	<circle class="chapterCircle0" cx="191.9" cy="151.1" r="2.8"/>
	<circle class="chapterCircle0" cx="191.9" cy="159.2" r="2.8"/>
	<circle class="chapterCircle0" cx="191.9" cy="167.4" r="2.8"/>
	<circle class="chapterCircle0" cx="191.9" cy="175.6" r="2.8"/>
	<circle class="chapterCircle0" cx="191.9" cy="265.4" r="2.8"/>
	<circle class="chapterCircle0" cx="191.9" cy="273.5" r="2.8"/>
	<circle class="chapterCircle0" cx="191.9" cy="281.7" r="2.8"/>
	<circle class="chapterCircle0" cx="191.9" cy="289.9" r="2.8"/>
	<circle class="chapterCircle0" cx="191.9" cy="298" r="2.8"/>
	<circle class="chapterCircle0" cx="191.9" cy="306.2" r="2.8"/>
	<circle class="chapterCircle0" cx="191.9" cy="583.8" r="2.8"/>
	<circle class="chapterCircle0" cx="191.9" cy="592" r="2.8"/>
	<circle class="chapterCircle0" cx="191.9" cy="600.2" r="2.8"/>
	<circle class="chapterCircle0" cx="191.9" cy="608.3" r="2.8"/>
	<circle class="chapterCircle0" cx="191.9" cy="616.5" r="2.8"/>
	<circle class="chapterCircle0" cx="191.9" cy="624.7" r="2.8"/>
	<circle class="chapterCircle0" cx="191.9" cy="632.8" r="2.8"/>
	<circle class="chapterCircle0" cx="191.9" cy="641" r="2.8"/>
	<circle class="chapterCircle0" cx="191.9" cy="649.2" r="2.8"/>
	<circle class="chapterCircle0" cx="191.9" cy="657.3" r="2.8"/>
	<circle class="chapterCircle0" cx="191.9" cy="665.5" r="2.8"/>
	<circle class="chapterCircle0" cx="191.9" cy="673.7" r="2.8"/>
	<circle class="chapterCircle0" cx="191.9" cy="681.8" r="2.8"/>
	<circle class="chapterCircle0" cx="191.9" cy="690" r="2.8"/>
	<circle class="chapterCircle0" cx="183.7" cy="28.6" r="2.8"/>
	<circle class="chapterCircle0" cx="183.7" cy="36.8" r="2.8"/>
	<circle class="chapterCircle0" cx="183.7" cy="44.9" r="2.8"/>
	<circle class="chapterCircle0" cx="183.7" cy="53.1" r="2.8"/>
	<circle class="chapterCircle0" cx="183.7" cy="61.2" r="2.8"/>
	<circle class="chapterCircle0" cx="183.7" cy="69.4" r="2.8"/>
	<circle class="chapterCircle0" cx="183.7" cy="77.6" r="2.8"/>
	<circle class="chapterCircle0" cx="183.7" cy="85.7" r="2.8"/>
	<circle class="chapterCircle0" cx="183.7" cy="93.9" r="2.8"/>
	<circle class="chapterCircle0" cx="183.7" cy="102.1" r="2.8"/>
	<circle class="chapterCircle0" cx="183.7" cy="110.2" r="2.8"/>
	<circle class="chapterCircle0" cx="183.7" cy="118.4" r="2.8"/>
	<circle class="chapterCircle0" cx="183.7" cy="126.6" r="2.8"/>
	<circle class="chapterCircle0" cx="183.7" cy="134.7" r="2.8"/>
	<circle class="chapterCircle0" cx="183.7" cy="142.9" r="2.8"/>
	<circle class="chapterCircle0" cx="183.7" cy="151.1" r="2.8"/>
	<circle class="chapterCircle0" cx="183.7" cy="159.2" r="2.8"/>
	<circle class="chapterCircle0" cx="183.7" cy="167.4" r="2.8"/>
	<circle class="chapterCircle0" cx="183.7" cy="175.6" r="2.8"/>
	<circle class="chapterCircle0" cx="183.7" cy="257.2" r="2.8"/>
	<circle class="chapterCircle0" cx="183.7" cy="265.4" r="2.8"/>
	<circle class="chapterCircle0" cx="183.7" cy="273.5" r="2.8"/>
	<circle class="chapterCircle0" cx="183.7" cy="281.7" r="2.8"/>
	<circle class="chapterCircle0" cx="183.7" cy="289.9" r="2.8"/>
	<circle class="chapterCircle0" cx="183.7" cy="298" r="2.8"/>
	<circle class="chapterCircle0" cx="183.7" cy="306.2" r="2.8"/>
	<circle class="chapterCircle0" cx="183.7" cy="583.8" r="2.8"/>
	<circle class="chapterCircle0" cx="183.7" cy="592" r="2.8"/>
	<circle class="chapterCircle0" cx="183.7" cy="600.2" r="2.8"/>
	<circle class="chapterCircle0" cx="183.7" cy="608.3" r="2.8"/>
	<circle class="chapterCircle0" cx="183.7" cy="632.8" r="2.8"/>
	<circle class="chapterCircle0" cx="183.7" cy="641" r="2.8"/>
	<circle class="chapterCircle0" cx="183.7" cy="649.2" r="2.8"/>
	<circle class="chapterCircle0" cx="183.7" cy="657.3" r="2.8"/>
	<circle class="chapterCircle0" cx="183.7" cy="665.5" r="2.8"/>
	<circle class="chapterCircle0" cx="183.7" cy="673.7" r="2.8"/>
	<circle class="chapterCircle0" cx="183.7" cy="681.8" r="2.8"/>
	<circle class="chapterCircle0" cx="183.7" cy="690" r="2.8"/>
	<circle class="chapterCircle0" cx="183.7" cy="698.2" r="2.8"/>
	<circle class="chapterCircle0" cx="183.7" cy="706.3" r="2.8"/>
	<circle class="chapterCircle0" cx="175.6" cy="28.6" r="2.8"/>
	<circle class="chapterCircle0" cx="175.6" cy="36.8" r="2.8"/>
	<circle class="chapterCircle0" cx="175.6" cy="44.9" r="2.8"/>
	<circle class="chapterCircle0" cx="175.6" cy="53.1" r="2.8"/>
	<circle class="chapterCircle0" cx="175.6" cy="61.2" r="2.8"/>
	<circle class="chapterCircle0" cx="175.6" cy="69.4" r="2.8"/>
	<circle class="chapterCircle0" cx="175.6" cy="77.6" r="2.8"/>
	<circle class="chapterCircle0" cx="175.6" cy="85.7" r="2.8"/>
	<circle class="chapterCircle0" cx="175.6" cy="93.9" r="2.8"/>
	<circle class="chapterCircle0" cx="175.6" cy="102.1" r="2.8"/>
	<circle class="chapterCircle0" cx="175.6" cy="110.2" r="2.8"/>
	<circle class="chapterCircle0" cx="175.6" cy="118.4" r="2.8"/>
	<circle class="chapterCircle0" cx="175.6" cy="126.6" r="2.8"/>
	<circle class="chapterCircle0" cx="175.6" cy="134.7" r="2.8"/>
	<circle class="chapterCircle0" cx="175.6" cy="142.9" r="2.8"/>
	<circle class="chapterCircle0" cx="175.6" cy="151.1" r="2.8"/>
	<circle class="chapterCircle0" cx="175.6" cy="159.2" r="2.8"/>
	<circle class="chapterCircle0" cx="175.6" cy="167.4" r="2.8"/>
	<circle class="chapterCircle0" cx="175.6" cy="175.6" r="2.8"/>
	<circle class="chapterCircle0" cx="175.6" cy="183.7" r="2.8"/>
	<circle class="chapterCircle0" cx="175.6" cy="191.9" r="2.8"/>
	<circle class="chapterCircle0" cx="175.6" cy="249.1" r="2.8"/>
	<circle class="chapterCircle0" cx="175.6" cy="257.2" r="2.8"/>
	<circle class="chapterCircle0" cx="175.6" cy="265.4" r="2.8"/>
	<circle class="chapterCircle0" cx="175.6" cy="273.5" r="2.8"/>
	<circle class="chapterCircle0" cx="175.6" cy="281.7" r="2.8"/>
	<circle class="chapterCircle0" cx="175.6" cy="289.9" r="2.8"/>
	<circle class="chapterCircle0" cx="175.6" cy="624.7" r="2.8"/>
	<circle class="chapterCircle0" cx="175.6" cy="632.8" r="2.8"/>
	<circle class="chapterCircle0" cx="175.6" cy="641" r="2.8"/>
	<circle class="chapterCircle0" cx="175.6" cy="649.2" r="2.8"/>
	<circle class="chapterCircle0" cx="175.6" cy="657.3" r="2.8"/>
	<circle class="chapterCircle0" cx="175.6" cy="665.5" r="2.8"/>
	<circle class="chapterCircle0" cx="175.6" cy="673.7" r="2.8"/>
	<circle class="chapterCircle0" cx="175.6" cy="681.8" r="2.8"/>
	<circle class="chapterCircle0" cx="175.6" cy="690" r="2.8"/>
	<circle class="chapterCircle0" cx="175.6" cy="698.2" r="2.8"/>
	<circle class="chapterCircle0" cx="175.6" cy="706.3" r="2.8"/>
	<circle class="chapterCircle0" cx="167.4" cy="20.4" r="2.8"/>
	<circle class="chapterCircle0" cx="167.4" cy="28.6" r="2.8"/>
	<circle class="chapterCircle0" cx="167.4" cy="36.8" r="2.8"/>
	<circle class="chapterCircle0" cx="167.4" cy="44.9" r="2.8"/>
	<circle class="chapterCircle0" cx="167.4" cy="53.1" r="2.8"/>
	<circle class="chapterCircle0" cx="167.4" cy="61.2" r="2.8"/>
	<circle class="chapterCircle0" cx="167.4" cy="69.4" r="2.8"/>
	<circle class="chapterCircle0" cx="167.4" cy="77.6" r="2.8"/>
	<circle class="chapterCircle0" cx="167.4" cy="85.7" r="2.8"/>
	<circle class="chapterCircle0" cx="167.4" cy="93.9" r="2.8"/>
	<circle class="chapterCircle0" cx="167.4" cy="102.1" r="2.8"/>
	<circle class="chapterCircle0" cx="167.4" cy="110.2" r="2.8"/>
	<circle class="chapterCircle0" cx="167.4" cy="118.4" r="2.8"/>
	<circle class="chapterCircle0" cx="167.4" cy="126.6" r="2.8"/>
	<circle class="chapterCircle0" cx="167.4" cy="134.7" r="2.8"/>
	<circle class="chapterCircle0" cx="167.4" cy="142.9" r="2.8"/>
	<circle class="chapterCircle0" cx="167.4" cy="151.1" r="2.8"/>
	<circle class="chapterCircle0" cx="167.4" cy="159.2" r="2.8"/>
	<circle class="chapterCircle0" cx="167.4" cy="167.4" r="2.8"/>
	<circle class="chapterCircle0" cx="167.4" cy="175.6" r="2.8"/>
	<circle class="chapterCircle0" cx="167.4" cy="183.7" r="2.8"/>
	<circle class="chapterCircle0" cx="167.4" cy="191.9" r="2.8"/>
	<circle class="chapterCircle0" cx="167.4" cy="200.1" r="2.8"/>
	<circle class="chapterCircle0" cx="167.4" cy="208.2" r="2.8"/>
	<circle class="chapterCircle0" cx="167.4" cy="216.4" r="2.8"/>
	<circle class="chapterCircle0" cx="167.4" cy="224.6" r="2.8"/>
	<circle class="chapterCircle0" cx="167.4" cy="232.7" r="2.8"/>
	<circle class="chapterCircle0" cx="167.4" cy="240.9" r="2.8"/>
	<circle class="chapterCircle0" cx="167.4" cy="249.1" r="2.8"/>
	<circle class="chapterCircle0" cx="167.4" cy="257.2" r="2.8"/>
	<circle class="chapterCircle0" cx="167.4" cy="265.4" r="2.8"/>
	<circle class="chapterCircle0" cx="167.4" cy="273.5" r="2.8"/>
	<circle class="chapterCircle0" cx="167.4" cy="281.7" r="2.8"/>
	<circle class="chapterCircle0" cx="167.4" cy="624.7" r="2.8"/>
	<circle class="chapterCircle0" cx="167.4" cy="632.8" r="2.8"/>
	<circle class="chapterCircle0" cx="167.4" cy="641" r="2.8"/>
	<circle class="chapterCircle0" cx="167.4" cy="649.2" r="2.8"/>
	<circle class="chapterCircle0" cx="167.4" cy="657.3" r="2.8"/>
	<circle class="chapterCircle0" cx="167.4" cy="665.5" r="2.8"/>
	<circle class="chapterCircle0" cx="167.4" cy="673.7" r="2.8"/>
	<circle class="chapterCircle0" cx="167.4" cy="681.8" r="2.8"/>
	<circle class="chapterCircle0" cx="167.4" cy="690" r="2.8"/>
	<circle class="chapterCircle0" cx="167.4" cy="698.2" r="2.8"/>
	<circle class="chapterCircle0" cx="167.4" cy="706.3" r="2.8"/>
	<circle class="chapterCircle0" cx="159.2" cy="12.2" r="2.8"/>
	<circle class="chapterCircle0" cx="159.2" cy="20.4" r="2.8"/>
	<circle class="chapterCircle0" cx="159.2" cy="28.6" r="2.8"/>
	<circle class="chapterCircle0" cx="159.2" cy="36.8" r="2.8"/>
	<circle class="chapterCircle0" cx="159.2" cy="44.9" r="2.8"/>
	<circle class="chapterCircle0" cx="159.2" cy="53.1" r="2.8"/>
	<circle class="chapterCircle0" cx="159.2" cy="61.2" r="2.8"/>
	<circle class="chapterCircle0" cx="159.2" cy="69.4" r="2.8"/>
	<circle class="chapterCircle0" cx="159.2" cy="77.6" r="2.8"/>
	<circle class="chapterCircle0" cx="159.2" cy="85.7" r="2.8"/>
	<circle class="chapterCircle0" cx="159.2" cy="93.9" r="2.8"/>
	<circle class="chapterCircle0" cx="159.2" cy="102.1" r="2.8"/>
	<circle class="chapterCircle0" cx="159.2" cy="110.2" r="2.8"/>
	<circle class="chapterCircle0" cx="159.2" cy="118.4" r="2.8"/>
	<circle class="chapterCircle0" cx="159.2" cy="126.6" r="2.8"/>
	<circle class="chapterCircle0" cx="159.2" cy="134.7" r="2.8"/>
	<circle class="chapterCircle0" cx="159.2" cy="142.9" r="2.8"/>
	<circle class="chapterCircle0" cx="159.2" cy="151.1" r="2.8"/>
	<circle class="chapterCircle0" cx="159.2" cy="159.2" r="2.8"/>
	<circle class="chapterCircle0" cx="159.2" cy="167.4" r="2.8"/>
	<circle class="chapterCircle0" cx="159.2" cy="175.6" r="2.8"/>
	<circle class="chapterCircle0" cx="159.2" cy="183.7" r="2.8"/>
	<circle class="chapterCircle0" cx="159.2" cy="191.9" r="2.8"/>
	<circle class="chapterCircle0" cx="159.2" cy="200.1" r="2.8"/>
	<circle class="chapterCircle0" cx="159.2" cy="208.2" r="2.8"/>
	<circle class="chapterCircle0" cx="159.2" cy="216.4" r="2.8"/>
	<circle class="chapterCircle0" cx="159.2" cy="224.6" r="2.8"/>
	<circle class="chapterCircle0" cx="159.2" cy="232.7" r="2.8"/>
	<circle class="chapterCircle0" cx="159.2" cy="240.9" r="2.8"/>
	<circle class="chapterCircle0" cx="159.2" cy="249.1" r="2.8"/>
	<circle class="chapterCircle0" cx="159.2" cy="257.2" r="2.8"/>
	<circle class="chapterCircle0" cx="159.2" cy="265.4" r="2.8"/>
	<circle class="chapterCircle0" cx="159.2" cy="624.7" r="2.8"/>
	<circle class="chapterCircle0" cx="159.2" cy="632.8" r="2.8"/>
	<circle class="chapterCircle0" cx="159.2" cy="641" r="2.8"/>
	<circle class="chapterCircle0" cx="159.2" cy="649.2" r="2.8"/>
	<circle class="chapterCircle0" cx="159.2" cy="657.3" r="2.8"/>
	<circle class="chapterCircle0" cx="159.2" cy="665.5" r="2.8"/>
	<circle class="chapterCircle0" cx="159.2" cy="673.7" r="2.8"/>
	<circle class="chapterCircle0" cx="159.2" cy="681.8" r="2.8"/>
	<circle class="chapterCircle0" cx="159.2" cy="690" r="2.8"/>
	<circle class="chapterCircle0" cx="159.2" cy="698.2" r="2.8"/>
	<circle class="chapterCircle0" cx="159.2" cy="706.3" r="2.8"/>
	<circle class="chapterCircle0" cx="159.2" cy="714.5" r="2.8"/>
	<circle class="chapterCircle0" cx="151.1" cy="4.1" r="2.8"/>
	<circle class="chapterCircle0" cx="151.1" cy="12.2" r="2.8"/>
	<circle class="chapterCircle0" cx="151.1" cy="20.4" r="2.8"/>
	<circle class="chapterCircle0" cx="151.1" cy="28.6" r="2.8"/>
	<circle class="chapterCircle0" cx="151.1" cy="36.8" r="2.8"/>
	<circle class="chapterCircle0" cx="151.1" cy="44.9" r="2.8"/>
	<circle class="chapterCircle0" cx="151.1" cy="53.1" r="2.8"/>
	<circle class="chapterCircle0" cx="151.1" cy="61.2" r="2.8"/>
	<circle class="chapterCircle0" cx="151.1" cy="69.4" r="2.8"/>
	<circle class="chapterCircle0" cx="151.1" cy="77.6" r="2.8"/>
	<circle class="chapterCircle0" cx="151.1" cy="85.7" r="2.8"/>
	<circle class="chapterCircle0" cx="151.1" cy="93.9" r="2.8"/>
	<circle class="chapterCircle0" cx="151.1" cy="102.1" r="2.8"/>
	<circle class="chapterCircle0" cx="151.1" cy="110.2" r="2.8"/>
	<circle class="chapterCircle0" cx="151.1" cy="118.4" r="2.8"/>
	<circle class="chapterCircle0" cx="151.1" cy="126.6" r="2.8"/>
	<circle class="chapterCircle0" cx="151.1" cy="134.7" r="2.8"/>
	<circle class="chapterCircle0" cx="151.1" cy="142.9" r="2.8"/>
	<circle class="chapterCircle0" cx="151.1" cy="151.1" r="2.8"/>
	<circle class="chapterCircle0" cx="151.1" cy="159.2" r="2.8"/>
	<circle class="chapterCircle0" cx="151.1" cy="167.4" r="2.8"/>
	<circle class="chapterCircle0" cx="151.1" cy="175.6" r="2.8"/>
	<circle class="chapterCircle0" cx="151.1" cy="183.7" r="2.8"/>
	<circle class="chapterCircle0" cx="151.1" cy="191.9" r="2.8"/>
	<circle class="chapterCircle0" cx="151.1" cy="200.1" r="2.8"/>
	<circle class="chapterCircle0" cx="151.1" cy="208.2" r="2.8"/>
	<circle class="chapterCircle0" cx="151.1" cy="216.4" r="2.8"/>
	<circle class="chapterCircle0" cx="151.1" cy="224.6" r="2.8"/>
	<circle class="chapterCircle0" cx="151.1" cy="232.7" r="2.8"/>
	<circle class="chapterCircle0" cx="151.1" cy="240.9" r="2.8"/>
	<circle class="chapterCircle0" cx="151.1" cy="249.1" r="2.8"/>
	<circle class="chapterCircle0" cx="151.1" cy="257.2" r="2.8"/>
	<circle class="chapterCircle0" cx="151.1" cy="265.4" r="2.8"/>
	<circle class="chapterCircle0" cx="151.1" cy="624.7" r="2.8"/>
	<circle class="chapterCircle0" cx="151.1" cy="632.8" r="2.8"/>
	<circle class="chapterCircle0" cx="151.1" cy="641" r="2.8"/>
	<circle class="chapterCircle0" cx="151.1" cy="649.2" r="2.8"/>
	<circle class="chapterCircle0" cx="151.1" cy="657.3" r="2.8"/>
	<circle class="chapterCircle0" cx="151.1" cy="665.5" r="2.8"/>
	<circle class="chapterCircle0" cx="151.1" cy="673.7" r="2.8"/>
	<circle class="chapterCircle0" cx="151.1" cy="681.8" r="2.8"/>
	<circle class="chapterCircle0" cx="151.1" cy="690" r="2.8"/>
	<circle class="chapterCircle0" cx="151.1" cy="698.2" r="2.8"/>
	<circle class="chapterCircle0" cx="151.1" cy="706.3" r="2.8"/>
	<circle class="chapterCircle0" cx="151.1" cy="714.5" r="2.8"/>
	<circle class="chapterCircle0" cx="142.9" cy="12.2" r="2.8"/>
	<circle class="chapterCircle0" cx="142.9" cy="20.4" r="2.8"/>
	<circle class="chapterCircle0" cx="142.9" cy="28.6" r="2.8"/>
	<circle class="chapterCircle0" cx="142.9" cy="36.8" r="2.8"/>
	<circle class="chapterCircle0" cx="142.9" cy="44.9" r="2.8"/>
	<circle class="chapterCircle0" cx="142.9" cy="53.1" r="2.8"/>
	<circle class="chapterCircle0" cx="142.9" cy="61.2" r="2.8"/>
	<circle class="chapterCircle0" cx="142.9" cy="69.4" r="2.8"/>
	<circle class="chapterCircle0" cx="142.9" cy="77.6" r="2.8"/>
	<circle class="chapterCircle0" cx="142.9" cy="85.7" r="2.8"/>
	<circle class="chapterCircle0" cx="142.9" cy="93.9" r="2.8"/>
	<circle class="chapterCircle0" cx="142.9" cy="102.1" r="2.8"/>
	<circle class="chapterCircle0" cx="142.9" cy="110.2" r="2.8"/>
	<circle class="chapterCircle0" cx="142.9" cy="118.4" r="2.8"/>
	<circle class="chapterCircle0" cx="142.9" cy="126.6" r="2.8"/>
	<circle class="chapterCircle0" cx="142.9" cy="134.7" r="2.8"/>
	<circle class="chapterCircle0" cx="142.9" cy="142.9" r="2.8"/>
	<circle class="chapterCircle0" cx="142.9" cy="151.1" r="2.8"/>
	<circle class="chapterCircle0" cx="142.9" cy="159.2" r="2.8"/>
	<circle class="chapterCircle0" cx="142.9" cy="167.4" r="2.8"/>
	<circle class="chapterCircle0" cx="142.9" cy="175.6" r="2.8"/>
	<circle class="chapterCircle0" cx="142.9" cy="183.7" r="2.8"/>
	<circle class="chapterCircle0" cx="142.9" cy="191.9" r="2.8"/>
	<circle class="chapterCircle0" cx="142.9" cy="200.1" r="2.8"/>
	<circle class="chapterCircle0" cx="142.9" cy="208.2" r="2.8"/>
	<circle class="chapterCircle0" cx="142.9" cy="216.4" r="2.8"/>
	<circle class="chapterCircle0" cx="142.9" cy="224.6" r="2.8"/>
	<circle class="chapterCircle0" cx="142.9" cy="232.7" r="2.8"/>
	<circle class="chapterCircle0" cx="142.9" cy="240.9" r="2.8"/>
	<circle class="chapterCircle0" cx="142.9" cy="249.1" r="2.8"/>
	<circle class="chapterCircle0" cx="142.9" cy="624.7" r="2.8"/>
	<circle class="chapterCircle0" cx="142.9" cy="632.8" r="2.8"/>
	<circle class="chapterCircle0" cx="142.9" cy="641" r="2.8"/>
	<circle class="chapterCircle0" cx="142.9" cy="649.2" r="2.8"/>
	<circle class="chapterCircle0" cx="142.9" cy="657.3" r="2.8"/>
	<circle class="chapterCircle0" cx="142.9" cy="665.5" r="2.8"/>
	<circle class="chapterCircle0" cx="142.9" cy="673.7" r="2.8"/>
	<circle class="chapterCircle0" cx="142.9" cy="681.8" r="2.8"/>
	<circle class="chapterCircle0" cx="142.9" cy="690" r="2.8"/>
	<circle class="chapterCircle0" cx="142.9" cy="698.2" r="2.8"/>
	<circle class="chapterCircle0" cx="142.9" cy="706.3" r="2.8"/>
	<circle class="chapterCircle0" cx="142.9" cy="714.5" r="2.8"/>
	<circle class="chapterCircle0" cx="142.9" cy="722.7" r="2.8"/>
	<circle class="chapterCircle0" cx="142.9" cy="730.8" r="2.8"/>
	<circle class="chapterCircle0" cx="134.7" cy="12.2" r="2.8"/>
	<circle class="chapterCircle0" cx="134.7" cy="20.4" r="2.8"/>
	<circle class="chapterCircle0" cx="134.7" cy="28.6" r="2.8"/>
	<circle class="chapterCircle0" cx="134.7" cy="36.8" r="2.8"/>
	<circle class="chapterCircle0" cx="134.7" cy="44.9" r="2.8"/>
	<circle class="chapterCircle0" cx="134.7" cy="53.1" r="2.8"/>
	<circle class="chapterCircle0" cx="134.7" cy="61.2" r="2.8"/>
	<circle class="chapterCircle0" cx="134.7" cy="69.4" r="2.8"/>
	<circle class="chapterCircle0" cx="134.7" cy="77.6" r="2.8"/>
	<circle class="chapterCircle0" cx="134.7" cy="85.7" r="2.8"/>
	<circle class="chapterCircle0" cx="134.7" cy="93.9" r="2.8"/>
	<circle class="chapterCircle0" cx="134.7" cy="102.1" r="2.8"/>
	<circle class="chapterCircle0" cx="134.7" cy="110.2" r="2.8"/>
	<circle class="chapterCircle0" cx="134.7" cy="118.4" r="2.8"/>
	<circle class="chapterCircle0" cx="134.7" cy="126.6" r="2.8"/>
	<circle class="chapterCircle0" cx="134.7" cy="134.7" r="2.8"/>
	<circle class="chapterCircle0" cx="134.7" cy="142.9" r="2.8"/>
	<circle class="chapterCircle0" cx="134.7" cy="151.1" r="2.8"/>
	<circle class="chapterCircle0" cx="134.7" cy="159.2" r="2.8"/>
	<circle class="chapterCircle0" cx="134.7" cy="167.4" r="2.8"/>
	<circle class="chapterCircle0" cx="134.7" cy="175.6" r="2.8"/>
	<circle class="chapterCircle0" cx="134.7" cy="183.7" r="2.8"/>
	<circle class="chapterCircle0" cx="134.7" cy="191.9" r="2.8"/>
	<circle class="chapterCircle0" cx="134.7" cy="200.1" r="2.8"/>
	<circle class="chapterCircle0" cx="134.7" cy="208.2" r="2.8"/>
	<circle class="chapterCircle0" cx="134.7" cy="216.4" r="2.8"/>
	<circle class="chapterCircle0" cx="134.7" cy="224.6" r="2.8"/>
	<circle class="chapterCircle0" cx="134.7" cy="232.7" r="2.8"/>
	<circle class="chapterCircle0" cx="134.7" cy="641" r="2.8"/>
	<circle class="chapterCircle0" cx="134.7" cy="649.2" r="2.8"/>
	<circle class="chapterCircle0" cx="134.7" cy="657.3" r="2.8"/>
	<circle class="chapterCircle0" cx="134.7" cy="665.5" r="2.8"/>
	<circle class="chapterCircle0" cx="134.7" cy="673.7" r="2.8"/>
	<circle class="chapterCircle0" cx="134.7" cy="681.8" r="2.8"/>
	<circle class="chapterCircle0" cx="134.7" cy="690" r="2.8"/>
	<circle class="chapterCircle0" cx="134.7" cy="698.2" r="2.8"/>
	<circle class="chapterCircle0" cx="134.7" cy="706.3" r="2.8"/>
	<circle class="chapterCircle0" cx="134.7" cy="714.5" r="2.8"/>
	<circle class="chapterCircle0" cx="134.7" cy="722.7" r="2.8"/>
	<circle class="chapterCircle0" cx="134.7" cy="730.8" r="2.8"/>
	<circle class="chapterCircle0" cx="126.6" cy="20.4" r="2.8"/>
	<circle class="chapterCircle0" cx="126.6" cy="28.6" r="2.8"/>
	<circle class="chapterCircle0" cx="126.6" cy="36.8" r="2.8"/>
	<circle class="chapterCircle0" cx="126.6" cy="44.9" r="2.8"/>
	<circle class="chapterCircle0" cx="126.6" cy="53.1" r="2.8"/>
	<circle class="chapterCircle0" cx="126.6" cy="61.2" r="2.8"/>
	<circle class="chapterCircle0" cx="126.6" cy="69.4" r="2.8"/>
	<circle class="chapterCircle0" cx="126.6" cy="77.6" r="2.8"/>
	<circle class="chapterCircle0" cx="126.6" cy="85.7" r="2.8"/>
	<circle class="chapterCircle0" cx="126.6" cy="93.9" r="2.8"/>
	<circle class="chapterCircle0" cx="126.6" cy="102.1" r="2.8"/>
	<circle class="chapterCircle0" cx="126.6" cy="110.2" r="2.8"/>
	<circle class="chapterCircle0" cx="126.6" cy="118.4" r="2.8"/>
	<circle class="chapterCircle0" cx="126.6" cy="126.6" r="2.8"/>
	<circle class="chapterCircle0" cx="126.6" cy="134.7" r="2.8"/>
	<circle class="chapterCircle0" cx="126.6" cy="142.9" r="2.8"/>
	<circle class="chapterCircle0" cx="126.6" cy="151.1" r="2.8"/>
	<circle class="chapterCircle0" cx="126.6" cy="159.2" r="2.8"/>
	<circle class="chapterCircle0" cx="126.6" cy="183.7" r="2.8"/>
	<circle class="chapterCircle0" cx="126.6" cy="191.9" r="2.8"/>
	<circle class="chapterCircle0" cx="126.6" cy="200.1" r="2.8"/>
	<circle class="chapterCircle0" cx="126.6" cy="208.2" r="2.8"/>
	<circle class="chapterCircle0" cx="126.6" cy="216.4" r="2.8"/>
	<circle class="chapterCircle0" cx="126.6" cy="224.6" r="2.8"/>
	<circle class="chapterCircle0" cx="126.6" cy="232.7" r="2.8"/>
	
		<ellipse transform="matrix(0.9986 -5.334340e-02 5.334340e-02 0.9986 -34.4469 7.6785)" class="chapterCircle0" cx="126.6" cy="649.1" rx="2.8" ry="2.8"/>
	
		<ellipse transform="matrix(0.9986 -5.334340e-02 5.334340e-02 0.9986 -34.8822 7.6869)" class="chapterCircle0" cx="126.6" cy="657.3" rx="2.8" ry="2.8"/>
	
		<ellipse transform="matrix(0.9986 -5.334340e-02 5.334340e-02 0.9986 -38.8029 7.7917)" class="chapterCircle0" cx="126.6" cy="730.8" rx="2.8" ry="2.8"/>
	<circle class="chapterCircle0" cx="118.4" cy="36.8" r="2.8"/>
	<circle class="chapterCircle0" cx="118.4" cy="44.9" r="2.8"/>
	<circle class="chapterCircle0" cx="118.4" cy="53.1" r="2.8"/>
	<circle class="chapterCircle0" cx="118.4" cy="61.2" r="2.8"/>
	<circle class="chapterCircle0" cx="118.4" cy="69.4" r="2.8"/>
	<circle class="chapterCircle0" cx="118.4" cy="77.6" r="2.8"/>
	<circle class="chapterCircle0" cx="118.4" cy="85.7" r="2.8"/>
	<circle class="chapterCircle0" cx="118.4" cy="93.9" r="2.8"/>
	<circle class="chapterCircle0" cx="118.4" cy="102.1" r="2.8"/>
	<circle class="chapterCircle0" cx="118.4" cy="110.2" r="2.8"/>
	<circle class="chapterCircle0" cx="118.4" cy="118.4" r="2.8"/>
	<circle class="chapterCircle0" cx="118.4" cy="126.6" r="2.8"/>
	<circle class="chapterCircle0" cx="118.4" cy="134.7" r="2.8"/>
	<circle class="chapterCircle0" cx="118.4" cy="142.9" r="2.8"/>
	<circle class="chapterCircle0" cx="118.4" cy="151.1" r="2.8"/>
	<circle class="chapterCircle0" cx="118.4" cy="191.9" r="2.8"/>
	<circle class="chapterCircle0" cx="118.4" cy="200.1" r="2.8"/>
	<circle class="chapterCircle0" cx="118.4" cy="208.2" r="2.8"/>
	<circle class="chapterCircle0" cx="118.4" cy="216.4" r="2.8"/>
	<circle class="chapterCircle0" cx="118.4" cy="224.6" r="2.8"/>
	<circle class="chapterCircle0" cx="118.4" cy="232.7" r="2.8"/>
	<circle class="chapterCircle0" cx="118.4" cy="649.2" r="2.8"/>
	<circle class="chapterCircle0" cx="118.4" cy="657.3" r="2.8"/>
	<circle class="chapterCircle0" cx="110.2" cy="36.8" r="2.8"/>
	<circle class="chapterCircle0" cx="110.2" cy="44.9" r="2.8"/>
	<circle class="chapterCircle0" cx="110.2" cy="53.1" r="2.8"/>
	<circle class="chapterCircle0" cx="110.2" cy="61.2" r="2.8"/>
	<circle class="chapterCircle0" cx="110.2" cy="69.4" r="2.8"/>
	<circle class="chapterCircle0" cx="110.2" cy="77.6" r="2.8"/>
	<circle class="chapterCircle0" cx="110.2" cy="85.7" r="2.8"/>
	<circle class="chapterCircle0" cx="110.2" cy="93.9" r="2.8"/>
	<circle class="chapterCircle0" cx="110.2" cy="102.1" r="2.8"/>
	<circle class="chapterCircle0" cx="110.2" cy="110.2" r="2.8"/>
	<circle class="chapterCircle0" cx="110.2" cy="118.4" r="2.8"/>
	<circle class="chapterCircle0" cx="110.2" cy="126.6" r="2.8"/>
	<circle class="chapterCircle0" cx="110.2" cy="134.7" r="2.8"/>
	<circle class="chapterCircle0" cx="110.2" cy="151.1" r="2.8"/>
	<circle class="chapterCircle0" cx="110.2" cy="191.9" r="2.8"/>
	<circle class="chapterCircle0" cx="110.2" cy="200.1" r="2.8"/>
	<circle class="chapterCircle0" cx="110.2" cy="208.2" r="2.8"/>
	<circle class="chapterCircle0" cx="110.2" cy="216.4" r="2.8"/>
	<circle class="chapterCircle0" cx="110.2" cy="224.6" r="2.8"/>
	<circle class="chapterCircle0" cx="102.1" cy="36.8" r="2.8"/>
	<circle class="chapterCircle0" cx="102.1" cy="44.9" r="2.8"/>
	<circle class="chapterCircle0" cx="102.1" cy="53.1" r="2.8"/>
	<circle class="chapterCircle0" cx="102.1" cy="61.2" r="2.8"/>
	<circle class="chapterCircle0" cx="102.1" cy="69.4" r="2.8"/>
	<circle class="chapterCircle0" cx="102.1" cy="77.6" r="2.8"/>
	<circle class="chapterCircle0" cx="102.1" cy="85.7" r="2.8"/>
	<circle class="chapterCircle0" cx="102.1" cy="93.9" r="2.8"/>
	<circle class="chapterCircle0" cx="102.1" cy="102.1" r="2.8"/>
	<circle class="chapterCircle0" cx="102.1" cy="110.2" r="2.8"/>
	<circle class="chapterCircle0" cx="102.1" cy="118.4" r="2.8"/>
	<circle class="chapterCircle0" cx="102.1" cy="126.6" r="2.8"/>
	<circle class="chapterCircle0" cx="102.1" cy="191.9" r="2.8"/>
	<circle class="chapterCircle0" cx="102.1" cy="200.1" r="2.8"/>
	<circle class="chapterCircle0" cx="102.1" cy="208.2" r="2.8"/>
	<circle class="chapterCircle0" cx="102.1" cy="216.4" r="2.8"/>
	<circle class="chapterCircle0" cx="93.9" cy="36.8" r="2.8"/>
	<circle class="chapterCircle0" cx="93.9" cy="44.9" r="2.8"/>
	<circle class="chapterCircle0" cx="93.9" cy="53.1" r="2.8"/>
	<circle class="chapterCircle0" cx="93.9" cy="61.2" r="2.8"/>
	<circle class="chapterCircle0" cx="93.9" cy="69.4" r="2.8"/>
	<circle class="chapterCircle0" cx="93.9" cy="77.6" r="2.8"/>
	<circle class="chapterCircle0" cx="93.9" cy="85.7" r="2.8"/>
	<circle class="chapterCircle0" cx="93.9" cy="93.9" r="2.8"/>
	<circle class="chapterCircle0" cx="93.9" cy="102.1" r="2.8"/>
	<circle class="chapterCircle0" cx="93.9" cy="110.2" r="2.8"/>
	<circle class="chapterCircle0" cx="93.9" cy="118.4" r="2.8"/>
	<circle class="chapterCircle0" cx="93.9" cy="126.6" r="2.8"/>
	<circle class="chapterCircle0" cx="93.9" cy="191.9" r="2.8"/>
	<circle class="chapterCircle0" cx="93.9" cy="200.1" r="2.8"/>
	<circle class="chapterCircle0" cx="93.9" cy="208.2" r="2.8"/>
	<circle class="chapterCircle0" cx="85.7" cy="44.9" r="2.8"/>
	<circle class="chapterCircle0" cx="85.7" cy="53.1" r="2.8"/>
	<circle class="chapterCircle0" cx="85.7" cy="61.2" r="2.8"/>
	<circle class="chapterCircle0" cx="85.7" cy="69.4" r="2.8"/>
	<circle class="chapterCircle0" cx="85.7" cy="77.6" r="2.8"/>
	<circle class="chapterCircle0" cx="85.7" cy="85.7" r="2.8"/>
	<circle class="chapterCircle0" cx="85.7" cy="93.9" r="2.8"/>
	<circle class="chapterCircle0" cx="85.7" cy="102.1" r="2.8"/>
	<circle class="chapterCircle0" cx="85.7" cy="110.2" r="2.8"/>
	<circle class="chapterCircle0" cx="85.7" cy="118.4" r="2.8"/>
	<circle class="chapterCircle0" cx="85.7" cy="126.6" r="2.8"/>
	<circle class="chapterCircle0" cx="85.7" cy="208.2" r="2.8"/>
	<circle class="chapterCircle0" cx="77.6" cy="44.9" r="2.8"/>
	<circle class="chapterCircle0" cx="77.6" cy="53.1" r="2.8"/>
	<circle class="chapterCircle0" cx="77.6" cy="61.2" r="2.8"/>
	<circle class="chapterCircle0" cx="77.6" cy="69.4" r="2.8"/>
	<circle class="chapterCircle0" cx="77.6" cy="77.6" r="2.8"/>
	<circle class="chapterCircle0" cx="77.6" cy="85.7" r="2.8"/>
	<circle class="chapterCircle0" cx="77.6" cy="93.9" r="2.8"/>
	<circle class="chapterCircle0" cx="77.6" cy="102.1" r="2.8"/>
	<circle class="chapterCircle0" cx="77.6" cy="110.2" r="2.8"/>
	<circle class="chapterCircle0" cx="77.6" cy="118.4" r="2.8"/>
	<circle class="chapterCircle0" cx="77.6" cy="126.6" r="2.8"/>
	<circle class="chapterCircle0" cx="77.6" cy="134.7" r="2.8"/>
	<circle class="chapterCircle0" cx="69.4" cy="36.8" r="2.8"/>
	<circle class="chapterCircle0" cx="69.4" cy="44.9" r="2.8"/>
	<circle class="chapterCircle0" cx="69.4" cy="53.1" r="2.8"/>
	<circle class="chapterCircle0" cx="69.4" cy="61.2" r="2.8"/>
	<circle class="chapterCircle0" cx="69.4" cy="69.4" r="2.8"/>
	<circle class="chapterCircle0" cx="69.4" cy="77.6" r="2.8"/>
	<circle class="chapterCircle0" cx="69.4" cy="85.7" r="2.8"/>
	<circle class="chapterCircle0" cx="69.4" cy="93.9" r="2.8"/>
	<circle class="chapterCircle0" cx="69.4" cy="102.1" r="2.8"/>
	<circle class="chapterCircle0" cx="69.4" cy="110.2" r="2.8"/>
	<circle class="chapterCircle0" cx="69.4" cy="118.4" r="2.8"/>
	<circle class="chapterCircle0" cx="69.4" cy="126.6" r="2.8"/>
	<circle class="chapterCircle0" cx="69.4" cy="134.7" r="2.8"/>
	<circle class="chapterCircle0" cx="61.2" cy="36.8" r="2.8"/>
	<circle class="chapterCircle0" cx="61.2" cy="44.9" r="2.8"/>
	<circle class="chapterCircle0" cx="61.2" cy="53.1" r="2.8"/>
	<circle class="chapterCircle0" cx="61.2" cy="61.2" r="2.8"/>
	<circle class="chapterCircle0" cx="61.2" cy="69.4" r="2.8"/>
	<circle class="chapterCircle0" cx="61.2" cy="77.6" r="2.8"/>
	<circle class="chapterCircle0" cx="61.2" cy="85.7" r="2.8"/>
	<circle class="chapterCircle0" cx="61.2" cy="93.9" r="2.8"/>
	<circle class="chapterCircle0" cx="61.2" cy="102.1" r="2.8"/>
	<circle class="chapterCircle0" cx="61.2" cy="110.2" r="2.8"/>
	<circle class="chapterCircle0" cx="61.2" cy="118.4" r="2.8"/>
	<circle class="chapterCircle0" cx="61.2" cy="126.6" r="2.8"/>
	<circle class="chapterCircle0" cx="61.2" cy="134.7" r="2.8"/>
	<circle class="chapterCircle0" cx="53.1" cy="36.8" r="2.8"/>
	<circle class="chapterCircle0" cx="53.1" cy="44.9" r="2.8"/>
	<circle class="chapterCircle0" cx="53.1" cy="53.1" r="2.8"/>
	<circle class="chapterCircle0" cx="53.1" cy="61.2" r="2.8"/>
	<circle class="chapterCircle0" cx="53.1" cy="69.4" r="2.8"/>
	<circle class="chapterCircle0" cx="53.1" cy="77.6" r="2.8"/>
	<circle class="chapterCircle0" cx="53.1" cy="85.7" r="2.8"/>
	<circle class="chapterCircle0" cx="53.1" cy="93.9" r="2.8"/>
	<circle class="chapterCircle0" cx="53.1" cy="102.1" r="2.8"/>
	<circle class="chapterCircle0" cx="53.1" cy="110.2" r="2.8"/>
	<circle class="chapterCircle0" cx="53.1" cy="118.4" r="2.8"/>
	<circle class="chapterCircle0" cx="53.1" cy="126.6" r="2.8"/>
	<circle class="chapterCircle0" cx="53.1" cy="134.7" r="2.8"/>
	<circle class="chapterCircle0" cx="44.9" cy="53.1" r="2.8"/>
	<circle class="chapterCircle0" cx="44.9" cy="61.2" r="2.8"/>
	<circle class="chapterCircle0" cx="44.9" cy="69.4" r="2.8"/>
	<circle class="chapterCircle0" cx="44.9" cy="77.6" r="2.8"/>
	<circle class="chapterCircle0" cx="44.9" cy="85.7" r="2.8"/>
	<circle class="chapterCircle0" cx="44.9" cy="93.9" r="2.8"/>
	<circle class="chapterCircle0" cx="44.9" cy="102.1" r="2.8"/>
	<circle class="chapterCircle0" cx="44.9" cy="110.2" r="2.8"/>
	<circle class="chapterCircle0" cx="44.9" cy="118.4" r="2.8"/>
	<circle class="chapterCircle0" cx="44.9" cy="126.6" r="2.8"/>
	<circle class="chapterCircle0" cx="36.8" cy="53.1" r="2.8"/>
	<circle class="chapterCircle0" cx="36.8" cy="61.2" r="2.8"/>
	<circle class="chapterCircle0" cx="36.8" cy="69.4" r="2.8"/>
	<circle class="chapterCircle0" cx="36.8" cy="77.6" r="2.8"/>
	<circle class="chapterCircle0" cx="36.8" cy="85.7" r="2.8"/>
	<circle class="chapterCircle0" cx="36.8" cy="93.9" r="2.8"/>
	<circle class="chapterCircle0" cx="36.8" cy="102.1" r="2.8"/>
	<circle class="chapterCircle0" cx="36.8" cy="110.2" r="2.8"/>
	<circle class="chapterCircle0" cx="28.6" cy="44.9" r="2.8"/>
	<circle class="chapterCircle0" cx="28.6" cy="53.1" r="2.8"/>
	<circle class="chapterCircle0" cx="28.6" cy="61.2" r="2.8"/>
	<circle class="chapterCircle0" cx="28.6" cy="69.4" r="2.8"/>
	<circle class="chapterCircle0" cx="28.6" cy="77.6" r="2.8"/>
	<circle class="chapterCircle0" cx="28.6" cy="85.7" r="2.8"/>
	<circle class="chapterCircle0" cx="20.4" cy="36.8" r="2.8"/>
	<circle class="chapterCircle0" cx="20.4" cy="44.9" r="2.8"/>
	<circle class="chapterCircle0" cx="20.4" cy="53.1" r="2.8"/>
	<circle class="chapterCircle0" cx="20.4" cy="61.2" r="2.8"/>
	<circle class="chapterCircle0" cx="20.4" cy="69.4" r="2.8"/>
	<circle class="chapterCircle0" cx="20.4" cy="77.6" r="2.8"/>
	<circle class="chapterCircle0" cx="12.2" cy="36.8" r="2.8"/>
	<circle class="chapterCircle0" cx="12.2" cy="44.9" r="2.8"/>
	<circle class="chapterCircle0" cx="12.2" cy="53.1" r="2.8"/>
	<circle class="chapterCircle0" cx="12.2" cy="61.2" r="2.8"/>
	<circle class="chapterCircle0" cx="4.1" cy="53.1" r="2.8"/>
</g>
<g>
	<g id="hanoi">
		<ellipse class="chapterCircle1" cx="170.5" cy="115.5" rx="40" ry="40"/>
		<ellipse class="chapterCircle0" cx="170.5" cy="115.5" rx="26.5" ry="26.5"/>
	</g>
</g>
</svg>
