<!--?xml version="1.0" encoding="utf-8"?-->
<!-- Generator: Adobe Illustrator 22.0.1, SVG Export Plug-In . SVG Version: 6.00 Build 0)  -->
<svg version="1.1" id="Gruppo_01" xmlns="http://www.w3.org/2000/svg" xmlns:xlink="http://www.w3.org/1999/xlink" x="0px" y="0px" viewBox="0 0 20 20" style="" xml:space="preserve">
<style type="text/css">
	.st0{fill:none;stroke:#cccccc;stroke-linecap:round;stroke-linejoin:round;stroke-miterlimit:10;}
	.st1{fill:none;stroke:#cccccc;stroke-width:1.1;stroke-linecap:round;stroke-linejoin:round;stroke-miterlimit:10;}
	.st2{fill:none;stroke:#007BFF;stroke-linecap:round;stroke-linejoin:round;stroke-miterlimit:10;}
	.st3{fill:none;stroke:#007BFF;stroke-width:1.1;stroke-linecap:round;stroke-linejoin:round;stroke-miterlimit:10;}
</style>
<g>
	<path class="st0 mqlxYcYI_0" d="M17.6,5.7V4.1c0-0.6-0.5-1.1-1.1-1.1H3.7C3.1,3,2.6,3.5,2.6,4.1v8.2c0,0.6,0.5,1.1,1.1,1.1h8"></path>
	<path class="st0 mqlxYcYI_1" d="M18.3,17.5h-4.1c-0.7,0-1.2-0.5-1.2-1.2V8.6c0-0.7,0.5-1.2,1.2-1.2h4.1c0.7,0,1.2,0.5,1.2,1.2v7.6
		C19.5,16.9,19,17.5,18.3,17.5z"></path>
	<path class="st0 mqlxYcYI_2" d="M11.6,15.5H1.2v1c0,0.6,0.5,1.1,1.1,1.1h9.4"></path>
	<path class="st1 mqlxYcYI_3" d="M16.3,15.8L16.2,15.8"></path>
</g>
<g>
	<path class="st2 mqlxYcYI_4" d="M17.6,5.7V4.1c0-0.6-0.5-1.1-1.1-1.1H3.7C3.1,3,2.6,3.5,2.6,4.1v8.2c0,0.6,0.5,1.1,1.1,1.1h8"></path>
	<path class="st2 mqlxYcYI_5" d="M18.3,17.5h-4.1c-0.7,0-1.2-0.5-1.2-1.2V8.6c0-0.7,0.5-1.2,1.2-1.2h4.1c0.7,0,1.2,0.5,1.2,1.2v7.6
		C19.5,16.9,19,17.5,18.3,17.5z"></path>
	<path class="st2 mqlxYcYI_6" d="M11.6,15.5H1.2v1c0,0.6,0.5,1.1,1.1,1.1h9.4"></path>
	<path class="st3 mqlxYcYI_7" d="M16.3,15.8L16.2,15.8"></path>
</g>
<style>
		.mqlxYcYI_4{stroke-dasharray:36 38;stroke-dashoffset:37;animation:mqlxYcYI_draw 1500ms ease 0ms forwards;}
		.mqlxYcYI_5{stroke-dasharray:32 34;stroke-dashoffset:33;animation:mqlxYcYI_draw 1500ms ease 0ms forwards;}
		.mqlxYcYI_6{stroke-dasharray:23 25;stroke-dashoffset:24;animation:mqlxYcYI_draw 1500ms ease 0ms forwards;}
		.mqlxYcYI_7{stroke-dasharray:1 3;stroke-dashoffset:2;animation:mqlxYcYI_draw 1500ms ease 0ms forwards;}
		@keyframes mqlxYcYI_draw{100%{stroke-dashoffset:0;}}
		@keyframes mqlxYcYI_fade{0%{stroke-opacity:1;}92.98245614035088%{stroke-opacity:1;}100%{stroke-opacity:0;}}
</style>
</svg>
