<?xml version="1.0" encoding="UTF-8"?>
<svg width="56px" height="56px" viewBox="0 0 56 56" version="1.1" xmlns="http://www.w3.org/2000/svg" xmlns:xlink="http://www.w3.org/1999/xlink">
    <!-- Generator: Sketch 49.3 (51167) - http://www.bohemiancoding.com/sketch -->
    <title>ico/ic_credit_bureau</title>
    <desc>Created with Sketch.</desc>
    <defs></defs>
    <g id="Page-1" stroke="none" stroke-width="1" fill="none" fill-rule="evenodd">
        <g id="08_config" transform="translate(-354.000000, -1038.000000)">
            <g id="Stacked-Group" transform="translate(260.000000, 471.000000)">
                <g id="box2" transform="translate(0.000000, 136.000000)">
                    <g id="terms" transform="translate(1.000000, 384.000000)">
                        <g id="Group" transform="translate(93.000000, 47.000000)">
                            <g id="ico/ic_credit_bureau">
                                <g>
                                    <rect id="Rectangle" fill="#FFFFFF" opacity="0" x="0" y="0" width="56" height="56"></rect>
                                    <path d="M56,28 C56,43.4637 43.4637,56 28,56 C12.5363,56 0,43.4637 0,28 C0,12.5363 12.5363,0 28,0 C43.4637,0 56,12.5363 56,28" id="Fill-1" fill="#F5F5F5"></path>
                                    <path d="M39.57023,45.28685 L46.06903,45.28685 C43.91373,45.28685 42.16933,43.54315 42.16933,41.38785 L42.16933,17.99315 L39.57023,17.99315 L39.57023,45.28685 Z" id="Fill-7" fill="#FFFFFF"></path>
                                    <path d="M39.57023,49.18613 L39.57023,17.99343 C39.57023,15.11993 41.89563,12.79453 44.76913,12.79453 L10.97663,12.79453 C8.10313,12.79453 5.77773,15.11993 5.77773,17.99343 L5.77773,49.18613 L39.57023,49.18613 Z" id="Fill-9" fill="#FFFFFF"></path>
                                    <path d="M14.9401,34.1341 L14.9401,27.979 L21.014,27.979 L21.014,34.1341 L14.9401,34.1341 Z M20.139,33.2591 L20.139,28.854 L15.8151,28.854 L15.8151,33.2591 L20.139,33.2591 Z" id="Fill-11" fill="#4C4C4C" fill-rule="nonzero"></path>
                                    <path d="M8.37746,17.99336 L36.97106,17.99336 L8.37746,17.99336 Z" id="Fill-14" fill="#FFFFFF"></path>
                                    <path d="M24.00076,33.15662 L36.97106,33.15662 L24.00076,33.15662 Z" id="Fill-15" fill="#FFFFFF"></path>
                                    <path d="M24.00076,35.7966 L36.97106,35.7966 L24.00076,35.7966 Z" id="Fill-16" fill="#FFFFFF"></path>
                                    <path d="M8.3909,33.15662 L21.3612,33.15662 L8.3909,33.15662 Z" id="Fill-17" fill="#FFFFFF"></path>
                                    <path d="M8.3909,35.7966 L21.3612,35.7966 L8.3909,35.7966 Z" id="Fill-18" fill="#FFFFFF"></path>
                                    <path d="M49.21826,41.38785 C49.21826,43.12455 47.80496,44.53715 46.06826,44.53715 C44.33226,44.53715 42.91896,43.12455 42.91896,41.38785 L42.91896,17.24345 L40.38776,17.24345 C40.74616,15.14695 42.57176,13.54395 44.76906,13.54395 C47.22256,13.54395 49.21826,15.54035 49.21826,17.99315 L49.21826,41.38785 Z M40.31986,44.53715 L40.31986,18.74285 L41.42026,18.74285 L41.42026,41.38785 C41.42026,42.56735 41.86196,43.68315 42.65156,44.53715 L40.31986,44.53715 Z M38.82046,48.43615 L6.52736,48.43615 L6.52736,17.99315 C6.52736,15.54035 8.52376,13.54395 10.97656,13.54395 L40.82386,13.54395 C39.55756,14.66745 38.82046,16.28095 38.82046,17.99315 L38.82046,48.43615 Z M45.03156,12.05785 L45.03156,12.04455 L44.76906,12.04455 L44.50656,12.04455 L10.97656,12.04455 C7.69706,12.04455 5.02866,14.71365 5.02866,17.99315 L5.02866,49.93555 L40.31986,49.93555 L40.31986,46.03655 L45.80646,46.03655 L46.06826,46.03655 L46.33076,46.03655 L46.33076,46.02325 C48.77166,45.88605 50.71766,43.86235 50.71766,41.38785 L50.71766,17.99315 C50.71766,14.80185 48.18926,12.19645 45.03156,12.05785 L45.03156,12.05785 Z" id="Fill-19" fill="#4C4C4C"></path>
                                    <path d="M36.53601,18.7838 L9.66371,18.7838 C9.27731,18.7838 8.96371,18.4709 8.96371,18.0838 C8.96371,17.6967 9.27731,17.3838 9.66371,17.3838 L36.53601,17.3838 C36.92241,17.3838 37.23601,17.6967 37.23601,18.0838 C37.23601,18.4709 36.92241,18.7838 36.53601,18.7838" id="Fill-20" fill="#4C4C4C"></path>
                                    <path d="M36.53601,20.8838 L9.66371,20.8838 C9.27731,20.8838 8.96371,20.5709 8.96371,20.1838 C8.96371,19.7967 9.27731,19.4838 9.66371,19.4838 L36.53601,19.4838 C36.92241,19.4838 37.23601,19.7967 37.23601,20.1838 C37.23601,20.5709 36.92241,20.8838 36.53601,20.8838" id="Fill-21" fill="#4C4C4C"></path>
                                    <path d="M29.05,22.9838 L17.15,22.9838 C16.7636,22.9838 16.45,22.6709 16.45,22.2838 C16.45,21.8967 16.7636,21.5838 17.15,21.5838 L29.05,21.5838 C29.4364,21.5838 29.75,21.8967 29.75,22.2838 C29.75,22.6709 29.4364,22.9838 29.05,22.9838" id="Fill-22" fill="#4C4C4C"></path>
                                    <path d="M29.9488,32.025 L23.45,32.025 C23.0636,32.025 22.75,31.7121 22.75,31.325 C22.75,30.9379 23.0636,30.625 23.45,30.625 L29.9488,30.625 C30.3352,30.625 30.6488,30.9379 30.6488,31.325 C30.6488,31.7121 30.3352,32.025 29.9488,32.025" id="Fill-23" fill="#4C4C4C"></path>
                                    <path d="M29.9488,39.9 L23.45,39.9 C23.0636,39.9 22.75,39.5871 22.75,39.2 C22.75,38.8129 23.0636,38.5 23.45,38.5 L29.9488,38.5 C30.3352,38.5 30.6488,38.8129 30.6488,39.2 C30.6488,39.5871 30.3352,39.9 29.9488,39.9" id="Fill-27" fill="#4C4C4C"></path>
                                    <path d="M14.9401,42.756 L14.9401,36.6009 L21.014,36.6009 L21.014,42.756 L14.9401,42.756 Z M20.139,41.881 L20.139,37.4759 L15.8151,37.4759 L15.8151,41.881 L20.139,41.881 Z" id="Fill-1" fill="#4C4C4C" fill-rule="nonzero"></path>
                                    <path d="M8.39097,46.15373 L21.36057,46.15373 L8.39097,46.15373 Z" id="Fill-3" fill="#FFFFFF"></path>
                                    <path d="M23.99418,46.15373 L36.96378,46.15373 L23.99418,46.15373 Z" id="Fill-4" fill="#FFFFFF"></path>
                                </g>
                            </g>
                        </g>
                    </g>
                </g>
            </g>
        </g>
    </g>
</svg>