<?xml version="1.0" encoding="UTF-8"?>
<svg width="56px" height="56px" viewBox="0 0 56 56" version="1.1" xmlns="http://www.w3.org/2000/svg" xmlns:xlink="http://www.w3.org/1999/xlink">
    <!-- Generator: Sketch 49.3 (51167) - http://www.bohemiancoding.com/sketch -->
    <title>ico/ic_security_variant</title>
    <desc>Created with Sketch.</desc>
    <defs></defs>
    <g id="Page-1" stroke="none" stroke-width="1" fill="none" fill-rule="evenodd">
        <g id="08_config" transform="translate(-354.000000, -1265.000000)">
            <g id="Stacked-Group" transform="translate(260.000000, 471.000000)">
                <g id="box2" transform="translate(0.000000, 136.000000)">
                    <g id="benefits" transform="translate(94.000000, 601.000000)">
                        <g id="ico/ic_security_variant" transform="translate(0.000000, 57.000000)">
                            <g>
                                <path d="M56,28 C56,43.4642727 43.4642727,56 28,56 C12.5357273,56 0,43.4642727 0,28 C0,12.5357273 12.5357273,0 28,0 C43.4642727,0 56,12.5357273 56,28" id="Fill-1" fill="#F5F5F5"></path>
                                <rect id="Rectangle" fill="#FFFFFF" opacity="0" x="0" y="0" width="56" height="56"></rect>
                                <path d="M9.92259277,14.2124627 C9.92259277,14.2124627 11.3246169,46.4576675 28.8492434,49.2617157 C28.8492434,49.2617157 49.8789301,40.8502458 47.775894,14.2124627 C47.775894,14.2124627 31.6532916,10.0063904 29.5502554,7.20234217 C29.5502554,7.20234217 15.5306892,15.6144867 9.92259277,14.2124627" id="Fill-1" fill="#FFFFFF"></path>
                                <path d="M48.314506,13.3099181 C48.2038554,13.2984482 37.1624096,12.1413398 29.5227952,6.59194217 C29.357494,6.47252048 29.1638554,6.40977349 28.9614458,6.40977349 C28.7590361,6.40977349 28.5653976,6.47252048 28.4007711,6.59194217 C20.6592771,12.2135325 9.71566265,13.2984482 9.60703614,13.3092434 C9.11585542,13.357147 8.74477108,13.7653398 8.74477108,14.259894 C8.74477108,14.5581108 8.77310843,21.6606651 11.193253,29.6437012 C12.6242892,34.3605205 14.6004819,38.3945446 17.066506,41.6324241 C20.1836145,45.7231229 24.0880964,48.5413398 28.6706506,50.0094843 C28.7651084,50.0391711 28.8636145,50.0546892 28.9614458,50.0546892 C29.0599518,50.0546892 29.1577831,50.0391711 29.2529157,50.0088096 C33.8368193,48.5413398 37.7399518,45.7224482 40.8563855,41.6310747 C43.3224096,38.3938699 45.2986024,34.3598458 46.7296386,29.6430265 C49.1497831,21.6599904 49.1781205,14.5574361 49.1781205,14.2585446 C49.1781205,13.7653398 48.8070361,13.357147 48.314506,13.3099181 L48.314506,13.3099181 Z M47.2295904,15.5107855 C47.1000482,18.1414361 46.6264096,23.4040867 44.9025542,29.0884241 C41.8637108,39.1083759 36.5497831,45.4869783 29.1071807,48.0461108 L28.9621205,48.0960386 L28.8170602,48.0461108 C21.3906506,45.4923759 16.0827952,39.1353639 13.0399036,29.1538699 C11.305253,23.4607614 10.8262169,18.1630265 10.6939759,15.5114602 L10.6737349,15.1052916 L11.0758554,15.0472675 C14.2266988,14.5871229 22.252241,13.0474602 28.7118072,8.7024 L28.9614458,8.5350747 L29.2110843,8.7024 C35.6672771,13.0474602 43.6961928,14.5857735 46.8470361,15.0472675 L47.2484819,15.1052916 L47.2295904,15.5107855 Z" id="Fill-3" fill="#4C4C4C"></path>
                                <path d="M36.9226217,27.4480289 C36.8895614,31.8963181 33.2556337,35.4762699 28.8073446,35.4425349 C24.3583807,35.4094747 20.7791036,31.7762217 20.8128386,27.3272578 C20.8458988,22.8789687 24.4791518,19.2996916 28.9281157,19.3327518 C33.3764048,19.365812 36.9556819,22.9997398 36.9226217,27.4480289" id="Fill-6" fill="#FFFFFF"></path>
                                <path d="M36.5368964,28.0300241 C36.5051855,32.2893976 33.036559,35.729012 28.8048482,35.6973012 C24.5731373,35.6655904 21.1564627,32.1746988 21.1888482,27.9153253 C21.220559,23.6552771 24.6891855,20.2156627 28.9208964,20.2473735 C33.1519325,20.2790843 36.5686072,23.7706506 36.5368964,28.0300241 M37.5199325,28.0374458 C37.5563663,23.2315663 33.701812,19.2926747 28.9283181,19.2569157 C24.1548241,19.2211566 20.2422458,23.1020241 20.2064867,27.9079036 C20.170053,32.7137831 24.0239325,36.6526747 28.7974265,36.6884337 C33.5709205,36.7241928 37.4841735,32.8433253 37.5199325,28.0374458" id="Fill-8" fill="#4C4C4C"></path>
                                <path d="M28.9177253,20.6318843 C24.8978699,20.6015229 21.6033157,23.8704386 21.5729542,27.9179566 C21.5432675,31.9654747 24.787894,35.2829687 28.8077494,35.3133301 C32.8276048,35.3436916 36.122159,32.0747759 36.1525205,28.0272578 C36.1828819,23.9797398 32.9375807,20.6622458 28.9177253,20.6318843 M28.8016771,36.081812 C24.3581108,36.0487518 20.7707373,32.383788 20.8044723,27.912559 C20.8375325,23.4406554 24.4802313,19.8303422 28.9237976,19.8634024 C33.3673639,19.8964627 36.955412,23.5614265 36.9216771,28.0333301 C36.8879422,32.504559 33.2452434,36.1148723 28.8016771,36.081812 M28.925147,19.6414265 C24.3641831,19.6070169 20.6250024,23.3165108 20.5905928,27.9105349 C20.5561831,32.504559 24.2393639,36.270053 28.8003277,36.303788 C33.3619663,36.3381976 37.101147,32.6287036 37.1355566,28.0346795 C37.1699663,23.4406554 33.4867855,19.6751614 28.925147,19.6414265 M28.7942554,37.0722699 C23.8095807,37.0351614 19.7843277,32.9228723 19.8214361,27.9051373 C19.8592193,22.8874024 23.9458699,18.8351614 28.9312193,18.8729446 C33.9165687,18.910053 37.9424964,23.0223422 37.9047133,28.0400771 C37.8669301,33.057812 33.7802795,37.110053 28.7942554,37.0722699" id="Fill-10" fill="#4C4C4C"></path>
                                <path d="M29.2408386,27.368212 C28.3907181,27.0065735 28.1458024,26.7899952 28.1491759,26.4013687 C28.1512,26.0916819 28.3799229,25.7313928 29.0154892,25.7361157 C29.6166458,25.7408386 29.9917783,25.9601157 30.1516819,26.0538988 L30.3190072,26.1517301 L30.6867181,25.1970313 L30.5666217,25.1255133 C30.2211759,24.9190554 29.8359229,24.7996337 29.3912964,24.7618506 L29.3987181,23.8064771 L28.4676337,23.7997301 L28.460212,24.8138024 C27.5655614,25.0060916 26.9907181,25.6598747 26.9846458,26.5106699 C26.9772241,27.5375614 27.7915855,28.0085012 28.6720675,28.3640675 C29.3744289,28.6568867 29.6591518,28.9503807 29.6557783,29.3774651 C29.6524048,29.8497542 29.2536578,30.1641639 28.6626217,30.1601157 C28.2045012,30.1567422 27.730188,30.0103325 27.3618024,29.7586699 L27.1870554,29.6392482 L26.8348627,30.6094651 L26.9353928,30.6830072 C27.2734169,30.929947 27.8131759,31.1053687 28.3448386,31.1465253 L28.3374169,32.1383325 L29.277947,32.1457542 L29.2860434,31.1019952 C30.2083566,30.9009349 30.8230072,30.1985735 30.8297542,29.3180916 C30.8365012,28.4207422 30.3608386,27.8378024 29.2408386,27.368212" id="Fill-12" fill="#4C4C4C"></path>
                                <path d="M28.4788337,32.0000193 L29.1386892,32.0047422 L29.1461108,30.9893205 L29.2560867,30.965706 C30.1203759,30.7761157 30.6830747,30.1290795 30.689147,29.3174169 C30.695894,28.4753928 30.2607133,27.948453 29.1865928,27.4977542 L29.1859181,27.4970795 C28.3857253,27.1570313 28.0051952,26.9060434 28.0085687,26.4013687 C28.0119422,25.9965494 28.3283759,25.6065735 29.0165687,25.5957783 C29.6548337,25.6005012 30.052906,25.8332723 30.2222554,25.9331277 L30.247894,25.9472964 L30.5130506,25.2570795 L30.494159,25.2462843 C30.1669301,25.049947 29.8025928,24.9365976 29.3795566,24.9008386 L29.2500145,24.8900434 L29.2574361,23.9454651 L28.6070265,23.9407422 L28.6002795,24.9271518 L28.4896289,24.9507663 C27.6536771,25.1309108 27.1307855,25.728694 27.1247133,26.5120193 C27.1179663,27.4026217 27.7596048,27.8438747 28.7244241,28.2338506 C29.479412,28.5482602 29.7992193,28.8910072 29.7965205,29.3781398 C29.7917976,29.9232964 29.3309783,30.300453 28.6751711,30.300453 L28.6610024,30.300453 C28.1772434,30.2964048 27.6745928,30.1412241 27.2839422,29.8747181 L27.2569542,29.8565012 L27.0019181,30.558188 L27.0181108,30.5696578 C27.3331952,30.7997301 27.8446169,30.9670554 28.3553639,31.0068627 L28.4855807,31.0169831 L28.4788337,32.0000193 Z M29.4166651,32.2867663 L28.1968096,32.2779952 L28.2035566,31.2740434 C27.687412,31.2133205 27.1793639,31.0345253 26.8521349,30.7956819 L26.6665928,30.6593928 L27.1172916,29.4213205 L27.4418217,29.6432964 C27.7872675,29.879441 28.2332434,30.0170795 28.6637012,30.0197783 L28.6758458,30.0197783 C29.1832193,30.0197783 29.5124723,29.7681157 29.5158458,29.3761157 C29.5178699,29.0725012 29.3660627,28.8053205 28.6178217,28.4929349 C27.7366651,28.1380434 26.8359422,27.6239229 26.8440386,26.5099952 C26.8507855,25.6376096 27.4269783,24.9386217 28.3209542,24.7024771 L28.3290506,23.6587181 L29.5394602,23.6674892 L29.5320386,24.6350072 C29.9449542,24.6856096 30.3079422,24.8070554 30.6378699,25.0054169 L30.8598458,25.1383325 L30.3902554,26.3568386 L30.0805687,26.1753446 C29.9301108,26.086959 29.5779181,25.8798265 29.0145446,25.876453 L29.0030747,25.876453 C28.4801831,25.876453 28.2912675,26.1476819 28.2892434,26.4033928 C28.2872193,26.6847422 28.4316048,26.8723084 29.2945446,27.2386699 C30.4604241,27.7278265 30.9765687,28.3694651 30.9698217,29.3201157 C30.9624,30.2323084 30.3605687,30.9650313 29.4254361,31.2126458 L29.4166651,32.2867663 Z" id="Fill-14" fill="#4C4C4C"></path>
                            </g>
                        </g>
                    </g>
                </g>
            </g>
        </g>
    </g>
</svg>