<?xml version="1.0" encoding="UTF-8"?>
<svg width="72px" height="72px" viewBox="0 0 72 72" version="1.1" xmlns="http://www.w3.org/2000/svg" xmlns:xlink="http://www.w3.org/1999/xlink">
    <!-- Generator: Sketch 50.2 (55047) - http://www.bohemiancoding.com/sketch -->
    <title>icobig/insurance_pack_A</title>
    <desc>Created with Sketch.</desc>
    <defs></defs>
    <g id="icobig/insurance_pack_A" stroke="none" stroke-width="1" fill="none" fill-rule="evenodd">
        <rect id="Rectangle" fill="#FFFFFF" opacity="0" x="0" y="0" width="72" height="72"></rect>
        <path d="M57.7549,20.3838 C52.5879,20.0538 46.3489,14.2568 46.2869,14.1978 C46.0049,13.9338 45.5649,13.9348 45.2819,14.1978 C45.2209,14.2568 38.9889,20.0528 33.8149,20.3838 C33.4299,20.4078 33.1289,20.7268 33.1289,21.1108 L33.1289,25.6848 C33.1289,30.2318 34.7319,33.9758 36.7729,36.9248 C36.8339,36.9668 36.8989,36.9998 36.9589,37.0428 C37.0469,37.1008 37.1349,37.1578 37.2249,37.2108 C37.6069,37.3278 37.9949,37.4228 38.3949,37.4838 C38.6929,37.5388 38.9789,37.6188 39.2569,37.7138 C36.7839,34.7508 34.5939,30.7168 34.5939,25.6848 L34.5939,21.7688 C39.2559,21.1248 44.2099,17.0878 45.7849,15.7098 C47.3589,17.0878 52.3149,21.1248 56.9769,21.7688 L56.9769,25.6848 C56.9769,30.7998 54.7119,34.8908 52.1899,37.8658 C53.0649,37.5688 53.9399,37.2478 54.8089,36.9268 C56.8479,33.9788 58.4409,30.2268 58.4409,25.6848 L58.4409,21.1108 C58.4409,20.7268 58.1399,20.4078 57.7549,20.3838" id="Fill-5" fill="#F36F20"></path>
        <polygon id="Fill-7" points="19 40.1978 26 50.1978 26.944 50.1978 29 50.1978 31 50.1978 44 53.1978 46 52.1978 51 49.1978 56 45.1978 60 41.1978 60 40.1978 59 39.1978 57 38.1978 55.787 38.1978 54 39.1978 52 40.1978 52 41.1978 50 42.1978 48 42.1978 47 43.1978 46 42.1978 44 41.1978 42 41.1978 39 40.1978 37 39.1978 35 38.1978 34 37.1978 29 36.1978 26 37.1978 20 40.1978"></polygon>
        <path d="M43.4297,53.938 C43.3677,53.938 43.3117,53.933 43.2607,53.922 L28.5627,50.902 C27.7327,50.732 27.3877,50.966 26.9897,51.238 L26.8017,51.363 L26.0067,50.139 L26.1587,50.037 C26.6597,49.695 27.4157,49.179 28.8587,49.476 L43.5557,52.496 C44.5697,52.452 51.2407,48.297 52.8757,47.108 C53.7187,46.494 57.7467,42.582 59.3757,40.498 C58.8737,39.926 57.7997,39.316 56.2997,39.353 C54.7557,39.385 53.5777,40.165 51.7987,42.333 C51.7037,42.45 51.5747,42.534 51.4287,42.575 L46.1047,44.05 L45.7117,42.646 L50.8137,41.232 C52.5047,39.203 54.0297,37.943 56.2697,37.895 C58.6017,37.85 60.3657,39.024 60.9297,40.213 C61.0417,40.45 61.0187,40.73 60.8667,40.944 C59.3607,43.074 54.7397,47.557 53.7407,48.284 C53.6587,48.343 45.4917,53.938 43.4297,53.938" id="Fill-9" fill="#F36F20"></path>
        <path d="M43.4961,47.4277 C43.1551,47.4277 42.8031,47.3907 42.4411,47.3167 L34.0421,45.5917 L34.3381,44.1647 L42.7371,45.8897 C43.7751,46.1017 44.6371,45.8997 45.1571,45.3177 C45.5621,44.8647 45.6951,44.2267 45.5041,43.6517 C45.2571,42.9117 44.5491,42.3857 43.5091,42.1717 L37.9621,41.0317 C37.3351,40.9037 36.8141,40.3157 36.2131,39.6337 C35.6811,39.0317 35.0191,38.2817 34.4861,38.1727 L29.2371,37.0937 C28.1171,36.8647 26.3291,37.4587 25.1421,38.1657 C23.2711,39.3707 20.1081,41.4217 20.1081,41.4217 L19.3091,40.2007 C19.3091,40.2007 22.4751,38.1477 24.3691,36.9277 C25.8241,36.0617 27.9761,35.3467 29.5331,35.6667 L34.7821,36.7457 C35.7951,36.9537 36.6011,37.8667 37.3121,38.6717 C37.6191,39.0177 38.0801,39.5407 38.2691,39.6077 L43.8041,40.7447 C45.3551,41.0637 46.4811,41.9557 46.8931,43.1937 C47.2491,44.2607 47.0031,45.4457 46.2521,46.2867 C45.5841,47.0327 44.6121,47.4277 43.4961,47.4277" id="Fill-11" fill="#F36F20"></path>
        <path d="M12.7539,42.5449 L21.9769,56.2699 L27.0639,52.9949 L17.8399,39.2699 L12.7539,42.5449 Z M21.7709,57.9999 C21.5339,57.9999 21.3019,57.8859 21.1609,57.6759 L11.1239,42.7399 C11.0149,42.5779 10.9759,42.3779 11.0159,42.1869 C11.0549,41.9969 11.1699,41.8289 11.3349,41.7229 L17.6499,37.6559 C17.9879,37.4409 18.4339,37.5329 18.6559,37.8629 L28.6929,52.7989 C28.8029,52.9619 28.8419,53.1609 28.8019,53.3519 C28.7629,53.5429 28.6479,53.7109 28.4829,53.8159 L22.1669,57.8829 C22.0439,57.9619 21.9059,57.9999 21.7709,57.9999 Z" id="Fill-13" fill="#F36F20"></path>
    </g>
</svg>