<?xml version="1.0" encoding="UTF-8"?>
<svg width="48px" height="48px" viewBox="0 0 48 48" version="1.1" xmlns="http://www.w3.org/2000/svg" xmlns:xlink="http://www.w3.org/1999/xlink">
    <!-- Generator: Sketch 51.1 (57501) - http://www.bohemiancoding.com/sketch -->
    <title>status/attend</title>
    <desc>Created with Sketch.</desc>
    <defs></defs>
    <g id="Banker" stroke="none" stroke-width="1" fill="none" fill-rule="evenodd">
        <g id="12_Account_Opening_Banker" transform="translate(-227.000000, -829.000000)">
            <g id="Group" transform="translate(196.000000, 439.000000)">
                <g id="Box" transform="translate(0.000000, 366.000000)">
                    <g id="status/error" transform="translate(31.000000, 24.000000)">
                        <g id="Group-3">
                            <circle id="Oval-6" fill="#D0021B" cx="24" cy="24" r="24"></circle>
                            <path d="M31.7732601,30.6961106 L31.7732601,30.6961106 L25.0817629,24.0046135 L31.7732601,17.3131163 C31.9170688,17.1696451 31.9957248,16.9775625 31.9947121,16.7729894 C31.9940369,16.5680788 31.9140306,16.3756586 31.7688715,16.2304995 C31.4616744,15.9229647 30.9975028,15.9233023 30.6903056,16.2304995 L23.9991461,22.921659 L17.3073113,16.2304995 C17.1618147,16.0846652 16.9690569,16.0039838 16.7638087,16.0036462 C16.6145986,16.0114105 16.3941593,16.0569837 16.2246945,16.2261109 C16.0802105,16.3709325 15.9998667,16.5640278 15.9998667,16.7696136 C15.9998667,16.9751994 16.0802105,17.1682948 16.2246945,17.3131163 L22.9161916,24.0046135 L16.2287454,30.6913845 C16.0829112,30.8375563 16.0025673,31.0306517 16.0022297,31.2352248 C16.0015546,31.4391227 16.0808857,31.6305301 16.2246945,31.7743389 C16.3698536,31.919498 16.5626114,31.9991668 16.7685348,31.9991668 L16.7688723,31.9991668 C16.9744581,31.9991668 17.1672159,31.919498 17.3120375,31.7743389 L23.9991461,25.0872303 L30.6903056,31.7787275 C30.9883882,32.0754597 31.4738272,32.0734342 31.7732601,31.7743389 C31.9170688,31.6308677 31.9960624,31.4391227 31.9960624,31.2352248 C31.9960624,31.0313269 31.9170688,30.8399194 31.7732601,30.6961106" id="Fill-1" stroke="#FFFFFF" stroke-width="0.8" fill="#FFFFFF"></path>
                        </g>
                    </g>
                </g>
            </g>
        </g>
    </g>
</svg>