<?xml version="1.0" encoding="UTF-8"?>
<svg width="34px" height="34px" viewBox="0 0 34 34" version="1.1" xmlns="http://www.w3.org/2000/svg" xmlns:xlink="http://www.w3.org/1999/xlink">
    <!-- Generator: Sketch 48.2 (47327) - http://www.bohemiancoding.com/sketch -->
    <title>icon/consult</title>
    <desc>Created with Sketch.</desc>
    <defs></defs>
    <g id="Danube_intro" stroke="none" stroke-width="1" fill="none" fill-rule="evenodd" transform="translate(-605.000000, -292.000000)">
        <g id="buttons" transform="translate(528.000000, 199.000000)" fill="#FFFFFF">
            <g id="icon/consult" transform="translate(77.000000, 93.000000)">
                <path d="M31.1602289,0 L2.84673697,0 C1.27998247,0 0,1.27998354 0,2.84673935 L0,31.1532606 C0,32.7200165 1.27998247,34 2.84673697,34 L31.1532345,34 C32.719989,34 33.9999715,32.7200165 33.9999715,31.1532606 L33.9999715,2.84673935 C34.0069659,1.27998354 32.7269834,0 31.1602289,0 L31.1602289,0 Z M32.3283004,31.1602551 C32.3283004,31.8037441 31.8037174,32.3283275 31.1602289,32.3283275 L2.84673697,32.3283275 C2.20324851,32.3283275 1.67866553,31.8037441 1.67866553,31.1602551 L1.67866553,2.84673935 C1.67866553,2.20325036 2.20324851,1.67866694 2.84673697,1.67866694 L31.1532345,1.67866694 C31.796723,1.67866694 32.3213059,2.20325036 32.3213059,2.84673935 L32.3213059,31.1602551 L32.3283004,31.1602551 Z M13.4992687,21.0253034 C13.17053,20.6965645 12.6389526,20.6965645 12.3102139,21.0253034 L9.78522117,23.5502983 L7.26022843,21.0253034 C6.93148976,20.6965645 6.39991234,20.6965645 6.07117368,21.0253034 C5.74243501,21.3540424 5.74243501,21.8856202 6.07117368,22.2143592 L8.59616641,24.739354 L6.07117368,27.2643489 C5.74243501,27.5930878 5.74243501,28.1246657 6.07117368,28.4534046 C6.23204579,28.6142769 6.44887342,28.6982102 6.66570105,28.6982102 C6.88252868,28.6982102 7.09236187,28.6142769 7.26022843,28.4534046 L9.78522117,25.9284098 L12.3102139,28.4534046 C12.471086,28.6142769 12.6879136,28.6982102 12.9047413,28.6982102 C13.1215689,28.6982102 13.3314021,28.6142769 13.4992687,28.4534046 C13.8280073,28.1246657 13.8280073,27.5930878 13.4992687,27.2643489 L10.9742759,24.739354 L13.4992687,22.2143592 C13.8280073,21.8856202 13.8280073,21.3540424 13.4992687,21.0253034 Z M14.1987126,9.21168484 L10.6315484,9.21168484 L10.6315484,5.64451759 C10.6315484,5.18288418 10.2538486,4.80518412 9.79221561,4.80518412 C9.33058258,4.80518412 8.95288284,5.18288418 8.95288284,5.64451759 L8.95288284,9.21168484 L5.38571858,9.21168484 C4.92408556,9.21168484 4.54638582,9.5893849 4.54638582,10.0510183 C4.54638582,10.5126517 4.92408556,10.8903518 5.38571858,10.8903518 L8.95288284,10.8903518 L8.95288284,14.457519 C8.95288284,14.9191524 9.33058258,15.2968525 9.79221561,15.2968525 C10.2538486,15.2968525 10.6315484,14.9191524 10.6315484,14.457519 L10.6315484,10.8903518 L14.1987126,10.8903518 C14.6603456,10.8903518 15.0380454,10.5126517 15.0380454,10.0510183 C15.0380454,9.5893849 14.6603456,9.21168484 14.1987126,9.21168484 Z M28.250542,25.9563876 L20.7315193,25.9563876 C20.2698863,25.9563876 19.8921866,26.3340876 19.8921866,26.795721 C19.8921866,27.2573545 20.2698863,27.6350545 20.7315193,27.6350545 L28.2435476,27.6350545 C28.7051806,27.6350545 29.0828803,27.2573545 29.0828803,26.795721 C29.0828803,26.3340876 28.712175,25.9563876 28.250542,25.9563876 Z M28.250542,21.8366591 L20.7315193,21.8366591 C20.2698863,21.8366591 19.8921866,22.2143592 19.8921866,22.6759926 C19.8921866,23.137626 20.2698863,23.5153261 20.7315193,23.5153261 L28.2435476,23.5153261 C28.7051806,23.5153261 29.0828803,23.137626 29.0828803,22.6759926 C29.0828803,22.2143592 28.712175,21.8366591 28.250542,21.8366591 Z M27.6000591,10.8903518 C28.0616921,10.8903518 28.4393919,10.5126517 28.4393919,10.0510183 C28.4393919,9.5893849 28.0616921,9.21168484 27.6000591,9.21168484 L20.0810364,9.21168484 C19.6194034,9.21168484 19.2417037,9.5893849 19.2417037,10.0510183 C19.2417037,10.5126517 19.6194034,10.8903518 20.0810364,10.8903518 L27.6000591,10.8903518 Z" id="mathematics"></path>
            </g>
        </g>
    </g>
</svg>