<?xml version="1.0" encoding="UTF-8"?>
<svg width="28px" height="29px" viewBox="0 0 28 29" version="1.1" xmlns="http://www.w3.org/2000/svg" xmlns:xlink="http://www.w3.org/1999/xlink">
    <!-- Generator: Sketch 51.1 (57501) - http://www.bohemiancoding.com/sketch -->
    <title>ico/sharing</title>
    <desc>Created with Sketch.</desc>
    <defs>
        <path d="M26.5875,10.8708333 L7.24583333,10.8708333 L7.24583333,23.9842083 C7.24583333,24.7469187 7.88998559,25.3791667 8.667375,25.3791667 L13.2916667,25.3791667 C13.6230375,25.3791667 13.8916667,25.6477958 13.8916667,25.9791667 C13.8916667,26.3105375 13.6230375,26.5791667 13.2916667,26.5791667 L8.667375,26.5791667 C7.23220243,26.5791667 6.04583333,25.4147223 6.04583333,23.9842083 L6.04583333,8.74108333 C6.04583333,7.3006731 7.24126949,6.04583333 8.667375,6.04583333 L25.19375,6.04583333 C26.617614,6.04583333 27.7875,7.29749876 27.7875,8.74108333 L27.7875,18.125 C27.7875,18.4563708 27.5188708,18.725 27.1875,18.725 C26.8561292,18.725 26.5875,18.4563708 26.5875,18.125 L26.5875,10.8708333 Z M26.5875,9.67083333 L26.5875,8.74108333 C26.5875,7.94279735 25.9360731,7.24583333 25.19375,7.24583333 L8.667375,7.24583333 C7.91737712,7.24583333 7.24583333,7.95074747 7.24583333,8.74108333 L7.24583333,9.67083333 L26.5875,9.67083333 Z M18.1291667,13.8958333 C18.1291667,12.8971377 18.9382452,12.0875 19.9375,12.0875 C20.9367548,12.0875 21.7458333,12.8971377 21.7458333,13.8958333 L21.7458333,19.1904724 L26.1066826,20.4524477 C27.2032585,20.7710248 27.8607934,21.8897546 27.6029413,23.0015317 L27.5059739,23.4183498 L26.5828072,28.5030164 C26.5309969,28.7883797 26.2824868,28.9958333 25.9924583,28.9958333 L18.5974583,28.9958333 C18.3968571,28.9958333 18.2095268,28.8955833 18.0982449,28.7286785 L14.3967494,23.1770015 C13.4591836,21.7448023 14.1257166,20.379 15.6364797,20.3760636 C16.4919127,20.374401 17.3798558,20.8072746 18.1291667,21.5941023 L18.1291667,13.8958333 Z M26.3310171,23.1761349 L26.4338473,22.7309415 C26.5477083,22.2400084 26.2572381,21.7458024 25.7725027,21.6049768 L20.9790443,20.2178102 C20.7224392,20.1435519 20.5458333,19.9085922 20.5458333,19.6414583 L20.5458333,13.8958333 C20.5458333,13.5596939 20.2738274,13.2875 19.9375,13.2875 C19.6011726,13.2875 19.3291667,13.5596939 19.3291667,13.8958333 L19.3291667,23.587875 C19.3291667,24.2353135 18.4453577,24.4237153 18.1813263,23.8325605 C17.5258197,22.3649092 16.4860286,21.5744147 15.638812,21.5760614 C15.1095246,21.5770901 14.9703484,21.8622781 15.3979634,22.5155298 L18.9185492,27.7958333 L25.4916508,27.7958333 L26.3310171,23.1761349 Z M4.225,7.25 C4.225,7.58137085 3.95637085,7.85 3.625,7.85 C3.29362915,7.85 3.025,7.58137085 3.025,7.25 C3.025,4.91642082 4.91642082,3.025 7.25,3.025 C7.58137085,3.025 7.85,3.29362915 7.85,3.625 C7.85,3.95637085 7.58137085,4.225 7.25,4.225 C5.57916252,4.225 4.225,5.57916252 4.225,7.25 Z M1.20416667,7.25 C1.20416667,7.58137085 0.935537517,7.85 0.604166667,7.85 C0.272795817,7.85 0.00416666667,7.58137085 0.00416666667,7.25 C0.00416666667,3.24811291 3.24852034,0.00416666667 7.25,0.00416666667 C7.58137085,0.00416666667 7.85,0.272795817 7.85,0.604166667 C7.85,0.935537517 7.58137085,1.20416667 7.25,1.20416667 C3.9112283,1.20416667 1.20416667,3.91088835 1.20416667,7.25 Z" id="path-1"></path>
    </defs>
    <g id="Symbols" stroke="none" stroke-width="1" fill="none" fill-rule="evenodd">
        <g id="btn-slott/sharing" transform="translate(-28.000000, -24.000000)">
            <g id="sharing">
                <g id="Group" transform="translate(8.000000, 24.000000)">
                    <g id="ico/sharing" transform="translate(20.000000, 0.000000)">
                        <mask id="mask-2" fill="white">
                            <use xlink:href="#path-1"></use>
                        </mask>
                        <use id="Mask" fill="#FFFFFF" fill-rule="nonzero" xlink:href="#path-1"></use>
                        <g id="Color/White" mask="url(#mask-2)" fill="#FFFFFF" fill-rule="evenodd">
                            <rect id="Swatch" x="0" y="0" width="28" height="29"></rect>
                        </g>
                    </g>
                </g>
            </g>
        </g>
    </g>
</svg>