<?xml version="1.0" encoding="UTF-8"?>
<svg width="79px" height="79px" viewBox="0 0 79 79" version="1.1" xmlns="http://www.w3.org/2000/svg" xmlns:xlink="http://www.w3.org/1999/xlink">
    <!-- Generator: Sketch 51 (57462) - http://www.bohemiancoding.com/sketch -->
    <title>ico/pin</title>
    <desc>Created with Sketch.</desc>
    <defs></defs>
    <g id="Danube" stroke="none" stroke-width="1" fill="none" fill-rule="evenodd">
        <g id="36_Open_Account_Danube" transform="translate(-243.000000, -305.000000)">
            <rect fill="#F5F5F5" x="0" y="0" width="1024" height="768"></rect>
            <g id="Group-2" transform="translate(47.000000, 236.000000)" fill="#F36F20">
                <g id="icobig/call_center" transform="translate(196.000000, 69.000000)">
                    <path d="M64.561913,75.4373913 C60.6297391,75.046087 43.254087,72.2913043 24.694087,53.7295652 C6.12713043,35.1643478 3.37582609,17.7904348 2.98278261,13.8582609 C7.05756522,11.1278261 11.5514783,9.08434783 16.2871304,7.80956522 C20.321913,12.1643478 23.641913,17.1278261 26.1271304,22.5173913 L19.2975652,29.3486957 L19.5114783,30.1486957 C19.868,31.4826087 22.1097391,38.5695652 30.9810435,47.4391304 C39.8610435,56.3208696 46.9393043,58.5521739 48.2714783,58.9086957 L49.0766957,59.1226087 L55.9045217,52.2913043 C61.294087,54.7782609 66.2575652,58.1 70.6106087,62.1330435 C69.334087,66.8686957 67.2906087,71.3626087 64.561913,75.4373913 M56.134087,49.2547826 L55.2453913,48.8843478 L48.2436522,55.8826087 C46.2245217,55.1765217 40.2349565,52.6252174 33.0158261,45.406087 C25.7914783,38.1834783 23.2436522,32.193913 22.5358261,30.18 L29.534087,23.1765217 L29.1636522,22.286087 C26.3949565,15.966087 22.5393043,10.1817391 17.7723478,5.19391304 L17.188,4.59217391 L16.3758261,4.80608696 C10.7497391,6.21478261 5.428,8.63391304 0.66626087,11.9452174 L0.000173913043,12.4008696 L0.040173913,13.2113043 C0.234956522,16.7347826 2.23495652,35.3417391 22.6558261,55.7626087 C43.0871304,76.193913 61.6888696,78.1852174 65.2071304,78.3747826 L66.0158261,78.4234783 L66.4784348,77.7504348 C69.788,72.9921739 72.2071304,67.6721739 73.6158261,62.0478261 L73.8314783,61.2356522 L73.2297391,60.6495652 C68.2401739,55.8843478 62.454087,52.0269565 56.134087,49.2547826" id="Fill-1"></path>
                    <polygon id="Fill-3" points="45.16 16.5613913 48.04 16.5613913 48.04 -0.000347826087 45.16 -0.000347826087"></polygon>
                    <polygon id="Fill-5" points="61.8573913 33.2605217 78.4191304 33.2605217 78.4191304 30.3822609 61.8573913 30.3822609"></polygon>
                    <polygon id="Fill-6" points="59.0930435 22.9450435 73.4373913 14.6633043 74.8773913 17.1572174 60.5330435 25.4389565"></polygon>
                    <polygon id="Fill-7" points="52.9806957 17.8857391 61.265913 3.54313043 63.758087 4.98486957 55.4746087 19.3274783"></polygon>
                </g>
            </g>
        </g>
    </g>
</svg>