<?xml version="1.0" encoding="utf-8"?>
<!-- Generator: Adobe Illustrator 23.0.1, SVG Export Plug-In . SVG Version: 6.00 Build 0)  -->
<svg version="1.1" id="Livello_1" xmlns="http://www.w3.org/2000/svg" xmlns:xlink="http://www.w3.org/1999/xlink" x="0px" y="0px"
	 width="130.2px" height="50.8px" viewBox="0 0 130.2 50.8" style="enable-background:new 0 0 130.2 50.8;" xml:space="preserve">
<style type="text/css">
	.st0{fill:none;}
	.st1{fill:url(#SVGID_1_);}
	.st2{fill:url(#SVGID_2_);}
	.st3{fill:url(#SVGID_3_);}
	.st4{fill:url(#SVGID_4_);}
	.st5{fill:url(#SVGID_5_);}
	.st6{fill:url(#SVGID_6_);}
	.st7{fill:url(#SVGID_7_);}
	.st8{fill:url(#SVGID_8_);}
	.st9{fill:url(#SVGID_9_);}
	.st10{fill:url(#SVGID_10_);}
	.st11{fill:url(#SVGID_11_);}
	.st12{fill:url(#SVGID_12_);}
	.st13{fill:url(#SVGID_13_);}
	.st14{fill:url(#SVGID_14_);}
	.st15{fill:url(#SVGID_15_);}
</style>
<g>
	<path class="st0" d="M63.8,25.1c-0.1,0.1-0.2,0.2-0.2,0.2c-0.2,0.2-0.1,0.5-0.1,0.5V30v0.6h0.9h1.3c0,0,0.5-0.1,0.8-0.3
		c0.3-0.3,0.3-0.7,0.3-0.7s0-3.2,0-4.3c0-0.2,0-0.3,0-0.4c-0.5,0-2.2,0-2.2,0S64.1,25,63.8,25.1z"/>
	<path class="st0" d="M90.1,28.2v0.5v0.8c0,0.2,0.1,0.5,0.2,0.8c0.1,0.2,0.2,0.4,0.5,0.5c0.2,0.2,0.5,0.2,1,0.2
		c0.3,0,0.6-0.1,0.9-0.2c0.2-0.1,0.4-0.2,0.5-0.4s0.2-0.4,0.2-0.6l0.1-0.6v-0.9C92.2,28.2,91.1,28.2,90.1,28.2z"/>
	<path class="st0" d="M23,30.7H24h1.2c0,0,0.5-0.1,0.8-0.3c0.3-0.3,0.3-0.7,0.3-0.7s0-2,0-3.4c-1.1,0.5-2.2,0.9-3.3,1.2V30V30.7z"/>
	
		<linearGradient id="SVGID_1_" gradientUnits="userSpaceOnUse" x1="113.0204" y1="-1843.7977" x2="113.0204" y2="-1866.4447" gradientTransform="matrix(1 0 0 1 0 1881.89)">
		<stop  offset="0" style="stop-color:#1B75BB"/>
		<stop  offset="1" style="stop-color:#26A9E0"/>
	</linearGradient>
	<path class="st1" d="M118.1,23.1l0.3-1.9h-1.5c-0.9,0.5-1.9,1-2.9,1.6c-2.4,1.2-4.8,2.2-7.1,3c0.1,0.9,0.9,1.6,1.8,1.6h4.6
		l-0.5,2.8l2.8-2.8h3.6V22L118.1,23.1z"/>
	
		<linearGradient id="SVGID_2_" gradientUnits="userSpaceOnUse" x1="109.5679" y1="-1847.3447" x2="109.5679" y2="-1866.3445" gradientTransform="matrix(1 0 0 1 0 1881.89)">
		<stop  offset="0" style="stop-color:#1B75BB"/>
		<stop  offset="1" style="stop-color:#26A9E0"/>
	</linearGradient>
	<path class="st2" d="M115.6,27.5l-2.8,2.8l0.5-2.8h-4.6c-0.9,0-1.6-0.7-1.8-1.6c0-0.1,0-0.2,0-0.2v-4v-6.2h-0.6h-4.1
		c-1.2,0-2.3,1-2.3,2.3v5v4.8v4.6c0,1.2,1,2.3,2.3,2.3h5.9l-0.7,3.6l3.6-3.6h5.8c1.2,0,2.3-1,2.3-2.3V28v-0.6L115.6,27.5L115.6,27.5
		z"/>
	
		<linearGradient id="SVGID_3_" gradientUnits="userSpaceOnUse" x1="111.8954" y1="-1843.7977" x2="111.8954" y2="-1866.4448" gradientTransform="matrix(1 0 0 1 0 1881.89)">
		<stop  offset="0" style="stop-color:#1B75BB"/>
		<stop  offset="1" style="stop-color:#26A9E0"/>
	</linearGradient>
	<path class="st3" d="M106.9,25.7c0,0.1,0,0.2,0,0.2c2.3-0.8,4.7-1.8,7.1-3c1-0.5,2-1.1,2.9-1.6h-1.6c-0.6,0-1.2-0.5-1.2-1.2v-0.1
		c-2.3,0.5-4.7,1.1-7.3,1.6L106.9,25.7L106.9,25.7z"/>
	
		<linearGradient id="SVGID_4_" gradientUnits="userSpaceOnUse" x1="110.6154" y1="-1843.798" x2="110.6154" y2="-1866.4445" gradientTransform="matrix(1 0 0 1 0 1881.89)">
		<stop  offset="0" style="stop-color:#1B75BB"/>
		<stop  offset="1" style="stop-color:#26A9E0"/>
	</linearGradient>
	<path class="st4" d="M114.3,20.1v-4.7H107v6.2C109.5,21.2,111.9,20.6,114.3,20.1z"/>
	
		<linearGradient id="SVGID_5_" gradientUnits="userSpaceOnUse" x1="114.339" y1="-1894.2079" x2="114.339" y2="-1784.4132" gradientTransform="matrix(1 0 0 1 0 1881.89)">
		<stop  offset="0" style="stop-color:#8AC9EE"/>
		<stop  offset="1" style="stop-color:#77B9E5"/>
	</linearGradient>
	<path class="st5" d="M119.9,21.3l-0.7,0.7l-1.1,1.1l0.3-1.9H117h-1.6c-0.6,0-1.2-0.5-1.2-1.2V20v-4.6v-2.6v-0.1h-0.6h-5
		c-1,0-1.8,0.8-1.8,1.8v0.9v6.2v4c0,0.1,0,0.2,0,0.2c0.1,0.9,0.9,1.6,1.8,1.6h4.6l-0.5,2.8l2.8-2.8h3.6h0.9c1,0,1.8-0.8,1.8-1.8
		v-3.8v-0.6L119.9,21.3L119.9,21.3L119.9,21.3z"/>
	
		<linearGradient id="SVGID_6_" gradientUnits="userSpaceOnUse" x1="118.0629" y1="-1868.5956" x2="118.0629" y2="-1854.9182" gradientTransform="matrix(1 0 0 1 0 1881.89)">
		<stop  offset="0" style="stop-color:#8AC9EE"/>
		<stop  offset="1" style="stop-color:#77B9E5"/>
	</linearGradient>
	<path class="st6" d="M114.3,15.4h5v3.3c0.9-0.3,1.8-0.5,2.6-0.9v-5.1h-7.6v0.1V15.4L114.3,15.4z"/>
	
		<linearGradient id="SVGID_7_" gradientUnits="userSpaceOnUse" x1="116.7441" y1="-1843.7972" x2="116.7441" y2="-1866.4445" gradientTransform="matrix(1 0 0 1 0 1881.89)">
		<stop  offset="0" style="stop-color:#1B75BB"/>
		<stop  offset="1" style="stop-color:#26A9E0"/>
	</linearGradient>
	<path class="st7" d="M114.3,15.4V20c1.7-0.5,3.4-0.9,5-1.4v-3.2H114.3z"/>
	
		<linearGradient id="SVGID_8_" gradientUnits="userSpaceOnUse" x1="116.7441" y1="-1868.5952" x2="116.7441" y2="-1854.9174" gradientTransform="matrix(1 0 0 1 0 1881.89)">
		<stop  offset="0" style="stop-color:#8AC9EE"/>
		<stop  offset="1" style="stop-color:#77B9E5"/>
	</linearGradient>
	<path class="st8" d="M114.3,15.4V20c1.7-0.5,3.4-0.9,5-1.4v-3.2H114.3z"/>
	
		<linearGradient id="SVGID_9_" gradientUnits="userSpaceOnUse" x1="119.1491" y1="-1902.7424" x2="119.1491" y2="-1843.7095" gradientTransform="matrix(1 0 0 1 0 1881.89)">
		<stop  offset="0" style="stop-color:#C6DEF0"/>
		<stop  offset="1" style="stop-color:#9DD1EE"/>
	</linearGradient>
	<path class="st9" d="M122.9,11.6h-7.4c-0.6,0-1.2,0.5-1.2,1.1v0.1v2.6V20v0.1c0,0.6,0.5,1.2,1.2,1.2h1.6h1.5l-0.3,1.9l1.1-1.1
		l0.7-0.7h1.9h1c0.6,0,1.2-0.5,1.2-1.2v-3.1v-0.9v-3.4C124,12.2,123.6,11.6,122.9,11.6z"/>
	
		<linearGradient id="SVGID_10_" gradientUnits="userSpaceOnUse" x1="84.9366" y1="-1847.7899" x2="84.9366" y2="-1866.6421" gradientTransform="matrix(1 0 0 1 0 1881.89)">
		<stop  offset="0" style="stop-color:#1B75BB"/>
		<stop  offset="1" style="stop-color:#26A9E0"/>
	</linearGradient>
	<path class="st10" d="M73.1,24.1v1.2v9h3.6v-8.8V25v-4.1v-0.7c0-0.2,0.1-0.5,0.2-0.7c0.1-0.2,0.2-0.4,0.5-0.5
		c0.2-0.2,0.5-0.2,0.9-0.2c0.4,0,0.6,0.1,0.9,0.2c0.2,0.1,0.4,0.2,0.5,0.4c0.1,0.2,0.2,0.4,0.2,0.6l0.1,0.6v4.3v1.6v7.8h3.6v-6.9
		v-2.7v-4l0.1-0.6c0.1-0.2,0.2-0.4,0.2-0.6c0.1-0.2,0.2-0.3,0.5-0.5c0.2-0.2,0.5-0.2,0.8-0.2c0.4,0,0.7,0.1,0.9,0.2
		c0.2,0.2,0.4,0.3,0.5,0.5c0.1,0.2,0.2,0.5,0.2,0.7V21v3.4v1.2v2.1v0.2v1.7c0,0.9,0.2,1.6,0.5,2.2s0.7,1.2,1.2,1.6
		c0.5,0.4,1.1,0.7,1.7,0.9c0.6,0.2,1.2,0.3,1.9,0.3c0.5,0,1-0.1,1.6-0.2c0,0.5,0,1.6,0,1.6c0,0.4-0.2,0.7-0.4,1s-0.6,0.5-1.2,0.5
		h-0.3h-0.1c-0.7,0-0.9,0.1-1.4,0.2c-0.5,0.2-1.2,0.5-1.7,1c-0.3,0.2-0.5,0.5-0.7,0.9l-0.7,1.5h4.6h0.3c0.7,0,1.3-0.2,1.9-0.4
		s1.2-0.6,1.6-1.1c0.5-0.5,0.9-1,1.2-1.6c0.3-0.6,0.4-1.3,0.4-2V28v-4.7v-7.8h-3.6v8.1v4.5v0.9l-0.1,0.6c-0.1,0.2-0.2,0.4-0.2,0.6
		c-0.1,0.2-0.2,0.3-0.5,0.4c-0.2,0.1-0.5,0.2-0.9,0.2c-0.5,0-0.8-0.1-1-0.2c-0.2-0.2-0.4-0.3-0.5-0.5c-0.1-0.2-0.2-0.5-0.2-0.8v-0.8
		V28v-0.5v-2.1V24v-3.1c0-0.9-0.1-1.6-0.2-2.2c-0.2-0.6-0.5-1.3-1.2-2c-0.5-0.5-1.1-0.9-1.8-1.2c-0.7-0.2-1.4-0.3-2-0.3
		c-0.8,0-1.5,0.2-2,0.4c-0.5,0.2-0.9,0.5-1.3,0.8c-0.5-0.4-0.9-0.7-1.5-0.9c-0.6-0.2-1.2-0.3-1.9-0.3c-0.8,0-1.6,0.2-2.2,0.5
		c-0.6,0.3-1.2,0.7-1.6,1.2c-0.5,0.5-0.8,1.1-1,1.7c-0.2,0.6-0.3,1.5-0.3,2.5C73.1,21,73.1,24.1,73.1,24.1z"/>
	
		<linearGradient id="SVGID_11_" gradientUnits="userSpaceOnUse" x1="41.3378" y1="-1847.79" x2="41.3378" y2="-1866.6421" gradientTransform="matrix(1 0 0 1 0 1881.89)">
		<stop  offset="0" style="stop-color:#1B75BB"/>
		<stop  offset="1" style="stop-color:#26A9E0"/>
	</linearGradient>
	<path class="st11" d="M49.5,18.8c-0.2-0.6-0.5-1.3-1.2-2c-0.5-0.5-1.1-0.9-1.8-1.2c-0.7-0.3-1.3-0.4-1.9-0.4c-0.8,0-1.5,0.2-2,0.4
		s-0.9,0.5-1.3,0.8c-0.5-0.4-0.9-0.7-1.5-0.9c-0.7-0.2-1.4-0.3-1.9-0.3c-0.8,0-1.6,0.2-2.2,0.5c-0.6,0.3-1.2,0.7-1.6,1.2
		c-0.5,0.5-0.8,1.1-1,1.7c-0.2,0.6-0.3,1.5-0.3,2.5v2.4v0.4v10.5h3.6V24.2v-2.1v-1v-0.7c0-0.2,0.1-0.5,0.2-0.7
		c0.1-0.2,0.2-0.4,0.5-0.5c0.2-0.2,0.5-0.2,0.9-0.2c0.4,0,0.6,0.1,0.9,0.2c0.2,0.1,0.4,0.2,0.5,0.4c0.1,0.2,0.2,0.4,0.2,0.6l0.1,0.6
		v0.5v3.4v9.9h3.6v-9.8v-4.1l0.1-0.5v-0.2c0.1-0.2,0.2-0.4,0.2-0.6c0.1-0.2,0.2-0.3,0.5-0.5c0.2-0.2,0.5-0.2,0.8-0.2
		c0.4,0,0.7,0.1,0.9,0.2c0.2,0.2,0.4,0.3,0.5,0.5c0,0.1,0,0.1,0.1,0.2c0.1,0.2,0.1,0.4,0.2,0.5V21v3.9v9.3h3.6v-9.1V21
		c0-0.6-0.1-1.2-0.2-1.7C49.6,19.1,49.6,18.9,49.5,18.8z"/>
	
		<linearGradient id="SVGID_12_" gradientUnits="userSpaceOnUse" x1="14.8062" y1="-1847.79" x2="14.8062" y2="-1866.6421" gradientTransform="matrix(1 0 0 1 0 1881.89)">
		<stop  offset="0" style="stop-color:#1B75BB"/>
		<stop  offset="1" style="stop-color:#26A9E0"/>
	</linearGradient>
	<path class="st12" d="M22.8,11.9c-0.2-0.3-0.4-0.6-0.7-0.9c-0.5-0.5-1.2-0.9-1.7-1c-0.5-0.1-1.2-0.2-1.8-0.2h-2.2h-3H6.2l0.6,1.3
		C7,11.5,7.2,11.8,7.5,12c0.6,0.5,1.2,0.9,1.7,1c0.5,0.2,3.1,0.2,3.8,0.2c0,0.2,0,3.3,0,7.2c0,3.1,0,6.6,0,9.2s0,4.6,0,4.6h3.6
		c0,0,0-2.2,0-5c0-2.4,0-5.3,0-8c0-4.2,0-7.8,0-8c0.5,0,6.8,0,6.8,0L22.8,11.9z"/>
	
		<linearGradient id="SVGID_13_" gradientUnits="userSpaceOnUse" x1="54.8366" y1="-1847.79" x2="54.8366" y2="-1866.6421" gradientTransform="matrix(1 0 0 1 0 1881.89)">
		<stop  offset="0" style="stop-color:#1B75BB"/>
		<stop  offset="1" style="stop-color:#26A9E0"/>
	</linearGradient>
	<path class="st13" d="M62.1,12c0.3-0.2,0.5-0.5,0.7-0.9l0.6-1.3h-7.1h-3H51c-0.7,0-1.2,0.1-1.8,0.2c-0.5,0.2-1.2,0.5-1.7,1
		c-0.3,0.2-0.5,0.5-0.7,0.9l-0.6,1.3c0,0,6.4,0,6.8,0c0,0.2,0,2.7,0,6c0,1.9,0,4,0,6c0,4.7,0,9,0,9h3.6c0,0,0-4.3,0-8.9
		c0-2,0-4,0-5.9c0-3.3,0-6,0-6.1c0.7,0,3.3-0.1,3.8-0.2C61,12.9,61.6,12.6,62.1,12z"/>
	
		<linearGradient id="SVGID_14_" gradientUnits="userSpaceOnUse" x1="65.1544" y1="-1847.778" x2="65.1544" y2="-1866.63" gradientTransform="matrix(1 0 0 1 0 1881.89)">
		<stop  offset="0" style="stop-color:#1B75BB"/>
		<stop  offset="1" style="stop-color:#26A9E0"/>
	</linearGradient>
	<path class="st14" d="M68.8,16.6c-0.5-0.5-1-0.8-1.6-1.1c-0.6-0.2-1.3-0.4-1.9-0.4h-0.3h-4.6l0.7,1.5c0.2,0.3,0.4,0.6,0.7,0.9
		c0.5,0.5,1.2,0.9,1.7,1c0.5,0.2,0.8,0.2,1.4,0.2h0.1h0.3c0.6,0,1,0.2,1.2,0.5c0.2,0.3,0.4,0.7,0.4,1c0,0,0,0.6,0,1.2l0,0v0.2
		c-0.5,0-2.3,0-2.3,0c-0.9,0-1.6,0.2-2.2,0.4c-0.7,0.3-1.2,0.7-1.6,1.1c-0.3,0.4-0.5,0.9-0.7,1.3C60,24.7,60,25,60,25.3
		c0,0.1,0,0.2,0,0.3v4.8c0,0.9,0.4,1.8,1.2,2.6c0.8,0.8,1.9,1.2,3.2,1.2h1.1c1.2,0,2.2-0.2,2.9-0.8c0.6-0.5,1.2-1.1,1.5-1.9
		c0.3-0.7,0.5-1.6,0.5-2.4l0.1-2.3v-1.6v-2.6v-2.5c0-0.7-0.2-1.4-0.4-2C69.7,17.6,69.3,17.1,68.8,16.6z M66.8,25.4
		c0,1.2,0,4.3,0,4.3s0,0.3-0.3,0.7c-0.2,0.2-0.8,0.3-0.8,0.3h-1.3h-0.9v-0.6v-4.2c0,0,0-0.2,0.1-0.5c0.1-0.1,0.1-0.2,0.2-0.2
		c0.3-0.2,0.8-0.2,0.8-0.2s1.8,0,2.2,0C66.8,25.1,66.8,25.1,66.8,25.4z"/>
	
		<linearGradient id="SVGID_15_" gradientUnits="userSpaceOnUse" x1="24.8914" y1="-1847.778" x2="24.8914" y2="-1866.63" gradientTransform="matrix(1 0 0 1 0 1881.89)">
		<stop  offset="0" style="stop-color:#1B75BB"/>
		<stop  offset="1" style="stop-color:#26A9E0"/>
	</linearGradient>
	<path class="st15" d="M28.3,16.6c-0.5-0.5-1-0.8-1.6-1.1c-0.6-0.2-1.3-0.4-1.9-0.4h-0.3h-4.6l0.7,1.6c0.2,0.3,0.4,0.6,0.7,0.9
		c0.5,0.5,1.2,0.9,1.7,1c0.5,0.2,0.8,0.2,1.4,0.2h0.1h0.3c0.6,0,1,0.2,1.2,0.5c0.2,0.3,0.4,0.7,0.4,1c0,0,0,0.6,0,1.2v0.2
		c-0.5,0-2.3,0-2.3,0c-0.9,0-1.6,0.2-2.2,0.4c-0.1,0-0.2,0.1-0.2,0.1c-0.5,0.2-0.9,0.5-1.2,0.9c-0.3,0.4-0.5,0.9-0.7,1.3
		c-0.2,0.5-0.2,0.9-0.2,1.2v2.9v1.9c0,0.9,0.4,1.8,1.2,2.6s1.9,1.2,3.2,1.2h1.1c1.2,0,2.2-0.2,2.9-0.8c0.6-0.5,1.2-1.1,1.5-1.9
		c0.3-0.7,0.5-1.6,0.5-2.4l0.1-2.3v-2.2v-1.3v-3.1c0-0.7-0.2-1.4-0.4-2C29.2,17.6,28.8,17.1,28.3,16.6z M26.3,26.2
		c0,1.4,0,3.4,0,3.4s0,0.3-0.3,0.7c-0.2,0.2-0.8,0.3-0.8,0.3h-1.3H23V30v-2.6v-1.6c0,0,0-0.5,0.3-0.7C23.6,24.9,24,25,24,25
		s1.8,0,2.2,0C26.3,25.1,26.3,25.6,26.3,26.2z"/>
</g>
</svg>
