<?xml version="1.0" encoding="UTF-8"?>
<svg width="80px" height="80px" viewBox="0 0 80 80" version="1.1" xmlns="http://www.w3.org/2000/svg" xmlns:xlink="http://www.w3.org/1999/xlink">
    <!-- Generator: Sketch 51.1 (57501) - http://www.bohemiancoding.com/sketch -->
    <title>icobig/digital_bank</title>
    <desc>Created with Sketch.</desc>
    <defs></defs>
    <g id="icobig/digital_bank" stroke="none" stroke-width="1" fill="none" fill-rule="evenodd">
        <rect id="Rectangle-path" fill="#FFFFFF" fill-rule="nonzero" opacity="0" x="0" y="0" width="80" height="80"></rect>
        <path d="M7.77777778,14.541 L7.77777778,55.9906667 L72.2222222,55.9906667 L72.2222222,14.541 L7.77777778,14.541 Z M70,53.7684444 L10,53.7684444 L10,16.7632222 L70,16.7632222 L70,53.7684444 Z" id="Shape" fill="#F36F20" fill-rule="nonzero"></path>
        <polygon id="Shape" fill="#F36F20" fill-rule="nonzero" points="46.5211111 60.5311111 46.5211111 57.5844444 44.2988889 57.5844444 44.2988889 60.5311111 37.0533333 60.5311111 37.0533333 57.5844444 34.8311111 57.5844444 34.8311111 60.5311111 27.3655556 60.5311111 24.3344444 63.5622222 25.9055556 65.1333333 28.2855556 62.7533333 53.0666667 62.7533333 55.4455556 65.1333333 57.0166667 63.5622222 53.9866667 60.5311111"></polygon>
        <polygon id="Shape" fill="#F36F20" fill-rule="nonzero" points="40.0066667 21.6688889 57.2255556 29.1755556 57.7777778 27.9077778 40.0077778 20.1611111 22.2222222 27.8733333 22.7722222 29.1422222"></polygon>
        <rect id="Rectangle-path" fill="#F36F20" fill-rule="nonzero" x="23.2546444" y="30.8767222" width="33.4831222" height="1.38344444"></rect>
        <rect id="Rectangle-path" fill="#F36F20" fill-rule="nonzero" x="23.3892" y="47.6182778" width="33.2063444" height="1.38344444"></rect>
        <path d="M34.9663222,46.0221111 L34.9761,36.1295556 C34.9772966,34.9070426 33.9872241,33.91503 32.7647111,33.9138333 C31.5421981,33.9126367 30.5501855,34.9027092 30.5489889,36.1252222 L30.5393222,46.0177778 L31.9237667,46.0188889 L31.9325444,36.1273333 C31.9328513,35.6689063 32.3047285,35.2975265 32.7631556,35.2978333 C33.2215826,35.2981402 33.5929624,35.6700174 33.5926556,36.1284444 L33.5828778,46.021 L34.9663222,46.0221111 Z" id="Shape" fill="#F36F20" fill-rule="nonzero"></path>
        <path d="M27.7376556,46.0221111 L27.7474333,36.1295556 C27.7486299,34.9070426 26.7585574,33.91503 25.5360444,33.9138334 C24.3135315,33.9126368 23.3215189,34.9027093 23.3203222,36.1252222 L23.3105444,46.0177778 L24.6939889,46.0188889 L24.7037667,36.1273333 C24.7040735,35.6689063 25.0759508,35.2975265 25.5343778,35.2978333 C25.9928048,35.2981402 26.3641846,35.6700174 26.3638778,36.1284444 L26.3542111,46.021 L27.7376556,46.0221111 Z" id="Shape" fill="#F36F20" fill-rule="nonzero"></path>
        <path d="M42.1962111,46.0286667 L42.2059889,36.1361111 C42.2047232,34.915034 41.2151228,33.925491 39.9940456,33.9242961 C38.7729685,33.9231012 37.7814333,34.9107055 37.7777778,36.1317778 L37.7691,46.0243333 L39.1525444,46.0254444 L39.1623222,36.1338889 C39.162629,35.6754619 39.5345063,35.3040821 39.9929333,35.3043889 C40.4513604,35.3046957 40.8227402,35.676573 40.8224333,36.135 L40.8126556,46.0275556 L42.1962111,46.0286667 Z" id="Shape" fill="#F36F20" fill-rule="nonzero"></path>
        <path d="M49.4248778,46.0351111 L49.4346556,36.1425556 C49.4352312,35.3517283 49.0138617,34.6206667 48.3292731,34.2247546 C47.6446844,33.8288425 46.8008817,33.8282284 46.1157175,34.2231435 C45.4305532,34.6180587 45.00812,35.3485061 45.0075444,36.1393333 L44.9977778,46.0307778 L46.3813222,46.033 L46.3911111,36.1404444 C46.3912897,35.8438961 46.5496614,35.5699695 46.8065691,35.4218501 C47.0634768,35.2737306 47.3798901,35.2739212 47.6366191,35.4223501 C47.8933482,35.5707789 48.0513897,35.8448961 48.0512111,36.1414444 L48.0414333,46.0341111 L49.4248778,46.0351111 Z" id="Shape" fill="#F36F20" fill-rule="nonzero"></path>
        <path d="M54.4531,33.9268889 C53.2306074,33.9267162 52.2390398,34.9168418 52.2374333,36.1393333 L52.2276556,46.0307778 L53.6111111,46.033 L53.6208778,36.1404444 C53.6199844,35.8433568 53.7780286,35.5684723 54.035226,35.4197733 C54.2924233,35.2710743 54.6095029,35.2712654 54.8665208,35.4202743 C55.1235387,35.5692832 55.2812515,35.8443581 55.28,36.1414444 L55.2712111,46.0341111 L56.6547667,46.0351111 L56.6634333,36.1425556 C56.6638221,34.9207972 55.6748558,33.9294445 54.4531,33.9268889 Z" id="Shape" fill="#F36F20" fill-rule="nonzero"></path>
    </g>
</svg>